Division,WeightClassKg,Place,Name,Team,BodyweightKg,Best3SquatKg,Best3BenchKg,Best3DeadliftKg,TotalKg,Equipment,Event,Sex
Boys,51.71,1,Talon Romero,Amarillo Highland Park,50.8,117.93,81.65,133.81,333.39,Single-ply,SBD,M
Boys,51.71,2,Vincenzo Mesza,Bovina,51.39,131.54,65.77,131.54,328.85,Single-ply,SBD,M
Boys,51.71,3,Evan Paez,Muleshoe,51.44,104.33,68.04,145.15,317.51,Single-ply,SBD,M
Boys,51.71,4,Josh Chavarria,Floydada,51.07,95.25,56.7,108.86,260.82,Single-ply,SBD,M
Boys,51.71,5,Carlitos Lira,Dalhart,49.35,83.91,61.23,111.13,256.28,Single-ply,SBD,M
Boys,51.71,6,Keyvan Constantino,Whiteface,49.62,83.91,56.7,113.4,254.01,Single-ply,SBD,M
Boys,51.71,7,Nathan Shadle,Clarendon,49.71,74.84,47.63,104.33,226.8,Single-ply,SBD,M
Boys,51.71,8,Andre Hernandez,Plainview,45.45,72.57,52.16,83.91,208.65,Single-ply,SBD,M
Boys,51.71,DQ,Mario Hernandez,Friona,51.26,83.91,,,,Single-ply,SBD,M
Boys,59.87,1,Efren Miranda,Levelland,56.02,124.74,58.97,136.08,319.78,Single-ply,SBD,M
Boys,55.79,2,Kordell Lawerence,Dalhart,53.8,122.47,52.16,127.01,301.64,Single-ply,SBD,M
Boys,55.79,3,Billy Lee,Amarillo Highland Park,55.43,104.33,68.04,129.27,301.64,Single-ply,SBD,M
Boys,55.79,4,Chris Zuniga,Plainview,54.07,95.25,47.63,106.59,249.48,Single-ply,SBD,M
Boys,55.79,5,Patrick Pickens,Sunray,55.34,83.91,52.16,90.72,226.8,Single-ply,SBD,M
Boys,55.79,6,Jaime Mendoza,Whiteface,54.16,74.84,38.56,92.99,206.38,Single-ply,SBD,M
Boys,55.79,DQ,Tyler Saldana,Floydada,53.52,,,,,Single-ply,SBD,M
Boys,59.87,DQ,Michael Crone,Floydada,55.97,92.99,,,,Single-ply,SBD,M
Boys,59.87,1,Hector Bustillos,Sunray,58.06,149.69,77.11,170.1,396.89,Single-ply,SBD,M
Boys,59.87,2,Zachary Salazar,Lamesa,57.97,131.54,88.45,158.76,378.75,Single-ply,SBD,M
Boys,59.87,3,Matthew Gallegos,Plainview,58.97,136.08,72.57,151.95,360.61,Single-ply,SBD,M
Boys,59.87,4,Emilio Miranda,Levelland,58.79,140.61,61.23,151.95,353.8,Single-ply,SBD,M
Boys,59.87,5,Francisco Elizalde,Muleshoe,59.33,108.86,97.52,136.08,342.46,Single-ply,SBD,M
Boys,59.87,6,Diego Rodriguez,Dimmitt,58.51,117.93,79.38,138.35,335.66,Single-ply,SBD,M
Boys,59.87,7,Zack Sellinger,Amarillo Highland Park,59.15,113.4,54.43,149.69,317.51,Single-ply,SBD,M
Boys,59.87,8,Bryan de la Torre,Bovina,59.6,108.86,61.23,120.2,290.3,Single-ply,SBD,M
Boys,59.87,9,Matthew Thompson #8,Lamesa,59.15,108.86,56.7,120.2,285.76,Single-ply,SBD,M
Boys,59.87,10,Alex Alcantar,Sunray,58.97,104.33,56.7,117.93,278.96,Single-ply,SBD,M
Boys,59.87,11,Alex Licerio,Friona,57.61,97.52,56.7,108.86,263.08,Single-ply,SBD,M
Boys,59.87,DQ,Esteban Fierro,Plainview,59.87,,,,,Single-ply,SBD,M
Boys,59.87,DQ,Rafael Castillo,Whiteface,58.69,68.04,,,,Single-ply,SBD,M
Boys,67.13,1,Steven Anna,Plains,66.22,136.08,88.45,151.95,376.48,Single-ply,SBD,M
Boys,67.13,2,Juan Macias-Martinez,Friona,65.77,131.54,83.91,154.22,369.68,Single-ply,SBD,M
Boys,67.13,3,Daniel Patterson #1,Sunray,63.96,138.35,74.84,151.95,365.14,Single-ply,SBD,M
Boys,67.13,4,Alex Marrufo,Bovina,64.41,113.4,81.65,154.22,349.27,Single-ply,SBD,M
Boys,67.13,5,Estevan Gonzales,Dimmitt,66.41,120.2,61.23,156.49,337.93,Single-ply,SBD,M
Boys,67.13,6,Alex Pena,Dimmitt,66.22,122.47,77.11,136.08,335.66,Single-ply,SBD,M
Boys,67.13,7,Jorge Martinez,Dimmitt,63.14,120.2,72.57,136.08,328.85,Single-ply,SBD,M
Boys,67.13,8,Ezequiel Torres #1,Floydada,65.95,108.86,83.91,120.2,312.98,Single-ply,SBD,M
Boys,67.13,9,Chris Chavarria,Floydada,64.77,113.4,61.23,136.08,310.71,Single-ply,SBD,M
Boys,67.13,10,Kyle Branson,Lamesa,63.14,102.06,61.23,136.08,299.37,Single-ply,SBD,M
Boys,67.13,11,Donald Gibbens,Floydada,62.87,92.99,74.84,104.33,272.16,Single-ply,SBD,M
Boys,67.13,12,Michael Flores #2,Lamesa,64.41,108.86,56.7,104.33,269.89,Single-ply,SBD,M
Boys,67.13,13,Pedro Salazar,Bovina,66.54,86.18,77.11,104.33,267.62,Single-ply,SBD,M
Boys,67.13,14,Zeke Bermea,Levelland,66.59,106.59,61.23,95.25,263.08,Single-ply,SBD,M
Boys,67.13,DQ,Grant Smith,Levelland,66.68,97.52,,,,Single-ply,SBD,M
Boys,67.13,DQ,Charlie Rodriguez,Plainview,65.41,,,,,Single-ply,SBD,M
Boys,67.13,DQ,Joseph Jaramillo,Clarendon,65.59,158.76,,,,Single-ply,SBD,M
Boys,67.13,DQ,Isreal Espinoza,Bovina,63.14,,,,,Single-ply,SBD,M
Boys,67.13,DQ,Kevin Guevara,Bovina,66.81,113.4,,,,Single-ply,SBD,M
Boys,74.84,1,Jarric Weber,Borger,71.03,185.97,120.2,208.65,514.83,Single-ply,SBD,M
Boys,74.84,2,Marcus Ruff,Whiteface,74.39,195.04,115.67,195.04,505.76,Single-ply,SBD,M
Boys,74.84,3,Rolando Gill,Plainview,73.3,174.63,102.06,190.51,467.2,Single-ply,SBD,M
Boys,74.84,4,Fabian Honesto,Whiteface,72.57,158.76,97.52,181.44,437.72,Single-ply,SBD,M
Boys,74.84,5,Ethan Brotherton,Sunray,69.4,165.56,92.99,176.9,435.45,Single-ply,SBD,M
Boys,74.84,6,Tyler Hastings,Levelland,74.75,174.63,102.06,158.76,435.45,Single-ply,SBD,M
Boys,74.84,7,Noah Martinez #1,Dalhart,74.75,158.76,92.99,161.03,412.77,Single-ply,SBD,M
Boys,74.84,8,Emilio Espinoza,Bovina,73.03,136.08,90.72,181.44,408.23,Single-ply,SBD,M
Boys,74.84,9,Devin Novak,Amarillo Highland Park,72.39,136.08,79.38,154.22,369.68,Single-ply,SBD,M
Boys,74.84,10,Alvaro Gardea,Friona,74.84,151.95,68.04,140.61,360.61,Single-ply,SBD,M
Boys,74.84,11,Marco Sanchez,Bovina,74.66,120.2,81.65,156.49,358.34,Single-ply,SBD,M
Boys,74.84,12,Braxton Brogdon,Amarillo River Road,70.31,120.2,86.18,142.88,349.27,Single-ply,SBD,M
Boys,74.84,13,Cody Alexander,Dalhart,71.76,115.67,61.23,138.35,315.25,Single-ply,SBD,M
Boys,74.84,14,Nick Shadle,Clarendon,67.95,108.86,72.57,115.67,297.1,Single-ply,SBD,M
Boys,74.84,15,Colton Ingle,Amarillo River Road,70.31,83.91,83.91,124.74,292.57,Single-ply,SBD,M
Boys,74.84,DQ,Josh Salazar,Levelland,69.76,,,,,Single-ply,SBD,M
Boys,82.1,1,Tyler Baker,Borger,78.83,174.63,124.74,208.65,508.02,Single-ply,SBD,M
Boys,82.1,2,Zach Denny,Kermit,82.01,192.78,108.86,204.12,505.76,Single-ply,SBD,M
Boys,82.1,3,Jaiden Puga,Dalhart,79.2,165.56,117.93,176.9,460.4,Single-ply,SBD,M
Boys,82.1,4,Rene Rodriguez,Friona,75.75,163.29,111.13,170.1,444.52,Single-ply,SBD,M
Boys,82.1,5,Draven Martinez,Lamesa,78.29,158.76,92.99,190.51,442.25,Single-ply,SBD,M
Boys,82.1,6,Austin Powell,Plainview,78.56,167.83,97.52,165.56,430.91,Single-ply,SBD,M
Boys,82.1,7,Mario Lechuga,Sunray,79.38,163.29,79.38,188.24,430.91,Single-ply,SBD,M
Boys,82.1,8,Carlos Hinojosa,Lamesa,80.2,170.1,88.45,163.29,421.84,Single-ply,SBD,M
Boys,82.1,9,Cesar Calderon,Sunray,81.65,158.76,92.99,158.76,410.5,Single-ply,SBD,M
Boys,82.1,10,Reyes Lujan,Dalhart,79.38,142.88,102.06,158.76,403.7,Single-ply,SBD,M
Boys,82.1,11,Carlos Hernandez #9,Muleshoe,80.47,142.88,70.31,181.44,394.63,Single-ply,SBD,M
Boys,82.1,12,Taylor McClellan,Borger,82.01,151.95,83.91,142.88,378.75,Single-ply,SBD,M
Boys,82.1,13,Dominik Hasley,Muleshoe,81.56,142.88,63.5,163.29,369.68,Single-ply,SBD,M
Boys,82.1,14,Ceasar Olivares,Muleshoe,81.83,127.01,86.18,156.49,369.68,Single-ply,SBD,M
Boys,82.1,15,Charles Stallings,Kermit,80.1,136.08,70.31,154.22,360.61,Single-ply,SBD,M
Boys,82.1,16,Joseph Morrison,Amarillo Highland Park,80.47,117.93,81.65,154.22,353.8,Single-ply,SBD,M
Boys,82.1,17,Dat Luu,Amarillo Highland Park,75.66,113.4,77.11,149.69,340.19,Single-ply,SBD,M
Boys,82.1,18,Blake Parker,Muleshoe,80.83,92.99,77.11,136.08,306.17,Single-ply,SBD,M
Boys,82.1,19,Callon Belcher,Dalhart,76.66,68.04,61.23,136.08,265.35,Single-ply,SBD,M
Boys,82.1,DQ,Mason Hollaway,Sunray,81.19,147.42,,,,Single-ply,SBD,M
Boys,89.81,1,Cris Stallings,Kermit,84.55,219.99,151.95,213.19,585.13,Single-ply,SBD,M
Boys,89.81,2,Miguel Rangel,Borger,89.45,208.65,133.81,219.99,562.45,Single-ply,SBD,M
Boys,89.81,3,Courtney Gravely,Amarillo Highland Park,86.09,185.97,122.47,208.65,517.1,Single-ply,SBD,M
Boys,89.81,4,Juan Samarron,Friona,88.45,174.63,113.4,188.24,476.27,Single-ply,SBD,M
Boys,89.81,5,Zack Salazar,Levelland,86.09,154.22,113.4,192.78,460.4,Single-ply,SBD,M
Boys,89.81,6,Larry Iglesias,Lamesa,89.45,165.56,102.06,174.63,442.25,Single-ply,SBD,M
Boys,89.81,7,Fermin Medina,Dimmitt,89.09,151.95,108.86,140.61,401.43,Single-ply,SBD,M
Boys,89.81,8,Wesley Ward,Borger,83.19,142.88,92.99,163.29,399.16,Single-ply,SBD,M
Boys,89.81,9,Leo Montoya,Whiteface,89.27,122.47,92.99,158.76,374.21,Single-ply,SBD,M
Boys,89.81,10,Guillermo Quintana,Friona,89.36,124.74,81.65,120.2,326.59,Single-ply,SBD,M
Boys,89.81,11,Rudy Alvarado,Lamesa,83.91,113.4,61.23,138.35,312.98,Single-ply,SBD,M
Boys,89.81,12,Ryan Ortiz,Dalhart,88.36,113.4,70.31,124.74,308.44,Single-ply,SBD,M
Boys,89.81,13,Juston Christopher,Clarendon,89.63,113.4,72.57,113.4,299.37,Single-ply,SBD,M
Boys,89.81,14,Hector Pando,Plains,89.72,115.67,77.11,104.33,297.1,Single-ply,SBD,M
Boys,89.81,15,Tano Castillo,Whiteface,85.64,95.25,70.31,120.2,285.76,Single-ply,SBD,M
Boys,89.81,DQ,Carson Turner,Floydada,88.63,,,,,Single-ply,SBD,M
Boys,99.79,1,Aaron Chavarria,Floydada,97.25,249.48,158.76,240.4,648.64,Single-ply,SBD,M
Boys,99.79,2,Alex Ayala,Lamesa,99.52,206.38,151.95,219.99,578.33,Single-ply,SBD,M
Boys,99.79,3,Kevin Flores,Sunray,92.99,199.58,122.47,204.12,526.17,Single-ply,SBD,M
Boys,99.79,4,Jacob Harris,Dalhart,97.79,201.85,111.13,201.85,514.83,Single-ply,SBD,M
Boys,99.79,5,Isaiah Marquez #1,Kermit,98.7,197.31,111.13,190.51,498.95,Single-ply,SBD,M
Boys,99.79,6,Tristan Hernandez,Dimmitt,97.61,188.24,113.4,192.78,494.42,Single-ply,SBD,M
Boys,99.79,7,Ezequiel Porras,Borger,99.06,199.58,113.4,154.22,467.2,Single-ply,SBD,M
Boys,99.79,8,Arnulfo Leyva,Kermit,94.89,165.56,102.06,183.7,451.32,Single-ply,SBD,M
Boys,99.79,9,David Bustos,Plainview,92.44,179.17,106.59,163.29,449.06,Single-ply,SBD,M
Boys,99.79,10,Angel Reyes,Plainview,90.72,165.56,117.93,158.76,442.25,Single-ply,SBD,M
Boys,99.79,11,Eric Vela,Dimmitt,97.79,170.1,99.79,172.37,442.25,Single-ply,SBD,M
Boys,99.79,12,Isaac McMikens,Plainview,96.62,158.76,102.06,158.76,419.57,Single-ply,SBD,M
Boys,99.79,13,Jesse Villarreal,Lamesa,93.26,149.69,106.59,149.69,405.97,Single-ply,SBD,M
Boys,99.79,14,Isaiah Lira,Plains,90.17,138.35,79.38,156.49,374.21,Single-ply,SBD,M
Boys,99.79,15,Issac Summerlin,Friona,90.26,142.88,72.57,136.08,351.53,Single-ply,SBD,M
Boys,99.79,16,Patrick Cheney,Amarillo Highland Park,93.26,106.59,77.11,122.47,306.17,Single-ply,SBD,M
Boys,99.79,17,Parker Oliver,Amarillo River Road,95.25,90.72,68.04,129.27,288.03,Single-ply,SBD,M
Boys,99.79,18,Braxton Novak,Amarillo Highland Park,93.53,83.91,83.91,106.59,274.42,Single-ply,SBD,M
Boys,99.79,DQ,Caigon Cook,Amarillo River Road,97.52,,,,,Single-ply,SBD,M
Boys,99.79,DQ,Tj Barnes,Amarillo River Road,97.52,,,,,Single-ply,SBD,M
Boys,99.79,DQ,Luis Rodriguez #6,Friona,92.99,165.56,,,,Single-ply,SBD,M
Boys,109.77,1,Marco Martínez,Kermit,109.04,165.56,92.99,183.7,442.25,Single-ply,SBD,M
Boys,109.77,2,Moses Rodriguez,Lamesa,106.5,172.37,102.06,156.49,430.91,Single-ply,SBD,M
Boys,109.77,3,Dom Velasquez,Amarillo River Road,104.33,145.15,90.72,170.1,405.97,Single-ply,SBD,M
Boys,109.77,4,Felipe Rodriguez,Kermit,103.42,142.88,95.25,151.95,390.09,Single-ply,SBD,M
Boys,109.77,5,Alberto Hinojosa,Lamesa,107.14,145.15,72.57,145.15,362.87,Single-ply,SBD,M
Boys,109.77,6,Adam Cervantes,Lamesa,103.15,142.88,65.77,129.27,337.93,Single-ply,SBD,M
Boys,109.77,7,Alberto Castillo,Whiteface,103.69,108.86,90.72,136.08,335.66,Single-ply,SBD,M
Boys,109.77,8,Mayson Dompe,Borger,103.78,113.4,77.11,136.08,326.59,Single-ply,SBD,M
Boys,109.77,9,Miguel Davila,Friona,104.33,115.67,72.57,124.74,312.98,Single-ply,SBD,M
Boys,109.77,DQ,Cole Byrd,Amarillo River Road,107.5,,,,,Single-ply,SBD,M
Boys,109.77,DQ,Aaron Williams,Sunray,103.42,,,,,Single-ply,SBD,M
Boys,124.74,1,Camillo De La Rosa,Bovina,124.1,219.99,129.27,213.19,562.45,Single-ply,SBD,M
Boys,124.74,2,Scott Martin,Dimmitt,111.13,208.65,117.93,224.53,551.11,Single-ply,SBD,M
Boys,124.74,3,David Rodriguez,Muleshoe,116.12,226.8,117.93,199.58,544.31,Single-ply,SBD,M
Boys,124.74,4,Adriel Flores,Plainview,119.02,213.19,108.86,208.65,530.7,Single-ply,SBD,M
Boys,124.74,5,Damian Rodriguez,Kermit,112.58,195.04,117.93,213.19,526.17,Single-ply,SBD,M
Boys,124.74,6,Joel Salas,Bovina,115.21,181.44,127.01,204.12,512.56,Single-ply,SBD,M
Boys,124.74,7,Jesus Ramos,Kermit,115.21,161.03,106.59,195.04,462.66,Single-ply,SBD,M
Boys,124.74,8,Damian Provencio,Borger,117.12,174.63,102.06,181.44,458.13,Single-ply,SBD,M
Boys,124.74,9,Derek Woods,Kermit,120.29,151.95,92.99,190.51,435.45,Single-ply,SBD,M
Boys,124.74,10,Brandon Tarango,Amarillo Highland Park,116.66,149.69,99.79,183.7,433.18,Single-ply,SBD,M
Boys,124.74,11,Chris Barron,Lamesa,113.94,154.22,106.59,156.49,417.3,Single-ply,SBD,M
Boys,124.74,12,Chris Boroughs,Amarillo River Road,120.2,142.88,97.52,163.29,403.7,Single-ply,SBD,M
Boys,124.74,13,Jesus Benitez,Lamesa,113.13,149.69,86.18,142.88,378.75,Single-ply,SBD,M
Boys,124.74,14,Hayden Southall,Borger,110.22,115.67,83.91,142.88,342.46,Single-ply,SBD,M
Boys,124.74,15,Jack Moore #2,Clarendon,110.4,124.74,68.04,138.35,331.12,Single-ply,SBD,M
Boys,124.74,16,Kole Barrow,Dalhart,118.93,115.67,74.84,131.54,322.05,Single-ply,SBD,M
Boys,124.74,17,Ruben Tijerna,Levelland,111.31,108.86,68.04,136.08,312.98,Single-ply,SBD,M
Boys,124.74,18,William Ortiz,Dalhart,121.2,102.06,65.77,111.13,278.96,Single-ply,SBD,M
Boys,124.74,DQ,Justin Barrera,Dalhart,120.84,,,,,Single-ply,SBD,M
Boys,124.74,DQ,Zach Jones,Dalhart,113.31,,,,,Single-ply,SBD,M
Boys,124.74+,1,Edgar Guerrero,Friona,134.26,317.51,195.04,317.51,830.07,Single-ply,SBD,M
Boys,124.74+,2,Spencer Holsey,Borger,130.36,272.16,151.95,272.16,696.26,Single-ply,SBD,M
Boys,124.74+,3,Santos Jackson,Dimmitt,144.79,244.94,115.67,217.72,578.33,Single-ply,SBD,M
Boys,124.74+,4,Anthony Anzuldua,Dalhart,125.92,183.7,113.4,185.97,483.08,Single-ply,SBD,M
Boys,124.74+,5,Casey Stewart,Dalhart,125.19,183.7,111.13,181.44,476.27,Single-ply,SBD,M
Boys,124.74+,6,Rodrigo Calderon,Sunray,129.27,165.56,92.99,174.63,433.18,Single-ply,SBD,M
Boys,124.74+,7,Hector Martinez,Dalhart,133.81,147.42,104.33,158.76,410.5,Single-ply,SBD,M
