Division,WeightClassKg,Place,Name,Team,BodyweightKg,Best3SquatKg,Best3BenchKg,Best3DeadliftKg,TotalKg,Equipment,Event,Sex
Girls,44.23,1,Kaitlin Reyes,Bishop,43.54,113.4,68.04,124.74,306.17,Single-ply,SBD,F
Girls,44.23,2,Valeria Ramirez,Sonora,43.18,111.13,45.36,115.67,272.16,Single-ply,SBD,F
Girls,44.23,3,Myarae Herrera,Cotulla,44.13,106.59,47.63,102.06,256.28,Single-ply,SBD,F
Girls,44.23,4,Cassandra Gonzalez,San Diego,43.54,102.06,40.82,111.13,254.01,Single-ply,SBD,F
Girls,44.23,5,Jailin Munoz,Lago Vista,42.37,102.06,40.82,97.52,240.4,Single-ply,SBD,F
Girls,44.23,6,Mireya Cantu,Hebbronville,44.18,95.25,40.82,99.79,235.87,Single-ply,SBD,F
Girls,44.23,7,Jessica Paredes,Sonora,43.68,102.06,40.82,90.72,233.6,Single-ply,SBD,F
Girls,44.23,8,Reagan Morris,Alpine,44.09,88.45,43.09,99.79,231.33,Single-ply,SBD,F
Girls,44.23,9,Hannah Zurovetz,Lago Vista,42.64,88.45,40.82,99.79,229.06,Single-ply,SBD,F
Girls,44.23,10,Angela Hernández,Kemp,42.18,95.25,38.56,92.99,226.8,Single-ply,SBD,F
Girls,44.23,11,Alexis Navarrette,Mathis,42.82,77.11,43.09,102.06,222.26,Single-ply,SBD,F
Girls,44.23,12,Courtney Caudill,Wichita Falls City View,43.41,95.25,31.75,95.25,222.26,Single-ply,SBD,F
Girls,44.23,13,Jessica Lyman,New London West Rusk,44.18,90.72,31.75,99.79,222.26,Single-ply,SBD,F
Girls,44.23,14,Ayssa Hinojosa,Hebbronville,43.36,70.31,31.75,106.59,208.65,Single-ply,SBD,F
Girls,44.23,15,Jaysa Crochet,Buna,42.09,77.11,34.02,86.18,197.31,Single-ply,SBD,F
Girls,44.23,16,Briana Gonzales,Hebbronville,44.09,74.84,40.82,81.65,197.31,Single-ply,SBD,F
Girls,44.23,17,Marissa Linares,Danbury,40.01,63.5,36.29,72.57,172.37,Single-ply,SBD,F
Girls,44.23,NS,Audrey Smith,Hughes Springs,,,,,,Single-ply,SBD,F
Girls,44.23,NS,Shelby Dodson,Pottsboro,,,,,,Single-ply,SBD,F
Girls,44.23,DQ,Brittany Trevino,San Diego,43.45,115.67,,,,Single-ply,SBD,F
Girls,44.23,DQ,Jessica Leal,Santa Gertrudis Academy,43.41,,,,,Single-ply,SBD,F
Girls,44.23,DQ,Breanna Candela,Odem,44.23,,,,,Single-ply,SBD,F
Girls,44.23,DQ,Ashley Griffin,Whitesboro,44,,,,,Single-ply,SBD,F
Girls,44.23,DQ,Maya Vargas,Winnsboro,43.36,,,,,Single-ply,SBD,F
Girls,44.23,DQ,Serina Moss,Hebbronville,43.77,77.11,34.02,,,Single-ply,SBD,F
Girls,44.23,DQ,Summer Garza,George West,42.86,,,,,Single-ply,SBD,F
Girls,47.85,1,Jasmine Vasquez,Natalia,46.81,124.74,58.97,136.08,319.78,Single-ply,SBD,F
Girls,47.85,2,Terilyn Bufkin,Whitesboro,47.31,111.13,52.16,133.81,297.1,Single-ply,SBD,F
Girls,47.85,3,Lilly Aguilar,Natalia,46.95,113.4,45.36,129.27,288.03,Single-ply,SBD,F
Girls,47.85,4,Bianca Cruz,Mathis,47.49,104.33,54.43,129.27,288.03,Single-ply,SBD,F
Girls,47.85,5,Kayla Hale,Kemp,47.31,108.86,56.7,117.93,283.5,Single-ply,SBD,F
Girls,47.85,6,Madison Sullivan,Clyde,46.9,106.59,52.16,122.47,281.23,Single-ply,SBD,F
Girls,47.85,7,Sarah Jo Campos,San Diego,46.81,104.33,49.9,120.2,274.42,Single-ply,SBD,F
Girls,47.85,8,Saida Tijerina,Falfurrias,47.31,95.25,52.16,115.67,263.08,Single-ply,SBD,F
Girls,47.85,9,Demi Lopez,Karnes City,46.99,111.13,45.36,104.33,260.82,Single-ply,SBD,F
Girls,47.85,10,Deydra Garcia,Cotulla,46.77,99.79,45.36,113.4,258.55,Single-ply,SBD,F
Girls,47.85,11,Sierra Stumpff,Pottsboro,47.22,102.06,43.09,113.4,258.55,Single-ply,SBD,F
Girls,47.85,12,Savanah Segura,Karnes City,47.4,102.06,43.09,113.4,258.55,Single-ply,SBD,F
Girls,47.85,13,Taylor Stults,Pottsboro,47.13,99.79,45.36,111.13,256.28,Single-ply,SBD,F
Girls,47.85,14,Mayte Arredondo,Whitney,46.04,88.45,43.09,117.93,249.48,Single-ply,SBD,F
Girls,47.85,15,Kamryn Johnson,Edna,46.4,92.99,36.29,104.33,233.6,Single-ply,SBD,F
Girls,47.85,16,Omega Lujan,Kermit,47.85,97.52,38.56,95.25,231.33,Single-ply,SBD,F
Girls,47.85,17,Marian Gomez,Palacios,45.63,74.84,38.56,81.65,195.04,Single-ply,SBD,F
Girls,47.85,DQ,Kinsey Persons,Teague,47.85,,,,,Single-ply,SBD,F
Girls,47.85,DQ,Tesla Mowery,Winnsboro,46.86,,,,,Single-ply,SBD,F
Girls,47.85,DQ,Kayla Wampler,Wichita Falls City View,47.36,,,,,Single-ply,SBD,F
Girls,47.85,DQ,Kailee Hansmire,Comanche,47.54,,,,,Single-ply,SBD,F
Girls,51.94,1,Tarah Perales,San Diego,51.85,133.81,63.5,140.61,337.93,Single-ply,SBD,F
Girls,51.94,2,Thalia Garcia,Cotulla,51.66,124.74,58.97,142.88,326.59,Single-ply,SBD,F
Girls,51.94,3,Kendra Fisher,Buna,51.48,124.74,58.97,136.08,319.78,Single-ply,SBD,F
Girls,51.94,4,Brittany DeLaCruz,Hebbronville,51.8,127.01,61.23,124.74,312.98,Single-ply,SBD,F
Girls,51.94,5,Taylor Lopez,Clyde,50.44,124.74,52.16,133.81,310.71,Single-ply,SBD,F
Girls,51.94,6,Sierra Patterson,Commerce,51.44,127.01,56.7,122.47,306.17,Single-ply,SBD,F
Girls,51.94,7,Destiny Bueno,Bishop,50.94,127.01,65.77,111.13,303.91,Single-ply,SBD,F
Girls,51.94,8,Mariyah Tucker,McGregor,51.89,124.74,54.43,122.47,301.64,Single-ply,SBD,F
Girls,51.94,9,Betzaidalis Rosado-Mojica,San Antonio Brooks Academy,50.89,111.13,70.31,115.67,297.1,Single-ply,SBD,F
Girls,51.94,10,Gabby Garcia,Freer,51.8,120.2,52.16,124.74,297.1,Single-ply,SBD,F
Girls,51.94,11,Katherine Espinoza,Hebbronville,50.71,106.59,45.36,138.35,290.3,Single-ply,SBD,F
Girls,51.94,12,Julie Gonzalez,San Diego,51.8,113.4,52.16,124.74,290.3,Single-ply,SBD,F
Girls,51.94,13,Brianna Morelion,Buna,51.21,99.79,58.97,124.74,283.5,Single-ply,SBD,F
Girls,51.94,14,Kali Mendez,Sonora,50.98,108.86,49.9,122.47,281.23,Single-ply,SBD,F
Girls,51.94,15,Marshalla Padgett,Eustace,50.12,106.59,40.82,131.54,278.96,Single-ply,SBD,F
Girls,51.94,16,Angel Galindo,Brady,50.53,111.13,58.97,108.86,278.96,Single-ply,SBD,F
Girls,51.94,17,Kylie Robinson,Bowie,49.53,104.33,43.09,127.01,274.42,Single-ply,SBD,F
Girls,51.94,18,Michaela Orr,Winnsboro,50.3,120.2,43.09,111.13,274.42,Single-ply,SBD,F
Girls,51.94,19,Carressa McCasland,Paradise,49.08,90.72,47.63,117.93,256.28,Single-ply,SBD,F
Girls,51.94,20,Aubree Tostado,Karnes City,49.8,95.25,43.09,113.4,251.74,Single-ply,SBD,F
Girls,51.94,DQ,Tori Bowden,Palestine Westwood,51.75,,,,,Single-ply,SBD,F
Girls,56.02,1,Kassandra Garcia,San Diego,55.02,147.42,72.57,154.22,374.21,Single-ply,SBD,F
Girls,56.02,2,Elizabeth Cantu,Hebbronville,55.7,154.22,74.84,145.15,374.21,Single-ply,SBD,F
Girls,56.02,3,Jodel Patino,San Antonio Brooks Academy,53.93,127.01,72.57,142.88,342.46,Single-ply,SBD,F
Girls,56.02,4,Gabby Gonzalez,Hebbronville,55.52,124.74,47.63,165.56,337.93,Single-ply,SBD,F
Girls,56.02,5,Kelly Sanchez,Hillsboro,56.02,129.27,58.97,140.61,328.85,Single-ply,SBD,F
Girls,56.02,6,Annalisa Perez,Sonora,54.16,142.88,58.97,115.67,317.51,Single-ply,SBD,F
Girls,56.02,7,Judi Carter,Whitesboro,54.7,122.47,56.7,138.35,317.51,Single-ply,SBD,F
Girls,56.02,8,Mikeala Beck,Paradise,55.34,115.67,54.43,142.88,312.98,Single-ply,SBD,F
Girls,56.02,9,April Fowler,Rogers,54.84,129.27,58.97,120.2,308.44,Single-ply,SBD,F
Girls,56.02,10,Miranda Moss,Hebbronville,55.2,122.47,45.36,140.61,308.44,Single-ply,SBD,F
Girls,56.02,11,Shelbea Permenter,Buna,55.84,117.93,58.97,131.54,308.44,Single-ply,SBD,F
Girls,56.02,12,Mattie Williams,Big Lake Reagan County,53.61,124.74,54.43,127.01,306.17,Single-ply,SBD,F
Girls,56.02,13,Ashlin Liska,Karnes City,55.38,120.2,56.7,129.27,306.17,Single-ply,SBD,F
Girls,56.02,14,Raquel Morado,Brady,53.3,120.2,54.43,129.27,303.91,Single-ply,SBD,F
Girls,56.02,15,Lindsey Stegall,Van Alstyne,55.25,120.2,68.04,115.67,303.91,Single-ply,SBD,F
Girls,56.02,16,Kasi Bethke,Vanderbilt Industrial,55.25,120.2,54.43,120.2,294.84,Single-ply,SBD,F
Girls,56.02,17,Dalyda Landa,Hebbronville,56.02,113.4,49.9,131.54,294.84,Single-ply,SBD,F
Girls,56.02,18,Jenny Cruz,Cotulla,53.93,108.86,45.36,136.08,290.3,Single-ply,SBD,F
Girls,56.02,19,Aisha Martinez,Brady,55.79,111.13,61.23,117.93,290.3,Single-ply,SBD,F
Girls,56.02,20,Nanci Calixtro,Teague,54.61,122.47,43.09,115.67,281.23,Single-ply,SBD,F
Girls,56.02,21,Kailyn Carwile,Paradise,54.66,113.4,54.43,113.4,281.23,Single-ply,SBD,F
Girls,56.02,NS,Joslynn Sanchez,Cotulla,,,,,,Single-ply,SBD,F
Girls,56.02,DQ,Amber Mills,Elkhart,55.25,,,,,Single-ply,SBD,F
Girls,56.02,DQ,Monica Gonzales,Dimmitt,56.02,,,,,Single-ply,SBD,F
Girls,56.02,DQ,Zavina Gonzalez,Bishop,55.66,131.54,70.31,,,Single-ply,SBD,F
Girls,60.1,1,Sierra Paredez,San Angelo Grape Creek,59.15,156.49,74.84,149.69,381.02,Single-ply,SBD,F
Girls,60.1,2,Meghan Bowling,White Oak,60.1,149.69,79.38,147.42,376.48,Single-ply,SBD,F
Girls,60.1,3,Chablis Barber,Daingerfield,59.69,151.95,61.23,156.49,369.68,Single-ply,SBD,F
Girls,60.1,4,Cassandra Carlton,Lago Vista,59.19,156.49,68.04,133.81,358.34,Single-ply,SBD,F
Girls,60.1,5,Brianna Maldonado,Hebbronville,59.65,147.42,63.5,147.42,358.34,Single-ply,SBD,F
Girls,60.1,6,Jasmine Ruiz,San Antonio Brooks Academy,58.38,142.88,83.91,124.74,351.53,Single-ply,SBD,F
Girls,60.1,7,Jenna Allen,Hallettsville,59.42,142.88,61.23,147.42,351.53,Single-ply,SBD,F
Girls,60.1,8,Kristie Coles,Goliad,58.11,127.01,68.04,145.15,340.19,Single-ply,SBD,F
Girls,60.1,9,Nicole Barrett,Commerce,58.15,147.42,56.7,133.81,337.93,Single-ply,SBD,F
Girls,60.1,10,Kristen Moore,Stockdale,59.74,129.27,61.23,147.42,337.93,Single-ply,SBD,F
Girls,60.1,11,Julianna Morales,Natalia,59.33,129.27,56.7,142.88,328.85,Single-ply,SBD,F
Girls,60.1,12,Amanda King,McGregor,59.69,129.27,63.5,136.08,328.85,Single-ply,SBD,F
Girls,60.1,13,Chantel Cerna,Hebbronville,57.74,115.67,61.23,142.88,319.78,Single-ply,SBD,F
Girls,60.1,14,Shelbi Rhoda,Bowie,57.88,127.01,56.7,136.08,319.78,Single-ply,SBD,F
Girls,60.1,15,Elizabeth Alfaro,Mathis,58.24,113.4,63.5,140.61,317.51,Single-ply,SBD,F
Girls,60.1,16,Courtney Coker,Millsap,60.1,102.06,63.5,145.15,310.71,Single-ply,SBD,F
Girls,60.1,17,Hannah Daniel,Winnie East Chambers,59.56,115.67,61.23,129.27,306.17,Single-ply,SBD,F
Girls,60.1,18,Nellie Perry,Palacios,58.56,122.47,65.77,113.4,301.64,Single-ply,SBD,F
Girls,60.1,DQ,Serina Flores,Dilley,59.56,,,,,Single-ply,SBD,F
Girls,60.1,DQ,Skyler Rodgers,Elkhart,59.47,,,,,Single-ply,SBD,F
Girls,60.1,DQ,Arcie Polanco,Kermit,60.06,145.15,54.43,,,Single-ply,SBD,F
Girls,67.36,1,Mia Casas,Hebbronville,66.5,165.56,77.11,174.63,417.3,Single-ply,SBD,F
Girls,67.36,2,Danelle Baughman,San Angelo Grape Creek,64.82,181.44,74.84,158.76,415.04,Single-ply,SBD,F
Girls,67.36,3,Madison Watkins,Ballinger,66.77,167.83,79.38,147.42,394.63,Single-ply,SBD,F
Girls,67.36,4,Danielle Smith,Diana New Diana,66.59,142.88,63.5,174.63,381.02,Single-ply,SBD,F
Girls,67.36,5,Aliya BorJon,Santa Gertrudis Academy,64.55,149.69,72.57,156.49,378.75,Single-ply,SBD,F
Girls,67.36,6,Leslie Hernandez,Brady,62.6,136.08,68.04,163.29,367.41,Single-ply,SBD,F
Girls,67.36,7,Kaylin Miller,Whitesboro,66.32,133.81,70.31,154.22,358.34,Single-ply,SBD,F
Girls,67.36,8,Ashlyn Wilkerson,Whitney,65.32,147.42,58.97,149.69,356.07,Single-ply,SBD,F
Girls,67.36,9,Caley Jackson,Karnes City,65.32,122.47,54.43,170.1,347,Single-ply,SBD,F
Girls,67.36,10,Lauren Ummell,White Oak,66.18,138.35,68.04,138.35,344.73,Single-ply,SBD,F
Girls,67.36,11,Hannah Shaw,Bowie,66.09,142.88,58.97,138.35,340.19,Single-ply,SBD,F
Girls,67.36,12,Haley Wood,Vanderbilt Industrial,66.59,136.08,61.23,140.61,337.93,Single-ply,SBD,F
Girls,67.36,DQ,Julia Pope,Sonora,66.41,142.88,,,,Single-ply,SBD,F
Girls,67.36,DQ,Lana Ledford,Troup,65.54,122.47,,,,Single-ply,SBD,F
Girls,67.36,DQ,Dolly Ortiz,Edna,66.09,158.76,77.11,,,Single-ply,SBD,F
Girls,67.36,DQ,Makayla Cantu,Freer,63.82,,,,,Single-ply,SBD,F
Girls,67.36,DQ,Alexis Salazar,George West,65,,,,,Single-ply,SBD,F
Girls,67.36,DQ,Dewayna Johnson,New London West Rusk,64.5,,,,,Single-ply,SBD,F
Girls,67.36,DQ,Annette Marmolejo,New London West Rusk,65.77,,,,,Single-ply,SBD,F
Girls,75.07,1,Angelica Fuentes,Ballinger,70.85,199.58,113.4,158.76,471.74,Single-ply,SBD,F
Girls,75.07,2,Natalie Barrera,Bishop,73.26,192.78,104.33,163.29,460.4,Single-ply,SBD,F
Girls,75.07,3,Brittany Daniels,Commerce,73.94,181.44,68.04,170.1,419.57,Single-ply,SBD,F
Girls,75.07,4,Karina Avila,Hebbronville,73.75,170.1,74.84,167.83,412.77,Single-ply,SBD,F
Girls,75.07,5,Megan Martinez,San Antonio Brooks Academy,72.21,170.1,68.04,147.42,385.55,Single-ply,SBD,F
Girls,75.07,6,Michelle Gonzales,Brady,74.66,161.03,77.11,140.61,378.75,Single-ply,SBD,F
Girls,75.07,7,Chandler UpChurch,Pollok Central,73.62,138.35,81.65,156.49,376.48,Single-ply,SBD,F
Girls,75.07,8,Julissa Esquivel,Sonora,72.62,163.29,74.84,136.08,374.21,Single-ply,SBD,F
Girls,75.07,9,Mikayla Pokorny,Whitesboro,74.12,138.35,63.5,167.83,369.68,Single-ply,SBD,F
Girls,75.07,10,Bethany Williams,Whitney,72.76,140.61,77.11,149.69,367.41,Single-ply,SBD,F
Girls,75.07,11,Lana Waddle,Lago Vista,72.71,154.22,70.31,133.81,358.34,Single-ply,SBD,F
Girls,75.07,12,Robyn Young,Marion,74.25,147.42,61.23,147.42,356.07,Single-ply,SBD,F
Girls,75.07,13,Brenttany Birdow,Hitchcock,72.76,149.69,45.36,154.22,349.27,Single-ply,SBD,F
Girls,75.07,14,Mari Alaniz,Karnes City,74.25,142.88,56.7,142.88,342.46,Single-ply,SBD,F
Girls,75.07,15,Larissa Vordick,San Angelo Grape Creek,69.04,142.88,63.5,133.81,340.19,Single-ply,SBD,F
Girls,75.07,16,Analyssa Gonzales,Mathis,74.39,142.88,72.57,124.74,340.19,Single-ply,SBD,F
Girls,75.07,17,Catrina Soto,Skidmore-Tynan,69.44,140.61,56.7,138.35,335.66,Single-ply,SBD,F
Girls,75.07,18,Karina Ramon,Palacios,67.59,129.27,74.84,129.27,333.39,Single-ply,SBD,F
Girls,75.07,19,Kerstin Humphries,Elkhart,71.89,140.61,58.97,131.54,331.12,Single-ply,SBD,F
Girls,75.07,20,Amber Baughman,San Angelo Grape Creek,70.67,117.93,70.31,133.81,322.05,Single-ply,SBD,F
Girls,75.07,21,Lexi Towery,Nocona,70.76,120.2,52.16,133.81,306.17,Single-ply,SBD,F
Girls,75.07,NS,Kyndall Hoelscher,West,,,,,,Single-ply,SBD,F
Girls,75.07,DQ,Courtney Owen,Bangs,72.67,136.08,65.77,,,Single-ply,SBD,F
Girls,75.07,DQ,Martha Riojas,Dublin,74.39,,,,,Single-ply,SBD,F
Girls,75.07,DQ,Kaylee Needham,Coleman,72.17,136.08,56.7,,,Single-ply,SBD,F
Girls,82.33,1,Delicia Garza,Hebbronville,81.28,192.78,97.52,201.85,492.15,Single-ply,SBD,F
Girls,82.33,2,Diana Platas,Hillsboro,77.56,201.85,99.79,174.63,476.27,Single-ply,SBD,F
Girls,82.33,3,Jolyn Zarate,Coleman,81.56,181.44,72.57,154.22,408.23,Single-ply,SBD,F
Girls,82.33,4,Candace Stovall,Altair Rice,81.47,158.76,68.04,165.56,392.36,Single-ply,SBD,F
Girls,82.33,5,Deondra Dowell,Malakoff,80.06,140.61,68.04,176.9,385.55,Single-ply,SBD,F
Girls,82.33,6,Amanda Stiles,Florence,78.52,154.22,88.45,140.61,383.29,Single-ply,SBD,F
Girls,82.33,7,Charva Harris,Dallas Life Oak Cliff,82.15,147.42,70.31,161.03,378.75,Single-ply,SBD,F
Girls,82.33,8,Seleste Pena,Hebbronville,77.2,158.76,68.04,149.69,376.48,Single-ply,SBD,F
Girls,82.33,9,Belle Gomez,Clyde,78.7,158.76,68.04,147.42,374.21,Single-ply,SBD,F
Girls,82.33,10,Vanessa McNiel,Blooming Grove,81.65,161.03,58.97,151.95,371.95,Single-ply,SBD,F
Girls,82.33,11,Kamrie Martinez,Sonora,77.88,161.03,63.5,145.15,369.68,Single-ply,SBD,F
Girls,82.33,12,Marina Sanchez,Brady,77.34,145.15,54.43,167.83,367.41,Single-ply,SBD,F
Girls,82.33,13,Jasmyne Martinez,Cotulla,81.1,154.22,74.84,136.08,365.14,Single-ply,SBD,F
Girls,82.33,14,Hayley Ancinec,Clyde,80.56,142.88,74.84,145.15,362.87,Single-ply,SBD,F
Girls,82.33,15,Jas'Lyn Glover,Hempstead,77.25,124.74,61.23,163.29,349.27,Single-ply,SBD,F
Girls,82.33,16,Gabriela Mercado,Amarillo Highland Park,82.33,113.4,81.65,151.95,347,Single-ply,SBD,F
Girls,82.33,17,Desiree Hart,Edna,75.48,129.27,61.23,136.08,326.59,Single-ply,SBD,F
Girls,82.33,18,Kaylen Jowitt,Whitesboro,78.02,122.47,58.97,142.88,324.32,Single-ply,SBD,F
Girls,82.33,19,Kiarra Williams,Hitchcock,75.21,142.88,54.43,120.2,317.51,Single-ply,SBD,F
Girls,82.33,DQ,Essance Porter,McGregor,80.01,,,,,Single-ply,SBD,F
Girls,82.33,DQ,Demarkia Palmer,Daingerfield,79.79,,,,,Single-ply,SBD,F
Girls,82.33,DQ,Sara Estes,Brady,81.06,,,,,Single-ply,SBD,F
Girls,90.04,1,Rebecca Simpson,Ballinger,86.86,199.58,86.18,190.51,476.27,Single-ply,SBD,F
Girls,90.04,2,Marisol Palacios,Poth,88.99,226.8,90.72,158.76,476.27,Single-ply,SBD,F
Girls,90.04,3,Karla Esquivel #1,Big Lake Reagan County,89.54,185.97,72.57,174.63,433.18,Single-ply,SBD,F
Girls,90.04,4,Rachel Cotten,Winnsboro,87.59,174.63,106.59,140.61,421.84,Single-ply,SBD,F
Girls,90.04,5,Alexandria Garcia,Bishop,86.95,170.1,65.77,158.76,394.63,Single-ply,SBD,F
Girls,90.04,6,Daniela Gayton,Caddo Mills,87.86,158.76,72.57,149.69,381.02,Single-ply,SBD,F
Girls,90.04,7,Noel Fierro,Sonora,86.55,149.69,86.18,136.08,371.95,Single-ply,SBD,F
Girls,90.04,8,Gabrielle Murphy,New London West Rusk,86.18,151.95,61.23,154.22,367.41,Single-ply,SBD,F
Girls,90.04,9,Deanna Fisher,Trinity,88.68,149.69,65.77,145.15,360.61,Single-ply,SBD,F
Girls,90.04,10,Shelby Wines,West,88.77,145.15,74.84,138.35,358.34,Single-ply,SBD,F
Girls,90.04,11,McKenzie Crossland,Leonard,85.82,149.69,61.23,145.15,356.07,Single-ply,SBD,F
Girls,90.04,12,Gabby Lopez,West,86.68,158.76,70.31,124.74,353.8,Single-ply,SBD,F
Girls,90.04,13,Jordan Bush,Little River Academy,88.68,138.35,61.23,142.88,342.46,Single-ply,SBD,F
Girls,90.04,14,Bailee Glenn,Van Alstyne,86.18,136.08,68.04,127.01,331.12,Single-ply,SBD,F
Girls,90.04,15,Taylor Brown #3,Whitesboro,86.95,136.08,65.77,122.47,324.32,Single-ply,SBD,F
Girls,90.04,16,Claire Winkenwerder,Boling,84.96,115.67,56.7,136.08,308.44,Single-ply,SBD,F
Girls,90.04,17,Elizabeth Hoover,Hardin,86,136.08,47.63,122.47,306.17,Single-ply,SBD,F
Girls,100.02,1,Jazmine Jones,Cameron Yoe,96.34,226.8,95.25,199.58,521.63,Single-ply,SBD,F
Girls,100.02,2,Sunni Goodell,Eustace,96.39,183.7,81.65,172.37,437.72,Single-ply,SBD,F
Girls,100.02,3,Angela Rost,McGregor,97.57,176.9,74.84,163.29,415.04,Single-ply,SBD,F
Girls,100.02,4,Macy Alexander,Sadler S & S Cons,98.02,165.56,90.72,154.22,410.5,Single-ply,SBD,F
Girls,100.02,5,Savannah Powers,Lago Vista,97.48,204.12,74.84,120.2,399.16,Single-ply,SBD,F
Girls,100.02,6,Jennifer Lozano,Hebbronville,91.76,163.29,65.77,165.56,394.63,Single-ply,SBD,F
Girls,100.02,7,Gaby Angel,Florence,94.44,183.7,70.31,138.35,392.36,Single-ply,SBD,F
Girls,100.02,8,Stephanie Figueroa,Bishop,92.44,161.03,77.11,149.69,387.82,Single-ply,SBD,F
Girls,100.02,9,Alliah Hildreth,Universal City Randolph,93.03,151.95,74.84,154.22,381.02,Single-ply,SBD,F
Girls,100.02,10,Laura Garcia,Edna,93.17,156.49,61.23,151.95,369.68,Single-ply,SBD,F
Girls,100.02,11,Haylee Croft,Elkhart,90.95,149.69,65.77,151.95,367.41,Single-ply,SBD,F
Girls,100.02,12,Keisha Natera,Alpine,99.34,138.35,70.31,140.61,349.27,Single-ply,SBD,F
Girls,100.02,13,Alexis Escobar,Merkel,94.94,151.95,61.23,131.54,344.73,Single-ply,SBD,F
Girls,100.02,14,Rielly Long Causey,Buna,99.06,149.69,68.04,127.01,344.73,Single-ply,SBD,F
Girls,100.02,15,Carley Scott,Millsap,95.39,129.27,58.97,140.61,328.85,Single-ply,SBD,F
Girls,100.02+,1,Linsey Reyna,Wichita Falls City View,149.69,249.48,136.08,192.78,578.33,Single-ply,SBD,F
Girls,100.02+,2,Shelbie Long,Florence,105.41,226.8,115.67,204.12,546.58,Single-ply,SBD,F
Girls,100.02+,3,Raven Paul,Frankston,128.91,215.46,120.2,206.38,542.04,Single-ply,SBD,F
Girls,100.02+,4,Alexis Tackett,Paris Chisum,110.59,204.12,99.79,190.51,494.42,Single-ply,SBD,F
Girls,100.02+,5,Cassandra Soto,Skidmore-Tynan,113.04,183.7,102.06,192.78,478.54,Single-ply,SBD,F
Girls,100.02+,6,Claudia Avila #1,Hebbronville,131.09,226.8,81.65,170.1,478.54,Single-ply,SBD,F
Girls,100.02+,7,Lorena Vera,San Diego,107.86,188.24,95.25,158.76,442.25,Single-ply,SBD,F
Girls,100.02+,8,Cynthia Garcia,Santa Gertrudis Academy,103.78,185.97,77.11,174.63,437.72,Single-ply,SBD,F
Girls,100.02+,9,Mikala James,Edna,122.11,192.78,79.38,149.69,421.84,Single-ply,SBD,F
Girls,100.02+,10,Genesis Funez,Glen Rose,122.02,176.9,81.65,156.49,415.04,Single-ply,SBD,F
Girls,100.02+,11,Shermeka Thompson,Edna,105.23,163.29,72.57,174.63,410.5,Single-ply,SBD,F
Girls,100.02+,12,Julissa Lopez,Kemp,119.93,149.69,88.45,156.49,394.63,Single-ply,SBD,F
Girls,100.02+,13,Makayla Torres,San Angelo Grape Creek,115.03,163.29,61.23,165.56,390.09,Single-ply,SBD,F
Girls,100.02+,14,Deziray Graham,Nocona,115.21,165.56,70.31,149.69,385.55,Single-ply,SBD,F
Girls,100.02+,15,Marissa Alarcon,Kermit,101.24,151.95,63.5,147.42,362.87,Single-ply,SBD,F
Girls,100.02+,16,Breanna Ellis,Elysian Fields,111.22,142.88,79.38,154.22,376.48,Single-ply,SBD,F
Girls,100.02+,DQ,Jasmine Hunt,Elkhart,130,,,,,Single-ply,SBD,F
Girls,100.02+,DQ,Brianna Hatcher,Dublin,117.21,,,,,Single-ply,SBD,F
Girls,100.02+,DQ,Bobby Denard,Buna,116.3,174.63,,,,Single-ply,SBD,F
Girls,100.02+,DQ,Ty'eesha Dawkins,Palestine Westwood,109.13,,,,,Single-ply,SBD,F
Girls,100.02+,DQ,Kenya Ivey,Red Oak Life,136.98,,,,,Single-ply,SBD,F
