Division,WeightClassKg,Place,Name,Team,BodyweightKg,Best3SquatKg,Best3BenchKg,Best3DeadliftKg,TotalKg,Equipment,Event,Sex
Boys,51.71,1,Edward Hernandez,Eldorado,51.27,131.54,68.04,124.74,324.32,Single-ply,SBD,M
Boys,55.79,2,Pj Horton,Forsan,51.72,124.74,63.5,120.2,308.44,Single-ply,SBD,M
Boys,51.71,3,Jared Gandy,Mertzon Irion County,46.27,108.86,56.7,122.47,288.03,Single-ply,SBD,M
Boys,51.71,4,Connor Steele,Forsan,43.13,74.84,40.82,74.84,190.51,Single-ply,SBD,M
Boys,55.79,1,Zach Hernandez,Big Spring,54.43,151.95,72.57,147.42,371.95,Single-ply,SBD,M
Boys,55.79,2,Jesse Ramirez #2,San Angelo Lake View,54.43,124.74,83.91,154.22,362.87,Single-ply,SBD,M
Boys,55.79,3,Tomas Vega,Alpine,54.34,127.01,72.57,158.76,358.34,Single-ply,SBD,M
Boys,55.79,4,Eric Rivas,Seagraves,55.79,127.01,74.84,133.81,335.66,Single-ply,SBD,M
Boys,55.79,5,Esteban Garcia,Sonora,54.93,115.67,77.11,113.4,306.17,Single-ply,SBD,M
Boys,55.79,6,Mario Manquero,Garden City,54.98,106.59,72.57,124.74,303.91,Single-ply,SBD,M
Boys,55.79,7,Will Dutton,Sonora,54.93,102.06,56.7,111.13,269.89,Single-ply,SBD,M
Boys,55.79,8,Damian Cate,Coahoma,53.52,97.52,54.43,104.33,256.28,Single-ply,SBD,M
Boys,55.79,9,Stephen Seely,San Angelo Lake View,54.9,90.72,52.16,113.4,256.28,Single-ply,SBD,M
Boys,59.87,DQ,Bailey Espinoza,Eldorado,55.81,108.86,,,,Single-ply,SBD,M
Boys,59.87,DQ,Eric Edwards,Forsan,55.81,,,,,Single-ply,SBD,M
Boys,59.87,1,Ryan San Miguel,Sonora,58.51,142.88,79.38,145.15,367.41,Single-ply,SBD,M
Boys,59.87,2,Michael Vargas #1,Ozona,57.16,138.35,70.31,142.88,351.53,Single-ply,SBD,M
Boys,59.87,3,Tyler Pacheco,San Angelo Lake View,58.97,136.08,72.57,142.88,351.53,Single-ply,SBD,M
Boys,59.87,4,Julian Uranga,Coahoma,57.74,122.47,74.84,136.08,333.39,Single-ply,SBD,M
Boys,59.87,5,Luke Humble,Coahoma,59.24,117.93,68.04,147.42,333.39,Single-ply,SBD,M
Boys,59.87,6,Nic Miramontes,Odessa,58.52,122.47,70.31,131.54,324.32,Single-ply,SBD,M
Boys,59.87,7,Luis Marquez,Big Lake Reagan County,58.06,115.67,74.84,124.74,315.25,Single-ply,SBD,M
Boys,59.87,8,Robert Martinez,Big Spring,59.01,115.67,65.77,120.2,301.64,Single-ply,SBD,M
Boys,67.13,1,Tim Davila,Forsan,65.34,181.44,102.06,183.7,467.2,Single-ply,SBD,M
Boys,67.13,2,Edward Garza,Sonora,60.83,183.7,106.59,174.63,464.93,Single-ply,SBD,M
Boys,67.13,3,Hunter Sykes,San Angelo Lake View,65.78,151.95,92.99,172.37,417.3,Single-ply,SBD,M
Boys,74.84,4,Erik Santana,Sonora,67.19,156.49,99.79,151.95,408.23,Single-ply,SBD,M
Boys,67.13,5,John Hernandez,San Angelo Lake View,60.37,136.08,88.45,176.9,401.43,Single-ply,SBD,M
Boys,67.13,6,Martin Zambrano,Big Spring,66.27,145.15,86.18,167.83,399.16,Single-ply,SBD,M
Boys,67.13,7,Lazaro Herrera,Ballinger,61.25,145.15,86.18,149.69,381.02,Single-ply,SBD,M
Boys,67.13,8,Jesus Vasquez,Sonora,62.64,136.08,83.91,151.95,371.95,Single-ply,SBD,M
Boys,67.13,9,Luis Rangel,Ballinger,65.34,131.54,90.72,136.08,358.34,Single-ply,SBD,M
Boys,67.13,10,Juan Marquez,Big Lake Reagan County,62.65,131.54,72.57,151.95,356.07,Single-ply,SBD,M
Boys,67.13,11,Colton Belew,Garden City,61.42,145.15,79.38,120.2,344.73,Single-ply,SBD,M
Boys,67.13,12,Marcus Cervantes,Forsan,63.51,122.47,81.65,140.61,344.73,Single-ply,SBD,M
Boys,67.13,13,Austin Odem,Garden City,64.86,133.81,77.11,129.27,340.19,Single-ply,SBD,M
Boys,67.13,14,Dustin Wright,Forsan,65.83,113.4,63.5,158.76,335.66,Single-ply,SBD,M
Boys,74.84,15,Polo Morin,Forsan,67.15,111.13,72.57,149.69,333.39,Single-ply,SBD,M
Boys,67.13,16,Ryan Kennedy #1,Ozona,62.17,136.08,68.04,122.47,326.59,Single-ply,SBD,M
Boys,67.13,17,Jacob Ludwig,Colorado City Colorado,60.34,129.27,52.16,138.35,319.78,Single-ply,SBD,M
Boys,67.13,18,Cesar Saldana,Odessa,65.82,104.33,65.77,142.88,312.98,Single-ply,SBD,M
Boys,67.13,19,Austin Grantham,Forsan,65.79,113.4,72.57,124.74,310.71,Single-ply,SBD,M
Boys,67.13,20,Matthew Hartunian,Alpine,66.29,95.25,68.04,131.54,294.84,Single-ply,SBD,M
Boys,74.84,1,Justin Coker,Coahoma,69.58,197.31,124.74,197.31,519.36,Single-ply,SBD,M
Boys,74.84,2,Kyle Dean,Ozona,72.17,208.65,108.86,188.24,505.76,Single-ply,SBD,M
Boys,74.84,3,Garrett Rosson,Seagraves,73.03,204.12,111.13,190.51,505.76,Single-ply,SBD,M
Boys,74.84,4,Zane Herrin,Forsan,72.12,181.44,90.72,204.12,476.27,Single-ply,SBD,M
Boys,74.84,5,John Flores,Big Spring,72.17,170.1,104.33,167.83,442.25,Single-ply,SBD,M
Boys,74.84,6,Adan Martinez,Odessa,74.84,170.1,102.06,170.1,442.25,Single-ply,SBD,M
Boys,74.84,7,Semaj Cole,Seagraves,68.49,158.76,90.72,185.97,435.45,Single-ply,SBD,M
Boys,74.84,8,Dallas Escoveda,Alpine,74.43,140.61,117.93,167.83,426.38,Single-ply,SBD,M
Boys,74.84,9,Angel Moreno,San Angelo Lake View,72.64,151.95,95.25,154.22,401.43,Single-ply,SBD,M
Boys,74.84,10,James Lester,San Angelo Lake View,69.4,136.08,86.18,172.37,394.63,Single-ply,SBD,M
Boys,74.84,11,Cody Huelsberg,Alpine,71.26,154.22,90.72,149.69,394.63,Single-ply,SBD,M
Boys,74.84,12,Devon Hoelscher,Ballinger,70.81,147.42,86.18,149.69,383.29,Single-ply,SBD,M
Boys,74.84,13,Michael Chavez,Sonora,69.91,151.95,72.57,149.69,374.21,Single-ply,SBD,M
Boys,74.84,14,Shawn Walker,Garden City,74.84,147.42,90.72,136.08,374.21,Single-ply,SBD,M
Boys,74.84,15,Jd Vasquez,Mertzon Irion County,74.84,136.08,86.18,136.08,358.34,Single-ply,SBD,M
Boys,74.84,16,Chapman Royall,Garden City,70.4,120.2,79.38,154.22,353.8,Single-ply,SBD,M
Boys,74.84,17,Rocky Venegas,Ozona,68.96,129.27,83.91,138.35,351.53,Single-ply,SBD,M
Boys,74.84,18,Noah Tambunga,Ozona,74.43,99.79,70.31,133.81,303.91,Single-ply,SBD,M
Boys,74.84,19,Adam Gonzales,Ozona,72.14,108.86,56.7,115.67,281.23,Single-ply,SBD,M
Boys,82.1,1,Peyton Rodriguez #1,Coahoma,78.93,188.24,117.93,197.31,503.49,Single-ply,SBD,M
Boys,82.1,2,Conrad Duran,San Angelo Lake View,82.1,188.24,115.67,199.58,503.49,Single-ply,SBD,M
Boys,82.1,3,Maurico Valdez,San Angelo Lake View,81.2,188.24,104.33,197.31,489.88,Single-ply,SBD,M
Boys,82.1,4,Zack Badeaux,Sonora,76.67,181.44,106.59,170.1,458.13,Single-ply,SBD,M
Boys,82.1,5,Fabián Sánchez,Odessa,80.29,176.9,92.99,170.1,439.98,Single-ply,SBD,M
Boys,82.1,6,Foster Burchett,Forsan,76.21,163.29,83.91,188.24,435.45,Single-ply,SBD,M
Boys,82.1,7,Ruben Mier,Garden City,79.38,136.08,90.72,192.78,419.57,Single-ply,SBD,M
Boys,82.1,8,Juan Beltran,Colorado City Colorado,75.81,161.03,90.72,165.56,417.3,Single-ply,SBD,M
Boys,82.1,9,Sawyer Benavides,Odessa,81.22,149.69,111.13,151.95,412.77,Single-ply,SBD,M
Boys,82.1,10,Michael Oliva,Big Spring,77.17,151.95,99.79,147.42,399.16,Single-ply,SBD,M
Boys,82.1,11,Damon Evans,Sonora,80.29,149.69,99.79,149.69,399.16,Single-ply,SBD,M
Boys,82.1,12,Jimmy Cruz,Coahoma,77.25,149.69,90.72,147.42,387.82,Single-ply,SBD,M
Boys,82.1,13,Alejandro Medez,Ozona,79.42,136.08,92.99,154.22,383.29,Single-ply,SBD,M
Boys,82.1,14,Dylan Ortega,Mertzon Irion County,80.29,142.88,86.18,142.88,371.95,Single-ply,SBD,M
Boys,82.1,15,Rafael González,Colorado City Colorado,76.7,120.2,104.33,145.15,369.68,Single-ply,SBD,M
Boys,89.81,16,Brandon DeHoyos,Ozona,82.12,138.35,72.57,151.95,362.87,Single-ply,SBD,M
Boys,82.1,17,Austin Hunt,Big Spring,80.74,115.67,88.45,145.15,349.27,Single-ply,SBD,M
Boys,82.1,DQ,Chris Beltran,Colorado City Colorado,77.12,167.83,,,,Single-ply,SBD,M
Boys,82.1,DQ,Sergio Leyva,Odessa,81.66,,,,,Single-ply,SBD,M
Boys,82.1,DQ,Shelby Mobley,Odessa,81.24,,,,,Single-ply,SBD,M
Boys,82.1,DQ,Damian Garcia,Loraine,80.29,,,,,Single-ply,SBD,M
Boys,89.81,1,Ramiro Reyes,Colorado City Colorado,87.59,226.8,158.76,226.8,612.35,Single-ply,SBD,M
Boys,89.81,2,Eddie Garcia,Odessa,84.41,233.6,124.74,195.04,553.38,Single-ply,SBD,M
Boys,89.81,3,Miles Mikeska,Eldorado,86.69,174.63,115.67,231.33,521.63,Single-ply,SBD,M
Boys,89.81,4,Miguel Lopez #5,Big Lake Reagan County,87.1,195.04,90.72,226.8,512.56,Single-ply,SBD,M
Boys,89.81,5,Efren Gonzales,Odessa,84.87,185.97,129.27,188.24,503.49,Single-ply,SBD,M
Boys,89.81,6,Jesse Daniels,Ballinger,85.77,176.9,124.74,181.44,483.08,Single-ply,SBD,M
Boys,89.81,7,Spencer Benavides,Odessa,83.02,151.95,111.13,151.95,415.04,Single-ply,SBD,M
Boys,89.81,8,Mario Sifuentes,Ozona,85.28,140.61,90.72,156.49,387.82,Single-ply,SBD,M
Boys,89.81,9,Brandon Dominguez,Ozona,87.14,138.35,83.91,147.42,369.68,Single-ply,SBD,M
Boys,89.81,10,Sam Powers,Sonora,87.15,136.08,79.38,151.95,367.41,Single-ply,SBD,M
Boys,89.81,11,Jonathan Paredes,Sonora,85.31,88.45,61.23,124.74,274.42,Single-ply,SBD,M
Boys,89.81,DQ,Jonathan Young,Garden City,88.99,,,,,Single-ply,SBD,M
Boys,99.79,1,Aaron Allen #2,San Angelo Lake View,97.58,240.4,111.13,251.74,603.28,Single-ply,SBD,M
Boys,99.79,2,Paden Cornett,Seagraves,91.17,204.12,136.08,204.12,544.31,Single-ply,SBD,M
Boys,99.79,3,Josh Jurecek,Eldorado,96.66,185.97,99.79,210.92,496.68,Single-ply,SBD,M
Boys,99.79,4,Riley Woodruff,Ballinger,93.02,176.9,92.99,195.04,464.93,Single-ply,SBD,M
Boys,99.79,5,Esteban Gallegos,Ballinger,92.59,158.76,111.13,174.63,444.52,Single-ply,SBD,M
Boys,99.79,6,Ausden Medrano,Forsan,96.68,165.56,97.52,161.03,424.11,Single-ply,SBD,M
Boys,99.79,7,Auggie Woodruff,Ballinger,90.78,149.69,97.52,138.35,385.55,Single-ply,SBD,M
Boys,99.79,8,Hazael Damian,Ozona,99.42,138.35,74.84,151.95,365.14,Single-ply,SBD,M
Boys,99.79,9,Juan Sosa,Odessa,96.62,124.74,74.84,108.86,308.44,Single-ply,SBD,M
Boys,99.79,10,Douglas Pilkington,Coahoma,98.11,79.38,58.97,104.33,242.67,Single-ply,SBD,M
Boys,99.79,DQ,Brian Cravens,Coahoma,92.44,113.4,,,,Single-ply,SBD,M
Boys,99.79,DQ,Scotty Bailey,Loraine,90.32,,,,,Single-ply,SBD,M
Boys,99.79,DQ,Mark Gallardo,Ozona,95.26,183.7,,,,Single-ply,SBD,M
Boys,109.77,1,Angel Aguilera,Big Lake Reagan County,106.15,219.99,108.86,167.83,496.68,Single-ply,SBD,M
Boys,109.77,2,Cody Dykstra,Odessa,105.71,172.37,131.54,190.51,494.42,Single-ply,SBD,M
Boys,109.77,3,Osbauldo Castaneda,Sonora,103.87,190.51,117.93,174.63,483.08,Single-ply,SBD,M
Boys,109.77,4,Jose Gallegos,Ballinger,100.71,172.37,122.47,172.37,467.2,Single-ply,SBD,M
Boys,109.77,5,Anthony Riverea,Colorado City Colorado,104.81,172.37,113.4,174.63,460.4,Single-ply,SBD,M
Boys,109.77,6,Broyon Perez,Seagraves,103.87,167.83,111.13,174.63,453.59,Single-ply,SBD,M
Boys,109.77,7,Rudy Brito,Coahoma,104.87,188.24,77.11,158.76,424.11,Single-ply,SBD,M
Boys,109.77,8,Joe Borrego,Ozona,109.32,158.76,102.06,163.29,424.11,Single-ply,SBD,M
Boys,109.77,9,Aaron Harden #2,Odessa,102.12,158.76,83.91,158.76,401.43,Single-ply,SBD,M
Boys,109.77,10,Brandon Vasquez,Ballinger,102.09,158.76,86.18,149.69,394.63,Single-ply,SBD,M
Boys,109.77,11,Hardy Berber,Colorado City Colorado,108.45,142.88,90.72,142.88,376.48,Single-ply,SBD,M
Boys,109.77,12,Anthony Avila,Ozona,102.56,127.01,97.52,147.42,371.95,Single-ply,SBD,M
Boys,109.77,13,Dillon Ogle,Big Spring,108.45,131.54,81.65,133.81,347,Single-ply,SBD,M
Boys,124.74,1,Devon Davis-Locke,Big Spring,119.34,256.28,167.83,210.92,635.03,Single-ply,SBD,M
Boys,124.74,2,Fabian Gutierrez,Colorado City Colorado,117.98,240.4,142.88,224.53,607.81,Single-ply,SBD,M
Boys,124.74,3,Ricky Ciuba,Mertzon Irion County,112.94,233.6,136.08,226.8,596.47,Single-ply,SBD,M
Boys,124.74,4,JR Martinez,Eldorado,121.16,249.48,124.74,213.19,587.4,Single-ply,SBD,M
Boys,124.74,5,Jacob Wylie,Big Spring,114.8,215.46,136.08,190.51,542.04,Single-ply,SBD,M
Boys,124.74,6,Dustin Fontana,Coahoma,110.81,195.04,136.08,195.04,526.17,Single-ply,SBD,M
Boys,124.74,7,Cruz Melendez,Odessa,111.18,170.1,104.33,176.9,451.32,Single-ply,SBD,M
Boys,124.74,8,David Mejia,Coahoma,117.07,181.44,81.65,170.1,433.18,Single-ply,SBD,M
Boys,124.74,9,Eduardo Lizalde,Odessa,112.06,174.63,90.72,140.61,405.97,Single-ply,SBD,M
Boys,124.74,10,Aric Rutledge,Big Spring,112.94,154.22,86.18,147.42,387.82,Single-ply,SBD,M
Boys,124.74,11,Frankie Mier,Garden City,122.52,136.08,92.99,149.69,378.75,Single-ply,SBD,M
Boys,124.74,DQ,Aj Martinez,Big Spring,115.67,142.88,,,,Single-ply,SBD,M
Boys,124.74+,1,Sawyer Roberts,Big Spring,177.4,217.72,131.54,244.94,594.21,Single-ply,SBD,M
Boys,124.74+,2,John Espinosa,Eldorado,150.62,244.94,145.15,185.97,576.06,Single-ply,SBD,M
Boys,124.74+,3,Mike Villareal,Coahoma,156.26,226.8,102.06,181.44,510.29,Single-ply,SBD,M
Boys,124.74+,4,James Marroquin,San Angelo Lake View,137.91,192.78,113.4,199.58,505.76,Single-ply,SBD,M
