Division,WeightClassKg,Place,Name,Team,BodyweightKg,Best3SquatKg,Best3BenchKg,Best3DeadliftKg,TotalKg,Equipment,Event,Sex,BirthDate
Girls,44.23,1,Alexandra Gomez,Hebbronville,43.59,136.08,68.04,138.35,342.46,Unlimited,SBD,F,
Girls,44.23,2,Analiese Umphres,Victoria St. Joseph,43.68,108.86,77.11,106.59,292.57,Unlimited,SBD,F,
Girls,44.23,3,Delilah Garcia,Brady,44,97.52,43.09,124.74,265.35,Unlimited,SBD,F,
Girls,44.23,4,Brianna Echevarria,Rice,43.54,108.86,58.97,90.72,258.55,Unlimited,SBD,F,
Girls,44.23,5,Taylor Craig,Bells,43.5,99.79,68.04,88.45,256.28,Unlimited,SBD,F,
Girls,44.23,6,Nevaeh Kerby,Coahoma,41.82,104.33,52.16,97.52,254.01,Unlimited,SBD,F,
Girls,44.23,7,Zayda Godinez,Comanche,42.18,92.99,49.9,97.52,240.4,Unlimited,SBD,F,
Girls,44.23,8,Cooper Marcee,Quitman,42.82,83.91,54.43,97.52,235.87,Unlimited,SBD,F,
Girls,44.23,9,Rylin Brown,Bells,43.59,68.04,36.29,70.31,174.63,Unlimited,SBD,F,
Girls,44.23,10,Lucinda Lucio,El Maton Tidehaven,42.5,49.9,36.29,81.65,167.83,Unlimited,SBD,F,
Girls,44.23,11,Isabella Gonzales,Warren,43.64,52.16,29.48,68.04,149.69,Unlimited,SBD,F,
Girls,44.23,DQ,Lyndsi Espinoza,Tulia,43.59,,,,,Unlimited,SBD,F,
Girls,44.23,DQ,Odalys Iniguez,Crane,42.46,92.99,,,,Unlimited,SBD,F,
Girls,44.23,DQ,Mia Morris,Alpine,43.27,,,,,Unlimited,SBD,F,
Girls,47.85,1,Avri Darley,Hebbronville,45.31,124.74,74.84,120.2,319.78,Unlimited,SBD,F,
Girls,47.85,2,Gracie Jaramillo,Comanche,47.72,108.86,72.57,129.27,310.71,Unlimited,SBD,F,
Girls,47.85,3,Lily Bertrand,Wallis Brazos,47.49,104.33,65.77,104.33,274.42,Unlimited,SBD,F,
Girls,47.85,4,Presley Johnson,Arp,47.31,95.25,68.04,99.79,263.08,Unlimited,SBD,F,
Girls,47.85,6,Grace Gomez,Nixon Smiley,44.72,104.33,54.43,102.06,260.82,Unlimited,SBD,F,
Girls,47.85,7,Eva Jordan,Bells,46.49,106.59,61.23,81.65,249.48,Unlimited,SBD,F,
Girls,47.85,8,Mabree Moore,Rice,47.85,88.45,45.36,115.67,249.48,Unlimited,SBD,F,
Girls,47.85,9,Ava Meek,Newton,47.72,95.25,49.9,95.25,240.4,Unlimited,SBD,F,
Girls,47.85,10,Carly Horta,Boling,46.54,79.38,38.56,95.25,213.19,Unlimited,SBD,F,
Girls,47.85,DQ,Mage Leyva,Merkel,47.04,,,,,Unlimited,SBD,F,
Girls,47.85,DQ,Naara Saucedo,Friona,46.63,,,,,Unlimited,SBD,F,
Girls,47.85,DQ,Ellie Galaviz,Friona,47.4,,,,,Unlimited,SBD,F,
Girls,47.85,DQ,Makayla Lee,Sadler S & S Consolidated,47.63,,,,,Unlimited,SBD,F,
Girls,51.94,1,Julienne Socong,Early,51.94,136.08,79.38,147.42,362.87,Unlimited,SBD,F,
Girls,51.94,2,Matty Boswell,Early,51.48,138.35,79.38,138.35,356.07,Unlimited,SBD,F,
Girls,51.94,3,Elaine Zhuang,Ballinger,51.07,142.88,65.77,133.81,342.46,Unlimited,SBD,F,
Girls,51.94,4,Ryleigh Glenn,Elkhart,51.3,129.27,77.11,127.01,333.39,Unlimited,SBD,F,
Girls,51.94,5,Addison Marcee,Quitman,50.89,115.67,95.25,115.67,326.59,Unlimited,SBD,F,
Girls,51.94,6,Brittyn Carson,Stanton,51.75,124.74,63.5,117.93,306.17,Unlimited,SBD,F,
Girls,51.94,7,Kyndall Hunt,Clifton,49.58,111.13,61.23,127.01,299.37,Unlimited,SBD,F,
Girls,51.94,8,Taylor Eichelberger,Altair Rice,51.35,108.86,68.04,117.93,294.84,Unlimited,SBD,F,
Girls,51.94,9,Madelynn Hopkins,Wichita Falls City View,51.44,122.47,63.5,108.86,294.84,Unlimited,SBD,F,
Girls,51.94,10,Laila Medina,Big Sandy Harmony,51.89,99.79,86.18,106.59,292.57,Unlimited,SBD,F,
Girls,51.94,11,Bryanah Rose,Hebbronville,49.44,124.74,56.7,108.86,290.3,Unlimited,SBD,F,
Girls,51.94,12,Kharisma Johnson,Wichita Falls City View,50.89,108.86,61.23,113.4,283.5,Unlimited,SBD,F,
Girls,51.94,13,Bethany Mendez,Boling,51.44,104.33,61.23,102.06,267.62,Unlimited,SBD,F,
Girls,51.94,14,Rylee Wilson,Boling,51.53,99.79,58.97,102.06,260.82,Unlimited,SBD,F,
Girls,56.02,1,Alexa Hernandez,Early,54.75,163.29,97.52,156.49,417.3,Unlimited,SBD,F,
Girls,56.02,2,Emma Rutledge,Ballinger,54.48,145.15,90.72,140.61,376.48,Unlimited,SBD,F,
Girls,56.02,3,Balie Patrick,Bells,54.88,131.54,74.84,142.88,349.27,Unlimited,SBD,F,
Girls,56.02,4,Skylar Morris,Big Sandy Harmony,55.16,129.27,88.45,129.27,347,Unlimited,SBD,F,
Girls,56.02,5,Corine West,George West,54.57,120.2,86.18,136.08,342.46,Unlimited,SBD,F,
Girls,56.02,6,Kaylie Morin,Nixon Smiley,54.25,131.54,74.84,117.93,324.32,Unlimited,SBD,F,
Girls,56.02,7,Alyssa Santillan,Clifton,52.53,133.81,63.5,124.74,322.05,Unlimited,SBD,F,
Girls,56.02,8,Rilee Runnels,New Boston,55.16,140.61,65.77,108.86,315.25,Unlimited,SBD,F,
Girls,56.02,9,Ava Cervantes,Van Vleck,55.43,142.88,61.23,106.59,310.71,Unlimited,SBD,F,
Girls,56.02,10,Skyler Layco,Callisburg,53.66,117.93,74.84,113.4,306.17,Unlimited,SBD,F,
Girls,56.02,11,Brandolynn Carter,Hebbronville,55.34,111.13,58.97,122.47,292.57,Unlimited,SBD,F,
Girls,56.02,12,Dakota Williams,Newton,54.88,95.25,63.5,122.47,281.23,Unlimited,SBD,F,
Girls,56.02,13,Duvy Ortiz,Friona,55.97,102.06,52.16,122.47,276.69,Unlimited,SBD,F,
Girls,56.02,DQ,Kendall Smith #1,Ballinger,54.34,,,,,Unlimited,SBD,F,
Girls,60.1,1,Jaycie Grisham,Howe,59.24,158.76,90.72,133.81,383.29,Unlimited,SBD,F,
Girls,60.1,2,Jakhia David,Newton,59.01,140.61,81.65,145.15,367.41,Unlimited,SBD,F,
Girls,60.1,3,Lisette Garza,Taft,60.1,142.88,72.57,151.95,367.41,Unlimited,SBD,F,
Girls,60.1,4,Jaylynn Leal,Taft,58.88,140.61,68.04,133.81,342.46,Unlimited,SBD,F,
Girls,60.1,5,Loveli Sanders,Ballinger,57.7,133.81,72.57,131.54,337.93,Unlimited,SBD,F,
Girls,60.1,6,Chyanne Cannon,Elkhart,59.33,129.27,81.65,117.93,328.85,Unlimited,SBD,F,
Girls,60.1,7,Juli Bush,Leonard,59.42,138.35,70.31,120.2,328.85,Unlimited,SBD,F,
Girls,60.1,9,Cameron Ritz,Clifton,56.65,129.27,68.04,129.27,326.59,Unlimited,SBD,F,
Girls,60.1,10,Raelyn Graff,Brady,56.15,140.61,58.97,124.74,324.32,Unlimited,SBD,F,
Girls,60.1,11,Kylee Harris,Quitman,59.69,117.93,70.31,124.74,312.98,Unlimited,SBD,F,
Girls,60.1,12,Makyla Patina,El Maton Tidehaven,60.1,117.93,70.31,102.06,290.3,Unlimited,SBD,F,
Girls,60.1,DQ,Emerie Barnes,Stanton,58.74,,,,,Unlimited,SBD,F,
Girls,67.36,1,Skylar Johnson,Pattonville Prairiland,64.18,172.37,88.45,167.83,428.64,Unlimited,SBD,F,
Girls,67.36,2,Enyssa Fierro,Alpine,66.77,147.42,115.67,147.42,410.5,Unlimited,SBD,F,
Girls,67.36,3,Isla Rojas,Edinburg Idea College Prep,66.5,163.29,95.25,147.42,405.97,Unlimited,SBD,F,
Girls,67.36,4,Zulema Rodriguez,Nixon Smiley,67.31,170.1,79.38,133.81,383.29,Unlimited,SBD,F,
Girls,67.36,5,Kate Humphreys,Clifton,66.27,154.22,77.11,149.69,381.02,Unlimited,SBD,F,
Girls,67.36,6,Abigail Grady,Leonard,63.37,158.76,74.84,138.35,371.95,Unlimited,SBD,F,
Girls,67.36,7,Violet Eason,Troup,65.77,147.42,81.65,142.88,371.95,Unlimited,SBD,F,
Girls,67.36,8,Kiara Mata,Ballinger,67.36,127.01,79.38,145.15,351.53,Unlimited,SBD,F,
Girls,67.36,9,Allie Green,Callisburg,64.64,136.08,65.77,142.88,344.73,Unlimited,SBD,F,
Girls,67.36,10,Jessalyn Edwards,Bells,65.05,133.81,83.91,124.74,342.46,Unlimited,SBD,F,
Girls,67.36,11,Samantha Kleinmeyer,Florence,67.04,122.47,65.77,129.27,317.51,Unlimited,SBD,F,
Girls,67.36,12,Marley Howard,Newton,65.41,102.06,68.04,111.13,281.23,Unlimited,SBD,F,
Girls,67.36,DQ,Leah Selph,Newton,67.13,,,,,Unlimited,SBD,F,
Girls,75.07,1,Madalyn Warren,Alpine,73.8,176.9,113.4,158.76,449.06,Unlimited,SBD,F,
Girls,75.07,2,Jalee Tiller,Henrietta,70.44,151.95,104.33,151.95,408.23,Unlimited,SBD,F,
Girls,75.07,3,Ashly Garcia,Nixon Smiley,71.71,158.76,83.91,140.61,383.29,Unlimited,SBD,F,
Girls,75.07,4,Celeste Gutowski,Van Vleck,72.98,154.22,88.45,138.35,381.02,Unlimited,SBD,F,
Girls,75.07,5,Amaya Bohannon,Edinburg Idea College Prep,73.44,136.08,99.79,140.61,376.48,Unlimited,SBD,F,
Girls,75.07,6,Hannah Foster,Elkhart,74.84,142.88,97.52,133.81,374.21,Unlimited,SBD,F,
Girls,75.07,7,Chasity Dunn,Millsap,72.26,136.08,88.45,142.88,367.41,Unlimited,SBD,F,
Girls,75.07,8,Addyson King,Ballinger,74.25,147.42,61.23,138.35,347,Unlimited,SBD,F,
Girls,75.07,9,Kaitlyn Baker,Clifton,70.9,149.69,72.57,117.93,340.19,Unlimited,SBD,F,
Girls,75.07,10,Mattie Fuller,Lone Oak,71.35,145.15,88.45,106.59,340.19,Unlimited,SBD,F,
Girls,75.07,11,Mikaela Vasquez,Coahoma,69.94,136.08,63.5,136.08,335.66,Unlimited,SBD,F,
Girls,75.07,12,Ellie Voulgaris,Boling,74.3,127.01,65.77,131.54,324.32,Unlimited,SBD,F,
Girls,75.07,13,Adalyne Burks,Troup,72.57,115.67,77.11,124.74,317.51,Unlimited,SBD,F,
Girls,75.07,DQ,Gracie Galindo,Brady,72.48,,,,,Unlimited,SBD,F,
Girls,82.33,1,Addi Boren,Elkhart,82.24,190.51,106.59,145.15,442.25,Unlimited,SBD,F,
Girls,82.33,2,Reyna Arias,Friona,81.47,167.83,106.59,151.95,426.38,Unlimited,SBD,F,
Girls,82.33,3,Jade Buchanan,Anderson-Shiro,81.65,172.37,86.18,158.76,417.3,Unlimited,SBD,F,
Girls,82.33,4,Maria Lomeli,Crane,79.24,149.69,92.99,145.15,387.82,Unlimited,SBD,F,
Girls,82.33,5,Ariel Martinez,Wichita Falls City View,80.88,156.49,79.38,151.95,387.82,Unlimited,SBD,F,
Girls,82.33,6,Landrie Valenzuela,Jacksboro,79.38,147.42,77.11,161.03,385.55,Unlimited,SBD,F,
Girls,82.33,7,Kaycee Schoen,Comanche,82.28,142.88,83.91,154.22,381.02,Unlimited,SBD,F,
Girls,82.33,8,Ashley Aguirre,Natalia,75.66,142.88,90.72,142.88,376.48,Unlimited,SBD,F,
Girls,82.33,9,Tayla Davis,Troup,82.1,145.15,79.38,145.15,369.68,Unlimited,SBD,F,
Girls,82.33,10,Kassidy Romero,Dilley,79.24,158.76,86.18,122.47,367.41,Unlimited,SBD,F,
Girls,82.33,11,Emily Jones,Warren,76.93,136.08,81.65,142.88,360.61,Unlimited,SBD,F,
Girls,82.33,12,Nevaeh Mangum,Van Vleck,79.65,151.95,72.57,124.74,349.27,Unlimited,SBD,F,
Girls,82.33,DQ,Kaidence Glenn,Millsap,77.02,,,,,Unlimited,SBD,F,
Girls,90.04,1,Araceley Segovia,Natalia,88.77,192.78,88.45,172.37,453.59,Unlimited,SBD,F,
Girls,90.04,2,Samantha Agan,Elkhart,90.04,165.56,136.08,151.95,453.59,Unlimited,SBD,F,
Girls,90.04,3,Lenora Busby,Clifton,84.59,172.37,102.06,172.37,446.79,Unlimited,SBD,F,
Girls,90.04,4,Kiara Lozano,Crane,84.19,181.44,97.52,158.76,437.72,Unlimited,SBD,F,
Girls,90.04,5,Chanelle Nieto,George West,87.45,165.56,83.91,165.56,415.04,Unlimited,SBD,F,
Girls,90.04,6,Jackie Hernandez,Merkel,89.54,165.56,86.18,156.49,408.23,Unlimited,SBD,F,
Girls,90.04,7,Dina Cavazos,Monte Alto,88.27,163.29,90.72,149.69,403.7,Unlimited,SBD,F,
Girls,90.04,8,Cassidy Adair,Dublin,87.36,147.42,92.99,138.35,378.75,Unlimited,SBD,F,
Girls,90.04,9,Cerenity Gibson,Van Vleck,87.59,154.22,83.91,133.81,371.95,Unlimited,SBD,F,
Girls,90.04,10,Addie McCarty,Wichita Falls City View,83.42,136.08,88.45,117.93,342.46,Unlimited,SBD,F,
Girls,90.04,11,Raylee Stopka,Sadler S & S Consolidated,84.78,127.01,74.84,133.81,335.66,Unlimited,SBD,F,
Girls,90.04,12,Jazmin Gómez,Danbury,89.31,124.74,77.11,127.01,328.85,Unlimited,SBD,F,
Girls,90.04,DQ,Abby Day,Quitman,82.74,,,,,Unlimited,SBD,F,
Girls,100.02,1,Marianna Ortiz,Dublin,99.52,183.7,127.01,154.22,464.93,Unlimited,SBD,F,
Girls,100.02,2,Na Khiyah Porras,Dimmitt,97.98,163.29,102.06,192.78,458.13,Unlimited,SBD,F,
Girls,100.02,3,Jalynn Skach,Palmer,93.71,181.44,95.25,161.03,437.72,Unlimited,SBD,F,
Girls,100.02,4,Aundrea Rodriguez,Dilley,94.12,192.78,102.06,142.88,437.72,Unlimited,SBD,F,
Girls,100.02,5,Elisabeth Fowler,Newton,91.67,163.29,108.86,147.42,419.57,Unlimited,SBD,F,
Girls,100.02,6,Holly Johnson,Sadler S & S Consolidated,99.2,192.78,86.18,138.35,417.3,Unlimited,SBD,F,
Girls,100.02,7,Taryn Busby,Clifton,91.22,127.01,108.86,163.29,399.16,Unlimited,SBD,F,
Girls,100.02,8,Paige Shields,Millsap,97.93,154.22,86.18,140.61,381.02,Unlimited,SBD,F,
Girls,100.02,9,Angel Quintero,Taft,95.25,158.76,86.18,133.81,378.75,Unlimited,SBD,F,
Girls,100.02,10,Zoe Goodman,Kountze,93.85,136.08,54.43,147.42,337.93,Unlimited,SBD,F,
Girls,100.02,DQ,Yadira Esqueda,Dimmitt,97.66,,,,,Unlimited,SBD,F,
Girls,100.02,DQ,Hannah Aaron,Grand Saline,92.8,,,,,Unlimited,SBD,F,
Girls,110,1,Talisha Ingram,De Kalb,101.56,206.38,97.52,179.17,483.08,Unlimited,SBD,F,
Girls,110,2,Gabby Ramos,Hebbronville,106.23,206.38,117.93,145.15,469.47,Unlimited,SBD,F,
Girls,110,3,Aliyah Lewis,Callisburg,102.06,170.1,111.13,127.01,408.23,Unlimited,SBD,F,
Girls,110,4,Marie Phillips,Friona,102.56,147.42,104.33,149.69,401.43,Unlimited,SBD,F,
Girls,110,5,Dora Hernandez,Taft,100.79,156.49,92.99,145.15,394.63,Unlimited,SBD,F,
Girls,110,6,Danica Perkins,Newton,108.68,149.69,97.52,122.47,369.68,Unlimited,SBD,F,
Girls,110,7,Diandra Hernandez,Brady,101.83,158.76,70.31,133.81,362.87,Unlimited,SBD,F,
Girls,110,8,Michelle Villa,Comfort,106.64,133.81,72.57,131.54,337.93,Unlimited,SBD,F,
Girls,110,9,Cera Sanchez,Bells,109.27,136.08,81.65,108.86,326.59,Unlimited,SBD,F,
Girls,110,DQ,Maylene Caceres,Buffalo,104.33,,,,,Unlimited,SBD,F,
Girls,110,DQ,Rebekkah Gorman,Childress,109.54,,,,,Unlimited,SBD,F,
Girls,110+,1,Tatum Wallace,Elkhart,117.66,174.63,115.67,158.76,449.06,Unlimited,SBD,F,
Girls,110+,2,Marlena Nunn,Altair Rice,133.36,183.7,106.59,138.35,428.64,Unlimited,SBD,F,
Girls,110+,3,Rayana Barzart,Early,113.62,170.1,117.93,131.54,419.57,Unlimited,SBD,F,
Girls,110+,4,Marissa Juarez,Wichita Falls City View,110.5,154.22,104.33,145.15,403.7,Unlimited,SBD,F,
Girls,110+,5,Emma Waldrip,Bells,122.97,147.42,111.13,136.08,394.63,Unlimited,SBD,F,
Girls,110+,6,Hailey Wilkinson,Van Vleck,122.2,154.22,90.72,124.74,369.68,Unlimited,SBD,F,
Girls,110+,7,Macenzee Johns,Newton,115.58,140.61,79.38,120.2,340.19,Unlimited,SBD,F,
Girls,110+,DQ,Amelia Lyssy,Poth,139.62,,,,,Unlimited,SBD,F,
Girls,110+,DQ,Samerra Reed,Brady,115.26,,,,,Unlimited,SBD,F,
Girls,110+,DQ,Jesimae Gamez,Dimmitt,118.71,127.01,81.65,,,Unlimited,SBD,F,
Girls,110+,DQ,Samara Smith,Dimmitt,112.49,136.08,56.7,,,Unlimited,SBD,F,
Girls,110+,DQ,Allyee Cline,Elysian Fields,126.92,,,,,Unlimited,SBD,F,
