Name,Sex,WeightClassKg,BodyweightKg,BirthYear,Division,Team,Bench1Kg,Bench2Kg,Bench3Kg,Best3BenchKg,TotalKg,Place,Event,Equipment,BirthDate
Nina Jelinek,F,69.00,66.80,1998,Open,PSV Salzburg/KDK,65,70,-72.5,70,70,2,B,Raw,1998-05-29
Alisha Anosike,F,69.00,64.90,2000,Open,PSV Salzburg/KDK,47.5,52.5,55,55,55,5,B,Raw,2000-09-17
Paula Schmidt,F,69.00,65.10,2004,Open,PSV Salzburg/KDK,52.5,57.5,-60,57.5,57.5,4,B,Raw,2004-06-05
Sarah Zeitler,F,52.00,48.60,2003,Open,Salzburg Brutality Powerlifting,45,50,-52.5,50,50,1,B,Raw,2003-05-24
Anna Metzger,F,63.00,62.80,2003,Open,Southside Powerclub Flattach,62.5,67.5,-70,67.5,67.5,2,B,Raw,2003-03-29
Nina Baumgartner,F,76.00,73.80,2002,Open,Southside Powerclub Flattach,52.5,55,-60,55,55,3,B,Raw,2002-02-22
Anna Bogensperger,F,69.00,67.80,2003,Open,Powerlifting Elite Salzburg,75,80,83,83,83,1,B,Raw,2003-10-12
Juliana Pavel,F,63.00,62.00,2001,Open,Salzburg Brutality Powerlifting,50,55,-62.5,55,55,3,B,Raw,2001-12-15
Saskia Schild,F,76.00,74.80,1992,Open,ASVÖ SK Kraftwerk Untersberg Grödig,65,70,75,75,75,2,B,Raw,1992-03-17
Naima Sara Gaidoschick,F,84.00,77.70,1990,Open,ASVÖ SK Kraftwerk Untersberg Grödig,-67.5,67.5,72.5,72.5,72.5,1,B,Raw,1990-10-07
Viviana Garzon,F,63.00,63.00,1993,Open,PSV Salzburg/KDK,65,70,-75,70,70,1,B,Raw,1993-02-23
Stefan Winklhofer,M,93.00,86.80,2001,Open,Salzburg Brutality Powerlifting,117.5,125,-132.5,125,125,4,B,Raw,2001-10-30
Simon Klose,M,105.00,102.80,1990,Open,Salzburg Brutality Powerlifting,152.5,160,170,170,170,1,B,Raw,1990-03-04
Sebastian Leopolder,M,105.00,98.80,1988,Open,Salzburg Brutality Powerlifting,140,150,-157.5,150,150,3,B,Raw,1988-12-23
Jonas Buggisch,M,83.00,81.80,2002,Open,Salzburg Brutality Powerlifting,105,112.5,-120,112.5,112.5,5,B,Raw,2002-08-02
Alexander Zwickl,M,120+,128.80,1992,Open,KSV Pinzgau,175,180,-182.5,180,180,1,B,Raw,1992-07-07
Roland Stingeder,M,74.00,73.20,1971,Open,AK Bodyform Salzburg,80,87.5,90,90,90,1,B,Raw,1971-05-29
Rudolf Gratz,M,83.00,81.40,1962,Open,AK Bodyform Salzburg,90,95,100,100,100,8,B,Raw,1962-01-16
Erik Jelinek,M,120.00,111.20,2000,Open,PSV Salzburg/KDK,100,120,135,135,135,3,B,Raw,2000-10-15
Mario Aistleitner,M,93.00,89.10,1983,Open,AK Bodyform Salzburg,110,115,-120,115,115,7,B,Raw,1983-12-09
Maximilian Micheler,M,93.00,85.40,2003,Open,Southside Powerclub Flattach,125,130,-137.5,130,130,3,B,Raw,2003-05-13
Goran Karlas,M,93.00,89.00,2002,Open,ASVÖ KSV Kärnten/Weißenstein,125,132.5,-140,132.5,132.5,2,B,Raw,2002-10-27
Patrick Sinzinger,M,93.00,91.00,1996,Open,ASVÖ KSV Kärnten/Weißenstein,150,155,-157.5,155,155,1,B,Raw,1996-07-04
Tobias Klammer,M,93.00,90.10,2006,Open,Southside Powerclub Flattach,107.5,115,120,120,120,6,B,Raw,2006-05-25
Alexander Wassung,M,83.00,79.10,1998,Open,ASVÖ SK Kraftwerk Untersberg Grödig,112.5,120,-125,120,120,3,B,Raw,1998-03-06
Nico Schellander,M,93.00,91.30,2002,Open,ASVÖ KSV Kärnten/Weißenstein,115,125,-135,125,125,5,B,Raw,2002-04-21
Philipp Glanzer,M,83.00,81.10,1994,Open,ASVÖ KSV Kärnten/Weißenstein,105,110,-115,110,110,6,B,Raw,1994-03-18
Alessandro Della Pietra,M,105.00,96.40,2009,Open,ASVÖ KSV Kärnten/Weißenstein,155,160,165,165,165,2,B,Raw,2009-01-09
Jonas Farfeleder,M,120.00,111.20,2004,Open,PSV Salzburg/KDK,140,147.5,155,155,155,1,B,Raw,2004-03-02
Werner Strohofer,M,74.00,71.10,1951,Open,PSV Salzburg/KDK,45,55,60,60,60,2,B,Raw,1951-01-17
Peter Steiner,M,83.00,78.40,2007,Open,Southside Powerclub Flattach,110,120,130,130,130,2,B,Raw,2007-09-29
Matteo Paumgarten,M,83.00,81.70,2001,Open,Southside Powerclub Flattach,97.5,-105,107.5,107.5,107.5,7,B,Raw,2001-07-05
Isabel König,F,76.00,69.80,2002,Open,PSV Salzburg/KDK,45,47.5,50,50,50,4,B,Raw,2002-08-26
Eleonora Speigner,F,76.00,73.90,1997,Open,PSV Salzburg/KDK,70,75,77.5,77.5,77.5,1,B,Raw,1997-11-10
Matthias Winkler,M,83.00,79.50,1951,Open,AK Bodyform Salzburg,80,,,80,80,9,B,Raw,1951-04-25
Günther Herbek,M,105.00,103.40,1972,Open,AK Bodyform Salzburg,110,-115,-120,110,110,6,B,Raw,1972-02-05
Jennifer Maier,F,69.00,69.00,1995,Open,ASVÖ KSV Kärnten/Weißenstein,52.5,57.5,65,65,65,3,B,Raw,1995-05-28
Harald Simon,M,105.00,101.40,1967,Open,AK Bodyform Salzburg,110,117.5,-120,117.5,117.5,5,B,Raw,1967-02-03
Franz Huemer,M,120.00,108.60,1963,Open,AK Bodyform Salzburg,140,150,-160,150,150,2,B,Raw,1963-01-26
Uwe Lutsch,M,120.00,109.50,1967,Open,AK Bodyform Salzburg,120,125,130,130,130,4,B,Raw,1967-11-28
Lukas Hieronymus,M,83.00,82.20,1996,Open,AK Bodyform Salzburg,110,115,120,120,120,4,B,Raw,1996-07-24
Alexander Wolff,M,105.00,99.50,1993,Open,AK Bodyform Salzburg,145,150,-160,150,150,4,B,Raw,1993-09-09
Kevin Amlacher,M,83.00,82.90,2000,Open,Southside Powerclub Flattach,140,150,-160,150,150,1,B,Raw,2000-09-14
Goran Mitrovic,M,93.00,93.00,1995,Open,Southside Powerclub Flattach,105,115,120,120,120,G,B,Raw,1995-01-08
