Division,WeightClassKg,Place,Name,Team,BodyweightKg,Best3SquatKg,Best3BenchKg,Best3DeadliftKg,TotalKg,Equipment,Event,Sex,BirthDate
Boys,51.71,1,Jaden Araujo,Lytle,50.71,127.01,70.31,142.88,340.19,Unlimited,SBD,M,
Boys,51.71,2,Jaxon Anderson,Castroville Medina Valley,50.26,122.47,65.77,108.86,297.1,Unlimited,SBD,M,
Boys,51.71,3,Evan Syma,Lytle,43.45,52.16,34.02,79.38,165.56,Unlimited,SBD,M,
Boys,55.79,1,Triston Longmire,Marion,53.98,113.4,61.23,124.74,299.37,Unlimited,SBD,M,
Boys,59.87,1,Avery Crouch,San Antonio Veterans Memorial,58.88,233.6,108.86,210.92,553.38,Unlimited,SBD,M,
Boys,59.87,2,Brody Vigil,Castroville Medina Valley,58.24,165.56,102.06,161.03,428.64,Unlimited,SBD,M,
Boys,59.87,3,Daniel Velasquez,San Antonio Memorial,59.06,142.88,88.45,176.9,408.23,Unlimited,SBD,M,
Boys,59.87,4,Elroy Valero,San Antonio Southside,58.42,165.56,79.38,161.03,405.97,Unlimited,SBD,M,
Boys,59.87,5,Eugenio Resendiz,San Antonio Memorial,58.79,106.59,65.77,120.2,292.57,Unlimited,SBD,M,
Boys,59.87,6,Brandon Godwin,Yoakum,56.97,72.57,43.09,102.06,217.72,Unlimited,SBD,M,
Boys,59.87,DQ,Zeth Sanchez,San Antonio Memorial,58.6,,,,,Unlimited,SBD,M,
Boys,59.87,DQ,Dylan Riggs,San Antonio Veterans Memorial,59.78,108.86,86.18,,,Unlimited,SBD,M,
Boys,59.87,DQ,Clayton Barron,Castroville Medina Valley,59.6,161.03,,,,Unlimited,SBD,M,
Boys,67.13,1,Brian Guillen,San Antonio Southside,67.04,192.78,136.08,181.44,510.29,Unlimited,SBD,M,
Boys,67.13,2,Gabriel Ramlogan,Castroville Medina Valley,66.04,185.97,113.4,188.24,487.61,Unlimited,SBD,M,
Boys,67.13,3,Gustavo Gerardo,San Antonio Veterans Memorial,65.59,122.47,88.45,179.17,390.09,Unlimited,SBD,M,
Boys,67.13,4,Ethan DeLeon,Lytle,64.05,88.45,83.91,124.74,297.1,Unlimited,SBD,M,
Boys,67.13,DQ,Amadeus Trejo-Perez,Lytle,63.68,165.56,,,,Unlimited,SBD,M,
Boys,74.84,1,Alijah Scardino,Marion,74.57,215.46,90.72,213.19,519.36,Unlimited,SBD,M,
Boys,74.84,2,Trevor Allen,Castroville Medina Valley,74.84,192.78,111.13,183.7,487.61,Unlimited,SBD,M,
Boys,74.84,3,Josiah Garcia,San Antonio Southside,67.22,174.63,99.79,204.12,478.54,Unlimited,SBD,M,
Boys,74.84,4,Emmanuel Hernandez,San Antonio Southside,74.57,183.7,115.67,161.03,460.4,Unlimited,SBD,M,
Boys,74.84,5,Julian Buenrostro,San Antonio Veterans Memorial,68.58,149.69,79.38,190.51,419.57,Unlimited,SBD,M,
Boys,74.84,6,Thomas Rubal,Lytle,70.13,167.83,90.72,154.22,412.77,Unlimited,SBD,M,
Boys,74.84,7,Victera Osorto,San Antonio Memorial,70.31,138.35,102.06,163.29,403.7,Unlimited,SBD,M,
Boys,74.84,8,Justin Carrisal,San Antonio Veterans Memorial,68.22,133.81,90.72,151.95,376.48,Unlimited,SBD,M,
Boys,74.84,9,Kolten Rios,Marion,69.76,113.4,72.57,151.95,337.93,Unlimited,SBD,M,
Boys,74.84,DQ,Blake Birdwell,Marion,73.75,120.2,,,,Unlimited,SBD,M,
Boys,74.84,DQ,Scott Gantzler,Castroville Medina Valley,73.84,174.63,,,,Unlimited,SBD,M,
Boys,74.84,DQ,Evan Buenrostro,San Antonio Veterans Memorial,69.04,136.08,,,,Unlimited,SBD,M,
Boys,82.1,1,Santana Ayala,Castroville Medina Valley,81.28,179.17,102.06,210.92,492.15,Unlimited,SBD,M,
Boys,82.1,2,Nicolas Pacheco,Lytle,81.01,190.51,131.54,163.29,485.34,Unlimited,SBD,M,
Boys,82.1,3,Logan Schuchart,Castroville Medina Valley,78.47,183.7,102.06,170.1,455.86,Unlimited,SBD,M,
Boys,82.1,4,Gabriel Gomez,Yoakum,81.83,147.42,102.06,183.7,433.18,Unlimited,SBD,M,
Boys,82.1,5,Joshua Gonzales,Lytle,75.21,83.91,43.09,92.99,219.99,Unlimited,SBD,M,
Boys,82.1,DQ,Richard DeLaGarza,San Antonio Southside,80.92,238.14,,,,Unlimited,SBD,M,
Boys,82.1,DQ,J Borrego,San Antonio Memorial,79.11,,,,,Unlimited,SBD,M,
Boys,89.81,1,Micah Heneke,San Antonio Southside,83.19,201.85,124.74,131.54,458.13,Unlimited,SBD,M,
Boys,89.81,2,Tyler Drake,San Antonio Veterans Memorial,85.46,156.49,102.06,183.7,442.25,Unlimited,SBD,M,
Boys,89.81,3,Kyler Flores,San Antonio Veterans Memorial,89.36,151.95,102.06,188.24,442.25,Unlimited,SBD,M,
Boys,89.81,4,Jayden Gonzales,Yoakum,88.27,161.03,106.59,154.22,421.84,Unlimited,SBD,M,
Boys,89.81,5,Mikey Irving,San Antonio Veterans Memorial,87.91,142.88,74.84,158.76,376.48,Unlimited,SBD,M,
Boys,89.81,6,Cayden Schultze,Marion,87.91,142.88,90.72,142.88,376.48,Unlimited,SBD,M,
Boys,89.81,7,Joel Gomez,Yoakum,85.09,102.06,70.31,127.01,299.37,Unlimited,SBD,M,
Boys,89.81,8,Jake Schultze,Marion,82.83,86.18,56.7,97.52,240.4,Unlimited,SBD,M,
Boys,99.79,1,Nathan Villegas,Castroville Medina Valley,91.35,254.01,167.83,219.99,641.83,Unlimited,SBD,M,
Boys,99.79,2,Brandon Barnett,Castroville Medina Valley,98.16,240.4,113.4,256.28,610.08,Unlimited,SBD,M,
Boys,99.79,3,Elijah Cantu,San Antonio Southside,97.07,215.46,151.95,176.9,544.31,Unlimited,SBD,M,
Boys,99.79,4,Dallas Harrell,San Antonio Veterans Memorial,92.08,197.31,117.93,199.58,514.83,Unlimited,SBD,M,
Boys,99.79,5,Brady Forman,Castroville Medina Valley,92.71,197.31,133.81,170.1,501.22,Unlimited,SBD,M,
Boys,99.79,6,Jared Ramirez,Yoakum,97.25,206.38,102.06,183.7,492.15,Unlimited,SBD,M,
Boys,99.79,7,Joaquin Verela,Yoakum,96.34,151.95,102.06,183.7,437.72,Unlimited,SBD,M,
Boys,99.79,8,Ciprino Griego,Lytle,97.07,117.93,92.99,142.88,353.8,Unlimited,SBD,M,
Boys,99.79,9,Adam Dominguez,Lytle,90.08,115.67,70.31,131.54,317.51,Unlimited,SBD,M,
Boys,99.79,10,Rosendo Gonzalez,Lytle,95.16,120.2,61.23,120.2,301.64,Unlimited,SBD,M,
Boys,99.79,DQ,Jerry Llanas,Yoakum,91.26,,,,,Unlimited,SBD,M,
Boys,99.79,DQ,Guadalupe Herrera,San Antonio Memorial,90.08,142.88,,,,Unlimited,SBD,M,
Boys,109.77,1,Justin Dehoyos,Marion,105.69,226.8,165.56,231.33,623.69,Unlimited,SBD,M,
Boys,109.77,2,Xavier Fears,Castroville Medina Valley,103.69,188.24,147.42,195.04,530.7,Unlimited,SBD,M,
Boys,109.77,3,Maximus Gonzalez,San Antonio Veterans Memorial,99.88,176.9,104.33,179.17,460.4,Unlimited,SBD,M,
Boys,109.77,4,Richard Ramirez,San Antonio Memorial,104.24,158.76,113.4,174.63,446.79,Unlimited,SBD,M,
Boys,109.77,DQ,Brandon Masterson,San Antonio Veterans Memorial,109.5,,,,,Unlimited,SBD,M,
Boys,124.74,1,River Bergman,Yoakum,119.57,254.01,124.74,215.46,594.21,Unlimited,SBD,M,
Boys,124.74,2,Markos Garcia,San Antonio Southside,121.11,226.8,147.42,204.12,578.33,Unlimited,SBD,M,
Boys,124.74,3,Nicholas Garcia,San Antonio Memorial,120.75,217.72,124.74,208.65,551.11,Unlimited,SBD,M,
Boys,124.74,4,Joaquin Castillo,Lytle,120.93,183.7,151.95,142.88,478.54,Unlimited,SBD,M,
Boys,124.74,5,John Elizondo,San Antonio Memorial,112.04,183.7,108.86,183.7,476.27,Unlimited,SBD,M,
Boys,124.74,6,Ryan Perez,San Antonio Memorial,116.21,154.22,108.86,174.63,437.72,Unlimited,SBD,M,
Boys,139.71+,1,Luigi Tirado,San Antonio Southside,140.61,156.49,111.13,183.7,451.32,Unlimited,SBD,M,
Boys,139.71+,2,Felipe Pena Chu,San Antonio Memorial,163.84,181.44,83.91,174.63,439.98,Unlimited,SBD,M,
