Place,Name,WeightClassKg,BodyweightKg,Squat1Kg,Squat2Kg,Squat3Kg,Squat4Kg,Best3SquatKg,Bench1Kg,Bench2Kg,Bench3Kg,Bench4Kg,Best3BenchKg,Deadlift1Kg,Deadlift2Kg,Deadlift3Kg,Deadlift4Kg,Best3DeadliftKg,TotalKg,Equipment,Sex,Division,Event,BirthDate
1,Anikó Hajdú,67.5,64.6,130,140,145,,145,,,,,,,,,,,145,Wraps,F,FO,S,
2,Dóra Balogh,67.5,65.5,110,115,-125,,115,,,,,,,,,,,115,Wraps,F,FO,S,
1,Viktória Majoros,82.5,82.5,180,-190,190,,190,,,,,,,,,,,190,Wraps,F,FO,S,
1,Zsuzsanna Varga,60,57.6,60,70,80,,80,,,,,,,,,,,80,Wraps,F,FO,S,
1,Tamás Benedek Lóczi,82.5,81,160,172.5,-185,,172.5,,,,,,,,,,,172.5,Wraps,M,MJ,S,
1,Ferenc Hevesi,100,99,305,315,330,,330,,,,,,,,,,,330,Wraps,M,MJ,S,
1,Gábor Jádi,82.5,82.5,210,222.5,-227.5,,222.5,,,,,,,,,,,222.5,Wraps,M,MO,S,
1,Bence Csercsinszki,90,87.5,200,215,225,,225,,,,,,,,,,,225,Wraps,M,MO,S,
2,Bence Bíró,90,89.4,-180,190,205,,205,,,,,,,,,,,205,Wraps,M,MO,S,
3,László Posnyák,90,83.9,-110,130,140,,140,,,,,,,,,,,140,Wraps,M,MO,S,
1,Imre Lovász,110,109.5,300,315,320,,320,,,,,,,,,,,320,Raw,M,MO,S,
2,Hunor Nagy,110,108.9,270,285,-300,,285,,,,,,,,,,,285,Wraps,M,MO,S,
1,Gábor Kocsis,125,122.4,-295,-295,295,,295,,,,,,,,,,,295,Wraps,M,MO,S,
2,Ádám Bence Lőrincz,125,110.6,175,190,200,,200,,,,,,,,,,,200,Wraps,M,MO,S,
1,Viktor Revesz,100,97.5,90,-100,-100,,90,,,,,,,,,,,90,Wraps,M,MM1,S,
1,László Vass,125,116.2,180,200,220,,220,,,,,,,,,,,220,Wraps,M,MM1,S,
DQ,Péter Kovács,125,115.6,-195,-195,-195,,,,,,,,,,,,,,Wraps,M,MM1,S,
1,Tibor Karalyos,140,138.1,282.5,,,,282.5,,,,,,,,,,,282.5,Wraps,M,MM1,S,
1,István Gyuricska Jr,82.5,81.8,170,185,200,,200,,,,,,,,,,,200,Wraps,M,MM2,S,
1,Béla Serfőző,110,102.9,-200,-200,200,,200,,,,,,,,,,,200,Multi-ply,M,MEM2,S,
1,Huba Hablicsek,67.5,62.8,,,,,,,,,,,-140,140,155,,155,155,Multi-ply,M,MOE,D,
1,Szilárd Andrási,90,90,,,,,,,,,,,290,305,310,-315,310,310,Multi-ply,M,MOE,D,
1,Károly József Szuder,100,97.2,,,,,,,,,,,250,260,270,,270,270,Multi-ply,M,MOE,D,
2,Zoltán András Boldizsár,100,96.8,,,,,,,,,,,220,240,260,,260,260,Multi-ply,M,MOE,D,
1,Tibor Manzera,110,107.2,,,,,,,,,,,150,,,,150,150,Multi-ply,M,MOE,D,
1,Péter Pintér,125,120.2,,,,,,,,,,,280,300,310,,310,310,Multi-ply,M,MOE,D,
1,Norbert Hablicsek,125,116.1,,,,,,,,,,,250,270,,,270,270,Multi-ply,M,MEM1,D,
1,István Dávid,140,127,,,,,,,,,,,220,240,-260,,240,240,Multi-ply,M,MEM1,D,
1,Tibor Manzera,110,107.2,,,,,,,,,,,150,,,,150,150,Multi-ply,M,MEM2,D,
1,Jazmin Napsugar Anga,44,39.8,,,,,,,,,,,-50,50,55,,55,55,Raw,F,FT,D,
1,Klaudia Bodnár,52,50.8,,,,,,,,,,,50,60,70,,70,70,Raw,F,FT,D,
1,Barbara Bettina Pinter,60,56.8,,,,,,,,,,,100,-102.5,-102.5,,100,100,Raw,F,FT,D,
1,Kinga Karsai,67.5,63.1,,,,,,,,,,,120,130,-135,,130,130,Raw,F,FT,D,
2,Alexandra Maris,67.5,63.8,,,,,,,,,,,100,107.5,-115,,107.5,107.5,Raw,F,FT,D,
1,Dóra Rita Horváth,75,68,,,,,,,,,,,110,125,127.5,,127.5,127.5,Raw,F,FT,D,
2,Eliza Kékesi,75,72,,,,,,,,,,,110,115,120,-123.5,120,120,Raw,F,FT,D,
3,Lili Vadasz,75,74.2,,,,,,,,,,,105,117.5,-123,123,117.5,117.5,Raw,F,FT,D,
1,Noémi Magura,82.5,79.4,,,,,,,,,,,107.5,112.5,117.5,,117.5,117.5,Raw,F,FT,D,
1,Ilka Németh,90+,111.2,,,,,,,,,,,110,122.5,135,,135,135,Raw,F,FT,D,
1,Réka Toplenszki,44,44,,,,,,,,,,,100,105,-110,,105,105,Raw,F,FJ,D,
1,Janka Kajdi,75,73.7,,,,,,,,,,,-100,100,-110,,100,100,Raw,F,FJ,D,
1,Laura Blanka Csánicz,90+,100.5,,,,,,,,,,,140,150,160,,160,160,Raw,F,FJ,D,
2,Rebeka Makkai,90+,129,,,,,,,,,,,107.5,117.5,130,,130,130,Raw,F,FJ,D,
3,Patricia Ilona Grim,90+,101.1,,,,,,,,,,,115,-125,125,,125,125,Raw,F,FJ,D,
1,Kinga Kecskeméti,48,46.5,,,,,,,,,,,120,125,130,132.5,130,130,Raw,F,FO,D,
2,Edina Somogyi,48,47.8,,,,,,,,,,,80,90,100,,100,100,Raw,F,FO,D,
1,Klaudia Bodnár,52,50.8,,,,,,,,,,,50,60,70,,70,70,Raw,F,FO,D,
1,Bettina Patyi,60,58,,,,,,,,,,,120,127.5,132.5,,132.5,132.5,Raw,F,FO,D,
1,Dóra Balogh,67.5,65.5,,,,,,,,,,,132.5,-137.5,-137.5,,132.5,132.5,Raw,F,FO,D,
1,Agnes Bajzak-Csikos,75,74.2,,,,,,,,,,,105,115,-120,,115,115,Raw,F,FO,D,
2,Janka Kajdi,75,73.7,,,,,,,,,,,-100,100,-110,,100,100,Raw,F,FO,D,
1,Varga Éva Petrovicsné,90,86.4,,,,,,,,,,,120,132.5,-137.5,,132.5,132.5,Raw,F,FO,D,
1,Anita Melinda Danicser,90+,90.5,,,,,,,,,,,147.5,-157.5,-157.5,,147.5,147.5,Raw,F,FO,D,
1,Ágnes Papp,52,49.5,,,,,,,,,,,100,110,,,110,110,Raw,F,FM1,D,
1,Kati Györökné,56,54.9,,,,,,,,,,,95,105,110,,110,110,Raw,F,FM1,D,
1,Eszter Csonka,60,60,,,,,,,,,,,100,110,122.5,,122.5,122.5,Raw,F,FM1,D,
1,Ildiko Barocsi,67.5,65.6,,,,,,,,,,,107.5,115,122.5,,122.5,122.5,Raw,F,FM1,D,
1,Ildikó Sztrunga,75,70.8,,,,,,,,,,,110,120,130,,130,130,Raw,F,FM1,D,
1,Ilona Simon,82.5,80.7,,,,,,,,,,,160,172.5,-180,,172.5,172.5,Raw,F,FM1,D,
DQ,Éva Manzera,82.5,82.3,,,,,,,,,,,,,,,,,Raw,F,FM1,D,
1,Anita Melinda Danicser,90+,90.5,,,,,,,,,,,147.5,-157.5,-157.5,,147.5,147.5,Raw,F,FM1,D,
2,Melinda Ildikó Derdák,90+,95.6,,,,,,,,,,,120,132.5,-145,,132.5,132.5,Raw,F,FM1,D,
3,Szilvia Juhász-Ilyés,90+,91.8,,,,,,,,,,,117.5,130,-142.5,,130,130,Raw,F,FM1,D,
DQ,Katalin Ferkel,56,56,,,,,,,,,,,,,,,,,Raw,F,FM2,D,
1,Anikó Csonka,67.5,62.8,,,,,,,,,,,130,140.5,142.5,,142.5,142.5,Raw,F,FM2,D,
1,Katalin Rohrmann,82.5,81,,,,,,,,,,,120,125,130,,130,130,Raw,F,FM3,D,
1,Máté Kiss #2,67.5,65.2,,,,,,,,,,,200,210,220,-222,220,220,Raw,M,MT,D,
2,Benjamin Mano Ladanyi,67.5,64.1,,,,,,,,,,,140,152.5,160,,160,160,Raw,M,MT,D,
3,Dávid Simon,67.5,66.7,,,,,,,,,,,-140,160,-182.5,,160,160,Raw,M,MT,D,
1,Dominik Dzimba,75,70.9,,,,,,,,,,,200,-220.5,-220.5,,200,200,Raw,M,MT,D,
2,Adam Muranyi,75,70.7,,,,,,,,,,,145,155,162.5,,162.5,162.5,Raw,M,MT,D,
3,Tibor Mozes Megyes,75,68.2,,,,,,,,,,,150,160,-170,,160,160,Raw,M,MT,D,
1,Laszlo Magyar,82.5,78.9,,,,,,,,,,,-180,200,-210,,200,200,Raw,M,MT,D,
1,Dominik Patrik Budai,90,87.9,,,,,,,,,,,230,240,245,,245,245,Raw,M,MT,D,
1,Mark Mogyorosy,100,100,,,,,,,,,,,150,165,175,,175,175,Raw,M,MT,D,
1,Dániel Horváth #1,110,100.9,,,,,,,,,,,200,210,220,,220,220,Raw,M,MT,D,
1,Martin Gréczi,125,115.4,,,,,,,,,,,220,230,-250,,230,230,Raw,M,MJ,D,
1,Gergo Somogyvari,60,59.7,,,,,,,,,,,165,-175,-175,,165,165,Raw,M,MJ,D,
1,Attila Horváth,67.5,64.1,,,,,,,,,,,150,160,-170,,160,160,Raw,M,MO,D,
1,Gábor Bezzeg,82.5,81.2,,,,,,,,,,,270,280,-291,,280,280,Raw,M,MO,D,
2,Markó Mari,82.5,80.4,,,,,,,,,,,240,260,275,,275,275,Raw,M,MO,D,
3,Mihály Márki-Kira,82.5,80.8,,,,,,,,,,,250,260,267.5,,267.5,267.5,Raw,M,MO,D,
4,Máté Miklós Sajtos,82.5,76.8,,,,,,,,,,,230,250,265,,265,265,Raw,M,MO,D,
5,Csaba Simon,82.5,81.5,,,,,,,,,,,230,250,-270,,250,250,Raw,M,MO,D,
6,Gábor Jádi,82.5,82.5,,,,,,,,,,,220,232.5,237.5,,237.5,237.5,Raw,M,MO,D,
7,Tamás Sipos,82.5,80.7,,,,,,,,,,,210,225,232.5,,232.5,232.5,Raw,M,MO,D,
8,Pál Tóth,82.5,79.2,,,,,,,,,,,225,230,-235,,230,230,Raw,M,MO,D,
1,László Cérna,90,88.5,,,,,,,,,,,270,290,,,290,290,Raw,M,MO,D,
2,Zelena Máté,90,86.4,,,,,,,,,,,250,260,265,,265,265,Raw,M,MO,D,
3,Ferenc Hajó,90,87.9,,,,,,,,,,,230,240,250,,250,250,Raw,M,MO,D,
4,Norbert Gerhát,90,87.2,,,,,,,,,,,230,240,-250,,240,240,Raw,M,MO,D,
1,Kristóf Kincses,100,99,,,,,,,,,,,285,302.5,-305,,302.5,302.5,Raw,M,MO,D,
2,Attila Gonda,100,98.7,,,,,,,,,,,260,275,-280,,275,275,Raw,M,MO,D,
1,József Zetényi,110,104.6,,,,,,,,,,,285,300,-305,,300,300,Raw,M,MO,D,
2,Szabolcs Balázs,110,107.3,,,,,,,,,,,260,300,,,300,300,Raw,M,MO,D,
3,András Szilágyi,110,106.2,,,,,,,,,,,250,260,-270,,260,260,Raw,M,MO,D,
4,József Nyirádi,110,101.1,,,,,,,,,,,170,180,190,,190,190,Raw,M,MO,D,
1,Béla Szolnoki,125,121.2,,,,,,,,,,,315,330,335,,335,335,Raw,M,MO,D,
2,Tibor Fülpesi,125,124.9,,,,,,,,,,,300,320,-335,,320,320,Raw,M,MO,D,
3,Tamás Kurcz,125,121.4,,,,,,,,,,,290,305,312.5,,312.5,312.5,Raw,M,MO,D,
4,Richárd Németh,125,113.4,,,,,,,,,,,275,290,-302.5,,290,290,Raw,M,MO,D,
5,Árpád Tóth,125,117.5,,,,,,,,,,,250,270,-280,,270,270,Raw,M,MO,D,
6,Koppány Mészáros-Vásárhelyi,125,113,,,,,,,,,,,220,232.5,-242.5,,232.5,232.5,Raw,M,MO,D,
1,Tibor Lázár,140,131.9,,,,,,,,,,,-240,260,275,,275,275,Raw,M,MO,D,
2,Gyula Ujvári,140,139.7,,,,,,,,,,,190,210,220,,220,220,Raw,M,MO,D,
3,Imre Hajdú-Kemény,140,129.9,,,,,,,,,,,130,160,180,,180,180,Raw,M,MO,D,
1,Balázs Őzse,140+,140.6,,,,,,,,,,,280,295,-305,,295,295,Raw,M,MO,D,
1,Zsolt Sipos,75,72.6,,,,,,,,,,,160,170,-185,,170,170,Raw,M,MM1,D,
1,Zsolt Horváth,82.5,79.6,,,,,,,,,,,235,245,-260,,245,245,Raw,M,MM1,D,
1,Roland Póta,90,88.4,,,,,,,,,,,260,275,280,,280,280,Raw,M,MM1,D,
1,Tamás Deli,100,99.9,,,,,,,,,,,260,270,,,270,270,Raw,M,MM1,D,
2,Gábor Szabó,100,98.8,,,,,,,,,,,200,210,-220,,210,210,Raw,M,MM1,D,
3,Viktor Revesz,100,97.5,,,,,,,,,,,140,150,160,,160,160,Raw,M,MM1,D,
1,Szabolcs Szép,110,100.3,,,,,,,,,,,235,245,-250,,245,245,Raw,M,MM1,D,
2,Lajos Bán,110,109.8,,,,,,,,,,,225,240,,,240,240,Raw,M,MM1,D,
1,Zsolt Antal,125,113.5,,,,,,,,,,,290,307.5,-312.5,-312.5,307.5,307.5,Raw,M,MM1,D,
2,Péter Kovács,125,115.6,,,,,,,,,,,200,210,230,,230,230,Raw,M,MM1,D,
3,Péter Juhász-Ilyés,125,118.7,,,,,,,,,,,200,212.5,-217.5,,212.5,212.5,Raw,M,MM1,D,
1,Tibor Karalyos,140,138.1,,,,,,,,,,,290,-315,,,290,290,Raw,M,MM1,D,
2,Gyula Ujvári,140,139.7,,,,,,,,,,,190,210,220,,220,220,Raw,M,MM1,D,
1,Csaba Simon,82.5,81.5,,,,,,,,,,,230,250,-270,,250,250,Raw,M,MM2,D,
1,Attila Heizer,100,98.9,,,,,,,,,,,180,-200,,,180,180,Raw,M,MM2,D,
1,László Kiss,110,107.3,,,,,,,,,,,245,260,272.5,,272.5,272.5,Raw,M,MM2,D,
1,Imre Hajdú-Kemény,140,129.9,,,,,,,,,,,130,160,180,,180,180,Raw,M,MM2,D,
1,Gábor Palásti,125,114.4,,,,,,,,,,,230,251,,,251,251,Raw,M,MM3,D,
1,Ladislau Kiss,100,96.3,,,,,,,,,,,220,235,250,-261,250,250,Raw,M,MM4,D,
DQ,Zoltán András Boldizsár,100,96.8,-210,-210,-210,,,,,,,,,,,,,,Multi-ply,M,MOE,SBD,
1,István Dávid,140,127,-220,220,-230,,220,180,190,,,190,220,240,-260,,240,650,Multi-ply,M,MEM1,SBD,
1,Mónika Dancsó,67.5,62.6,100,112.5,121,-126,121,50,-55,-55,,50,110,120,130,132.5,130,301,Wraps,F,FT,SBD,
2,Petra Orovecz,67.5,63.3,95,105,-110,,105,45,-50,50,,50,110,125,130,,130,285,Wraps,F,FT,SBD,
3,Eszter Szotak,67.5,66.1,-95,105,-115,,105,45,50,52.5,,52.5,110,120,127.5,,127.5,285,Wraps,F,FT,SBD,
1,Adél Gyöngyösi,75,73.9,100,107.5,112.5,,112.5,85,87.5,-90,,87.5,-135,142.5,-150,,142.5,342.5,Wraps,F,FT,SBD,
DQ,Karolina Agnes Bottyan,75,71.5,-100,110,-115,,110,-42.5,-42.5,-42.5,,,,,,,,,Wraps,F,FT,SBD,
1,Petra Szőcs,90,87.3,125,130,-135,,130,47.5,-52.5,-52.5,,47.5,130,135,-140,,135,312.5,Wraps,F,FT,SBD,
2,Gréta Maczelka,90,89.8,92.5,97.5,105,,105,45,-50,-50,,45,142.5,152.5,-157.5,,152.5,302.5,Wraps,F,FT,SBD,
1,Luca Garami,67.5,65.3,120,-130,-130,,120,-52.5,-52.5,52.5,,52.5,120,132.5,142.5,,142.5,315,Wraps,F,FJ,SBD,
2,Orsolya Miskolczi,67.5,63.2,70,80,-90,,80,42.5,-50,-50,,42.5,-92.5,97.5,105,,105,227.5,Wraps,F,FJ,SBD,
1,Viktória Majoros,82.5,82.5,180,-190,190,,190,90,95,-100,,95,140,160,172.5,,172.5,457.5,Wraps,F,FJ,SBD,
1,Edina Somogyi,48,47.8,70,80,90,,90,55,60,-62.5,,60,80,90,100,,100,250,Wraps,F,FO,SBD,
1,Cintia Csordás,56,55.3,-110,-110,110,,110,57.5,-62.5,-62.5,,57.5,140,145,-150,,145,312.5,Wraps,F,FO,SBD,
1,Eszter Simon,60,58.3,110,117.5,-120,,117.5,35,42.5,45,,45,130,137.5,142.5,,142.5,305,Wraps,F,FO,SBD,
1,Eszter Tompa,75,72.8,145,155,165,,165,60,67.5,72.5,,72.5,137.5,147.5,152.5,,152.5,390,Wraps,F,FO,SBD,
2,Violetta Jessica Varga,75,70.8,135,145,-152.5,,145,67.5,75,80,,80,142.5,150,155,,155,380,Wraps,F,FO,SBD,
3,Livia Papp,75,71.4,100,110,120,,120,65,75,-80,,75,130,140,150,,150,345,Wraps,F,FO,SBD,
4,Adél Gyöngyösi,75,73.9,100,107.5,112.5,,112.5,85,87.5,-90,,87.5,-135,142.5,-150,,142.5,342.5,Wraps,F,FO,SBD,
1,Zsofia Eszter Mazsari,82.5,79.3,155,165,-172.5,,165,100,110,112.5,,112.5,190,-200,-200,,190,467.5,Wraps,F,FO,SBD,
1,Adrienn Molnar-Nyiri,90,89.6,50,57.5,62.5,,62.5,-45,-45,45,,45,95,105,112.5,,112.5,220,Wraps,F,FO,SBD,
1,Nora Ozse-Benko,90+,97.4,90,110,120,,120,60,70,72.5,,72.5,130,145,155,,155,347.5,Wraps,F,FO,SBD,
1,Renáta Pápai,60,57.8,120,-130,-130,,120,55,60,65,,65,120,130,140,,140,325,Wraps,F,FM1,SBD,
1,Henrietta Tuba,67.5,61.7,-115,115,120,,120,82.5,85,90,,90,150,155,160,162.5,160,370,Wraps,F,FM1,SBD,
1,Judit Palecian,60,59.2,80,100,-112.5,,100,60,67.5,72.5,73.5,72.5,100,110,120,120.5,120,292.5,Wraps,F,FM2,SBD,
1,Máté Faragó,67.5,66.3,105,115,125,,125,85,90,-95,,90,160,165,172.5,,172.5,387.5,Wraps,M,MT,SBD,
2,Zsombor Ruszko,67.5,62,95,100,110,,110,65,70,-75,,70,125,130,140,,140,320,Wraps,M,MT,SBD,
1,Ákos Keppler,75,73,190,200,-205,,200,105,110,-115,,110,190,202.5,-215.5,,202.5,512.5,Wraps,M,MT,SBD,
2,Kristóf Goór,75,71.4,145,162.5,170,,170,115,125,-130,,125,160,175,185,,185,480,Wraps,M,MT,SBD,
3,Balázs Oláh,75,74,142.5,152.5,160,,160,92.5,-97.5,-97.5,,92.5,167.5,175,-180,,175,427.5,Wraps,M,MT,SBD,
4,Dániel Ronaldo Csáki,75,71.5,-100,-115,115,,115,85,95,-102.5,,95,130,150,170,,170,380,Wraps,M,MT,SBD,
1,Boldizsar Szendrei,82.5,80.9,190,200,-205,,200,-115,-115,115,,115,190,-202.5,202.5,,202.5,517.5,Wraps,M,MT,SBD,
2,Balázs Juhász,82.5,80.2,175,182.5,190,,190,102.5,107.5,110,,110,185,192.5,-210,,192.5,492.5,Wraps,M,MT,SBD,
3,Róbert Makai,82.5,77.8,145,155,160,,160,95,-102.5,-105,,95,190,200,210,,210,465,Wraps,M,MT,SBD,
4,Barna Wensofszky,82.5,80.4,-130,-140,140,,140,85,92.5,100,,100,180,-190,190,,190,430,Wraps,M,MT,SBD,
5,David Mark Pelfi,82.5,80.3,107.5,115,122.5,,122.5,65,70,-75,,70,125,130,135,,135,327.5,Wraps,M,MT,SBD,
DQ,Laszlo Magyar,82.5,78.9,-150,-150,-150,,,,,,,,,,,,,,Wraps,M,MT,SBD,
1,Gaspar Andras Gentischer,90,86.1,175,187.5,200,,200,115,120,125,,125,200,210,220,,220,545,Wraps,M,MT,SBD,
1,Gábor Hovanecz,100,98.5,220,235,240,,240,150,160,-165,,160,220,240,-250,,240,640,Wraps,M,MT,SBD,
2,Miklós Bence Bartha,100,90.9,160,-170,-170,,160,90,100,-105,,100,200,-220,220,,220,480,Wraps,M,MT,SBD,
3,Dominik Birinyi,100,95.6,150,160,165,,165,120,125,-127.5,,125,165,175,185,,185,475,Wraps,M,MT,SBD,
1,Márkó Roland Van Baggem,125,115.2,245,260,-270,,260,155,-167.5,-167.5,,155,-280,280,290,,290,705,Wraps,M,MT,SBD,
1,Krisztian Istvan Posta,75,74.4,-200,200,216,,216,130,142.5,-146,,142.5,230,251,260.5,,260.5,619,Wraps,M,MJ,SBD,
2,Máté Kiss #1,75,69.2,180,195,205,,205,100,110,117.5,,117.5,232.5,240,250,261,250,572.5,Wraps,M,MJ,SBD,
DQ,Tamás Mandel,75,72.3,180,185,-187.5,,185,-132.5,-132.5,-132.5,,,,,,,,,Wraps,M,MJ,SBD,
1,Bence Gémes,82.5,79.9,160,170,175,,175,105,110,115,,115,200,205,210,,210,500,Wraps,M,MJ,SBD,
2,Tamás Benedek Lóczi,82.5,81,160,172.5,-185,,172.5,112.5,120,122.5,,122.5,180,192.5,-207.5,,192.5,487.5,Wraps,M,MJ,SBD,
1,Ádám Hunor Paczuk,90,84.6,-140,140,160,,160,50,-60,-70,,50,150,170,180,,180,390,Wraps,M,MJ,SBD,
1,Ferenc Hevesi,100,99,305,315,330,,330,175,185,-192.5,-192.5,185,290,300,,,300,815,Wraps,M,MJ,SBD,
2,Miklós Kelemen,100,97.5,240,260,270,,270,165,180,,,180,250,275,300,,300,750,Wraps,M,MJ,SBD,
3,Krisztián József Horváth,100,91.1,245,255,265,,265,125,135,142.5,,142.5,-245,262.5,270,,270,677.5,Wraps,M,MJ,SBD,
4,David Eros,100,92.7,190,-205,-220,,190,110,-120,120,,120,220,230,240,,240,550,Wraps,M,MJ,SBD,
5,László Baji,100,95.5,180,190,200,,200,100,110,120,,120,210,220,230,,230,550,Wraps,M,MJ,SBD,
1,Dominik Lipták,110,108.8,-230,230,240,,240,160,170,177.5,,177.5,280,300,-307.5,,300,717.5,Wraps,M,MJ,SBD,
2,Gergő Csibi,110,108.4,230,245,255,,255,150,165,172.5,,172.5,240,250,260,,260,687.5,Wraps,M,MJ,SBD,
3,Balint Horvath,110,104.9,225,-240,240,,240,150,157.5,-162.5,,157.5,270,285,-300,,285,682.5,Wraps,M,MJ,SBD,
1,Gergő Hoffmann,125,117.1,220,225,245,,245,150,160,165,,165,260,280,290,,290,700,Wraps,M,MJ,SBD,
2,Kenez Tolnai,125,123.5,220,230,-235,,230,-140,145,-150,,145,250,-260,-260,,250,625,Wraps,M,MJ,SBD,
3,Daniel Horvath #2,125,122.3,-200,220,,,220,-90,90,,,90,-210,215,227.5,,227.5,537.5,Wraps,M,MJ,SBD,
1,Patrik Kiss,140,128.9,250,270,-300,,270,-150,155,165,,165,250,-275,,,250,685,Wraps,M,MJ,SBD,
1,Sándor Varjú,140+,146.1,282.5,297.5,307.5,,307.5,172.5,180,-185,,180,225,-235,,,225,712.5,Wraps,M,MJ,SBD,
1,Krisztián Lábas,67.5,64.4,120,130,140,,140,105,115,122.5,,122.5,140,-170,170,,170,432.5,Wraps,M,MO,SBD,
1,Renátó Tóth,75,73.4,200,212.5,-217.5,,212.5,120,130,132.5,,132.5,-230,230,240,,240,585,Wraps,M,MO,SBD,
1,Gergely Kuti,82.5,81.8,255,-270,270,,270,135,145,150,,150,255,267.5,275,,275,695,Wraps,M,MO,SBD,
2,Markó Mari,82.5,80.4,200,-215,,,200,162.5,170,,,170,240,260,275,,275,645,Wraps,M,MO,SBD,
3,Máté Miklós Sajtos,82.5,76.8,200,215,225,,225,125,-130,132.5,,132.5,230,250,265,,265,622.5,Wraps,M,MO,SBD,
4,Gábor Jádi,82.5,82.5,210,222.5,-225,,222.5,120,130,-135,,130,220,232.5,237.5,,237.5,590,Wraps,M,MO,SBD,
5,Tamás Sipos,82.5,80.7,200,-215,215,,215,120,130,140,,140,210,225,232.5,,232.5,587.5,Wraps,M,MO,SBD,
6,Barnabas Korfanti,82.5,81.1,170,185,190,,190,125,-135,135,,135,230,245,250,,250,575,Wraps,M,MO,SBD,
7,Gyula Zoltan Bodo,82.5,77.3,150,-170,170,,170,100,107.5,-115,,107.5,160,170,180,,180,457.5,Wraps,M,MO,SBD,
1,Tamás Barna,90,86.5,270,-285,-285,,270,180,-192.5,192.5,,192.5,285,300,-307.5,,300,762.5,Wraps,M,MO,SBD,
2,Bence Csercsinszki,90,87.8,200,215,225,,225,150,157.5,160,,160,245,250,-255,,250,635,Wraps,M,MO,SBD,
3,Viktor Kovács,90,88,200,220,240,,240,140,150,-160,,150,200,220,240,250,240,630,Wraps,M,MO,SBD,
4,Zelena Máté,90,86.4,210,-230,,,210,145,-155,-155,,145,250,260,265,,265,620,Wraps,M,MO,SBD,
5,Lajos Dávid Zsarnai,90,88.8,190,210,230,,230,130,140,-145,,140,190,205,230,,230,600,Wraps,M,MO,SBD,
6,Márk Mészáros,90,88.4,-220,-220,220,,220,127.5,132.5,135,,135,230,240,-255,,240,595,Wraps,M,MO,SBD,
7,Ferenc Hajó,90,87.9,150,170,190,,190,110,120,-122.5,,120,230,240,250,,250,560,Wraps,M,MO,SBD,
8,András Márton,90,85.5,180,200,-225,,200,110,115,120,,120,210,220,230,,230,550,Wraps,M,MO,SBD,
1,Milán Apaceller,100,98.5,275,290,-302.5,,290,180,187.5,-192.5,,187.5,275,290,-302.5,,290,767.5,Wraps,M,MO,SBD,
2,Zoltán Ferenc Luka,100,97.8,255,265,-270,,265,205,210,-215,,210,270,282.5,-292.5,,282.5,757.5,Wraps,M,MO,SBD,
3,Miklós Kelemen,100,97.5,240,260,270,,270,165,180,,,180,250,275,300,,300,750,Wraps,M,MO,SBD,
4,Márton Budai,100,96.5,220,230,-240,,230,150,157.5,160,,160,240,250,257.5,,257.5,647.5,Wraps,M,MO,SBD,
5,Attila Gonda,100,98.7,200,-215,220,,220,130,135,-140,,135,260,275,-280,,275,630,Wraps,M,MO,SBD,
6,Tamás Ősi,100,97.9,180,195,205,,205,147.5,152.5,-155,,152.5,245,250,,,250,607.5,Wraps,M,MO,SBD,
7,Gergo Andrej,100,93.7,-167.5,167.5,182.5,,182.5,122.5,130,-137.5,,130,202.5,215,-225,,215,527.5,Wraps,M,MO,SBD,
1,Imre Lovász,110,109.5,300,315,320,,320,160,162.5,165,,165,320,345,350,,350,835,Raw,M,MO,SBD,
2,István Bakkancsos,110,106.1,270,290,302.5,,302.5,190,202.5,207.5,,207.5,280,295,,,295,805,Wraps,M,MO,SBD,
3,Hunor Nagy,110,108.9,270,285,-300,,285,170,180,190,,190,250,-260,262.5,,262.5,737.5,Wraps,M,MO,SBD,
4,Viktor Kiss,110,104.6,240,260,270,,270,160,170,175,,175,260,280,-290,,280,725,Wraps,M,MO,SBD,
5,Attila Zoltán Bús,110,109.9,235,252.5,260,,260,137.5,140,142.5,,142.5,260,272.5,-280,,272.5,675,Wraps,M,MO,SBD,
6,Bence Zsolnai,110,107.2,270,-285,290,,290,150,-160,160,,160,200,,,,200,650,Wraps,M,MO,SBD,
7,Zsolt Fazekas,110,101.8,210,222.5,-230,,222.5,185,195,-197.5,,195,210,-222.5,,,210,627.5,Wraps,M,MO,SBD,
8,Ármin Gyula Horváth,110,109.7,215,-230,230,,230,145,-155,-155,,145,230,242.5,-250,,242.5,617.5,Wraps,M,MO,SBD,
9,Péter Szabó,110,109.2,210,225,237.5,,237.5,115,125,132.5,,132.5,210,220,227.5,,227.5,597.5,Wraps,M,MO,SBD,
10,Dávid Bakos,110,107.3,170,182.5,192.5,,192.5,140,155,162.5,,162.5,200,217.5,227.5,,227.5,582.5,Wraps,M,MO,SBD,
1,Sándor Csősz,125,122.8,305,325,340,,340,205,212.5,217.5,,217.5,300,-315,-315,,300,857.5,Wraps,M,MO,SBD,
2,Zsolt Antal,125,113.5,290,307.5,313,,313,180,190,195,,195,290,307.5,-312.5,-312.5,307.5,815.5,Wraps,M,MO,SBD,
3,Tamás Kurcz,125,121.4,-265,265,280,,280,190,200,207.5,,207.5,290,305,312.5,,312.5,800,Wraps,M,MO,SBD,
4,Márk Kiss,125,116.4,267.5,275,282.5,,282.5,167.5,177.5,-180,,177.5,290,307.5,312.5,,312.5,772.5,Wraps,M,MO,SBD,
5,Gábor Kocsis,125,122.4,-295,-295,295,,295,160,170,-180,,170,260,270,280,,280,745,Wraps,M,MO,SBD,
6,Ferenc Márkus,125,114.4,255,270,-280,,270,165,175,-180,,175,220,227.5,-235,,227.5,672.5,Wraps,M,MO,SBD,
7,Tibor Bódi,125,119.8,180,195,-205,,195,175,-182.5,-182.5,,175,200,-210,-210,,200,570,Wraps,M,MO,SBD,
1,Péter Kiss,140,129.3,-255,255,270,,270,175,180,185,,185,265,275,280,,280,735,Wraps,M,MO,SBD,
DQ,Arpad Bodo,140,126.4,160,170,180,,180,-160,-165,-165,,,,,,,,,Wraps,M,MO,SBD,
1,Krisztián Lábas,67.5,64.4,120,130,140,,140,105,115,122.5,,122.5,140,-170,170,,170,432.5,Wraps,M,MM1,SBD,
1,Péter Csitkovics,75,72.9,150,160,170,,170,115,125,131,,131,180,190,200,,200,501,Wraps,M,MM1,SBD,
2,Attila Veinémer,75,71.9,160,-170,170,,170,110,115,-120,,115,160,170,180,,180,465,Wraps,M,MM1,SBD,
1,Viktor Kovács,90,88,200,220,240,,240,140,150,-160,,150,200,220,240,250,240,630,Wraps,M,MM1,SBD,
1,Antal Tábor,100,99.6,250,260,267.5,,267.5,165,175,-180,,175,240,260,-270,,260,702.5,Wraps,M,MM1,SBD,
2,Zoltán Karsai,100,96.3,-240,240,250,,250,175,-185,,,175,-250,250,-260,,250,675,Wraps,M,MM1,SBD,
3,Károly Horváth,100,95.7,250,257.5,-262.5,,257.5,127.5,135,-142.5,,135,215,230,-237.5,,230,622.5,Wraps,M,MM1,SBD,
1,Zsolt Antal,125,113.5,290,307.5,313,,313,180,190,195,,195,290,307.5,-312.5,-312.5,307.5,815.5,Wraps,M,MM1,SBD,
2,Pál Gubicza,125,120.7,200,215,225,,225,165,175,182.5,,182.5,270,285,-295,,285,692.5,Wraps,M,MM1,SBD,
1,Attila Szegi,140,139.6,250,260,,,260,160,167.5,172.5,,172.5,270,280,290,,290,722.5,Wraps,M,MM1,SBD,
1,Zoltan Lauscher,140+,140.2,200,220,240,,240,120,130,140,,140,190,210,220,,220,600,Wraps,M,MM1,SBD,
1,István Gyuricska Jr,82.5,81.8,170,185,200,,200,140,150,-152.5,,150,180,195,-210,,195,545,Wraps,M,MM2,SBD,
1,Béla Serfőző,110,102.9,-200,-200,200,,200,130,-145,,,130,200,220,,,220,550,Wraps,M,MM2,SBD,
1,Barbara Bettina Pinter,60,56.5,,,,,,42.5,-45,-45,,42.5,,,,,,42.5,Multi-ply,F,FET,B,
1,Pasztor Katalin Urbanne,82.5,77.8,,,,,,80,-90,-90,,80,,,,,,80,Multi-ply,F,FEM1,B,
1,László Haraszti,110,102.1,,,,,,-170,170,-190,,170,,,,,,170,Multi-ply,M,MJE,B,
1,János Gábor Bialik,125,119.3,,,,,,190,205,-215,,205,,,,,,205,Multi-ply,M,MJE,B,
1,Janoš Ungai,82.5,79.4,,,,,,75,,,,75,,,,,,75,Multi-ply,M,MOE,B,
1,Dániel Oláh,90,89.6,,,,,,280,-302.5,-310,,280,,,,,,280,Multi-ply,M,MOE,B,
1,Zsolt Nándor Oláh,100,92.5,,,,,,150,165,175,,175,,,,,,175,Multi-ply,M,MOE,B,
1,Imre Kadenszki,110,100.3,,,,,,130,-140,140,,140,,,,,,140,Multi-ply,M,MOE,B,
1,Károly Németh,140,129.8,,,,,,185,195,205,,205,,,,,,205,Multi-ply,M,MOE,B,
1,Csaba Molnár,140+,140.1,,,,,,260,-280,-285,,260,,,,,,260,Multi-ply,M,MOE,B,
1,Norbert Deli,82.5,81.3,,,,,,170,181,-190,,181,,,,,,181,Multi-ply,M,MEM1,B,
1,Zoltán Győri,100,99,,,,,,-180,180,-205,,180,,,,,,180,Multi-ply,M,MEM1,B,
1,József Kovács,110,107.6,,,,,,160,170,-180,,170,,,,,,170,Multi-ply,M,MEM1,B,
1,Lajos Víg,140,128.6,,,,,,305,-317.5,-317.5,,305,,,,,,305,Multi-ply,M,MEM1,B,
2,István Dávid,140,128.7,,,,,,180,190,-205,,190,,,,,,190,Multi-ply,M,MEM1,B,
1,Zoltán Virág,140+,141.2,,,,,,140,,,,140,,,,,,140,Multi-ply,M,MEM1,B,
1,Zsolt Mohácsi,100,97.6,,,,,,165,175,-180.5,,175,,,,,,175,Multi-ply,M,MEM2,B,
DQ,István Csertek,125,115.5,,,,,,-165,-165,-165,,,,,,,,,Multi-ply,M,MEM2,B,
1,Károly Németh,140,129.8,,,,,,185,195,205,,205,,,,,,205,Multi-ply,M,MEM2,B,
1,Csaba Molnár,140+,140.1,,,,,,260,-280,-285,,260,,,,,,260,Multi-ply,M,MEM2,B,
1,János Csatári,110,102.1,,,,,,140,-150,-155,,140,,,,,,140,Multi-ply,M,MEM3,B,
1,László Jobbágy,82.5,80.5,,,,,,150,,,,150,,,,,,150,Multi-ply,M,MEM4,B,
1,Ferenc Balázs,110,106.4,,,,,,290,-310,-325,,290,,,,,,290,Unlimited,M,MEM2,B,
DQ,Ernő Eck,125,122.7,,,,,,-350,-370,,,,,,,,,,Unlimited,M,MEM2,B,
1,Hanna Marosi,56,55.5,,,,,,40,-42.5,42.5,,42.5,,,,,,42.5,Raw,F,FT,B,
1,Szandra Zachariás,60,56.5,,,,,,60,65,67.5,,67.5,,,,,,67.5,Raw,F,FT,B,
2,Zsófia Nagy,60,58.3,,,,,,50,55,57.5,,57.5,,,,,,57.5,Raw,F,FT,B,
3,Kata Szaszi,60,57.5,,,,,,32.5,37.5,-42.5,,37.5,,,,,,37.5,Raw,F,FT,B,
1,Anna Kasper,67.5,65.1,,,,,,57.5,-60,-60,,57.5,,,,,,57.5,Raw,F,FT,B,
2,Greta Kazai,67.5,65.6,,,,,,40,-45,-45,,40,,,,,,40,Raw,F,FT,B,
3,Martina Nagy,67.5,60.6,,,,,,30,-32.5,32.5,,32.5,,,,,,32.5,Raw,F,FT,B,
1,Eliza Kékesi,75,71.3,,,,,,65,70,72.5,-75,72.5,,,,,,72.5,Raw,F,FT,B,
1,Lili Vadasz,82.5,76.2,,,,,,45,50,-52.5,,50,,,,,,50,Raw,F,FT,B,
2,Noémi Magura,82.5,79.8,,,,,,45,-47.5,-47.5,,45,,,,,,45,Raw,F,FT,B,
1,Ilka Németh,90+,111.5,,,,,,-45,55,-57.5,,55,,,,,,55,Raw,F,FT,B,
1,Szilvia Bartha,56,55.5,,,,,,72.5,75,75.5,,75.5,,,,,,75.5,Raw,F,FJ,B,
1,Boglárka Horváth,82.5,75.6,,,,,,47.5,50,-52.5,,50,,,,,,50,Raw,F,FJ,B,
1,Laura Blanka Csánicz,90+,100.8,,,,,,80,87.5,-92.5,,87.5,,,,,,87.5,Raw,F,FJ,B,
2,Rebeka Makkai,90+,129.9,,,,,,-57.5,57.5,62.5,,62.5,,,,,,62.5,Raw,F,FJ,B,
3,Tifani Lili Szabó,90+,92.7,,,,,,55,60,-62.5,,60,,,,,,60,Raw,F,FJ,B,
1,Zsanett Boda,56,55.4,,,,,,47.5,-50,-50,,47.5,,,,,,47.5,Raw,F,FO,B,
1,Anna Dorottya Tóth,60,59.9,,,,,,60,-65,65,,65,,,,,,65,Raw,F,FO,B,
2,Ruba Mónika Hollóné,60,60,,,,,,60,-65,65,,65,,,,,,65,Raw,F,FO,B,
3,Ilona Egri,60,59.2,,,,,,55,-57.5,57.5,,57.5,,,,,,57.5,Raw,F,FO,B,
1,Gyöngyi Herczeg,67.5,66.8,,,,,,90,95,100,,100,,,,,,100,Raw,F,FO,B,
2,Klaudia Csatlós,67.5,60.5,,,,,,77.5,80,-85,,80,,,,,,80,Raw,F,FO,B,
1,Beáta Pusztai,75,68.6,,,,,,57.5,60,62.5,,62.5,,,,,,62.5,Raw,F,FO,B,
2,Viktória Gombás,75,75,,,,,,-55,55,-65,,55,,,,,,55,Raw,F,FO,B,
1,Ágnes Nagy,90,87.8,,,,,,85,90,-95,,90,,,,,,90,Raw,F,FO,B,
1,Barbara Mocsár,90+,93.5,,,,,,55,60,-62.5,,60,,,,,,60,Raw,F,FO,B,
2,Boglarka Balogh,90+,90.9,,,,,,30,35,37.5,,37.5,,,,,,37.5,Raw,F,FO,B,
1,Gőz Erika Rékásiné,56,52.6,,,,,,55,60,-62.5,,60,,,,,,60,Raw,F,FM1,B,
1,Ruba Mónika Hollóné,60,60,,,,,,60,-65,65,,65,,,,,,65,Raw,F,FM1,B,
2,Ilona Egri,60,59.2,,,,,,55,-57.5,57.5,,57.5,,,,,,57.5,Raw,F,FM1,B,
3,Zsanett Palfavi,60,60,,,,,,50,-55,-55,,50,,,,,,50,Raw,F,FM1,B,
1,Erika Molnár,67.5,63.5,,,,,,50,55,-57.5,,55,,,,,,55,Raw,F,FM1,B,
1,Nelli Eszenyi,75,72.1,,,,,,-82.5,82.5,87.5,,87.5,,,,,,87.5,Raw,F,FM1,B,
2,Toth Margit Fodorne,75,71.4,,,,,,35,40,45,,45,,,,,,45,Raw,F,FM1,B,
1,Ilona Simon,82.5,80.3,,,,,,77.5,85,90,-95,90,,,,,,90,Raw,F,FM1,B,
2,Beáta Szalay,82.5,77.5,,,,,,70,75,-80,,75,,,,,,75,Raw,F,FM1,B,
1,Andrea Csuti,90,83.6,,,,,,50,55,-57.5,,55,,,,,,55,Raw,F,FM1,B,
1,Zsuzsanna Kertész,90+,96.3,,,,,,90,-95,-95,,90,,,,,,90,Raw,F,FM1,B,
2,Mariann Tóth,90+,99.6,,,,,,80,-82.5,82.5,,82.5,,,,,,82.5,Raw,F,FM1,B,
NS,Evelyn Eisensehr,,,,,,,,,,,,,,,,,,,Raw,F,FM1,B,
1,Tál Lívia Némethné,60,59.9,,,,,,37.5,40,-42.5,,40,,,,,,40,Raw,F,FM2,B,
1,Anikó Csonka,67.5,64.1,,,,,,55,60,65,,65,,,,,,65,Raw,F,FM2,B,
2,Mari Hegedus,67.5,67,,,,,,35,40,42.5,,42.5,,,,,,42.5,Raw,F,FM2,B,
1,Beáta Pusztai,75,68.6,,,,,,57.5,60,62.5,,62.5,,,,,,62.5,Raw,F,FM2,B,
2,Katalin Maria Kovacs,75,67.9,,,,,,30,32.5,-35,,32.5,,,,,,32.5,Raw,F,FM2,B,
1,Olena Yelinek,82.5,75.6,,,,,,50,-55,-55,,50,,,,,,50,Raw,F,FM2,B,
1,Zsuzsanna Horváth,44,43.9,,,,,,40,42.5,-45,,42.5,,,,,,42.5,Raw,F,FM3,B,
1,Miklos Kasper,67.5,62.9,,,,,,70,72.5,-75,,72.5,,,,,,72.5,Raw,M,MT,B,
DQ,Benjamin Mano Ladanyi,67.5,64.1,,,,,,-80,-80,,,,,,,,,,Raw,M,MT,B,
1,Tamás Csaba Antal,75,75,,,,,,-90,95,-105,,95,,,,,,95,Raw,M,MT,B,
1,Richárd Gazdafi,82.5,77.8,,,,,,107.5,112.5,115,,115,,,,,,115,Raw,M,MT,B,
2,Ádám Porteleki,82.5,81.4,,,,,,92.5,97.5,-100,,97.5,,,,,,97.5,Raw,M,MT,B,
DQ,Daniel Debreceni #1,82.5,79.3,,,,,,-115,-115,-117.5,,,,,,,,,Raw,M,MT,B,
1,Marcell Péter Lázár,90,88.1,,,,,,120,127.5,130,,130,,,,,,130,Raw,M,MT,B,
2,Dominik Patrik Budai,90,88.8,,,,,,120,130,-132.5,,130,,,,,,130,Raw,M,MT,B,
3,Márton Csák,90,84.7,,,,,,105,115,-120,,115,,,,,,115,Raw,M,MT,B,
1,Bence Kristóf Fodor,100,91.2,,,,,,110,115,-120,,115,,,,,,115,Raw,M,MT,B,
2,Ferenc Busznyák,100,99.7,,,,,,80,-85,90,,90,,,,,,90,Raw,M,MT,B,
3,Istvan Orsos,100,90.2,,,,,,45,50,55,,55,,,,,,55,Raw,M,MT,B,
1,Balasz Voros,125,121.1,,,,,,195,205,,,205,,,,,,205,Raw,M,MT,B,
2,Kristóf Lajos Szalai,125,111.6,,,,,,110,-120,120,,120,,,,,,120,Raw,M,MT,B,
1,Benjámin Áder,67.5,66.6,,,,,,130,-140,-140,,130,,,,,,130,Raw,M,MJ,B,
1,Ádám Koterlán,75,72.9,,,,,,130,140,-145,,140,,,,,,140,Raw,M,MJ,B,
2,Sebastian Marko Jezildzic,75,73.2,,,,,,-135,135,-145,,135,,,,,,135,Raw,M,MJ,B,
1,Bálint Száraz,82.5,81.9,,,,,,157.5,165,170,-180.5,170,,,,,,170,Raw,M,MJ,B,
2,Tamás Benedek Lóczi,82.5,80.8,,,,,,115,120,-122.5,,120,,,,,,120,Raw,M,MJ,B,
3,Bulik Józsua,82.5,81.7,,,,,,115,120,-127.5,,120,,,,,,120,Raw,M,MJ,B,
4,Márk Horváth,82.5,80.7,,,,,,-102.5,112.5,-120,,112.5,,,,,,112.5,Raw,M,MJ,B,
1,Ferenc Márk Mata,90,89,,,,,,172.5,-180,180,,180,,,,,,180,Raw,M,MJ,B,
2,Bence Petroczkai,90,87.3,,,,,,140,145,147.5,,147.5,,,,,,147.5,Raw,M,MJ,B,
3,Antal Ruff,90,87,,,,,,-135,135,145,,145,,,,,,145,Raw,M,MJ,B,
4,Daniel Miklos Sandor,90,88.9,,,,,,117.5,125,-130,,125,,,,,,125,Raw,M,MJ,B,
1,Valentin Veres,100,100,,,,,,185,190,195,,195,,,,,,195,Raw,M,MJ,B,
2,Soma Aladi,100,97.3,,,,,,160,165,-170,,165,,,,,,165,Raw,M,MJ,B,
1,Tamás Holló,110,107.9,,,,,,170,-175,175,,175,,,,,,175,Raw,M,MJ,B,
1,István Norbert Szalay,140,128.3,,,,,,170,175,185,,185,,,,,,185,Raw,M,MJ,B,
1,Gábor Baranyai,67.5,67.1,,,,,,100,110,115,,115,,,,,,115,Raw,M,MO,B,
2,Attila Horváth,67.5,63.2,,,,,,100,110,-112.5,,110,,,,,,110,Raw,M,MO,B,
3,Viktor Nagy,67.5,63.5,,,,,,92.5,-100,100,,100,,,,,,100,Raw,M,MO,B,
4,Péter Dobos,67.5,63.4,,,,,,67.5,-72.5,,,67.5,,,,,,67.5,Raw,M,MO,B,
1,László Ferenc Horváth,75,72,,,,,,115,122.5,-130,,122.5,,,,,,122.5,Raw,M,MO,B,
2,Attila Sagi,75,70.4,,,,,,102.5,107.5,112.5,,112.5,,,,,,112.5,Raw,M,MO,B,
1,Zoltán Szabó,82.5,82.3,,,,,,160,167.5,180,,180,,,,,,180,Raw,M,MO,B,
2,Benjámin Laki,82.5,81.7,,,,,,155,160,165,,165,,,,,,165,Raw,M,MO,B,
3,Attila Salamon,82.5,78.9,,,,,,140,-150,-152.5,,140,,,,,,140,Raw,M,MO,B,
1,Gábor Molnár,90,85.6,,,,,,170,180,190,,190,,,,,,190,Raw,M,MO,B,
2,Balázs Hadházi,90,88.1,,,,,,165,170,-175,,170,,,,,,170,Raw,M,MO,B,
3,Janos Pozsar,90,89.3,,,,,,150,155,157.5,,157.5,,,,,,157.5,Raw,M,MO,B,
4,István Bodó,90,89.2,,,,,,145,-152.5,152.5,,152.5,,,,,,152.5,Raw,M,MO,B,
5,Emil Klaus Kurti,90,86.7,,,,,,140,-145,145,,145,,,,,,145,Raw,M,MO,B,
6,István Fazekas,90,86.8,,,,,,130,136,140,,140,,,,,,140,Raw,M,MO,B,
7,Tamas Kazmer,90,87.7,,,,,,110,-120,-120,,110,,,,,,110,Raw,M,MO,B,
1,Richard Vanyai,100,98.1,,,,,,200,205,210,,210,,,,,,210,Raw,M,MO,B,
2,Károly József Szuder,100,97,,,,,,170,175,,,175,,,,,,175,Raw,M,MO,B,
3,Gabor Mate,100,97.1,,,,,,165,170,172.5,,172.5,,,,,,172.5,Raw,M,MO,B,
4,Gabor Varga,100,98.3,,,,,,-170,170,-182.5,,170,,,,,,170,Raw,M,MO,B,
5,Richárd Imre Balogh,100,95.8,,,,,,155,160,-162.5,,160,,,,,,160,Raw,M,MO,B,
6,Zoltan Klar,100,94.3,,,,,,127.5,132.5,137.5,,137.5,,,,,,137.5,Raw,M,MO,B,
7,Gábor Galambos,100,95.7,,,,,,107.5,-112.5,-112.5,,107.5,,,,,,107.5,Raw,M,MO,B,
DQ,Viktor Gergő Vakarcs,100,99.8,,,,,,-200,-200,,,,,,,,,,Raw,M,MO,B,
1,Dániel Selymes,110,104.9,,,,,,205,-215,-215,,205,,,,,,205,Raw,M,MO,B,
2,Péter Forgács,110,108.4,,,,,,190,197.5,-200,,197.5,,,,,,197.5,Raw,M,MO,B,
3,Lajos Filkor,110,109.4,,,,,,180,185,-190,,185,,,,,,185,Raw,M,MO,B,
4,Vilmos Szilagyi,110,100.4,,,,,,170,175,-180,,175,,,,,,175,Raw,M,MO,B,
5,György Bajzák,110,103.4,,,,,,160,170,175,,175,,,,,,175,Raw,M,MO,B,
6,Renato Borcsok,110,102.9,,,,,,150,157.5,-170,,157.5,,,,,,157.5,Raw,M,MO,B,
1,Dániel Hegedüs,125,117.8,,,,,,205,212.5,-217.5,,212.5,,,,,,212.5,Raw,M,MO,B,
2,Ádám Filkor,125,118,,,,,,180,190,200,,200,,,,,,200,Raw,M,MO,B,
3,Solyom Oliver Boszormenyi,125,111.1,,,,,,130,135,-140,,135,,,,,,135,Raw,M,MO,B,
1,Balázs Márk Tyukodi,140,138.2,,,,,,220,230,-240,,230,,,,,,230,Raw,M,MO,B,
2,Anwar Mohamed,140,129.1,,,,,,195,202.5,210,,210,,,,,,210,Raw,M,MO,B,
3,Zsolt Tóth,140,134.6,,,,,,202.5,-210,-210,,202.5,,,,,,202.5,Raw,M,MO,B,
4,Roland Lukács,140,125.5,,,,,,165,175,-182.5,,175,,,,,,175,Raw,M,MO,B,
5,Gyula Ujvári,140,138.2,,,,,,167.5,175,-185,,175,,,,,,175,Raw,M,MO,B,
6,Károly Németh,140,129.8,,,,,,150,160,170,,170,,,,,,170,Raw,M,MO,B,
1,Ferenc Kalauz,140+,152.3,,,,,,185,195,-202.5,,195,,,,,,195,Raw,M,MO,B,
NS,Kornél Szabó,,,,,,,,,,,,,,,,,,,Raw,M,MO,B,
1,János Tóth,60,58,,,,,,70,75,80,,80,,,,,,80,Raw,M,MM1,B,
1,István Répás,67.5,66.9,,,,,,135,140,-145,,140,,,,,,140,Raw,M,MM1,B,
2,Zoltan Gergely Palasthy,67.5,64.2,,,,,,-100,100,-112.5,,100,,,,,,100,Raw,M,MM1,B,
DQ,Antal Kokeny,67.5,66.1,,,,,,-105,-105,,,,,,,,,,Raw,M,MM1,B,
1,Csaba Kecskés,82.5,80.5,,,,,,150,155,-160,,155,,,,,,155,Raw,M,MM1,B,
2,Péter Barkó,82.5,79.6,,,,,,140,150,-157.5,,150,,,,,,150,Raw,M,MM1,B,
3,Norbert Deli,82.5,81.3,,,,,,140,147.5,-152.5,,147.5,,,,,,147.5,Raw,M,MM1,B,
4,Péter Kukla,82.5,82.3,,,,,,135,142.5,-147.5,,142.5,,,,,,142.5,Raw,M,MM1,B,
DQ,Tamás Podmaniczki,82.5,80.1,,,,,,-145,,,,,,,,,,,Raw,M,MM1,B,
DQ,Tamás Kubovics,82.5,76.1,,,,,,-125,-125,-125,,,,,,,,,Raw,M,MM1,B,
1,László Németh,90,89.8,,,,,,170,-180,-180,,170,,,,,,170,Raw,M,MM1,B,
1,József Tóth,100,95.9,,,,,,180,185,187.5,,187.5,,,,,,187.5,Raw,M,MM1,B,
2,István Szeifert,100,97.7,,,,,,170,180,-187.5,,180,,,,,,180,Raw,M,MM1,B,
3,Attila Marosi,100,97,,,,,,150,155,-160,,155,,,,,,155,Raw,M,MM1,B,
1,Péter Ödön Takács,110,104.2,,,,,,200,210,215,,215,,,,,,215,Raw,M,MM1,B,
2,Sándor Vaszilkó,110,107.7,,,,,,180,185,190,,190,,,,,,190,Raw,M,MM1,B,
3,László Kulcsár,110,104.4,,,,,,187.5,-192.5,-192.5,,187.5,,,,,,187.5,Raw,M,MM1,B,
4,Tamás Holló,110,109.4,,,,,,150,155,157.5,,157.5,,,,,,157.5,Raw,M,MM1,B,
1,András Sebők,125,113.9,,,,,,200,215,-222.5,,215,,,,,,215,Raw,M,MM1,B,
2,Ferenc Som,125,123.5,,,,,,190,200,-210,,200,,,,,,200,Raw,M,MM1,B,
3,Péter Géresi,125,112.7,,,,,,190,195,-200,,195,,,,,,195,Raw,M,MM1,B,
4,Gábor Somogyi #2,125,118.4,,,,,,180,-187.5,187.5,,187.5,,,,,,187.5,Raw,M,MM1,B,
5,Richárd Nagy,125,115.2,,,,,,180,-185,-185,,180,,,,,,180,Raw,M,MM1,B,
6,Richárd Veres,125,118.4,,,,,,150,155,160,,160,,,,,,160,Raw,M,MM1,B,
7,Dávid Baksa,125,120.6,,,,,,160,-170,-170,,160,,,,,,160,Raw,M,MM1,B,
8,György Bálint Papp,125,111.4,,,,,,150,-160,-160,,150,,,,,,150,Raw,M,MM1,B,
9,Imre Madarasz,125,122,,,,,,110,120,130,,130,,,,,,130,Raw,M,MM1,B,
1,Roland Lukács,140,125.5,,,,,,165,175,-182.5,,175,,,,,,175,Raw,M,MM1,B,
2,Gyula Ujvári,140,138.2,,,,,,157.5,175,-185,,175,,,,,,175,Raw,M,MM1,B,
DQ,Imre Sütő,140,127,,,,,,-140,-140,,,,,,,,,,Raw,M,MM1,B,
1,Barna Csőke,140+,171.9,,,,,,160,170,180,,180,,,,,,180,Raw,M,MM1,B,
2,Tamas Laszlo Palfi,140+,140.4,,,,,,140,147.5,152.5,,152.5,,,,,,152.5,Raw,M,MM1,B,
1,Zsolt Karlik,75,74,,,,,,150,155,160,-162.5,160,,,,,,160,Raw,M,MM2,B,
2,Ernő Varga,75,70.9,,,,,,120,125,130,,130,,,,,,130,Raw,M,MM2,B,
3,István Bara,75,74.6,,,,,,110,-115,-115,,110,,,,,,110,Raw,M,MM2,B,
1,László Göbölös,82.5,75.8,,,,,,90,-95,97.5,,97.5,,,,,,97.5,Raw,M,MM2,B,
1,László Kupcsik,90,86.8,,,,,,170,180,190,,190,,,,,,190,Raw,M,MM2,B,
2,Dezső Korom,90,83.9,,,,,,160,170,-180,,170,,,,,,170,Raw,M,MM2,B,
1,Sándor Bíró,100,97,,,,,,165,170,172.5,,172.5,,,,,,172.5,Raw,M,MM2,B,
2,Attila Hegedűs,100,98.1,,,,,,155,-167.5,-170,,155,,,,,,155,Raw,M,MM2,B,
3,Miklós Pomázi,100,94.5,,,,,,140,-160,-172.5,,140,,,,,,140,Raw,M,MM2,B,
1,Lajos Filkor,110,109.4,,,,,,180,185,-190,,185,,,,,,185,Raw,M,MM2,B,
2,Imre Nagy,110,102.5,,,,,,120,130,140,,140,,,,,,140,Raw,M,MM2,B,
1,Gábor Minya,125,111.2,,,,,,-165,165,-170,,165,,,,,,165,Raw,M,MM2,B,
2,László Haraszti,125,120.5,,,,,,152.5,157.5,-165,,157.5,,,,,,157.5,Raw,M,MM2,B,
3,László Baross,125,118,,,,,,150,155,-162.5,,155,,,,,,155,Raw,M,MM2,B,
DQ,Zsolt Piller,125,116.5,,,,,,,,,,,,,,,,,Raw,M,MM2,B,
1,László Horváth,140,132.7,,,,,,200,207.5,210,,210,,,,,,210,Raw,M,MM2,B,
2,Zsolt Tóth,140,134.6,,,,,,202.5,-210,-210,,202.5,,,,,,202.5,Raw,M,MM2,B,
3,Károly Németh,140,129.8,,,,,,150,160,170,,170,,,,,,170,Raw,M,MM2,B,
1,Ferenc Kalauz,140+,152.3,,,,,,185,195,-202.5,,195,,,,,,195,Raw,M,MM2,B,
2,Zoltán József Holczmann,140+,146.4,,,,,,175,-180,,,175,,,,,,175,Raw,M,MM2,B,
3,István László Lechner,140+,183,,,,,,120,130,-132.5,,130,,,,,,130,Raw,M,MM2,B,
DQ,Gábor Goda,75,71.4,,,,,,-130,-135,-135,,,,,,,,,Raw,M,MM3,B,
1,Gyula Leyer,82.5,81,,,,,,105,110,115,,115,,,,,,115,Raw,M,MM3,B,
DQ,Gábor Zsolt Teleki,82.5,82.4,,,,,,-95,,,,,,,,,,,Raw,M,MM3,B,
1,István Fazekas,90,86.8,,,,,,130,136,140,,140,,,,,,140,Raw,M,MM3,B,
2,István Kucsera,90,84.7,,,,,,117.5,122.5,126,127.5,126,,,,,,126,Raw,M,MM3,B,
1,Tamás Brauner,100,93.6,,,,,,140,150,152.5,,152.5,,,,,,152.5,Raw,M,MM3,B,
2,Jozsef Szatanke,100,95.7,,,,,,125,135,,,135,,,,,,135,Raw,M,MM3,B,
1,Tibor Horváth,110,100.1,,,,,,-100,100,107.5,,107.5,,,,,,107.5,Raw,M,MM3,B,
1,Zoltán Varjú,125,111.6,,,,,,130,-140,,,130,,,,,,130,Raw,M,MM3,B,
1,Pál Kovács,140,139.1,,,,,,130,138,140,,140,,,,,,140,Raw,M,MM3,B,
1,László Jobbágy,82.5,80.5,,,,,,100,110,,,110,,,,,,110,Raw,M,MM4,B,
2,István Verebi,82.5,79,,,,,,90,95,100,,100,,,,,,100,Raw,M,MM4,B,
1,Sándor Busák,90,87.1,,,,,,105,110,115,,115,,,,,,115,Raw,M,MM4,B,
2,Ernő Újvári,90,87.1,,,,,,-105,105,-107.5,,105,,,,,,105,Raw,M,MM4,B,
3,Imre József Élő,90,88.1,,,,,,100,105,-107.5,,105,,,,,,105,Raw,M,MM4,B,
4,Attila Jaloveczky,90,87.1,,,,,,90,95,-102.5,,95,,,,,,95,Raw,M,MM4,B,
1,György Kerékgyártó,100,93.3,,,,,,130,135,140,,140,,,,,,140,Raw,M,MM4,B,
NS,József Baranyai,,,,,,,,,,,,,,,,,,,Raw,M,MM5,B,
1,Marianna Csonki,52,50.6,,,,,,67.5,70,72.5,,72.5,,,,,,72.5,Raw,F,FElite,B,
1,Anita Nagy,56,55.7,,,,,,70,77.5,80,,80,,,,,,80,Raw,F,FElite,B,
1,Beatrix Bíró,60,59.8,,,,,,85,-90,92.5,,92.5,,,,,,92.5,Raw,F,FElite,B,
1,Rita Nagy,67.5,64.8,,,,,,100,105,-110,,105,,,,,,105,Raw,F,FElite,B,
1,Szabina Erdei,67.5,66.6,,,,,,,,,,,175,-182.5,,,175,175,Raw,F,FElite,D,
1,Alexandra Ágnes Soós,90,88.9,,,,,,,,,,,210,230,260,-270,260,260,Raw,F,FElite,D,
1,Krisztina Majoros,67.5,64.9,185,192.5,200,,200,82.5,87.5,90,,90,172.5,180,-185,,180,470,Wraps,F,FElite,SBD,
1,Mónika Bazsó,82.5,76.9,165,175,180,,180,105,112.5,117.5,,117.5,185,195,-202.5,,195,492.5,Wraps,F,FElite,SBD,
1,István Mester,75,74.1,,,,,,170,-177.5,-182.5,,170,,,,,,170,Raw,M,MElite,B,
1,Bence Attila Sinka,82.5,81.7,,,,,,207.5,-215,-215,,207.5,,,,,,207.5,Raw,M,MElite,B,
1,Benjámín Móricz,90,89.2,,,,,,190,200,207.5,,207.5,,,,,,207.5,Raw,M,MElite,B,
1,Ákos Oláh,100,99.4,,,,,,210,220,225,,225,,,,,,225,Raw,M,MElite,B,
1,Ádám Moszkál,110,108.3,,,,,,260,-272.5,-272.5,,260,,,,,,260,Raw,M,MElite,B,
2,Dezső Korom,110,105.6,,,,,,225,-232.5,-232.5,,225,,,,,,225,Raw,M,MElite,B,
3,Richard Rigo,110,108.3,,,,,,170,,,,170,,,,,,170,Raw,M,MElite,B,
1,Dénes Kovács,140,126.6,,,,,,235,250,-260,,250,,,,,,250,Raw,M,MElite,B,
NS,Richard Zsolt Ruda,,,,,,,,,,,,,,,,,,,Raw,M,MElite,B,
1,Gábor János Kiss,100,99.5,,,,,,,,,,,320,332.5,342.5,,342.5,342.5,Raw,M,MElite,D,
2,Péter Czentye,100,96,,,,,,,,,,,300,320,332.5,,332.5,332.5,Raw,M,MElite,D,
3,Tamás Deli,100,99.9,,,,,,,,,,,290,300,302.5,,302.5,302.5,Raw,M,MElite,D,
1,Balázs Hajdú,82.5,81.1,280,-300,300,,300,180,-190,190,,190,290,310,-322.5,,310,800,Wraps,M,MElite,SBD,
1,Gábor Somogyi #1,90,87.9,255,275,292.5,,292.5,160,167.5,172.5,,172.5,300,315,,,315,780,Wraps,M,MElite,SBD,
2,Kornél Mengyi,90,89.8,305,-315,-315,,305,175,182.5,187.5,,187.5,275,287.5,-290,,287.5,780,Wraps,M,MElite,SBD,
1,Zoltán Debreczeni,100,99.2,305,315,325,,325,195,205,-210,,205,315,330,-340,,330,860,Wraps,M,MElite,SBD,
1,Róbert Tumpek,110,104.8,315,330,345,,345,175,182.5,,,182.5,-310,-310,332.5,,332.5,860,Wraps,M,MElite,SBD,
2,Tamás Bocz,110,108.9,200,,,,200,100,,,,100,200,,,,200,500,Wraps,M,MElite,SBD,
1,János Tar,125,116.4,330,350,365,,365,175,182.5,-190,,182.5,325,-352.5,-352.5,,325,872.5,Wraps,M,MElite,SBD,
1,Károly József Szuder,100,97.2,250,260,270,,270,,,,,,,,,,,270,Multi-ply,M,MOE,S,
1,Tibor Manzera,110,107.2,80,,,,80,,,,,,,,,,,80,Multi-ply,M,MOE,S,
1,István Dávid,140,127,-220,220,-230,,220,,,,,,,,,,,220,Multi-ply,M,MEM1,S,
1,Tibor Manzera,110,107.2,80,,,,80,,,,,,,,,,,80,Multi-ply,M,MEM2,S,
