Name,Country,Sex,BirthYear,Division,WeightClassKg,BodyweightKg,Squat1Kg,Squat2Kg,Squat3Kg,Best3SquatKg,Bench1Kg,Bench2Kg,Bench3Kg,Best3BenchKg,Deadlift1Kg,Deadlift2Kg,Deadlift3Kg,Best3DeadliftKg,TotalKg,Place,Event,Equipment,BirthDate
Josh Pearson,UK,M,2001,Juniors,120,118.7,280,290,-292.5,290,190,195,200,200,315,337.5,-345,337.5,827.5,7,SBD,Raw,
Jonathan Lewis #1,UK,M,2001,Juniors,93,92.44,242.5,255,262.5,262.5,167.5,175,180,180,317.5,340,350,350,792.5,1,SBD,Raw,
Antonio Pérez Barros,Spain,M,2001,Juniors,105,104.04,300,320,336,336,165,175,180,180,305,330,350,350,866,1,SBD,Raw,
Kristian Eek Haugen,Norway,M,2001,Juniors,120,115.88,285,,,285,210,222.5,232.5,232.5,285,307.5,317.5,317.5,835,4,SBD,Raw,
Joshua Cheung,UK,M,2001,Juniors,66,65.93,187.5,-192.5,-192.5,187.5,130,137.5,-145,137.5,240,255,-262.5,255,580,6,SBD,Raw,
Mats Høylo Kjøllesdal,Norway,M,2001,Juniors,120,115.94,285,300,310,310,190,-200,-202.5,190,300,315,330,330,830,6,SBD,Raw,
Máté Munkás,Hungary,M,2001,Juniors,120,119.15,250,260,270,270,160,170,-172.5,170,265,285,-300,285,725,15,SBD,Raw,
Taras Melnichuk,Ukraine,M,2001,Juniors,120,117.06,315,325,330,330,220,227.5,235,235,315,330,340,340,905,1,SBD,Raw,
Andrew Blackwood,Ireland,M,2001,Juniors,120,117.07,-285,300,310,310,180,187.5,192.5,192.5,300,-320,335,335,837.5,3,SBD,Raw,
Bjorn Andre Sutterud Westbye,Norway,M,2001,Juniors,120+,162.87,360,-380,400,400,190,200,207.5,207.5,300,322.5,330,330,937.5,1,SBD,Raw,
Angelos Almouti,Greece,M,2001,Juniors,93,90.47,230,-240,240,240,147.5,155,-160,155,260,270,-280,270,665,18,SBD,Raw,
Dimitris Davazoglou,Greece,M,2001,Juniors,83,81.72,265,275,-277.5,275,187.5,195,-197.5,195,262.5,272.5,280,280,750,3,SBD,Raw,
Diego López-Dóriga Zubeldía,Spain,M,2001,Juniors,83,82.15,230,240,247.5,247.5,142.5,150,155,155,280,295,-305,295,697.5,8,SBD,Raw,
Rokas Burba,Lithuania,M,2001,Juniors,74,73.73,222.5,-232.5,-232.5,222.5,157.5,162.5,165,165,245,257.5,-262.5,257.5,645,4,SBD,Raw,
Oriol Farrus,Spain,M,2001,Juniors,83,82.01,-240,252.5,265,265,160,167.5,172.5,172.5,250,270,285,285,722.5,6,SBD,Raw,
Robert Brenner Fernandez,Spain,M,2001,Juniors,120,119.4,260,-275,282.5,282.5,152.5,160,162.5,162.5,297.5,315,-325,315,760,11,SBD,Raw,
Jakub Pelikán,Czechia,M,2001,Juniors,83,82.75,260,275,-280,275,180,187.5,-190,187.5,-262.5,262.5,-290,262.5,725,5,SBD,Raw,
Bryan Brunetti,Italy,M,2001,Juniors,59,58.02,155,162.5,167.5,167.5,140,145,-152,145,182.5,192.5,197.5,197.5,510,5,SBD,Raw,
Leon Pham,Denmark,M,2001,Juniors,66,65.97,180,192.5,202.5,202.5,147.5,160,167.5,167.5,245,267.5,272.5,272.5,642.5,2,SBD,Raw,
Iván Campano Díaz,Spain,M,2001,Juniors,59,58.93,195,-207.5,-210,195,130,137.5,140,140,-237.5,250,263,263,598,1,SBD,Raw,
Elias Hanken Fiskerstrand,Norway,M,2001,Juniors,83,82.42,245,255,260,260,165,170,175,175,280,300,-317.5,300,735,4,SBD,Raw,
Andrew Roe,Ireland,M,2001,Juniors,105,102.8,265,287.5,-300,287.5,175,182.5,190,190,260,275,282.5,282.5,760,10,SBD,Raw,
Volodymyr Loginov,Ukraine,M,2001,Juniors,93,92.75,250,260,-265,260,162.5,172.5,-180,172.5,277.5,290,-307.5,290,722.5,10,SBD,Raw,
Semih Aygün,Germany,M,2001,Juniors,93,92.55,260,270,280,280,180,190,-197.5,190,285,305,-315,305,775,4,SBD,Raw,
Bjarne Dücker,Germany,M,2001,Juniors,105,104.83,292.5,307.5,-315,307.5,200,207.5,212.5,212.5,290,307.5,315,315,835,2,SBD,Raw,
Alkiviadis Iliopoulos,Greece,M,2001,Juniors,105,103.73,-205,210,220,220,135,142.5,-147.5,142.5,227.5,240,250,250,612.5,21,SBD,Raw,
Tom Kenchington,UK,M,2001,Juniors,105,104,260,275,280,280,172.5,-182.5,182.5,182.5,285,305,310,310,772.5,8,SBD,Raw,
Timi Ogunfowokan,UK,M,2001,Juniors,120,112.94,292.5,312.5,-330,312.5,180,190,195,195,310,325,332.5,332.5,840,2,SBD,Raw,
Imad Hamich,Belgium,M,2002,Juniors,105,104.68,-282.5,292.5,302.5,302.5,182.5,192.5,200,200,302.5,317.5,-332.5,317.5,820,3,SBD,Raw,
Kerry Agabi,Ireland,M,2002,Juniors,93,92.51,245,257.5,265,265,147.5,155,160,160,275,302.5,-315,302.5,727.5,9,SBD,Raw,
Kemal Ergin,Netherlands,M,2002,Juniors,59,58.98,165,175,180,180,125,-130,130,130,180,195,202.5,202.5,512.5,4,SBD,Raw,
Jordi Corbella Edo,Spain,M,2002,Juniors,93,91.16,250,265,275,275,165,172.5,-180,172.5,272.5,285,-295,285,732.5,7,SBD,Raw,
Simon Plennevaux,Belgium,M,2002,Juniors,93,92.22,240,255,260,260,147.5,152.5,157.5,157.5,245,265,-270,265,682.5,16,SBD,Raw,
Laurits Enemark Due,Denmark,M,2002,Juniors,120,113.62,280,292.5,302.5,302.5,165,172.5,177.5,177.5,330,352.5,-360,352.5,832.5,5,SBD,Raw,
Niko Lappi,Finland,M,2002,Juniors,93,92.71,280,290,295,295,175,185,187.5,187.5,310,-330,-330,310,792.5,2,SBD,Raw,
Kolter Kaarel,Estonia,M,2002,Juniors,120,112,287.5,-302.5,305,305,210,220,-230,220,-290,-305,-305,,,DQ,SBD,Raw,
Jaroslav Kubíček,Czechia,M,2002,Juniors,83,81.68,205,220,230,230,142.5,150,155,155,250,267.5,-280,267.5,652.5,14,SBD,Raw,
Gabriele Bellomo,Italy,M,2002,Juniors,83,82.8,280,290,300,300,170,175,-177.5,175,310,325,-340,325,800,1,SBD,Raw,
Giel Hendriks,Belgium,M,2002,Juniors,120+,146.9,287.5,305,315,315,172.5,180,-185,180,302.5,322.5,-325,322.5,817.5,3,SBD,Raw,
Denzel Gijsbertha,Netherlands,M,2002,Juniors,93,91.43,267.5,280,-285,280,160,167.5,172.5,172.5,295,315,322.5,322.5,775,3,SBD,Raw,
Renzo Binas,UK,M,2002,Juniors,66,65.85,-177.5,177.5,187.5,187.5,115,-117.5,-117.5,115,265,275,-288,275,577.5,7,SBD,Raw,
Kalin Drashkov,Bulgaria,M,2002,Juniors,66,65.97,217.5,225,-227.5,225,130,137.5,142.5,142.5,255,267.5,272.5,272.5,640,3,SBD,Raw,
Jan Korčmaroš,Czechia,M,2002,Juniors,66,65.81,192.5,202.5,205,205,110,115,-120,115,210,220,230,230,550,8,SBD,Raw,
Florent Alaime,Belgium,M,2002,Juniors,93,92.43,237.5,245,-257.5,245,160,170,-177.5,170,240,250,-255,250,665,19,SBD,Raw,
Andres Castellon,Spain,M,2002,Juniors,105,104.26,275,295,302.5,302.5,162.5,170,-175,170,310,330,-347.5,330,802.5,5,SBD,Raw,
Justin Wu,Netherlands,M,2002,Juniors,83,82.41,235,245,-247.5,245,170,-177.5,177.5,177.5,250,-265,-272.5,250,672.5,10,SBD,Raw,
Santeri Pasanen,Finland,M,2002,Juniors,120,119.38,-285,305,-322.5,305,180,192.5,-200,192.5,280,-315,,280,777.5,9,SBD,Raw,
Manson Adagu,UK,M,2002,Juniors,83,82.23,260,272.5,280,280,170,180,187.5,187.5,305,317.5,-332.5,317.5,785,2,SBD,Raw,
Dániel Attila Nagy,Hungary,M,2002,Juniors,120,110.06,245,260,270,270,155,165,172.5,172.5,250,270,285,285,727.5,13,SBD,Raw,
Filip Prokeš,Czechia,M,2002,Juniors,66,65.66,200,212.5,220,220,115,125,-132.5,125,235,250,-257.5,250,595,4,SBD,Raw,
Isak Asperud,Norway,M,2002,Juniors,93,92.58,260,270,280,280,190,197.5,200,200,275,292.5,-305,292.5,772.5,5,SBD,Raw,
Gerlai András,Hungary,M,2002,Juniors,93,91.02,230,-240,240,240,175,185,-192.5,185,250,265,-280,265,690,14,SBD,Raw,
Luka Babić,Croatia,M,2002,Juniors,66,65.43,197.5,202.5,-207.5,202.5,102.5,110,-112.5,110,210,-225,-230,210,522.5,10,SBD,Raw,
Hinrik Veigar Hinriksson,Iceland,M,2002,Juniors,105,103.32,250,262.5,270,270,137.5,145,-152.5,145,272.5,285,-297.5,285,700,18,SBD,Raw,
Joshua Ola,Ireland,M,2002,Juniors,74,73.71,232.5,242.5,-247.5,242.5,150,157.5,162.5,162.5,235,250,257.5,257.5,662.5,2,SBD,Raw,
Gabriele Mastrogiovanni,Italy,M,2002,Juniors,66,64.73,197.5,205,210,210,150,-155,-155,150,225,-237.5,-237.5,225,585,5,SBD,Raw,
Vasileios Karakatsanis,Greece,M,2002,Juniors,53,52.11,170,177.5,-185,177.5,131,136,139.5,139.5,170,180,-185,180,497,1,SBD,Raw,
Niels Ceuppens,Belgium,M,2002,Juniors,105,104.21,175,,,175,190,202.5,205,205,175,,,175,555,22,SBD,Raw,
Gabriel Višek,Croatia,M,2002,Juniors,83,82.31,222.5,232.5,237.5,237.5,142.5,150,152.5,152.5,285,300,305,305,695,9,SBD,Raw,
Šimon Král,Czechia,M,2002,Juniors,120+,145.88,302.5,322.5,332.5,332.5,182.5,192.5,197.5,197.5,300,-320,322.5,322.5,852.5,2,SBD,Raw,
Väinö Leppäkoski,Finland,M,2003,Juniors,105,104.92,250,262.5,275,275,175,182.5,190,190,280,302.5,-325,302.5,767.5,9,SBD,Raw,
Botond-Dávid Zsigmond,Switzerland,M,2003,Juniors,105,104.28,260,280,-287.5,280,-160,167.5,-177.5,167.5,260,-280,280,280,727.5,14,SBD,Raw,
Silvan Heijnen,Netherlands,M,2003,Juniors,105,104.72,252.5,-270,270,270,177.5,187.5,-192.5,187.5,275,300,-310,300,757.5,12,SBD,Raw,
Luka Hrgarek,Croatia,M,2003,Juniors,93,92.73,232.5,240,247.5,247.5,25,,,25,277.5,-280,-305,277.5,550,21,SBD,Raw,
Flavio Scuderi,Belgium,M,2003,Juniors,74,73.74,220,235,240,240,140,145,150,150,230,247.5,-257.5,247.5,637.5,6,SBD,Raw,
Gabriel Friščić,Croatia,M,2003,Juniors,83,82.55,230,237.5,245,245,140,150,-155,150,232.5,-242.5,242.5,242.5,637.5,17,SBD,Raw,
Nicolas Warnon,Belgium,M,2003,Juniors,83,82.56,222.5,232.5,240,240,140,145,147.5,147.5,245,265,272.5,272.5,660,12,SBD,Raw,
Daniel Reiley,Iceland,M,2003,Juniors,74,71.33,172.5,-182.5,182.5,182.5,-125,130,-137.5,130,-182.5,182.5,-200,182.5,495,10,SBD,Raw,
Sebastiaan Dreyer,Iceland,M,2003,Juniors,120,116.86,295,310,-320,310,155,162.5,170,170,262.5,272.5,-280,272.5,752.5,12,SBD,Raw,
Nathan Cavrenne,Belgium,M,2003,Juniors,83,82.18,-210,220,230,230,132.5,137.5,142.5,142.5,245,260,267.5,267.5,640,16,SBD,Raw,
Luca Umberto Angrisano,Italy,M,2003,Juniors,93,91.98,270,282.5,287.5,287.5,-157.5,162.5,167.5,167.5,305,-320,-320,305,760,6,SBD,Raw,
Máté Gábor Király,Hungary,M,2003,Juniors,105,103.88,240,252.5,260,260,185,195,-202.5,195,250,270,-290,270,725,15,SBD,Raw,
Jason Magerat,Belgium,M,2003,Juniors,74,73.93,210,215,220,220,165,175,185,185,210,220,-235,220,625,7,SBD,Raw,
Tadeusz Kurek,Czechia,M,2003,Juniors,105,104.69,225,240,250,250,172.5,180,185,185,282.5,300,305,305,740,13,SBD,Raw,
Róbert Guðbrandsson,Iceland,M,2004,Juniors,120,119.46,245,260,270,270,170,180,185,185,235,255,-265,255,710,16,SBD,Raw,
Leonard Lai,UK,M,2004,Juniors,53,52.62,135,142.5,150,150,107.5,112.5,-115,112.5,185,-195,195,195,457.5,2,SBD,Raw,
Štěpán Knap,Czechia,M,2004,Juniors,120+,129.23,250,265,-280,265,180,195,-205,195,300,310,320,320,780,4,SBD,Raw,
Emils Jekabsons,Ireland,M,2004,Juniors,93,92.39,225,237.5,245,245,150,155,-160,155,270,290,-300,290,690,15,SBD,Raw,
Alessandro Pastorello,Italy,M,2004,Juniors,74,73.59,235,242.5,247.5,247.5,152.5,-157.5,157.5,157.5,275,282.5,-300,282.5,687.5,1,SBD,Raw,
Dionysios Skoularikis,Greece,M,2004,Juniors,66,64.4,160,172.5,180,180,110,117.5,122.5,122.5,202.5,217.5,-222.5,217.5,520,11,SBD,Raw,
Stjepan Romić,Croatia,M,2004,Juniors,93,91.84,237.5,250,257.5,257.5,160,167.5,170,170,270,287.5,-295,287.5,715,11,SBD,Raw,
Gabriele Palumbo,Italy,M,2004,Juniors,59,58.74,185,195,200,200,95,100,102.5,102.5,200,207.5,210,210,512.5,3,SBD,Raw,
Dennis Moe Ruud,Norway,M,2005,Juniors,105,103.44,265,280,285,285,185,190,197.5,197.5,275,292.5,300,300,782.5,7,SBD,Raw,
Nikolaos Karras,Greece,M,2005,Juniors,93,89.15,240,252.5,-257.5,252.5,160,170,175,175,267.5,285,-300,285,712.5,12,SBD,Raw,
Liam Malone,Ireland,M,2005,Juniors,83,79.14,207.5,222.5,230,230,132.5,140,-145,140,265,285,-300,285,655,13,SBD,Raw,
Martin Brester,Germany,M,2005,Juniors,105,103.96,285,295,307.5,307.5,175,180,-185,180,290,305,-315,305,792.5,6,SBD,Raw,
Serrano Agostien,Netherlands,M,2005,Juniors,83,82.44,260,270,275,275,140,-147.5,147.5,147.5,275,285,-292.5,285,707.5,7,SBD,Raw,
Pavo Švenda,Croatia,M,2005,Juniors,105,102.46,-240,247.5,262.5,262.5,132.5,140,145,145,270,290,305,305,712.5,17,SBD,Raw,
Daniel Adam Hubert,Hungary,M,2005,Juniors,74,72.99,220,230,240,240,115,120,127.5,127.5,252.5,270,-282.5,270,637.5,5,SBD,Raw,
Erik Němec,Czechia,M,2005,Juniors,93,91.7,252.5,262.5,270,270,140,145,147.5,147.5,300,315,-322.5,315,732.5,8,SBD,Raw,
Otto Sjuls,Finland,M,2005,Juniors,83,81.7,225,235,242.5,242.5,160,165,170,170,240,252.5,-260,252.5,665,11,SBD,Raw,
Benjamin B Macintyre,Denmark,M,2005,Juniors,105,103.17,235,260,282.5,282.5,185,200,207.5,207.5,270,315,-332.5,315,805,4,SBD,Raw,
Luka Grežina,Croatia,M,2005,Juniors,120,118.01,265,277.5,292.5,292.5,135,142.5,147.5,147.5,270,287.5,-305,287.5,727.5,14,SBD,Raw,
Arnar Gaui Björnsson,Iceland,M,2005,Juniors,83,77.22,185,200,-205,200,140,150,-152.5,150,220,-240,240,240,590,18,SBD,Raw,
Stefanos Georgiou,Greece,M,2005,Juniors,74,71.5,165,177.5,187.5,187.5,112.5,-120,-120,112.5,225,240,255,255,555,9,SBD,Raw,
Ilias Seidel,Switzerland,M,2006,Sub-Juniors,74,73.04,185,197.5,-202.5,197.5,117.5,125,132.5,132.5,210,220,-225,220,550,9,SBD,Raw,
Angel Cassarà,Italy,M,2006,Sub-Juniors,83,82.15,-247.5,-247.5,-247.5,,140,145,150,150,250,-252.5,-262.5,250,,DQ,SBD,Raw,
Kevin Desiderio,Italy,M,2006,Sub-Juniors,59,57.91,162.5,170,-175,170,107.5,-112.5,-112.5,107.5,217.5,230,-237.5,230,507.5,5,SBD,Raw,
Léo Beauchot,Belgium,M,2006,Sub-Juniors,83,81.54,205,-215,215,215,135,142.5,-150,142.5,240,-252.5,252.5,252.5,610,8,SBD,Raw,
Mattéo Van Vynckt,Belgium,M,2006,Sub-Juniors,74,73.86,210,217.5,-225,217.5,127.5,132.5,-135,132.5,230,242.5,-252.5,242.5,592.5,5,SBD,Raw,
Jorge Samaniego,Spain,M,2006,Sub-Juniors,83,80.72,200,207.5,-212.5,207.5,127.5,132.5,137.5,137.5,255,275,-292.5,275,620,7,SBD,Raw,
Nikola Zgrebec,Croatia,M,2006,Sub-Juniors,93,91.15,-215,220,240,240,137.5,145,152.5,152.5,220,235,250,250,642.5,6,SBD,Raw,
Thomas Katotikidis,Greece,M,2006,Sub-Juniors,74,73.24,202.5,215,-225,215,135,140,142.5,142.5,232.5,247.5,255,255,612.5,3,SBD,Raw,
Alessandro Pennisi,Italy,M,2006,Sub-Juniors,120+,133.88,215,230,245,245,145,152.5,160,160,265,282.5,-295,282.5,687.5,6,SBD,Raw,
Samuel King,Czechia,M,2006,Sub-Juniors,74,73.53,175,195,205,205,132.5,142.5,-147.5,142.5,-250,250,273,273,620.5,2,SBD,Raw,
Dániel Sajben,Hungary,M,2006,Sub-Juniors,59,57.57,150,155,160,160,100,105,107.5,107.5,180,187.5,195,195,462.5,7,SBD,Raw,
Artem Siromolot,Ukraine,M,2006,Sub-Juniors,83,81.85,210,-220,-220,210,115,122.5,-130,122.5,250,-260,260,260,592.5,10,SBD,Raw,
Finn O'Farrell,UK,M,2006,Sub-Juniors,120,117.68,275,295,300,300,167.5,175,182.5,182.5,265,277.5,285,285,767.5,2,SBD,Raw,
Edward Butcher,UK,M,2006,Sub-Juniors,66,64.13,-177.5,177.5,190,190,97.5,-102.5,102.5,102.5,217.5,-232.5,-235,217.5,510,5,SBD,Raw,
Ivan Kostiuk,Sweden,M,2006,Sub-Juniors,59,58.2,175,180,-182.5,180,120,125,129.5,129.5,205,-215,-217.5,205,514.5,4,SBD,Raw,
Javier Cholbi Tomey,Spain,M,2006,Sub-Juniors,74,72.82,205,217.5,225,225,132.5,140,145,145,-245,260,275.5,275.5,645.5,1,SBD,Raw,
Pedro Joel Aragoneses Guerrero,Spain,M,2006,Sub-Juniors,105,104.03,285,301.5,312,312,165,172.5,177.5,177.5,295,315,-331,315,804.5,1,SBD,Raw,
Uros Stanimirovic,Serbia,M,2006,Sub-Juniors,120,118.23,235,250,255,255,142.5,147.5,150,150,225,240,-262.5,240,645,4,SBD,Raw,
Ivan Gabaldon Saez,Spain,M,2006,Sub-Juniors,120,119.33,257.5,275,-290,275,167.5,177.5,185,185,245,265,310,310,770,1,SBD,Raw,
Jan Juha,Czechia,M,2006,Sub-Juniors,93,91.91,190,202.5,212.5,212.5,120,127.5,-135,127.5,245,262.5,-272.5,262.5,602.5,11,SBD,Raw,
Rytis Jankauskas,Lithuania,M,2006,Sub-Juniors,93,89.35,225,-235,,225,115,,,115,245,255,-265,255,595,12,SBD,Raw,
Joshua Holmes,Ireland,M,2006,Sub-Juniors,93,90.19,225,235,-242.5,235,137.5,142.5,145,145,255,265,-290,265,645,5,SBD,Raw,
Bastien Georges,Belgium,M,2006,Sub-Juniors,93,91.97,220,235,250,250,150,157.5,160,160,240,257.5,270,270,680,2,SBD,Raw,
Karlo Jurić,Croatia,M,2006,Sub-Juniors,93,90.38,200,210,220,220,122.5,130,135,135,250,260,-265,260,615,10,SBD,Raw,
Matěj Kukuča,Czechia,M,2006,Sub-Juniors,105,104,-205,205,212.5,212.5,165,-175,177.5,177.5,255,265,-270,265,655,7,SBD,Raw,
János Kocsis,Hungary,M,2006,Sub-Juniors,66,65.72,167.5,175,-180,175,90,95,-97.5,95,172.5,180,187.5,187.5,457.5,9,SBD,Raw,
Juho Määttä,Finland,M,2006,Sub-Juniors,83,80.41,200,210,-220,210,-135,135,-140,135,-220,220,-240,220,565,14,SBD,Raw,
Marek Mokroluský,Czechia,M,2006,Sub-Juniors,83,81.26,227.5,235,-242.5,235,130,135,140,140,240,252.5,257.5,257.5,632.5,6,SBD,Raw,
Andrea Rippa,Italy,M,2006,Sub-Juniors,105,103.89,260,275,285,285,150,160,-165,160,285,-300,-300,285,730,3,SBD,Raw,
Luka Benšić,Croatia,M,2006,Sub-Juniors,83,79.44,220,230,-235,230,127.5,135,-140,135,265,280,290,290,655,4,SBD,Raw,
Tomáš Mašek,Czechia,M,2006,Sub-Juniors,66,65.78,160,170,175,175,127.5,132.5,135,135,-195,-202.5,202.5,202.5,512.5,4,SBD,Raw,
Emin Ursol,Ukraine,M,2006,Sub-Juniors,120+,140.54,267.5,280,300,300,142.5,150,-155,150,260,272.5,-285,272.5,722.5,5,SBD,Raw,
Ludovico Tagliaferri,Italy,M,2006,Sub-Juniors,83,82.75,212.5,217.5,-220,217.5,140,147.5,152.5,152.5,-257.5,257.5,272.5,272.5,642.5,5,SBD,Raw,
Abraham Huertas,Spain,M,2006,Sub-Juniors,66,65.39,200,210,215,215,107.5,112.5,117.5,117.5,220,235,242.5,242.5,575,2,SBD,Raw,
Pavel Benda,Czechia,M,2006,Sub-Juniors,120+,123.72,280,295,307.5,307.5,195,208,215,215,305,331,-347.5,331,853.5,1,SBD,Raw,
Fotis Alexopoulos,Greece,M,2006,Sub-Juniors,66,65.24,160,170,-177.5,170,117.5,-122.5,-122.5,117.5,165,175,182.5,182.5,470,7,SBD,Raw,
David Jenco,Slovakia,M,2006,Sub-Juniors,83,83,185,200,-210,200,135,142.5,145,145,207.5,-222.5,230,230,575,13,SBD,Raw,
Omar Mochamed,Greece,M,2006,Sub-Juniors,93,91.44,232.5,247.5,-255,247.5,-135,-135,-135,,225,255,-280,255,,DQ,SBD,Raw,
Eamonn Breen,Ireland,M,2006,Sub-Juniors,105,104.76,250,262.5,-267.5,262.5,162.5,170,172.5,172.5,272.5,287.5,-297.5,287.5,722.5,4,SBD,Raw,
Alberts-Aleksandrs Skila,Latvia,M,2006,Sub-Juniors,120,112.11,240,-250,-250,240,-172.5,-172.5,-172.5,,,,,,,DQ,SBD,Raw,
Jakub Bellak,Slovakia,M,2006,Sub-Juniors,83,82.88,267.5,-276,276,276,157.5,165,-171,165,300,-315.5,-315.5,300,741,1,SBD,Raw,
Ajay Mulhern,Ireland,M,2006,Sub-Juniors,120,116.22,-237.5,237.5,252.5,252.5,137.5,142.5,147.5,147.5,275,295,305,305,705,3,SBD,Raw,
Liam Biström,Finland,M,2006,Sub-Juniors,93,89.34,205,225,240,240,140,150,-155,150,245,-275,-280,245,635,8,SBD,Raw,
Theodoros Evaggelou,Greece,M,2006,Sub-Juniors,93,90.8,25,,,25,140,145,-150,145,237.5,252.5,260,260,430,14,SBD,Raw,
Oleksandr Yatsenko,Ukraine,M,2006,Sub-Juniors,74,73.51,200,210,217.5,217.5,130,135,-140,135,230,-242.5,245,245,597.5,4,SBD,Raw,
Akseli Virta,Finland,M,2006,Sub-Juniors,74,72.57,200,212.5,-222.5,212.5,105,112.5,-117.5,112.5,230,250,-262.5,250,575,7,SBD,Raw,
Bendegúz Nagy,Hungary,M,2006,Sub-Juniors,83,82.39,170,177.5,-185,177.5,105,110,115,115,250,265,-270,265,557.5,16,SBD,Raw,
Aaron Wilder Lara Contreras,Spain,M,2006,Sub-Juniors,105,104.29,215,235,240,240,137.5,142.5,147.5,147.5,245,255,262.5,262.5,650,8,SBD,Raw,
Euan Harrison,Ireland,M,2006,Sub-Juniors,83,82.16,190,197.5,202.5,202.5,120,125,-130,125,240,252.5,257.5,257.5,585,12,SBD,Raw,
Tim Hubrechts,Belgium,M,2006,Sub-Juniors,83,82.41,197.5,210,220,220,127.5,135,-137.5,135,222.5,232.5,-245,232.5,587.5,11,SBD,Raw,
Dorje Weston,UK,M,2006,Sub-Juniors,66,65.28,205,217.5,226,226,150,155,-157.5,155,205,215,-222.5,215,596,1,SBD,Raw,
Viljami Javanainen,Finland,M,2006,Sub-Juniors,74,73.78,-207.5,207.5,222.5,222.5,135,140,-145,140,227.5,-247.5,-252.5,227.5,590,6,SBD,Raw,
Gabriel Caushi,Belgium,M,2006,Sub-Juniors,93,91.62,210,222.5,227.5,227.5,157.5,162.5,167.5,167.5,245,262.5,272.5,272.5,667.5,3,SBD,Raw,
Alfie Bonsell,UK,M,2007,Sub-Juniors,59,58.62,182.5,192.5,200.5,200.5,107.5,112.5,115,115,187.5,202.5,210,210,525.5,3,SBD,Raw,
Eero Ruokoski,Finland,M,2007,Sub-Juniors,120+,125.26,220,230,-240,230,127.5,-132.5,-137.5,127.5,230,-240,-240,230,587.5,7,SBD,Raw,
Alejandro Cruz,Spain,M,2007,Sub-Juniors,59,58.73,170,-180,180,180,117.5,125,129,129,200,210,217.5,217.5,526.5,2,SBD,Raw,
Daan-Clothaire De Deken,Belgium,M,2007,Sub-Juniors,105,104.88,235,247.5,255,255,120,125,-127.5,125,235,250,-257.5,250,630,10,SBD,Raw,
Samuel Rozsmann,Hungary,M,2007,Sub-Juniors,93,92.37,220,230,235,235,-130,130,137.5,137.5,270,290,-300,290,662.5,4,SBD,Raw,
Athanasios Kotsifkas,Greece,M,2007,Sub-Juniors,66,65.74,152.5,162.5,170,170,92.5,97.5,-102.5,97.5,190,-200,202.5,202.5,470,8,SBD,Raw,
Filip Strand,Finland,M,2007,Sub-Juniors,83,81.1,200,207.5,-215,207.5,110,117.5,125,125,260,270,-280,270,602.5,9,SBD,Raw,
Adriel Armijos Placeres,Spain,M,2007,Sub-Juniors,83,80.73,217.5,230,237.5,237.5,152.5,160,165,165,260,275,-280,275,677.5,2,SBD,Raw,
Norbert Ferencz,Hungary,M,2007,Sub-Juniors,93,90.8,190,207.5,215,215,145,155,160,160,225,240,250,250,625,9,SBD,Raw,
Denys Rodenko,Ukraine,M,2007,Sub-Juniors,105,103.76,260,272.5,-280,272.5,130,135,137.5,137.5,250,260,-270,260,670,6,SBD,Raw,
Nathan Lamiot,France,M,2007,Sub-Juniors,53,52.75,150,157.5,-162.5,157.5,85,90,95,95,-185,185,-200,185,437.5,1,SBD,Raw,
Odysseas Markou,Greece,M,2007,Sub-Juniors,120+,133.54,255,267.5,277.5,277.5,145,152.5,162.5,162.5,300,310,-315,310,750,3,SBD,Raw,
Alexi Lobet,Belgium,M,2007,Sub-Juniors,66,64.54,182.5,190,195,195,95,100,105,105,217.5,227.5,235,235,535,3,SBD,Raw,
Ioannis Kazakos,Greece,M,2007,Sub-Juniors,83,81.76,172.5,177.5,185,185,110,117.5,122.5,122.5,180,195,202.5,202.5,510,18,SBD,Raw,
Kristóf Kozák,Hungary,M,2007,Sub-Juniors,74,71.39,175,185,195,195,100,105,107.5,107.5,195,205,212.5,212.5,515,11,SBD,Raw,
Frans-José Goris,Belgium,M,2007,Sub-Juniors,74,73.8,190,202.5,210,210,115,122.5,125,125,205,215,220,220,555,8,SBD,Raw,
Iordanis Mposnakidis,Greece,M,2008,Sub-Juniors,83,82.12,222.5,-235,-245,222.5,110,117.5,120,120,215,222.5,-230,222.5,565,15,SBD,Raw,
Aleix Sanchez Portillo,Spain,M,2008,Sub-Juniors,53,52.54,-122.5,127.5,-140,127.5,75,80,82.5,82.5,160,175,-190,175,385,2,SBD,Raw,
Franz Rebane,Estonia,M,2008,Sub-Juniors,93,91.61,210,222.5,-227.5,222.5,115,-125,-125,115,240,-242.5,-260,240,577.5,13,SBD,Raw,
Tyrsky Reunanen,Finland,M,2008,Sub-Juniors,59,58.6,157.5,167.5,172.5,172.5,120,125,130,130,180,185,-190,185,487.5,6,SBD,Raw,
Lauri Lindberg,Finland,M,2008,Sub-Juniors,66,64.4,160,170,-175,170,102.5,110,-115,110,185,195,-200,195,475,6,SBD,Raw,
Yehor Chornyi,Ukraine,M,2009,Sub-Juniors,53,52.91,110,120,-127.5,120,60,67.5,-70,67.5,125,135,145,145,332.5,3,SBD,Raw,
Maciej Samborski,Poland,M,2001,Juniors,120,116.97,270,-285,-285,270,187.5,200,-205,200,290,-310,,290,760,10,SBD,Raw,
Przemysław Berezowski,Poland,M,2001,Juniors,66,64.18,215,220,-222.5,220,107.5,112.5,-117.5,112.5,210,,,210,542.5,9,SBD,Raw,
Grzegorz Kolankiewicz,Poland,M,2001,Juniors,93,90.01,240,-245,-245,240,142.5,150,155,155,235,250,257.5,257.5,652.5,20,SBD,Raw,
Erik Petras,Slovakia,M,2001,Juniors,93,92.4,225,237.5,245,245,137.5,147.5,150,150,250,265,275,275,670,17,SBD,Raw,
Ayhan Eraycan Düzgün,Turkey,M,2001,Juniors,105,103.24,190,205,,205,180,192.5,-195,192.5,220,242.5,252.5,252.5,650,20,SBD,Raw,
Bartłomiej Bogdewicz,Poland,M,2002,Juniors,105,104.56,285,-300,300,300,155,165,170,170,275,290,-295,290,760,11,SBD,Raw,
Sheridan Denis,France,M,2002,Juniors,74,73.71,240,250,255,255,150,155,-157.5,155,-260,-260,-260,,,DQ,SBD,Raw,
Adam Bernolak,Slovakia,M,2002,Juniors,83,81.97,230,-242.5,245,245,157.5,-170,-170,157.5,250,-265,-265,250,652.5,15,SBD,Raw,
Alexander Chmelo,Slovakia,M,2002,Juniors,93,92.67,225,237.5,242.5,242.5,145,152.5,155,155,280,297.5,-302.5,297.5,695,13,SBD,Raw,
Kacper Sarnowski,Poland,M,2003,Juniors,105,99.74,260,-270,,260,162.5,170,-175,170,275,290,-300,290,720,16,SBD,Raw,
Louis Piretti,France,M,2003,Juniors,59,58.91,185,195,-197.5,195,117.5,122.5,-125,122.5,215,-227.5,-227.5,215,532.5,2,SBD,Raw,
Illia Kovach,Ukraine,M,2003,Juniors,120,118.39,305,320,325,325,180,187.5,195,195,280,-300,300,300,820,8,SBD,Raw,
Ivan Dela Cruz,UK,M,2003,Juniors,74,73.52,190,205,215,215,132.5,-140,140,140,265,-282.5,-282.5,265,620,8,SBD,Raw,
Max Horvat,Slovenia,M,2003,Juniors,105,102.61,-250,-250,250,250,-145,147.5,155,155,-280,-280,280,280,685,19,SBD,Raw,
Staš Oražem,Slovenia,M,2004,Juniors,74,73.68,220,230,240,240,147.5,157.5,-160,157.5,232.5,247.5,260,260,657.5,3,SBD,Raw,
Léoluca Bruzzese,France,M,2004,Juniors,66,65.84,210,215,222.5,222.5,125,130,135,135,260,-272.5,285,285,642.5,1,SBD,Raw,
Konrad Rosiński,Poland,M,2006,Sub-Juniors,105,101.13,200,210,-220,210,140,142.5,-147.5,142.5,245,-255,-260,245,597.5,11,SBD,Raw,
Kamil Becla,Poland,M,2006,Sub-Juniors,59,58.56,120,130,140,140,95,-102.5,-102.5,95,110,-130,,110,345,8,SBD,Raw,
Jakub Synowiec,Poland,M,2006,Sub-Juniors,83,80.16,190,200,205,205,105,-110,112.5,112.5,210,-220,-220,210,527.5,17,SBD,Raw,
Wiktor Sankowski,Poland,M,2006,Sub-Juniors,120+,121.18,250,265,270,270,145,155,160,160,260,280,292.5,292.5,722.5,4,SBD,Raw,
Piotr Lech,Poland,M,2006,Sub-Juniors,66,64.79,140,147.5,-152.5,147.5,92.5,95,-100,95,-180,180,190,190,432.5,10,SBD,Raw,
Jenson Daubrah-Scott,UK,M,2006,Sub-Juniors,105,104.73,237.5,247.5,257.5,257.5,120,127.5,135,135,295,315,-322.5,315,707.5,5,SBD,Raw,
Theo Bennett,UK,M,2006,Sub-Juniors,105,100.9,227.5,245,252.5,252.5,182.5,190,197.5,197.5,255,-275,280,280,730,2,SBD,Raw,
Samuel Galhaut,France,M,2006,Sub-Juniors,93,92.5,260,270,277.5,277.5,150,155,,155,280,300,320.5,320.5,753,1,SBD,Raw,
Kenzo Thiburce,France,M,2006,Sub-Juniors,59,58.7,180,190,192.5,192.5,107.5,112.5,-115,112.5,220,-235,235,235,540,1,SBD,Raw,
Ayonla Oyinloye,UK,M,2006,Sub-Juniors,83,82.6,230,242.5,250,250,132.5,140,145,145,240,262.5,270,270,665,3,SBD,Raw,
Jakub Zielonka,Poland,M,2007,Sub-Juniors,93,91.15,230,240,-245,240,130,137.5,142.5,142.5,255,-265,-265,255,637.5,7,SBD,Raw,
Jakub Naguszewski,Poland,M,2007,Sub-Juniors,120+,121.88,295,305,307.5,307.5,155,165,170,170,260,270,275,275,752.5,2,SBD,Raw,
Wiktor Szyguła,Poland,M,2007,Sub-Juniors,74,73.4,180,187.5,195,195,115,122.5,,122.5,185,200,-207.5,200,517.5,10,SBD,Raw,
Yaw Parbey,UK,M,2007,Sub-Juniors,83,79.32,215,225,235,235,137.5,-142.5,-142.5,137.5,-280,-295,-295,,,DQ,SBD,Raw,
Szymon Gruszka,Poland,M,2008,Sub-Juniors,105,104.57,245,-255,255,255,145,-152.5,-152.5,145,235,250,-257.5,250,650,9,SBD,Raw,
Selma Ramberg Storstad,Norway,F,2001,Juniors,57,55.13,132.5,-142.5,142.5,142.5,90,97.5,-102.5,97.5,150,160,165,165,405,7,SBD,Raw,
Magdalena Szymkowiak,Poland,F,2001,Juniors,84,81,130,135,-140,135,67.5,70,-72.5,70,160,170,-175,170,375,8,SBD,Raw,
Eliška Ročárková,Czechia,F,2001,Juniors,57,56.22,130,135,-140,135,72.5,75,77.5,77.5,135,-142.5,,135,347.5,11,SBD,Raw,
Lara Escosura Flores,Spain,F,2001,Juniors,57,56.83,137.5,142.5,147.5,147.5,77.5,82.5,-85,82.5,155,-162.5,-162.5,155,385,8,SBD,Raw,
Carlijne Schmid,Netherlands,F,2001,Juniors,52,50.94,117.5,125,130,130,65,67.5,70,70,150,160,170,170,370,2,SBD,Raw,
Panna Rózsás,Hungary,F,2001,Juniors,69,68.04,125,132.5,135,135,65,70,72.5,72.5,135,145,-152.5,145,352.5,16,SBD,Raw,
Hana Vresk,Croatia,F,2001,Juniors,76,74.7,142.5,147.5,-152.5,147.5,55,57.5,-60,57.5,157.5,-165,165,165,370,18,SBD,Raw,
Ashleigh Sutton,UK,F,2001,Juniors,76,75.86,160,167.5,172.5,172.5,85,90,92.5,92.5,175,182.5,190,190,455,10,SBD,Raw,
Caitlin Davies,UK,F,2001,Juniors,84+,130.8,187.5,197.5,-205,197.5,95,102.5,105,105,165,175,185,185,487.5,6,SBD,Raw,
Nicole Spini,Italy,F,2001,Juniors,57,55.8,127.5,135,140,140,92.5,95,97.5,97.5,145,-152.5,-152.5,145,382.5,9,SBD,Raw,
Amalie Senland,Norway,F,2001,Juniors,84+,103.67,190,200,205,205,95,100,105,105,185,197.5,205,205,515,2,SBD,Raw,
Maëvane Stellato,France,F,2001,Juniors,47,46.37,105,110,112.5,112.5,55,57.5,-60,57.5,145,152.5,-160,152.5,322.5,3,SBD,Raw,
Patrícia Holbigh,Hungary,F,2001,Juniors,63,62.96,122.5,130,135,135,80,82.5,85,85,130,140,150,150,370,15,SBD,Raw,
Giulia Grechi,Italy,F,2001,Juniors,57,56.58,142.5,150,-155,150,80,85,-87.5,85,175,187.5,197.5,197.5,432.5,4,SBD,Raw,
Caitlin Baxter,UK,F,2001,Juniors,57,56.65,160,165,167.5,167.5,102.5,107.5,112.5,112.5,160,167.5,-170,167.5,447.5,3,SBD,Raw,
Dominika Jansová,Czechia,F,2001,Juniors,63,60.84,132.5,142.5,147.5,147.5,80,82.5,85,85,165,172.5,-177.5,172.5,405,11,SBD,Raw,
Sarah McCormack,Ireland,F,2001,Juniors,52,51.14,110,115,120,120,62.5,65,67.5,67.5,127.5,137.5,-145,137.5,325,3,SBD,Raw,
Gisela Sanchez Collado,Spain,F,2001,Juniors,47,45.06,102.5,110,-112.5,110,57.5,60,62.5,62.5,130,140,-147.5,140,312.5,5,SBD,Raw,
Helena Mariella Decker,Germany,F,2001,Juniors,57,56.78,155,160,165,165,95,100,102.5,102.5,172.5,182.5,187.5,187.5,455,1,SBD,Raw,
Leah Kearney,Ireland,F,2001,Juniors,69,68.39,135,145,150,150,80,-82.5,-82.5,80,170,180,-187.5,180,410,8,SBD,Raw,
Yente Van Meel,Belgium,F,2001,Juniors,84,79.85,167.5,175,180,180,80,85,87.5,87.5,175,185,-192.5,185,452.5,3,SBD,Raw,
Lilian Kuria,Ireland,F,2001,Juniors,76,75.91,155,160,165,165,65,70,72.5,72.5,175,187.5,-195,187.5,425,17,SBD,Raw,
Marie-José van Daal,Netherlands,F,2001,Juniors,69,67.2,172.5,-180,180,180,105,110,112.5,112.5,207.5,-220,-225,207.5,500,3,SBD,Raw,
Mariella Drakaki,Greece,F,2001,Juniors,63,61.99,130,135,140,140,72.5,77.5,-80,77.5,127.5,132.5,140,140,357.5,16,SBD,Raw,
Elena Zuccaro,Italy,F,2001,Juniors,63,58.13,155,160,165,165,95,-100,102.5,102.5,162.5,-170,-170,162.5,430,8,SBD,Raw,
Paula Alonso Vazquez,Spain,F,2001,Juniors,57,56.37,137.5,145,150,150,85,90,92.5,92.5,160,172.5,-182.5,172.5,415,6,SBD,Raw,
Clara Haulot,Belgium,F,2001,Juniors,63,62.8,152.5,160,-165,160,85,90,-95,90,170,-177.5,177.5,177.5,427.5,9,SBD,Raw,
Helene Marie Eckardt,Germany,F,2001,Juniors,76,73.97,152.5,162.5,-167.5,162.5,107.5,112.5,115,115,170,182.5,-190,182.5,460,8,SBD,Raw,
Eszter Sallai,Hungary,F,2001,Juniors,76,70.79,157.5,165,170,170,102.5,107.5,110,110,195,205,212.5,212.5,492.5,2,SBD,Raw,
Kolbrun Jonsdottir,Iceland,F,2001,Juniors,84+,120.93,197.5,210,-222.5,210,85,92.5,-95,92.5,180,192.5,-202.5,192.5,495,4,SBD,Raw,
Sarah Doyle #1,Ireland,F,2001,Juniors,76,75.68,152.5,165,175,175,75,80,82.5,82.5,152.5,167.5,175,175,432.5,16,SBD,Raw,
Marta Scuderi,Italy,F,2001,Juniors,47,46.75,125,132.5,135,135,72.5,75,-77.5,75,152.5,-157.5,-157.5,152.5,362.5,2,SBD,Raw,
Giorgia Silvia Berton,Italy,F,2001,Juniors,69,66.51,-192.5,192.5,202.5,202.5,100,105,110,110,207.5,217.5,-225,217.5,530,2,SBD,Raw,
Kaya Goossens,Belgium,F,2001,Juniors,69,67.74,165,172.5,-177.5,172.5,90,95,-97.5,95,170,185,-190,185,452.5,5,SBD,Raw,
Tessa Ophoff,Netherlands,F,2001,Juniors,76,73.16,180,190,-192.5,190,90,95,-97.5,95,195,205,210,210,495,1,SBD,Raw,
Beatriz Fernandez,Spain,F,2002,Juniors,69,68.82,150,-157.5,160,160,90,-95,-100,90,157.5,170,177.5,177.5,427.5,7,SBD,Raw,
Mariska Martens,Belgium,F,2002,Juniors,76,73.23,152.5,162.5,-167.5,162.5,87.5,92.5,97.5,97.5,162.5,175,-180,175,435,12,SBD,Raw,
Lucy Robinson #1,UK,F,2002,Juniors,63,62.4,172.5,180,185,185,85,90,-95,90,195,205,-212.5,205,480,2,SBD,Raw,
Veronika Šigutová,Czechia,F,2002,Juniors,76,75.47,157.5,167.5,172.5,172.5,80,85,90,90,172.5,185,190,190,452.5,11,SBD,Raw,
Ula Humar,Slovenia,F,2002,Juniors,63,62.14,142.5,150,-157.5,150,77.5,82.5,-85,82.5,175,185,-192.5,185,417.5,10,SBD,Raw,
Luna Bonnet,Belgium,F,2002,Juniors,84,80.98,162.5,172.5,-177.5,172.5,95,100,-102.5,100,145,155,165,165,437.5,5,SBD,Raw,
Sohlan Aslan,UK,F,2002,Juniors,84+,95.88,180,190,195,195,102.5,105,107.5,107.5,185,200,205,205,507.5,3,SBD,Raw,
Ioanna Kampardi,Greece,F,2002,Juniors,52,49.01,95,-100,-100,95,60,62.5,65,65,127.5,-135,-135,127.5,287.5,5,SBD,Raw,
Michelle Weyers,Netherlands,F,2002,Juniors,76,73.26,155,162.5,-167.5,162.5,95,100,105,105,175,185,192.5,192.5,460,7,SBD,Raw,
Clelia Corti,Italy,F,2002,Juniors,84,79.59,165,170,172.5,172.5,92.5,97.5,-100,97.5,172.5,180,-185,180,450,4,SBD,Raw,
Amelia Fox #1,UK,F,2002,Juniors,57,56.19,137.5,145,150,150,72.5,77.5,80,80,172.5,185,197.5,197.5,427.5,5,SBD,Raw,
Želmíra Áčová,Slovakia,F,2002,Juniors,69,68.04,130,137.5,140,140,70,72.5,-75,72.5,160,170,172.5,172.5,385,10,SBD,Raw,
Andorina Bouchoux,France,F,2002,Juniors,69,68.66,185,195,197.5,197.5,105,110,112.5,112.5,207.5,-217.5,222.5,222.5,532.5,1,SBD,Raw,
Marina Sanchez Fernandez,Spain,F,2002,Juniors,76,75.34,150,157.5,165,165,75,80,-82.5,80,177.5,190,-200,190,435,15,SBD,Raw,
Tara Baće,Croatia,F,2002,Juniors,84,79.57,170,177.5,180,180,95,100,-102.5,100,167.5,177.5,-185,177.5,457.5,2,SBD,Raw,
Elsa Prandi Merino,Spain,F,2002,Juniors,63,61.33,150,-157.5,157.5,157.5,100,105,107.5,107.5,157.5,167.5,175,175,440,7,SBD,Raw,
Betty Aborah,Netherlands,F,2002,Juniors,63,62.26,162.5,170,175,175,92.5,97.5,100,100,210,225,233,233,508,1,SBD,Raw,
Lauren Preston,UK,F,2002,Juniors,47,46.76,100,107.5,115,115,-67.5,67.5,-70,67.5,125,132.5,-137.5,132.5,315,4,SBD,Raw,
Aleksandra Opioła,Poland,F,2003,Juniors,84,82.04,152.5,-160,-160,152.5,92.5,95,-100,95,167.5,-175,-175,167.5,415,6,SBD,Raw,
Martina Lanza Alzamora,Spain,F,2003,Juniors,76,75.15,145,152.5,157.5,157.5,90,95,100,100,165,172.5,177.5,177.5,435,13,SBD,Raw,
Szonja Balogh,Hungary,F,2003,Juniors,84,83.75,137.5,145,150,150,85,90,-95,90,152.5,162.5,167.5,167.5,407.5,7,SBD,Raw,
Astrid Edvardsson,Sweden,F,2003,Juniors,63,62.64,142.5,150,152.5,152.5,95,100,102.5,102.5,190,197.5,-202.5,197.5,452.5,5,SBD,Raw,
Mina Holmefjord,Norway,F,2003,Juniors,84,83.39,182.5,190,195,195,110,117.5,122.5,122.5,182.5,197.5,-202.5,197.5,515,1,SBD,Raw,
Martina Sosič,Slovenia,F,2003,Juniors,84+,105.43,190,200,205,205,80,85,90,90,182.5,-190,-190,182.5,477.5,7,SBD,Raw,
Laura Vulić,Croatia,F,2003,Juniors,69,68.44,130,140,-150,140,72.5,77.5,80,80,140,147.5,155,155,375,12,SBD,Raw,
Bianca Citron,Italy,F,2003,Juniors,76,75.69,172.5,177.5,182.5,182.5,97.5,102.5,-105,102.5,167.5,175,182.5,182.5,467.5,6,SBD,Raw,
Katya Katzarova,Bulgaria,F,2003,Juniors,47,46.72,62.5,65,70,70,-60,60,62.5,62.5,-115,115,-120,115,247.5,6,SBD,Raw,
Tereza Březková,Czechia,F,2003,Juniors,84+,123.65,225,235,245.5,245.5,105,110,115,115,160,170,175,175,535.5,1,SBD,Raw,
Antonela Mahnet,Croatia,F,2003,Juniors,57,56.25,117.5,125,130,130,67.5,72.5,-77.5,72.5,130,-140,-140,130,332.5,12,SBD,Raw,
Mathilde Petit,France,F,2003,Juniors,52,51.97,132.5,140,145,145,72.5,77.5,80,80,162.5,167.5,172.5,172.5,397.5,1,SBD,Raw,
Nina Heikkinen,Finland,F,2003,Juniors,76,75.23,180,190,-195,190,82.5,-87.5,87.5,87.5,170,180,-185,180,457.5,9,SBD,Raw,
Kiera Loftus,Ireland,F,2003,Juniors,63,62.28,122.5,127.5,132.5,132.5,65,70,72.5,72.5,140,152.5,-160,152.5,357.5,17,SBD,Raw,
Luna Coronado,Belgium,F,2003,Juniors,76,74.93,182.5,192.5,197.5,197.5,95,100,102.5,102.5,180,192.5,-197.5,192.5,492.5,4,SBD,Raw,
Shania Jones Cottrell,Ireland,F,2003,Juniors,69,67.79,117.5,125,132.5,132.5,77.5,80,82.5,82.5,152.5,160,-170,160,375,11,SBD,Raw,
Emelie Olin,Sweden,F,2003,Juniors,57,56.79,150,157.5,162.5,162.5,107.5,112.5,117.5,117.5,160,170,-177.5,170,450,2,SBD,Raw,
Wiktoria Zapotoczna,Poland,F,2004,Juniors,63,62.13,155,160,-167.5,160,90,-95,95,95,-190,190,-200,190,445,6,SBD,Raw,
Emilia Rutkowska,Poland,F,2004,Juniors,63,62.77,140,145,-150,145,65,67.5,70,70,170,-175,-175,170,385,14,SBD,Raw,
Léa Bantuelle,Belgium,F,2004,Juniors,57,56.45,120,127.5,130,130,57.5,-62.5,62.5,62.5,147.5,-155,157.5,157.5,350,10,SBD,Raw,
Asia Franchini Petrovic,Italy,F,2004,Juniors,76,74.61,160,165,170,170,100,105,-107.5,105,190,200,-207.5,200,475,5,SBD,Raw,
Júnó Kővári,Hungary,F,2004,Juniors,76,75.23,145,152.5,160,160,85,90,95,95,170,180,-187.5,180,435,14,SBD,Raw,
Klára Kučerová,Czechia,F,2004,Juniors,52,51.25,105,110,112.5,112.5,52.5,-55,55,55,135,140,-147.5,140,307.5,4,SBD,Raw,
Fatima Elouafi,Belgium,F,2004,Juniors,84+,104.07,172.5,180,185,185,-90,92.5,97.5,97.5,195,205,207.5,207.5,490,5,SBD,Raw,
Svatava Hanykýřová,Czechia,F,2004,Juniors,69,68.22,167.5,177.5,182.5,182.5,85,90,92.5,92.5,170,180,187.5,187.5,462.5,4,SBD,Raw,
Anežka Miková,Czechia,F,2004,Juniors,47,46.55,132.5,137.5,140,140,67.5,72.5,-75,72.5,142.5,150,152.5,152.5,365,1,SBD,Raw,
Hilma Westerberg,Sweden,F,2004,Juniors,63,62.45,160,165,170,170,-107.5,107.5,112.5,112.5,162.5,170,-175,170,452.5,4,SBD,Raw,
Elena Galbucci,Italy,F,2004,Juniors,43,42.95,75,82.5,-87.5,82.5,55,62.5,-65,62.5,-100,100,115,115,260,1,SBD,Raw,
Alix Lhoir,Belgium,F,2004,Juniors,69,67.17,160,170,-172.5,170,80,85,-90,85,167.5,177.5,180,180,435,6,SBD,Raw,
Ainhoa Pradas Lozano,Spain,F,2004,Juniors,63,62.43,125,132.5,-140,132.5,85,90,95,95,157.5,170,175,175,402.5,12,SBD,Raw,
Enia Antanovica,Latvia,F,2005,Juniors,63,61.27,112.5,117.5,122.5,122.5,72.5,75,-80,75,132.5,137.5,-140,137.5,335,18,SBD,Raw,
Ania Antanovica,Latvia,F,2005,Juniors,57,55.13,100,-107.5,107.5,107.5,72.5,77.5,-80,77.5,117.5,122.5,127.5,127.5,312.5,13,SBD,Raw,
Marčelina Filipović,Croatia,F,2005,Juniors,63,60.59,-145,-145,-145,,-50,-50,50,50,120,-125,-125,120,,DQ,SBD,Raw,
Skye Moore,UK,F,2005,Juniors,63,62.56,147.5,157.5,162.5,162.5,90,92.5,95,95,182.5,192.5,197.5,197.5,455,3,SBD,Raw,
Eva Strgar,Slovenia,F,2005,Juniors,63,60.95,-142.5,142.5,147.5,147.5,75,-80,80,80,160,167.5,-170,167.5,395,13,SBD,Raw,
Effrosyni-Maria Gkadolou,Greece,F,2005,Juniors,69,68.75,130,140,-142.5,140,70,72.5,75,75,150,155,-160,155,370,13,SBD,Raw,
Vanda Deme,Hungary,F,2005,Juniors,57,56.73,95,102.5,-105,102.5,60,65,67.5,67.5,122.5,130,-132.5,130,300,14,SBD,Raw,
Signý Lára Kristinsdóttir,Iceland,F,2005,Juniors,69,68.63,130,140,-145,140,67.5,75,-80,75,127.5,142.5,-152.5,142.5,357.5,15,SBD,Raw,
Ana Jozinović,Croatia,F,2005,Juniors,69,67.97,115,122.5,130,130,82.5,87.5,90,90,145,-152.5,-152.5,145,365,14,SBD,Raw,
Zuzanna Mazur,Poland,F,2006,Sub-Juniors,76,74.72,170,177.5,185.5,185.5,95,100,-105,100,-190,190,209,209,494.5,1,SBD,Raw,
Natalia Nowak,Poland,F,2006,Sub-Juniors,69,68.18,137.5,-142.5,142.5,142.5,80,85,90,90,137.5,145,-150,145,377.5,6,SBD,Raw,
Brina Soldo Tary,Slovenia,F,2006,Sub-Juniors,84,78.38,150,160,-167.5,160,80,85,87.5,87.5,140,147.5,155,155,402.5,6,SBD,Raw,
Camille Grace Castro Mauhay,Ireland,F,2006,Sub-Juniors,63,63,115,122.5,-130,122.5,50,-55,-55,50,135,147.5,-155,147.5,320,9,SBD,Raw,
Nina Čurič,Slovenia,F,2006,Sub-Juniors,76,74.65,137.5,145,150,150,67.5,72.5,75,75,175,187.5,-202.5,187.5,412.5,4,SBD,Raw,
Amaya Torres Serra,Spain,F,2006,Sub-Juniors,57,55.61,120,125,130,130,60,65,70,70,135,145,150,150,350,6,SBD,Raw,
Daniela Fadrná,Czechia,F,2006,Sub-Juniors,84,77.65,120,125,130,130,82.5,87.5,-90,87.5,165,175,187.5,187.5,405,3,SBD,Raw,
Arianna Sofia Neri,Italy,F,2006,Sub-Juniors,63,60.34,100,,,100,65,70,-72.5,70,100,,,100,270,10,SBD,Raw,
Agathe Turbé,France,F,2006,Sub-Juniors,76,74.63,145,152.5,-160,152.5,80,85,-87.5,85,170,-180,-190,170,407.5,5,SBD,Raw,
Elise Bouvier,France,F,2006,Sub-Juniors,69,66.99,160,167.5,170,170,82.5,87.5,90,90,170,180,-190,180,440,2,SBD,Raw,
Jenny Lin,UK,F,2006,Sub-Juniors,69,67.94,-105,-105,105,105,65,70,72.5,72.5,137.5,147.5,-152.5,147.5,325,12,SBD,Raw,
Amanda Airasmaa,Finland,F,2006,Sub-Juniors,84+,84.49,127.5,135,142.5,142.5,75,80,85,85,152.5,162.5,-172.5,162.5,390,4,SBD,Raw,
Zita Depoorter,Belgium,F,2006,Sub-Juniors,69,67.53,140,150,-155,150,65,70,-72.5,70,145,157.5,-165,157.5,377.5,5,SBD,Raw,
Sylvie Thomas,UK,F,2006,Sub-Juniors,52,51.11,100,107.5,112.5,112.5,65,70,-75,70,125,132.5,137.5,137.5,320,6,SBD,Raw,
Eszter Tomacsek,Hungary,F,2006,Sub-Juniors,63,62.27,120,127.5,132.5,132.5,72.5,77.5,-82.5,77.5,140,152.5,-157.5,152.5,362.5,6,SBD,Raw,
Josephine Noren Wallner,Sweden,F,2006,Sub-Juniors,84+,86.88,185,192.5,197.5,197.5,92.5,97.5,102.5,102.5,180,192.5,-195,192.5,492.5,1,SBD,Raw,
Pauline Varnerot,France,F,2006,Sub-Juniors,52,51.51,130,135,139,139,67.5,70,-72.5,70,145,152.5,-157.5,152.5,361.5,2,SBD,Raw,
Janette Ylisoini,Finland,F,2006,Sub-Juniors,76,72.45,167.5,175,177.5,177.5,82.5,87.5,90,90,170,177.5,190,190,457.5,2,SBD,Raw,
Logina Elghanam,Austria,F,2006,Sub-Juniors,76,72.28,122.5,130,132.5,132.5,70,72.5,75,75,145,155,-165,155,362.5,9,SBD,Raw,
Carla Ruiz Nieto,Spain,F,2006,Sub-Juniors,52,51.84,100,105,-107.5,105,52.5,55,-57.5,55,125,132.5,135,135,295,8,SBD,Raw,
Daniela Arquero Caston,Spain,F,2006,Sub-Juniors,69,67.1,137.5,142.5,-147.5,142.5,62.5,67.5,-70,67.5,147.5,155,-160,155,365,8,SBD,Raw,
Hannah Karpal,UK,F,2006,Sub-Juniors,57,56.44,102.5,110,115,115,62.5,67.5,70,70,142.5,152.5,160,160,345,7,SBD,Raw,
Wanda Pencáková,Czechia,F,2006,Sub-Juniors,57,55.86,-132.5,132.5,137.5,137.5,72.5,75,77.5,77.5,135,142.5,-152.5,142.5,357.5,4,SBD,Raw,
Juuli Kostian,Finland,F,2006,Sub-Juniors,69,68.58,165,175,-180.5,175,100,107.5,-111.5,107.5,180,190,-200,190,472.5,1,SBD,Raw,
Allysandra Murphy,Ireland,F,2006,Sub-Juniors,47,46.87,92.5,-100,100,100,45,47.5,50,50,107.5,117.5,122.5,122.5,272.5,3,SBD,Raw,
Nikola Nábělková,Czechia,F,2006,Sub-Juniors,84,76.82,150,155,160,160,-72.5,72.5,-75,72.5,160,167.5,170,170,402.5,5,SBD,Raw,
Aneta Svobodová,Czechia,F,2006,Sub-Juniors,63,62.26,150,157.5,161.5,161.5,65,70,72.5,72.5,155,165,-175,165,399,5,SBD,Raw,
Andra Aruksaar,Estonia,F,2006,Sub-Juniors,84,81.54,157.5,-167.5,-167.5,157.5,72.5,77.5,80,80,155,162.5,167.5,167.5,405,4,SBD,Raw,
Elise Idora,Netherlands,F,2006,Sub-Juniors,63,62.8,150,157.5,-162,157.5,90,95,100,100,152.5,162.5,-167.5,162.5,420,1,SBD,Raw,
Tereza Šítalová,Czechia,F,2006,Sub-Juniors,63,61.34,130,135,140,140,80,85,87.5,87.5,167.5,175,180,180,407.5,3,SBD,Raw,
Hana Županović,Croatia,F,2006,Sub-Juniors,57,55.63,105,112.5,117.5,117.5,50,55,-57.5,55,132.5,142.5,147.5,147.5,320,10,SBD,Raw,
Lea Tulipan,Hungary,F,2006,Sub-Juniors,52,51.86,115,-120,-120,115,67.5,70,-72.5,70,145,-152.5,,145,330,5,SBD,Raw,
Eveline Elizabeth Coman,Ireland,F,2006,Sub-Juniors,69,68.15,120,130,-132.5,130,72.5,75,-77.5,75,142.5,150,155,155,360,10,SBD,Raw,
Patricia Vettenranta,Finland,F,2006,Sub-Juniors,84+,102.74,112.5,120,125,125,52.5,55,-57.5,55,135,142.5,147.5,147.5,327.5,8,SBD,Raw,
Maeva Dero,Belgium,F,2006,Sub-Juniors,57,56.33,127.5,137.5,142.5,142.5,75,80,82.5,82.5,-165,170,-181.5,170,395,1,SBD,Raw,
Alice Del Fabro,Italy,F,2006,Sub-Juniors,52,51.92,125,132.5,137.5,137.5,72.5,77.5,-80,77.5,140,145,-147.5,145,360,3,SBD,Raw,
Rebekka Reinert,Germany,F,2006,Sub-Juniors,84,83.06,182.5,192.5,200,200,97.5,102.5,-107.5,102.5,172.5,185,197.5,197.5,500,1,SBD,Raw,
Philippa Moorcroft,UK,F,2006,Sub-Juniors,63,60.83,105,112.5,117.5,117.5,62.5,67.5,70,70,130,140,145,145,332.5,8,SBD,Raw,
Elena Sanchez Teruel,Spain,F,2006,Sub-Juniors,57,54.65,115,125,132.5,132.5,50,55,57.5,57.5,135,145,152.5,152.5,342.5,8,SBD,Raw,
Gaby Watman,UK,F,2006,Sub-Juniors,57,56.85,127.5,135,140,140,62.5,67.5,70,70,127.5,-137.5,142.5,142.5,352.5,5,SBD,Raw,
Everita Reine-MacKevica,Latvia,F,2006,Sub-Juniors,57,55.23,127.5,-135,140,140,65,72.5,-75,72.5,137.5,147.5,-155,147.5,360,3,SBD,Raw,
Maria Quirante Perez,Spain,F,2006,Sub-Juniors,47,46.65,80,90,92.5,92.5,45,50,-52.5,50,100,-110,-110,100,242.5,4,SBD,Raw,
Reya Soontalu,Estonia,F,2006,Sub-Juniors,84+,84.03,112.5,-120,122.5,122.5,67.5,-72.5,72.5,72.5,150,160,-172.5,160,355,7,SBD,Raw,
Karolina Idczak,Poland,F,2007,Sub-Juniors,43,42.39,75,82.5,87.5,87.5,40,45,-47.5,45,110,117.5,120,120,252.5,2,SBD,Raw,
Weronika Kamińska,Poland,F,2007,Sub-Juniors,84,78.45,130,135,140,140,75,80,-85,80,150,157.5,-162.5,157.5,377.5,9,SBD,Raw,
Giulia Cardinale,Italy,F,2007,Sub-Juniors,43,40.18,-95,95,-100,95,45,50,-52.5,50,110,115,120,120,265,1,SBD,Raw,
Martyna Tarsa,Poland,F,2007,Sub-Juniors,84,82.12,155,-160,-160,155,70,77.5,-82.5,77.5,145,155,-160,155,387.5,7,SBD,Raw,
Nikola Tomšová,Czechia,F,2007,Sub-Juniors,52,51.58,112.5,117.5,122.5,122.5,67.5,70,72.5,72.5,135,145,-152.5,145,340,4,SBD,Raw,
Klára Felzmannová,Czechia,F,2007,Sub-Juniors,76,75.52,145,155,-162.5,155,77.5,-82.5,82.5,82.5,145,155,162.5,162.5,400,6,SBD,Raw,
Lenka Veronyova,Slovakia,F,2007,Sub-Juniors,76,71,-145,147.5,-155,147.5,75,-80,-80,75,150,162.5,-170,162.5,385,7,SBD,Raw,
Lucrezia Perrone,Italy,F,2007,Sub-Juniors,84+,90.21,155,162.5,170,170,77.5,80,82.5,82.5,160,167.5,172.5,172.5,425,2,SBD,Raw,
Ada Imola Jucha,Hungary,F,2007,Sub-Juniors,43,43,65,67.5,70,70,40,42.5,-45,42.5,80,82.5,-90,82.5,195,3,SBD,Raw,
Harriet Cull,UK,F,2007,Sub-Juniors,76,72.3,145,152.5,157.5,157.5,77.5,82.5,85,85,167.5,177.5,182.5,182.5,425,3,SBD,Raw,
Oleksandra Kononova,Ukraine,F,2007,Sub-Juniors,57,56.1,-127.5,-127.5,132.5,132.5,60,62.5,-65,62.5,125,132.5,140,140,335,9,SBD,Raw,
Marie Louchart,Belgium,F,2007,Sub-Juniors,52,49.89,95,102.5,-107.5,102.5,55,57.5,60,60,117.5,127.5,-132.5,127.5,290,9,SBD,Raw,
Sofia Herrero Jimenez,Spain,F,2007,Sub-Juniors,76,75.35,120,125,-130,125,82.5,87.5,90,90,150,157.5,-165,157.5,372.5,8,SBD,Raw,
Tetiana Petrenko,Ukraine,F,2007,Sub-Juniors,57,56.97,120,130,135,135,75,82.5,85,85,145,155,160,160,380,2,SBD,Raw,
Boglárka Trencsényi,Hungary,F,2007,Sub-Juniors,84,83.51,135,145,-155,145,60,65,70,70,145,155,-162.5,155,370,10,SBD,Raw,
Lucie Chansard,France,F,2007,Sub-Juniors,47,46.9,97.5,102.5,-107.5,102.5,50,55,-57.5,55,132.5,-141,-141,132.5,290,1,SBD,Raw,
Cassandre Olivier,France,F,2007,Sub-Juniors,52,51.68,122.5,130,132.5,132.5,82.5,-87.5,-87.5,82.5,142.5,152.5,157,157,372,1,SBD,Raw,
Hanna Szalontai,Hungary,F,2007,Sub-Juniors,84,82.17,125,132.5,140,140,72.5,77.5,80,80,150,160,165,165,385,8,SBD,Raw,
Alexandra Fragoso Kurchak,Spain,F,2007,Sub-Juniors,63,62.19,135,140,145,145,97.5,104,-106.5,104,155,165,-172.5,165,414,2,SBD,Raw,
Klára Kucharczyková,Czechia,F,2007,Sub-Juniors,52,51.98,-95,95,100,100,65,-67.5,-67.5,65,125,-130,-130,125,290,10,SBD,Raw,
Reda Laurinavičiūtė,Lithuania,F,2007,Sub-Juniors,84+,89.09,140,150,155,155,72.5,77.5,80,80,165,175,-185,175,410,3,SBD,Raw,
Jana Rojková,Czechia,F,2007,Sub-Juniors,69,68.49,147.5,155,160,160,100,-107.5,-107.5,100,155,165,-172.5,165,425,3,SBD,Raw,
Maria Ibanez,Spain,F,2007,Sub-Juniors,69,68.33,-150,150,-160,150,-82.5,85,-92.5,85,157.5,165,170,170,405,4,SBD,Raw,
Dorina Jelenek,Hungary,F,2007,Sub-Juniors,63,61.71,115,122.5,127.5,127.5,67.5,72.5,75,75,120,130,135,135,337.5,7,SBD,Raw,
Faith Obinna Onyeukwu,Italy,F,2007,Sub-Juniors,84,82.42,152.5,-160,165,165,80,-82.5,82.5,82.5,197.5,205,210,210,457.5,2,SBD,Raw,
Noemi Mucsi,Hungary,F,2008,Sub-Juniors,84+,117.7,137.5,145,-152.5,145,67.5,72.5,-77.5,72.5,145,155,160,160,377.5,6,SBD,Raw,
Lidia Grzeskowiak,Poland,F,2008,Sub-Juniors,47,46.23,-85,85,90,90,50,52.5,55,55,112.5,117.5,127.5,127.5,272.5,2,SBD,Raw,
Amelia Marchlewska,Poland,F,2008,Sub-Juniors,52,50.41,85,92.5,100,100,42.5,45,47.5,47.5,107.5,112.5,-115,112.5,260,12,SBD,Raw,
Eniola Osikoya,UK,F,2008,Sub-Juniors,84,84,137.5,145,150,150,55,60,62.5,62.5,137.5,145,152.5,152.5,365,11,SBD,Raw,
Jenna Tarvainen,Finland,F,2008,Sub-Juniors,52,51.84,95,100,105,105,70,-72.5,-75,70,125,-135,135,135,310,7,SBD,Raw,
Lola Charpentier,Belgium,F,2008,Sub-Juniors,69,68.18,135,140,142.5,142.5,77.5,-82.5,-82.5,77.5,142.5,152.5,-155,152.5,372.5,7,SBD,Raw,
Mariia Aksonkina,Ukraine,F,2008,Sub-Juniors,52,51.01,100,107.5,-112.5,107.5,47.5,-52.5,52.5,52.5,110,120,-125,120,280,11,SBD,Raw,
Barbara Babinszki,Hungary,F,2008,Sub-Juniors,84+,108.62,-142.5,142.5,150,150,67.5,72.5,-77.5,72.5,145,155,160,160,382.5,5,SBD,Raw,
Veronika Miniv,Ukraine,F,2008,Sub-Juniors,69,67.04,130,-140,-140,130,65,70,-75,70,130,142.5,150,150,350,11,SBD,Raw,
Essi Närvä,Finland,F,2009,Sub-Juniors,69,67.73,-135,135,140,140,80,85,-90,85,140,-150,-150,140,365,9,SBD,Raw,
Teresa Molina Fresno,Spain,F,2001,Juniors,69,63.46,-140,140,-150,140,75,80,-82.5,80,170,177.5,-182.5,177.5,397.5,9,SBD,Raw,
Racheal Raji,UK,F,2002,Juniors,76,74.55,162.5,170,177.5,177.5,85,90,92.5,92.5,205,215,222.5,222.5,492.5,3,SBD,Raw,
Isobel David,UK,F,2006,Sub-Juniors,63,61.87,132.5,140,-142.5,140,85,90,92.5,92.5,150,160,167.5,167.5,400,4,SBD,Raw,
