Division,WeightClassKg,Place,Name,Team,BodyweightKg,Best3SquatKg,Best3BenchKg,Best3DeadliftKg,TotalKg,Equipment,Event,Sex
Boys,51.71,1,Viator Gomez,Mertzon Irion County,50.8,158.76,86.18,145.15,390.09,Single-ply,SBD,M
Boys,51.71,2,Cody Coombs,San Angelo Lake View,50.89,115.67,70.31,124.74,310.71,Single-ply,SBD,M
Boys,51.71,3,Ryan Folds,San Angelo Grape Creek,50.35,117.93,61.23,120.2,299.37,Single-ply,SBD,M
Boys,51.71,4,Antonio Barron,San Angelo Lake View,51.62,90.72,38.56,108.86,238.14,Single-ply,SBD,M
Boys,51.71,5,Caleb Ritchey,Sonora,49.53,65.77,45.36,97.52,208.65,Single-ply,SBD,M
Boys,55.79,1,Preston McCutchen,Ozona,53.52,120.2,63.5,136.08,319.78,Single-ply,SBD,M
Boys,55.79,2,Anthony Olivares,Eldorado,54.52,127.01,61.23,131.54,319.78,Single-ply,SBD,M
Boys,55.79,3,Henry Ramos,Sonora,55.79,102.06,65.77,124.74,292.57,Single-ply,SBD,M
Boys,55.79,4,Oscar Ortiz,Big Lake Reagan County,53.61,95.25,56.7,133.81,285.76,Single-ply,SBD,M
Boys,59.87,1,Aaron Rivera,San Angelo Lake View,59.42,124.74,83.91,131.54,340.19,Single-ply,SBD,M
Boys,59.87,2,Damond Humiston,San Angelo Grape Creek,57.97,133.81,70.31,133.81,337.93,Single-ply,SBD,M
Boys,59.87,3,Anthony Perez,Ozona,58.42,127.01,72.57,136.08,335.66,Single-ply,SBD,M
Boys,59.87,4,Emmanual Sarabia,Ozona,59.87,122.47,70.31,133.81,326.59,Single-ply,SBD,M
Boys,59.87,5,Xavier Lara,San Angelo Lake View,57.24,113.4,74.84,127.01,315.25,Single-ply,SBD,M
Boys,74.84,1,Kevin Martínez,Sonora,67.31,188.24,90.72,188.24,467.2,Single-ply,SBD,M
Boys,67.13,2,Rico Rodriguez,Sonora,63.78,149.69,92.99,142.88,385.55,Single-ply,SBD,M
Boys,67.13,3,Glenn Crowder,Iraan,61.05,136.08,86.18,161.03,383.29,Single-ply,SBD,M
Boys,67.13,4,Soda Pop Flores,Crane,64.05,147.42,79.38,156.49,383.29,Single-ply,SBD,M
Boys,67.13,5,Jacob Reeves,Mertzon Irion County,66.95,145.15,70.31,138.35,353.8,Single-ply,SBD,M
Boys,67.13,6,Jose Olivares,Eldorado,64.68,124.74,77.11,129.27,331.12,Single-ply,SBD,M
Boys,67.13,7,Cass Benson,Mertzon Irion County,65.59,117.93,68.04,131.54,317.51,Single-ply,SBD,M
Boys,67.13,8,Kraig Cadena,Eldorado,63.14,124.74,68.04,122.47,315.25,Single-ply,SBD,M
Boys,67.13,9,Alberto Rodríguez,Ozona,66.77,120.2,61.23,122.47,303.91,Single-ply,SBD,M
Boys,67.13,10,Ryan Ramos,Ozona,61.23,95.25,58.97,104.33,258.55,Single-ply,SBD,M
Boys,74.84,1,Caleb Wilson,Mertzon Irion County,74.3,226.8,113.4,222.26,562.45,Single-ply,SBD,M
Boys,74.84,2,John Jurado,Ozona,72.39,235.87,113.4,210.92,560.19,Single-ply,SBD,M
Boys,74.84,3,Ralphy Salas,Big Lake Reagan County,74.84,174.63,102.06,174.63,451.32,Single-ply,SBD,M
Boys,74.84,4,Jesus DeLuna,Eldorado,69.76,181.44,81.65,181.44,444.52,Single-ply,SBD,M
Boys,82.1,5,Isaac Fraire,Sonora,74.93,154.22,104.33,176.9,435.45,Single-ply,SBD,M
Boys,74.84,6,Trino Castaneda,Crane,72.12,165.56,102.06,165.56,433.18,Single-ply,SBD,M
Boys,74.84,7,Tru Vasquez,San Angelo Lake View,70.4,145.15,97.52,167.83,410.5,Single-ply,SBD,M
Boys,74.84,8,Gage Glidewell,McCamey,70.31,154.22,77.11,163.29,394.63,Single-ply,SBD,M
Boys,74.84,9,Jose Robles,Sonora,71.49,131.54,102.06,136.08,369.68,Single-ply,SBD,M
Boys,74.84,10,Edgar Damian,Ozona,73.12,136.08,86.18,142.88,365.14,Single-ply,SBD,M
Boys,74.84,11,Tyler Poehl,Mertzon Irion County,71.58,120.2,68.04,163.29,351.53,Single-ply,SBD,M
Boys,74.84,12,Javier Lopez,Crane,68.04,113.4,79.38,133.81,326.59,Single-ply,SBD,M
Boys,74.84,13,Ralph Meza,Crane,74.39,129.27,83.91,113.4,326.59,Single-ply,SBD,M
Boys,74.84,14,Blaine Aker,Eldorado,70.22,108.86,68.04,120.2,297.1,Single-ply,SBD,M
Boys,74.84,DQ,Mark Chavez,Sonora,74.12,113.4,,,,Single-ply,SBD,M
Boys,89.81,1,Brett Castillo,Sonora,82.28,238.14,142.88,222.26,603.28,Single-ply,SBD,M
Boys,82.1,2,Josh Neri,Mertzon Irion County,79.29,213.19,131.54,229.06,573.79,Single-ply,SBD,M
Boys,82.1,3,Jonathan Focha,Ozona,76.11,172.37,77.11,190.51,439.98,Single-ply,SBD,M
Boys,82.1,4,Noah Nandin,San Angelo Lake View,78.56,140.61,102.06,181.44,424.11,Single-ply,SBD,M
Boys,82.1,5,Bryce Martin #1,Ozona,75.75,136.08,81.65,151.95,369.68,Single-ply,SBD,M
Boys,82.1,6,Juan Mendez,Ozona,78.11,127.01,70.31,138.35,335.66,Single-ply,SBD,M
Boys,82.1,7,Richard DeLaCruz,Sonora,79.11,113.4,54.43,136.08,303.91,Single-ply,SBD,M
Boys,89.81,1,Chris Amador,Mertzon Irion County,85.18,215.46,108.86,188.24,512.56,Single-ply,SBD,M
Boys,89.81,2,Dakota Short,Big Lake Reagan County,88.36,204.12,102.06,188.24,494.42,Single-ply,SBD,M
Boys,99.79,3,Christian Baca,San Angelo Lake View,89.99,167.83,106.59,172.37,446.79,Single-ply,SBD,M
Boys,89.81,4,David Luera,San Angelo Lake View,87.91,161.03,102.06,181.44,444.52,Single-ply,SBD,M
Boys,89.81,5,Tony Valdez,San Angelo Grape Creek,88.36,165.56,92.99,181.44,439.98,Single-ply,SBD,M
Boys,89.81,6,Caleb Martinez,Ozona,86.91,149.69,81.65,149.69,381.02,Single-ply,SBD,M
Boys,89.81,7,Christian Ramon,Sonora,82.92,154.22,90.72,131.54,376.48,Single-ply,SBD,M
Boys,89.81,8,Bailey Graham,Crane,85.64,115.67,70.31,122.47,308.44,Single-ply,SBD,M
Boys,99.79,1,Alex Perez,San Angelo Grape Creek,99.52,256.28,138.35,215.46,610.08,Single-ply,SBD,M
Boys,109.77,2,JD Esquivel,Big Lake Reagan County,99.97,238.14,124.74,226.8,589.67,Single-ply,SBD,M
Boys,99.79,3,Andrew Tone,McCamey,97.07,163.29,99.79,185.97,449.06,Single-ply,SBD,M
Boys,99.79,4,Angel Gallegos,Big Lake Reagan County,94.08,181.44,90.72,174.63,446.79,Single-ply,SBD,M
Boys,99.79,5,Travis Carter,Iraan,96.62,165.56,83.91,181.44,430.91,Single-ply,SBD,M
Boys,109.77,1,Angel DeLuna,Big Lake Reagan County,105.23,263.08,127.01,206.38,596.47,Single-ply,SBD,M
Boys,109.77,2,Ethan Patlan,Sonora,101.88,199.58,154.22,197.31,551.11,Single-ply,SBD,M
Boys,109.77,3,Bryndon Robles,Sonora,109.32,188.24,129.27,165.56,483.08,Single-ply,SBD,M
Boys,109.77,4,Hector Diaz,Crane,104.96,136.08,74.84,133.81,344.73,Single-ply,SBD,M
Boys,109.77,5,Tajhae Collins,Crane,105.41,129.27,61.23,136.08,326.59,Single-ply,SBD,M
Boys,124.74,1,Antonio Perez,San Angelo Grape Creek,122.83,233.6,183.7,226.8,644.1,Single-ply,SBD,M
Boys,124.74,2,Ruben Magallan,San Angelo Lake View,120.02,235.87,149.69,238.14,623.69,Single-ply,SBD,M
Boys,124.74,3,Adrian Hernandez #5,San Angelo Grape Creek,112.04,238.14,145.15,226.8,610.08,Single-ply,SBD,M
Boys,124.74,4,Elijah Cross,Sonora,110.31,249.48,145.15,206.38,601.01,Single-ply,SBD,M
Boys,124.74,5,Hl James,Sonora,112.85,238.14,102.06,217.72,557.92,Single-ply,SBD,M
Boys,124.74,6,Jullan Guerra,Sonora,114.21,165.56,136.08,163.29,464.93,Single-ply,SBD,M
Boys,124.74,7,Taylor Elkins,Mertzon Irion County,113.04,154.22,81.65,140.61,376.48,Single-ply,SBD,M
Boys,124.74,8,David Olivan,Eldorado,114.67,108.86,65.77,120.2,294.84,Single-ply,SBD,M
Boys,124.74+,1,Dj Schlather,San Angelo Lake View,144.15,285.76,158.76,258.55,703.07,Single-ply,SBD,M
Boys,124.74+,2,Kelton Bales,Iraan,128.28,285.76,138.35,235.87,659.98,Single-ply,SBD,M
Boys,124.74+,3,Ernie Veloz,Big Lake Reagan County,132.99,265.35,142.88,219.99,628.23,Single-ply,SBD,M
Boys,124.74+,4,Robert McKee,McCamey,133.45,179.17,111.13,147.42,437.72,Single-ply,SBD,M
Boys,124.74+,5,Ray Kimbrell,Sonora,130.54,124.74,86.18,158.76,369.68,Single-ply,SBD,M
Boys,,NS,Sam King,Christoval,,,,,,Single-ply,SBD,M
Boys,,NS,Jonathan Hopper,Christoval,,,,,,Single-ply,SBD,M
Boys,,NS,James Phillips #6,Crane,,,,,,Single-ply,SBD,M
Boys,,NS,David Carrasco,Big Lake Reagan County,,,,,,Single-ply,SBD,M
Boys,,NS,Adrean Perez,Crane,,,,,,Single-ply,SBD,M
Boys,,NS,Eulicess Lupercio,Crane,,,,,,Single-ply,SBD,M
Boys,,NS,Devan Griffin,Iraan,,,,,,Single-ply,SBD,M
Boys,,NS,Tristan Onofre,Iraan,,,,,,Single-ply,SBD,M
Boys,,NS,Hagen Leech,Crane,,,,,,Single-ply,SBD,M
Boys,,NS,Tyler Boule,Mertzon Irion County,,,,,,Single-ply,SBD,M
Boys,,NS,Austin McConathy,Mertzon Irion County,,,,,,Single-ply,SBD,M
Boys,,NS,Spencer Scott,Mertzon Irion County,,,,,,Single-ply,SBD,M
Boys,,NS,Tyler West,Mertzon Irion County,,,,,,Single-ply,SBD,M
Boys,,NS,Christian Ozoria,Ozona,,,,,,Single-ply,SBD,M
Boys,,NS,Greg DeHoyos,Ozona,,,,,,Single-ply,SBD,M
Boys,,NS,Dakota Castro,Sonora,,,,,,Single-ply,SBD,M
Boys,,NS,Joseph Absher,Sonora,,,,,,Single-ply,SBD,M
Boys,,NS,Juan Villanueva,Sonora,,,,,,Single-ply,SBD,M
