Place,Name,Sex,BirthDate,Age,Country,State,Equipment,Division,BodyweightKg,WeightClassKg,Squat1Kg,Squat2Kg,Squat3Kg,Best3SquatKg,Bench1Kg,Bench2Kg,Bench3Kg,Bench4Kg,Best3BenchKg,Deadlift1Kg,Deadlift2Kg,Deadlift3Kg,Deadlift4Kg,Best3DeadliftKg,TotalKg,Event,Team
G,Joannah Kafer,F,1984-07-26,40,Australia,TAS,Raw,M40-49,78.9,82.5,80,-90,90,90,45,-47.5,47.5,,47.5,90,100,110,,110,247.5,SBD,Leviathan Strength/Girls Who Lift
1,Cyntarrah Gallagher,F,1997-02-03,27,Australia,NSW,Raw,Open,74.3,75,115,122.5,130,130,55,-57.5,-57.5,,55,140,150,-152.5,,150,335,SBD,Girls who lift
NS,Alana Hynes D'Aquino,F,2000-10-27,23,Australia,VIC,Wraps,J20-23,67.2,67.5,,,,,,,,,,,,,,,,SBD,PTC / Strength/ Unlimited (Luke)
1,Huntah Young,F,2004-04-27,20,Australia,VIC,Wraps,J20-23,73.1,75,110,120,127.5,127.5,67.5,72.5,-75,,72.5,125,132.5,-137.5,,132.5,332.5,SBD,Girls Who Lift
1,Michelle Woods,F,2003-04-01,21,Australia,NSW,Wraps,J20-23,81.5,82.5,125,135,140,140,70,80,-85,,80,125,140,-147.5,,140,360,SBD,One Strength - Orange
1,Bec Crombie,F,1982-09-19,41,Australia,NSW,Wraps,M40-49,59.2,60,140,151,-160,151,67.5,72.5,75,,75,145,156,162.5,,162.5,388.5,SBD,One Strength
1,Collette Arnheim,F,1982-12-26,41,Australia,VIC,Wraps,M40-49,72.9,75,130,140,150,150,57.5,60,65,,65,120,130,140,,140,355,SBD,Girls Who Lift
1,Crystal Hadley Mackay,F,1986-12-14,37,Australia,NSW,Wraps,Open,51.9,52,115,-125,130,130,60,70,-72.5,,70,150,160,170.5,,170.5,370.5,SBD,Hadleys Home Gym
1,Esther Wang,F,1996-11-24,27,Australia,VIC,Wraps,Open,55.2,56,110,120,-125,120,45,-47.5,-47.5,,45,125,-135,135,,135,300,SBD,Girls who Lift
1,Amy-Maree McKenzie,F,1989-11-14,,Australia,NSW,Wraps,Open,66.6,67.5,140,150,-160,150,80,87.5,-92.5,,87.5,155,165,175,,175,412.5,SBD,One Strength
2,Charlotte Miller,F,1993-10-19,30,Australia,VIC,Wraps,Open,67,67.5,145,155,162.5,162.5,75,80,-82.5,,80,150,160,170,,170,412.5,SBD,Girls Who Lift
3,Hanna Evans,F,1994-08-16,30,Australia,NSW,Wraps,Open,62.4,67.5,155,165,-175,165,60,65,-70,,65,165,-175,-175,,165,395,SBD,One Strength
4,Kyna Leong,F,1986-10-29,37,Australia,VIC,Wraps,Open,63,67.5,140,-147.5,150,150,65,-70,70,,70,162.5,172.5,-180,,172.5,392.5,SBD,Girls who lift
1,Bianca Cimmino,F,1991-03-14,33,Australia,NSW,Wraps,Open,72.3,75,-195,195,205,205,87.5,92.5,95,,95,185,195,200,,200,500,SBD,Nexus performance
2,Ines Naylor,F,1999-01-14,25,Australia,VIC,Wraps,Open,74.4,75,-130,130,-140,130,72.5,75,77.5,,77.5,130,140,147.5,,147.5,355,SBD,Girls who lift
1,Naomi Kolski,F,1988-12-12,35,Australia,VIC,Wraps,Open,77.5,82.5,120,130,135,135,60,65,67.5,,67.5,160,172.5,-180,,172.5,375,SBD,Girls Who Lift
1,Lily Hollister,F,2008-07-17,16,Australia,TAS,Wraps,T14-16,87.3,90,140,150,155,155,47.5,50,-52.5,,50,130,145,150.5,,150.5,355.5,SBD,Competitive edge
1,Blake Kostevski,M,2003-07-02,21,Australia,VIC,Raw,J20-23,74.3,75,145,152.5,157.5,157.5,102.5,107.5,-112.5,,107.5,190,205,-212.5,,205,470,SBD,Ascending strength performance
1,Jacob Norton,M,2002-02-19,22,Australia,NSW,Raw,J20-23,109.8,110,140,150,160,160,85,100,-105,,100,165,-185,190,,190,450,SBD,One Strength - Orange
G,Darrin Wallis,M,1974-08-21,50,Australia,NSW,Raw,M50-59,104.2,110,215,225,235,235,110,115,125,,125,265,275,-295,,275,635,SBD,World gym Marsden park
1,Samuel Ernst,M,1990-09-28,33,Australia,NSW,Raw,Open,65.7,67.5,195,207.5,-213,207.5,140,147.5,-150,,147.5,190,205,212.5,,212.5,567.5,SBD,Home gym
1,Andrew Facciol,M,1996-03-24,28,Australia,TAS,Raw,Open,89,90,185,192.5,-197.5,192.5,117.5,-125,-125,,117.5,215,232.5,240,,240,550,SBD,Competitive Edge
1,Jack Morgan #4,M,1998-09-22,25,Australia,VIC,Raw,Open,98.4,100,250,262.5,270,270,130,142.5,150,,150,270,287.5,300,,300,720,SBD,Ascend Strength Performance
1,Nathan Duffy,M,2000-02-11,24,Australia,NSW,Raw,Open,101.8,110,170,195,210,210,85,95,-105,,95,200,220,240,,240,545,SBD,One Strength Wollongong
1,Jaiden Gunning,M,2004-09-27,19,Australia,NSW,Raw,S17-19,78.1,82.5,160,165,175,175,95,102.5,107.5,,107.5,200,215,225,,225,507.5,SBD,Plus Fitness Corrimal
1,Benjamin DeGabriel,M,2008-03-30,16,Australia,NSW,Raw,T14-16,59.7,60,110,120,125,125,55,60,65,,65,140,150,160,,160,350,SBD,One Strength
NS,Anthony Zanti,M,2001-03-31,23,Australia,VIC,Wraps,J20-23,,,,,,,,,,,,,,,,,,SBD,Ares Strength Gym
1,Oscar Davie,M,2000-09-16,23,Australia,QLD,Wraps,J20-23,108.6,110,240,255,-265,255,135,142.5,147.5,,147.5,270,287.5,300,,300,702.5,SBD,Competitive Edge
1,Jason Budden,M,1983-01-22,41,Australia,NSW,Wraps,M40-49,82.1,82.5,165,180,-190,180,145,157.5,160,,160,190,205,215,,215,555,SBD,Rock solid powerliting
1,Richard Dienjes,M,1984-04-12,40,Australia,VIC,Wraps,M40-49,87.3,90,185,200,-210,200,-110,120,-122.5,,120,235,250,-260,,250,570,SBD,Ares strength
NS,Byron Bourne,M,1985-12-04,38,Australia,VIC,Wraps,Open,,,,,,,,,,,,,,,,,,SBD,ASP
NS,Robert Patrick,M,1991-06-14,33,Australia,VIC,Wraps,Open,,,,,,,,,,,,,,,,,,SBD,Competitive edge
1,Greg Sharp,M,1999-02-09,,Australia,NSW,Wraps,Open,80.7,82.5,190,205,-215,205,95,105,-115,,105,185,205,217.5,,217.5,527.5,SBD,One strength orange
1,Michael Sburlati,M,1988-01-22,36,Australia,NSW,Wraps,Open,96.2,100,230,-250,-250,230,140,150,-160,,150,230,240,250,,250,630,SBD,Team pasha
1,Harrison Petritsis,M,1998-08-07,26,Australia,NSW,Wraps,Open,106.4,110,260,-280,280,280,160,170,180,,180,260,280,285,,285,745,SBD,Anytime Fitness Earlwood
2,JesseBrendan Hansell,M,1997-07-03,27,Australia,NSW,Wraps,Open,107.2,110,220,-245,245,245,150,-165,-165,,150,220,-250,-250,,220,615,SBD,Cowra Health Club/One Strength
1,Jack Daley,M,1991-09-29,32,Australia,NSW,Wraps,Open,124.4,125,280,-290,290,290,155,162.5,-167.5,,162.5,255,280,285,,285,737.5,SBD,One Strength Orange
1,John Mahlo,M,2005-07-25,19,Australia,NSW,Wraps,S17-19,75,75,205,215,225,225,110,122.5,-130,,122.5,210,222.5,230,,230,577.5,SBD,One Strength
1,Austin Schaapveld,M,2008-03-28,16,Australia,NSW,Wraps,T14-16,57.4,60,115,125,-132.5,125,65,75,-80,,75,120,130,-135,,130,330,SBD,One strength
1,Peter Weatherall,M,1969-06-21,55,Australia,NSW,Raw,M50-59,108,110,,,,,130,140,-145,,140,200,220,230,241,230,370,BD,Rock Solid Powerlifting
1,Baxter Rivett,M,2003-08-20,21,Australia,NSW,Raw,J20-23,76.9,82.5,,,,,122.5,126,-128.5,,126,222.5,-232.5,-232.5,,222.5,348.5,BD,OneStrength Wollongong
1,Mikaela Blair,M,1997-06-18,27,Australia,NSW,Raw,Open,62.9,67.5,,,,,60,-62.5,62.5,,62.5,110,112.5,115,,115,177.5,BD,
1,Justen Hadley Mackay,M,1993-01-13,31,Australia,NSW,Raw,Open,89.8,90,,,,,175,185,195,200,195,,,,,,195,B,Hadley's home gym
1,Jerry Slevras,M,1997-02-01,27,Australia,NSW,Raw,Open,109.6,110,,,,,170,-180,,,170,,,,,,170,B,One Strength
1,Peter Weatherall,M,1969-06-21,55,Australia,NSW,Raw,M50-59,108,110,,,,,,,,,,180,200,-210,-0,200,200,D,Rock Solid
1,Michael Patrick Grogan,M,1966-06-22,58,Australia,NSW,Raw,M50-59,115.2,125,,,,,,,,,,185,200,205,,205,205,D,One Strength Wollongong
1,Robert Hoxha,M,1959-12-14,64,Australia,NSW,Raw,M60-69,74.8,75,,,,,,,,,,175,180,186,-191,186,186,D,Orange
2,Leo O'Dea,M,1960-11-03,63,Australia,TAS,Raw,M60-69,72.4,75,,,,,,,,,,127.5,135,140,142.5,140,140,D,Iron Dragon Gym Burnie
1,Thomas Jones,M,1951-07-01,73,Australia,NSW,Raw,M70-79,72.5,75,,,,,,,,,,155,165,172.5,-175,172.5,172.5,D,one strength wollongong
