Place,Name,State,WeightClassKg,BodyweightKg,BirthDate,Age,Best3SquatKg,Best3BenchKg,Best3DeadliftKg,TotalKg,Sex,Division,Equipment,Event,Squat4Kg,Bench4Kg,Deadlift4Kg,Tested
1,Desiree Lucero,NM,44,43,,23,62.5,45,100,207.5,F,Juniors 20-23,Raw,SBD,,,,Yes
1,Natalie Do,CA,48,47.2,,22,122.5,55,160,337.5,F,Juniors 20-23,Raw,SBD,125,,,Yes
2,Regan Wilson,TX,48,47.4,,21,87.5,50,102.5,240,F,Juniors 20-23,Raw,SBD,,,,Yes
1,Melody Xaiyavong,TX,56,55.8,,23,127.5,75,145,347.5,F,Juniors 20-23,Raw,SBD,,,,Yes
2,Stephanie McCullough,CA,56,55.2,,22,127.5,70,140,337.5,F,Juniors 20-23,Raw,SBD,,,,Yes
3,Alysan Casey,MT,56,52.3,,22,107.5,57.5,127.5,292.5,F,Juniors 20-23,Raw,SBD,,,,Yes
1,Alessandra Molina,MD,60,57.8,,19,117.5,70,145,332.5,F,Juniors 18-19,Raw,SBD,,,,Yes
1,Emma Bernabe,CA,60,59.6,,23,122.5,70,160,352.5,F,Juniors 20-23,Raw,SBD,,,,Yes
2,Chung Won Kim,WA,60,59.4,,22,127.5,55,145,327.5,F,Juniors 20-23,Raw,SBD,,,,Yes
3,Marisa Acosta,NY,60,56.4,,21,105,50,132.5,287.5,F,Juniors 20-23,Raw,SBD,,,,Yes
1,Isabel Teich,AZ,67.5,66.4,,17,127.5,70,145,342.5,F,Juniors 16-17,Raw,SBD,,,,Yes
1,Leticia Ortiz,CA,67.5,64.3,,19,102.5,45,110,257.5,F,Juniors 18-19,Raw,SBD,,,,Yes
1,Genesis Herrera,CA,67.5,60.8,,21,125,52.5,155,332.5,F,Juniors 20-23,Raw,SBD,,,,Yes
2,Lulu Sheek,CA,67.5,64,,22,100,72.5,137.5,310,F,Juniors 20-23,Raw,SBD,,,,Yes
3,Diana Tran,CA,67.5,66.7,,22,120,52.5,135,307.5,F,Juniors 20-23,Raw,SBD,,,,Yes
4,Paige Rost,OH,67.5,64.2,,22,125,52.5,112.5,290,F,Juniors 20-23,Raw,SBD,,,,Yes
1,Kaylee Cavins,MO,75,74.7,,18,142.5,67.5,147.5,357.5,F,Juniors 18-19,Raw,SBD,,,,Yes
2,Jastyn Shilts,OR,75,74.8,,19,120,67.5,170,357.5,F,Juniors 18-19,Raw,SBD,,,,Yes
1,Cindy Hoang-Tran,CA,75,73.7,,23,142.5,80,168,390.5,F,Juniors 20-23,Raw,SBD,,,,Yes
2,Jessica Doan,CA,75,73.1,,21,137.5,60,152.5,350,F,Juniors 20-23,Raw,SBD,,,,Yes
1,Helen Murphy,OH,82.5,79.8,,15,140,62.5,132.5,335,F,Juniors 13-15,Raw,SBD,145,65,,Yes
1,Peyton Karns,WA,82.5,80.6,,22,177.5,80,137.5,395,F,Juniors 20-23,Raw,SBD,,,,Yes
DQ,Taylor Hallera,CA,82.5,80.8,,23,,,,,F,Juniors 20-23,Raw,SBD,,,,Yes
DQ,Monica Gonzalez,TX,90,88.6,,23,,,,,F,Juniors 20-23,Raw,SBD,,,,Yes
1,Cheyenne Howard,KS,90+,106,,19,142.5,57.5,152.5,352.5,F,Juniors 18-19,Raw,SBD,,,,Yes
1,Sydney Singson,CA,90+,96.2,,23,170,92.5,180,442.5,F,Juniors 20-23,Raw,SBD,,,,Yes
2,Kelsey Brown #1,IL,90+,134,,22,190,67.5,162.5,420,F,Juniors 20-23,Raw,SBD,,,,Yes
3,Makailuh Morrison,CA,90+,170.9,,23,142.5,75,162.5,380,F,Juniors 20-23,Raw,SBD,,,,Yes
1,Desiree Lucero,NM,44,43,,23,62.5,45,100,207.5,F,Open,Raw,SBD,,,,Yes
1,Natalie Do,CA,48,47.2,,22,122.5,55,160,337.5,F,Open,Raw,SBD,125,,,Yes
1,Raishel Phares,DE,52,50.4,,28,115,75,152.5,342.5,F,Open,Raw,SBD,,,,Yes
2,Stevie Seeley,OR,52,51.2,,28,117.5,72.5,142.5,332.5,F,Open,Raw,SBD,,,,Yes
3,Tamara Stromberg,TX,52,51.2,,41,122.5,60,140,322.5,F,Open,Raw,SBD,,,,Yes
4,Julie Billups,NC,52,49,,43,105,62.5,137.5,305,F,Open,Raw,SBD,,,,Yes
5,Ginger Burton,IA,52,51.6,,46,83,85,120,288,F,Open,Raw,SBD,,,,Yes
6,Shannon Castiglione,OH,52,49.6,,41,85,47.5,122.5,255,F,Open,Raw,SBD,,,,Yes
1,Simone Thomas,CA,56,53.9,,28,130,77.5,165,372.5,F,Open,Raw,SBD,,,,Yes
2,Francesca Paraz,NV,56,53.8,,25,120,80,152.5,352.5,F,Open,Raw,SBD,,,,Yes
3,Caitlin Delmore,CA,56,55,,28,132.5,70,147.5,350,F,Open,Raw,SBD,,,,Yes
4,Debi Stoliar,CA,56,54.8,,39,127.5,62.5,147.5,337.5,F,Open,Raw,SBD,,,,Yes
5,Magnolia Centeno,HI,56,56,,44,107.5,67.5,157.5,332.5,F,Open,Raw,SBD,,,,Yes
6,Leticia Rivas,CA,56,53.4,,25,115,62.5,142.5,320,F,Open,Raw,SBD,,,,Yes
7,Kelsie Feagan,CA,56,56,,28,92.5,55,150,297.5,F,Open,Raw,SBD,,,,Yes
8,Alysan Casey,MT,56,52.3,,22,107.5,57.5,127.5,292.5,F,Open,Raw,SBD,,,,Yes
9,Elena Lopez,GA,56,53.8,,23,107.5,50,125,282.5,F,Open,Raw,SBD,,,,Yes
1,Deanna Lopez,CA,60,58.2,,26,147.5,82.5,177.5,407.5,F,Open,Raw,SBD,,,,Yes
2,Deanna Clegg,CA,60,58.8,,28,142.5,92.5,155,390,F,Open,Raw,SBD,,,,Yes
3,Sarah Jo Paxton,UT,60,59.2,,27,150,82.5,155,387.5,F,Open,Raw,SBD,,,,Yes
4,Leilana Tupua-Rodriguez,WA,60,59.4,,24,142.5,82.5,147.5,372.5,F,Open,Raw,SBD,,,,Yes
5,Elizabeth Spitdowski,GA,60,59.6,,34,145,85,142.5,372.5,F,Open,Raw,SBD,,,,Yes
6,Sarah Hocking,MA,60,57.6,,28,120,77.5,172.5,370,F,Open,Raw,SBD,,,,Yes
7,Natasha Beasley,VA,60,60,,36,107.5,77.5,175,360,F,Open,Raw,SBD,,,,Yes
8,Denise Portillo,CA,60,59.2,,26,120,62.5,170,352.5,F,Open,Raw,SBD,,,,Yes
9,Emma Bernabe,CA,60,59.6,,23,122.5,70,160,352.5,F,Open,Raw,SBD,,,,Yes
10,Yolanda Presswood,CA,60,59.8,,42,130,67.5,155,352.5,F,Open,Raw,SBD,,,,Yes
11,Lindsey Taylor,NV,60,56.9,,30,120,77.5,137.5,335,F,Open,Raw,SBD,,,,Yes
12,Alessandra Molina,MD,60,57.8,,19,117.5,70,145,332.5,F,Open,Raw,SBD,,,,Yes
13,Megan Kaus,OR,60,59,,21,137.5,55,137.5,330,F,Open,Raw,SBD,,,,Yes
14,Diana Godinez,CA,60,57.3,,25,107.5,62.5,142.5,312.5,F,Open,Raw,SBD,,,,Yes
15,Elle Bandy,IL,60,59,,32,120,62.5,130,312.5,F,Open,Raw,SBD,,,,Yes
16,Zyra Fortes,NV,60,59.5,,34,112.5,60,137.5,310,F,Open,Raw,SBD,,,,Yes
17,Tara Romero,CA,60,59.2,,35,120,67.5,120,307.5,F,Open,Raw,SBD,,,,Yes
18,Becky Hammon,MO,60,59.6,,49,100,60,130,290,F,Open,Raw,SBD,,,,Yes
19,Andrea O'Connor,CA,60,59.3,,30,110,57.5,117.5,285,F,Open,Raw,SBD,,,,Yes
20,Anna Dey,OH,60,59.4,,31,97.5,57.5,130,285,F,Open,Raw,SBD,,,,Yes
21,Lisa Courtney,OH,60,58.4,,55,102.5,60,112.5,275,F,Open,Raw,SBD,,,,Yes
22,Elizabeth Salib,NY,60,58.6,,36,85,57.5,110,252.5,F,Open,Raw,SBD,,,,Yes
23,Miriam Lawrence,VT,60,58.8,,52,90,52.5,105,247.5,F,Open,Raw,SBD,,,,Yes
24,Alicia Merrill,OH,60,57.8,,28,82.5,57.5,102.5,242.5,F,Open,Raw,SBD,,,,Yes
DQ,Amy Tran,CA,60,56.8,,28,105,47.5,,,F,Open,Raw,SBD,,,,Yes
DQ,Veronica Card,TX,60,58.8,,30,135,85,,,F,Open,Raw,SBD,,,,Yes
DQ,Isabel Shingler,FL,60,59.1,,24,,77.5,,,F,Open,Raw,SBD,,,,Yes
1,Steph Powell,NV,67.5,66.8,,31,177.5,87.5,227.5,492.5,F,Open,Raw,SBD,,,,Yes
2,Jennifer Thacker,MD,67.5,65.7,,26,142.5,77.5,192.5,412.5,F,Open,Raw,SBD,,,,Yes
3,Heather Clark,CT,67.5,66,,32,150,72.5,182.5,405,F,Open,Raw,SBD,,,,Yes
4,Kelly O'Brien,OH,67.5,63.8,,35,150,90,155,395,F,Open,Raw,SBD,,,,Yes
5,Nicole Pompei,TX,67.5,66.4,,27,130,95,160,385,F,Open,Raw,SBD,,,,Yes
6,Sara Silva,CA,67.5,64.7,,25,150,87.5,145,382.5,F,Open,Raw,SBD,,,,Yes
7,Hannah Polly,OH,67.5,60.8,,26,137.5,77.5,165,380,F,Open,Raw,SBD,,,,Yes
8,Nicola Adamchik,PA,67.5,66.6,,39,137.5,75,165,377.5,F,Open,Raw,SBD,,,,Yes
9,Aimee Hale,CA,67.5,64.8,,40,130,70,175.5,375.5,F,Open,Raw,SBD,,,180,Yes
10,Sara Jones #1,CA,67.5,66.2,,51,135,75.5,155,365.5,F,Open,Raw,SBD,137.5,,,Yes
11,Irene Truong,CA,67.5,66.3,,30,122.5,67.5,152.5,342.5,F,Open,Raw,SBD,,,,Yes
12,Isabel Teich,AZ,67.5,66.4,,17,127.5,70,145,342.5,F,Open,Raw,SBD,,,,Yes
13,Danielle Durochik,IN,67.5,67.4,,27,120,60,160,340,F,Open,Raw,SBD,,,,Yes
14,Genesis Herrera,CA,67.5,60.8,,21,125,52.5,155,332.5,F,Open,Raw,SBD,,,,Yes
15,Itzel Volino,MO,67.5,66.7,,25,122.5,60,150,332.5,F,Open,Raw,SBD,,,,Yes
16,Rebecca Foster,OR,67.5,66,,26,107.5,55,155,317.5,F,Open,Raw,SBD,,,,Yes
17,Celia Gomez,CA,67.5,66.2,,29,112.5,60,140,312.5,F,Open,Raw,SBD,,,,Yes
18,Jenna Geibel,OH,67.5,66.8,,28,107.5,62.5,142.5,312.5,F,Open,Raw,SBD,,,,Yes
19,Lulu Sheek,CA,67.5,64,,22,100,72.5,137.5,310,F,Open,Raw,SBD,,,,Yes
20,Erin Coughlan,CA,67.5,67.2,,26,105,52.5,147.5,305,F,Open,Raw,SBD,,,,Yes
21,Ariel Deleon,NE,67.5,66.4,,24,115,62.5,125,302.5,F,Open,Raw,SBD,,,,Yes
22,Taylor Newquist,TX,67.5,64.6,,24,110,52.5,132.5,295,F,Open,Raw,SBD,,,,Yes
DQ,April Disparte,CA,67.5,64.8,,30,110,62.5,,,F,Open,Raw,SBD,,,,Yes
DQ,Myra Amparo,CA,67.5,65,,30,,65,155,,F,Open,Raw,SBD,,,,Yes
1,Chandler Babb,MI,75,68.5,,26,167.5,100,227.5,495,F,Open,Raw,SBD,,,,Yes
2,Kelsey Hirte,CA,75,74,,26,167.5,92.5,210,470,F,Open,Raw,SBD,,,,Yes
3,Tiffany Savage,CA,75,74.6,,26,152.5,112.5,197.5,462.5,F,Open,Raw,SBD,,113,,Yes
4,Cynthia Browning,IN,75,73.3,,49,135,105,185,425,F,Open,Raw,SBD,,,,Yes
5,Keandra McGarr,CO,75,71.2,,28,132.5,80,170,382.5,F,Open,Raw,SBD,,,,Yes
6,Alicia Neblett,GA,75,75,,38,130,87.5,165,382.5,F,Open,Raw,SBD,,,,Yes
7,Megan Miller,WY,75,74.8,,24,150,65,160,375,F,Open,Raw,SBD,,,,Yes
8,Stephanie Dietz,OH,75,73.6,,33,127.5,85,157.5,370,F,Open,Raw,SBD,,,,Yes
9,Kelly McCarthy,NC,75,73.6,,29,142.5,80,145,367.5,F,Open,Raw,SBD,,,,Yes
10,Sophia Cabrera,CA,75,71.4,,29,130,80,152.5,362.5,F,Open,Raw,SBD,,,,Yes
11,Lis Saunders,GA,75,72.5,,39,135,70,152.5,357.5,F,Open,Raw,SBD,,,,Yes
12,Kaylee Cavins,MO,75,74.7,,18,142.5,67.5,147.5,357.5,F,Open,Raw,SBD,,,,Yes
13,Rosaura Pagan,CA,75,74,,28,142.5,70,140,352.5,F,Open,Raw,SBD,,,,Yes
14,Elizabeth Taylor,MI,75,71.5,,26,122.5,75,145,342.5,F,Open,Raw,SBD,,,,Yes
15,Sarah Zeh,NV,75,74.6,,26,125,67.5,142.5,335,F,Open,Raw,SBD,,,,Yes
16,Chari Hensler,UT,75,71.8,,39,115,65,145,325,F,Open,Raw,SBD,,,,Yes
17,Elizabeth Doernhoefer,OH,75,72.6,,25,110,60,140,310,F,Open,Raw,SBD,,,,Yes
18,Chelsi Dale,IN,75,71.8,,28,97.5,57.5,137.5,292.5,F,Open,Raw,SBD,,,,Yes
19,Holly Boney,OR,75,73.4,,29,105,57.5,120,282.5,F,Open,Raw,SBD,,,,Yes
DQ,Sophia Cabrera,CA,75,71.4,,29,,,,,F,Open,Raw,SBD,,,,Yes
1,Jeanie Shellman,OR,82.5,80.9,,36,177.5,105.5,210,493,F,Open,Raw,SBD,,,,Yes
2,Brittainy Chown,CA,82.5,81.4,,28,185,80,205,470,F,Open,Raw,SBD,,,,Yes
3,Lindsay Richman,WA,82.5,79.2,,25,172.5,80,182.5,435,F,Open,Raw,SBD,,,,Yes
4,Susan Chambers,CA,82.5,81,,31,152.5,87.5,195,435,F,Open,Raw,SBD,,,,Yes
5,Jillian Clark #1,MI,82.5,80,1990-01-14,29,157.5,90,170,417.5,F,Open,Raw,SBD,,,,Yes
6,Amber Burns,KS,82.5,81.5,,31,157.5,87.5,170,415,F,Open,Raw,SBD,,,,Yes
7,Nashali Covello,NV,82.5,78.3,,26,162.5,75,167.5,405,F,Open,Raw,SBD,,,,Yes
8,Folasade Adebayo,MD,82.5,80.7,,28,147.5,92.5,165,405,F,Open,Raw,SBD,,,,Yes
9,Bailey Knudtson,NE,82.5,81,,29,150,85,170,405,F,Open,Raw,SBD,,,,Yes
10,Jakie Moton,AZ,82.5,81.6,,27,147.5,75,175,397.5,F,Open,Raw,SBD,,,,Yes
11,Josephine Jackson,CA,82.5,82,,32,142.5,75,167.5,385,F,Open,Raw,SBD,,,,Yes
12,Dakota Duffy #1,MD,82.5,80.1,,27,147.5,65,160,372.5,F,Open,Raw,SBD,,,,Yes
13,Carleen Cuevas,CA,82.5,81.9,,29,130,67.5,160,357.5,F,Open,Raw,SBD,,,,Yes
14,Brittany Turner,DC,82.5,78.7,,28,125,72.5,150,347.5,F,Open,Raw,SBD,,,,Yes
15,Helen Murphy,OH,82.5,79.8,,15,140,62.5,132.5,335,F,Open,Raw,SBD,145,65,,Yes
16,Kristyn Whisman,PA,82.5,81,,35,120,65,150,335,F,Open,Raw,SBD,,,,Yes
17,Linda Arvey,PA,82.5,80.8,,68,110,72.5,150,332.5,F,Open,Raw,SBD,,,155,Yes
1,Michelle Perez #1,CO,90,89.8,,28,160,70,180,410,F,Open,Raw,SBD,,,,Yes
2,Jolene Santee,OH,90,86.2,,41,140,92.5,175,407.5,F,Open,Raw,SBD,,,,Yes
3,Christina Tupper,NC,90,89.2,,31,160,82.5,162.5,405,F,Open,Raw,SBD,,,,Yes
4,Jacqueline Coleman,MA,90,85.7,,32,137.5,67.5,167.5,372.5,F,Open,Raw,SBD,,,,Yes
5,Conswella Bennett,GA,90,88.4,,45,120,77.5,170,367.5,F,Open,Raw,SBD,,,,Yes
6,Julia Tomascheski,UT,90,88.8,,27,132.5,80,155,367.5,F,Open,Raw,SBD,,,,Yes
7,Sherry Phay,WA,90,83.3,,45,120,85,147.5,352.5,F,Open,Raw,SBD,,,,Yes
8,Chloe Vroman,MO,90,89.4,,24,117.5,75,137.5,330,F,Open,Raw,SBD,,,,Yes
1,Kimberly Einstein #1,NY,90+,130,,35,180,112.5,202.5,495,F,Open,Raw,SBD,,,,Yes
2,Sarah Webb,TX,90+,118,,29,172.5,105,185,462.5,F,Open,Raw,SBD,,,,Yes
3,Christine Musgrove,CA,90+,112.8,,33,180,100,175,455,F,Open,Raw,SBD,,,,Yes
4,Sydney Singson,CA,90+,96.2,,23,170,92.5,180,442.5,F,Open,Raw,SBD,,,,Yes
5,Elizabeth Topalian,CA,90+,102.4,,33,167.5,107.5,165,440,F,Open,Raw,SBD,,,,Yes
6,Tammra Fisher,TX,90+,141.6,,32,177.5,95,167.5,440,F,Open,Raw,SBD,,,,Yes
7,Carson Stradford,NM,90+,124.3,,38,157.5,90,182.5,430,F,Open,Raw,SBD,,,,Yes
8,Erin Barrientos,TX,90+,103.8,,26,165,92.5,162.5,420,F,Open,Raw,SBD,,,,Yes
9,Josephine Johnson,IN,90+,120.2,,24,167.5,70,182.5,420,F,Open,Raw,SBD,,,,Yes
10,Kelsey Brown #1,IL,90+,134,,22,190,67.5,162.5,420,F,Open,Raw,SBD,,,,Yes
11,Martina Rodriguez,NV,90+,126.6,,25,172.5,72.5,172.5,417.5,F,Open,Raw,SBD,,,,Yes
12,Jeana Jenkins,CA,90+,98.8,,32,152.5,82.5,180,415,F,Open,Raw,SBD,,,,Yes
13,Tristin Williams,WY,90+,94.2,,38,162.5,87.5,160,410,F,Open,Raw,SBD,,,,Yes
14,Karly Kaufman,PA,90+,115.2,,28,147.5,62.5,197.5,407.5,F,Open,Raw,SBD,,,,Yes
15,Makailuh Morrison,CA,90+,170.9,,23,142.5,75,162.5,380,F,Open,Raw,SBD,,,,Yes
16,Marissa Heeb,AZ,90+,93.6,,25,145,70,160,375,F,Open,Raw,SBD,,,,Yes
1,Tonya Reidy,OH,48,46.2,,39,80,47.5,80,207.5,F,Submasters 35-39,Raw,SBD,,,,Yes
1,Debi Stoliar,CA,56,54.8,,39,127.5,62.5,147.5,337.5,F,Submasters 35-39,Raw,SBD,,,,Yes
1,Natasha Beasley,VA,60,60,,36,107.5,77.5,175,360,F,Submasters 35-39,Raw,SBD,,,,Yes
2,Tara Romero,CA,60,59.2,,35,120,67.5,120,307.5,F,Submasters 35-39,Raw,SBD,,,,Yes
3,Elizabeth Salib,NY,60,58.6,,36,85,57.5,110,252.5,F,Submasters 35-39,Raw,SBD,,,,Yes
1,Kelly O'Brien,OH,67.5,63.8,,35,150,90,155,395,F,Submasters 35-39,Raw,SBD,,,,Yes
2,Nicola Adamchik,PA,67.5,66.6,,39,137.5,75,165,377.5,F,Submasters 35-39,Raw,SBD,,,,Yes
3,Chrystal Garcia,AZ,67.5,66.7,,35,120,75,147.5,342.5,F,Submasters 35-39,Raw,SBD,,,,Yes
1,Kristen Lawson,CA,75,75,,36,152.5,70,167.5,390,F,Submasters 35-39,Raw,SBD,,,,Yes
2,Alicia Neblett,GA,75,75,,38,130,87.5,165,382.5,F,Submasters 35-39,Raw,SBD,,,,Yes
3,Lis Saunders,GA,75,72.5,,39,135,70,152.5,357.5,F,Submasters 35-39,Raw,SBD,,,,Yes
4,Chari Hensler,UT,75,71.8,,39,115,65,145,325,F,Submasters 35-39,Raw,SBD,,,,Yes
1,Jeanie Shellman,OR,82.5,80.9,,36,177.5,105.5,210,493,F,Submasters 35-39,Raw,SBD,,106,,Yes
2,Joanna Coleman,AZ,82.5,79.9,,35,145,75,180,400,F,Submasters 35-39,Raw,SBD,,,,Yes
3,Kristyn Whisman,PA,82.5,81,,35,120,65,150,335,F,Submasters 35-39,Raw,SBD,,,,Yes
1,Kimberly Einstein #1,NY,90+,130,,35,180,112.5,202.5,495,F,Submasters 35-39,Raw,SBD,,,,Yes
2,Tristin Williams,WY,90+,94.2,,38,162.5,87.5,160,410,F,Submasters 35-39,Raw,SBD,,,,Yes
1,Tamara Stromberg,TX,52,51.2,,41,122.5,60,140,322.5,F,Masters 40-44,Raw,SBD,,,,Yes
2,Julie Billups,NC,52,49,,43,105,62.5,137.5,305,F,Masters 40-44,Raw,SBD,,,,Yes
3,Shannon Castiglione,OH,52,49.6,,41,85,47.5,122.5,255,F,Masters 40-44,Raw,SBD,,,,Yes
1,Ginger Burton,IA,52,51.6,,46,83,85,120,288,F,Masters 45-49,Raw,SBD,,,,Yes
1,Magnolia Centeno,HI,56,56,,44,107.5,67.5,157.5,332.5,F,Masters 40-44,Raw,SBD,,,,Yes
1,Rosemary Nichols,OR,56,55.4,,80,60,37.5,96,193.5,F,Masters 80+,Raw,SBD,,,,Yes
1,Yolanda Presswood,CA,60,59.8,,42,130,67.5,155,352.5,F,Masters 40-44,Raw,SBD,,,,Yes
1,Becky Hammon,MO,60,59.6,,49,100,60,130,290,F,Masters 45-49,Raw,SBD,,,,Yes
1,Miriam Lawrence,VT,60,58.8,,52,90,52.5,105,247.5,F,Masters 50-54,Raw,SBD,,,,Yes
2,Shelly Negrete,CA,60,59.6,,54,70,55,110,235,F,Masters 50-54,Raw,SBD,,,,Yes
1,Lisa Courtney,OH,60,58.4,,55,102.5,60,112.5,275,F,Masters 55-59,Raw,SBD,,,,Yes
1,Charlene Mizner,AZ,60,56.8,,64,57.5,32.5,95,185,F,Masters 60-64,Raw,SBD,,,,Yes
1,Aimee Hale,CA,67.5,64.8,,40,130,70,175.5,375.5,F,Masters 40-44,Raw,SBD,,,180,Yes
1,Erin Hook,MI,67.5,65,,47,115,67.5,165,347.5,F,Masters 45-49,Raw,SBD,,,,Yes
2,Shannon Paulson,CA,67.5,65,,48,87.5,80,137.5,305,F,Masters 45-49,Raw,SBD,,,,Yes
1,Sara Jones #1,CA,67.5,66.2,,51,135,75.5,155,365.5,F,Masters 50-54,Raw,SBD,137.5,,,Yes
2,Charsell Kincaid,MI,67.5,64.8,,51,125,62.5,162.5,350,F,Masters 50-54,Raw,SBD,,,,Yes
1,Kay Walden,KS,67.5,67,,58,117.5,55,137.5,310,F,Masters 55-59,Raw,SBD,,,,Yes
2,Lorrie Bosen,CO,67.5,65.7,,56,77.5,60,125,262.5,F,Masters 55-59,Raw,SBD,,,,Yes
1,Carol Smolsky,NE,67.5,65.6,,60,102.5,62.5,132.5,297.5,F,Masters 60-64,Raw,SBD,,,,Yes
2,Jo-Ann Martinez,CO,67.5,64.3,,60,97.5,62.5,135,295,F,Masters 60-64,Raw,SBD,,,,Yes
3,Christine Fox,MO,67.5,66.6,,60,50,42.5,92.5,185,F,Masters 60-64,Raw,SBD,,,,Yes
1,Mindy Polk,NV,75,74.4,1979-03-22,40,110,65,152.5,327.5,F,Masters 40-44,Raw,SBD,,,,Yes
1,Cynthia Browning,IN,75,73.3,,49,135,105,185,425,F,Masters 45-49,Raw,SBD,,,,Yes
1,Katherine Brown,TX,75,74,,52,137.5,77.5,165,380,F,Masters 50-54,Raw,SBD,,,,Yes
DQ,Debbie Nelson,WA,75,73.2,,53,,47.5,137.5,,F,Masters 50-54,Raw,SBD,,,,Yes
1,Aven Malec,OH,75,70.4,,60,80,50,115,245,F,Masters 60-64,Raw,SBD,,,,Yes
1,Funda Herrera,TX,82.5,79,,44,135,62.5,167.5,365,F,Masters 40-44,Raw,SBD,,,,Yes
2,Danielle Valentine,MI,82.5,81.2,,42,122.5,70,140,332.5,F,Masters 40-44,Raw,SBD,,,,Yes
3,Keli Hamman,VA,82.5,79.6,,41,125,60,145,330,F,Masters 40-44,Raw,SBD,,,,Yes
G,Karina Espinosa,GA,82.5,78,,45,95,52.5,120,267.5,F,Masters 45-49,Raw,SBD,,,,Yes
1,Linda Arvey,PA,82.5,80.8,,68,110,72.5,150,332.5,F,Masters 65-69,Raw,SBD,,,155,Yes
1,Jolene Santee,OH,90,86.2,,41,140,92.5,175,407.5,F,Masters 40-44,Raw,SBD,,,,Yes
1,Conswella Bennett,GA,90,88.4,,45,120,77.5,170,367.5,F,Masters 45-49,Raw,SBD,,,,Yes
2,Sherry Phay,WA,90,83.3,,45,120,85,147.5,352.5,F,Masters 45-49,Raw,SBD,,,,Yes
1,Tracy Bryant #1,MO,90+,104.7,,51,145,65,155,365,F,Masters 50-54,Raw,SBD,,,,Yes
1,Tanye Lacombe,TX,90+,117.2,,59,122.5,72.5,140,335,F,Masters 55-59,Raw,SBD,,,,Yes
1,Justin Bonaparte,NV,60,58.1,,23,187.5,100,215,502.5,M,Juniors 20-23,Raw,SBD,,,,Yes
2,Brandon Galguera,CA,60,58.5,,22,155,117.5,205,477.5,M,Juniors 20-23,Raw,SBD,,,,Yes
3,Cody Lawrence,CA,60,58.8,,20,175,117.5,175,467.5,M,Juniors 20-23,Raw,SBD,,,,Yes
1,Joshua Lipp,CA,67.5,66.5,,21,167.5,127.5,240,535,M,Juniors 20-23,Raw,SBD,,,,Yes
2,Joel Valdez,CA,67.5,66,,22,167.5,125,235,527.5,M,Juniors 20-23,Raw,SBD,,,,Yes
1,Kanyon Khuu,CA,75,73.3,,17,172.5,107.5,200,480,M,Juniors 16-17,Raw,SBD,,,,Yes
1,William Pham,CA,75,74.6,,21,220,137.5,270,627.5,M,Juniors 20-23,Raw,SBD,,,,Yes
2,Christopher Ledesma,NV,75,72.3,,22,222.5,132.5,235,590,M,Juniors 20-23,Raw,SBD,,,,Yes
3,Hector Vaca,AZ,75,74.2,,21,205,140,230,575,M,Juniors 20-23,Raw,SBD,,,,Yes
4,Jose Palma,CA,75,74.6,,21,195,145,230,570,M,Juniors 20-23,Raw,SBD,,,,Yes
5,Nathan Cabading,CA,75,73.6,,23,190,117.5,215,522.5,M,Juniors 20-23,Raw,SBD,,,,Yes
6,Chang Hyun Lee,CA,75,73.6,,22,185,122.5,202.5,510,M,Juniors 20-23,Raw,SBD,,,,Yes
7,Maxwell Newman,OH,75,71,,23,147.5,92.5,185,425,M,Juniors 20-23,Raw,SBD,,,,Yes
1,Nicholas Elizarraras,AZ,82.5,82,,16,177.5,117.5,185,480,M,Juniors 16-17,Raw,SBD,,,,Yes
1,Antonio Vaca,AZ,82.5,81.2,,19,207.5,142.5,237.5,587.5,M,Juniors 18-19,Raw,SBD,,,,Yes
2,Matthew Rivas,CA,82.5,79.8,,19,197.5,127.5,192.5,517.5,M,Juniors 18-19,Raw,SBD,,,,Yes
1,Rayson Sorayama,OR,82.5,82.2,,23,227.5,170,295,692.5,M,Juniors 20-23,Raw,SBD,,,,Yes
2,Joshua Garcez,TX,82.5,79.6,,23,217.5,132.5,247.5,597.5,M,Juniors 20-23,Raw,SBD,,,,Yes
3,Marcus Jeon,CA,82.5,80.4,,22,200,137.5,140,477.5,M,Juniors 20-23,Raw,SBD,,,,Yes
1,Chalmer Brickhaus,MO,90,89.4,,17,185,137.5,230,552.5,M,Juniors 16-17,Raw,SBD,,,,Yes
1,Mitchell SooHoo,WA,90,86.8,,19,182.5,137.5,220,540,M,Juniors 18-19,Raw,SBD,,,,Yes
2,Ted Howard,WA,90,87.1,,18,172.5,92.5,192.5,457.5,M,Juniors 18-19,Raw,SBD,,,,Yes
1,Daniel Guardado Delao,CA,90,89.6,,23,245,170,277.5,692.5,M,Juniors 20-23,Raw,SBD,,,,Yes
2,Nathan Cosmas,AZ,90,89.7,,21,230,145,275,650,M,Juniors 20-23,Raw,SBD,,,,Yes
3,Christian Aquino #1,NV,90,88.8,,23,217.5,150,250,617.5,M,Juniors 20-23,Raw,SBD,,,,Yes
4,Alex Machupa,WY,90,88.4,,22,212.5,125,247.5,585,M,Juniors 20-23,Raw,SBD,,,,Yes
5,Justin Mendoza,CA,90,88.1,,23,210,125,225,560,M,Juniors 20-23,Raw,SBD,,,,Yes
6,James Governale,NV,90,86.2,,20,212.5,115,230,557.5,M,Juniors 20-23,Raw,SBD,,,,Yes
7,Evin Sam,WA,90,85.8,,23,192.5,107.5,230,530,M,Juniors 20-23,Raw,SBD,,,,Yes
8,Braulio Valdovinos,NV,90,88,,23,175,120,220,515,M,Juniors 20-23,Raw,SBD,,,,Yes
DQ,Michael Newman,CA,90,85.3,,21,187.5,,225,,M,Juniors 20-23,Raw,SBD,,,,Yes
1,Matthew Wasef,CA,100,99,,19,270,170,282.5,722.5,M,Juniors 18-19,Raw,SBD,,,,Yes
2,Aaron Hernandez,AZ,100,99.2,,19,222.5,167.5,235,625,M,Juniors 18-19,Raw,SBD,,,,Yes
3,Elijah Vroman,MO,100,97.6,,18,220,147.5,237.5,605,M,Juniors 18-19,Raw,SBD,,,,Yes
1,Justin Huerta,CA,100,97.8,,22,242.5,150,257.5,650,M,Juniors 20-23,Raw,SBD,,,,Yes
1,Kade Proctor,MO,110,108.8,,23,282.5,187.5,322.5,792.5,M,Juniors 20-23,Raw,SBD,,,,Yes
2,Brandon Ebersole,NV,110,110,,23,240,135,302.5,677.5,M,Juniors 20-23,Raw,SBD,,,,Yes
3,Chandler Yelton,CO,110,109.4,,20,215,155,255,625,M,Juniors 20-23,Raw,SBD,,,,Yes
4,Koby Mallon,CA,110,105.3,,22,220,135,257.5,612.5,M,Juniors 20-23,Raw,SBD,,,,Yes
1,Mario Vasquez,CA,125,121.8,,23,265,177.5,292.5,735,M,Juniors 20-23,Raw,SBD,,,,Yes
2,Andre Nurse,CA,125,124.1,,23,245,147.5,282.5,675,M,Juniors 20-23,Raw,SBD,,,,Yes
3,Nathan Tran,OR,125,124.8,,23,220,137.5,257.5,615,M,Juniors 20-23,Raw,SBD,,,,Yes
1,Magnus Graham,CA,140,136.1,,19,255,163,245.5,663.5,M,Juniors 18-19,Raw,SBD,,,,Yes
1,Roger Guillory,MT,140,132.6,,21,290,192.5,285,767.5,M,Juniors 20-23,Raw,SBD,,,,Yes
1,Bao Huynh,CA,60,59,,33,180,130,205,515,M,Open,Raw,SBD,,,,Yes
2,Justin Bonaparte,NV,60,58.1,,23,187.5,100,215,502.5,M,Open,Raw,SBD,,,,Yes
3,Cody Lawrence,CA,60,58.8,,20,175,117.5,175,467.5,M,Open,Raw,SBD,,,,Yes
4,Michael Shin,CA,60,59.4,,31,147.5,102.5,175,425,M,Open,Raw,SBD,,,,Yes
1,Joshua Lipp,CA,67.5,66.5,,21,167.5,127.5,240,535,M,Open,Raw,SBD,,,,Yes
2,Joel Valdez,CA,67.5,66,,22,167.5,125,235,527.5,M,Open,Raw,SBD,,,,Yes
3,Stephen Do,OR,67.5,66.2,,30,177.5,125,142.5,445,M,Open,Raw,SBD,,,,Yes
DQ,Sean Ambrocio,WI,67.5,66.2,,26,,147.5,272.5,,M,Open,Raw,SBD,,,,Yes
DQ,Mark Lazo,CA,67.5,67,,40,,80,,,M,Open,Raw,SBD,,,,Yes
1,William Pham,CA,75,74.6,,21,220,137.5,270,627.5,M,Open,Raw,SBD,,,,Yes
2,Johnathan McCarthy,NV,75,75,,29,200,157.5,252.5,610,M,Open,Raw,SBD,,,,Yes
3,Hector Vaca,AZ,75,74.2,,21,205,140,230,575,M,Open,Raw,SBD,,,,Yes
4,Mu Tsai Fang,AL,75,74,,35,185,140,245,570,M,Open,Raw,SBD,,,,Yes
5,Samuel Yoon,DE,75,73,,25,192.5,117.5,247.5,557.5,M,Open,Raw,SBD,,,,Yes
6,Bao-Tam Nguyen,CA,75,73.6,,24,192.5,110,227.5,530,M,Open,Raw,SBD,,,,Yes
7,Daniel SooHoo,WA,75,73.9,,24,185,127.5,210,522.5,M,Open,Raw,SBD,,,,Yes
8,Anson Nguyen,CA,75,73.8,,26,170,125,177.5,472.5,M,Open,Raw,SBD,,,,Yes
DQ,Darryl Liu,CA,75,73.8,,30,,110,,,M,Open,Raw,SBD,,,,Yes
1,Rayson Sorayama,OR,82.5,82.2,,23,227.5,170,295,692.5,M,Open,Raw,SBD,,,,Yes
2,Alexander Phan,CA,82.5,82.4,,25,235,152.5,285,672.5,M,Open,Raw,SBD,,,,Yes
3,Brian Crosby,OH,82.5,82.2,,28,215,170,250,635,M,Open,Raw,SBD,,,,Yes
4,Joshua Garcez,TX,82.5,79.6,,23,217.5,132.5,247.5,597.5,M,Open,Raw,SBD,,,,Yes
5,Ben Rosenbaum,AZ,82.5,79.8,,24,222.5,150,225,597.5,M,Open,Raw,SBD,,,,Yes
6,Antonio Vaca,AZ,82.5,81.2,,19,207.5,142.5,237.5,587.5,M,Open,Raw,SBD,,,,Yes
7,Justin Villegas,CA,82.5,80.6,,27,205,125,240,570,M,Open,Raw,SBD,,,,Yes
8,Ryan Mendoza,CA,82.5,80.4,,33,195,127.5,230,552.5,M,Open,Raw,SBD,,,,Yes
9,Steven Bourdow,CA,82.5,80.9,,25,202.5,115,225,542.5,M,Open,Raw,SBD,,,,Yes
10,Carlo Lomanto,OH,82.5,80,,37,190,110,227.5,527.5,M,Open,Raw,SBD,,,,Yes
11,Anthony Bui #3,CA,82.5,81.4,,30,190,122.5,205,517.5,M,Open,Raw,SBD,,,,Yes
12,Alfonso Martinez,CA,82.5,81.2,,24,175,120,207.5,502.5,M,Open,Raw,SBD,,,,Yes
13,Sassan Khatibloo,CA,82.5,80.9,1993-08-19,25,195,152.5,100,447.5,M,Open,Raw,SBD,,,,Yes
1,Peter Nguyen #1,OR,90,86.5,,27,257.5,137.5,312.5,707.5,M,Open,Raw,SBD,,,,Yes
2,Kirk Whittenberg,CA,90,88.8,,37,225,197.5,277.5,700,M,Open,Raw,SBD,,200,,Yes
3,Daniel Guardado Delao,CA,90,89.6,,23,245,170,277.5,692.5,M,Open,Raw,SBD,,,,Yes
4,Nathan Cosmas,AZ,90,89.7,,21,230,145,275,650,M,Open,Raw,SBD,,,,Yes
5,Corey Kelley,MD,90,89.6,,30,225,145,265,635,M,Open,Raw,SBD,,,,Yes
6,Chalmer Brickhaus,MO,90,89.4,,17,185,137.5,230,552.5,M,Open,Raw,SBD,,,,Yes
7,Joel Gonzalez,CA,90,88.4,,24,180,135,225,540,M,Open,Raw,SBD,,,,Yes
8,Emad Albalas,CA,90,89,,25,190,120,207.5,517.5,M,Open,Raw,SBD,,,,Yes
DQ,Terrence Rooney,MA,90,87.4,,28,,152.5,232.5,,M,Open,Raw,SBD,,,,Yes
1,Lee Seeley,OR,100,99.4,,30,275,187.5,317.5,780,M,Open,Raw,SBD,,,,Yes
2,Cardell Oliver,GA,100,98.8,,40,270,190,317.5,777.5,M,Open,Raw,SBD,,,,Yes
3,Ollie Meadows,CA,100,94.8,,35,260,190,297.5,747.5,M,Open,Raw,SBD,,,,Yes
4,Matthew Wasef,CA,100,99,,19,270,170,282.5,722.5,M,Open,Raw,SBD,,,,Yes
5,Michael Anguelo,CA,100,98.8,,27,252.5,182.5,272.5,707.5,M,Open,Raw,SBD,,,,Yes
6,Ian Walsh,CA,100,98.9,,29,237.5,152.5,265,655,M,Open,Raw,SBD,,,,Yes
7,Eric Hernandez,CA,100,99.5,,26,215,147.5,275,637.5,M,Open,Raw,SBD,,,,Yes
8,Zachary Vassallo-Perez,WY,100,96.4,,24,215,142.5,262.5,620,M,Open,Raw,SBD,,,,Yes
9,Elijah Vroman,MO,100,97.6,,18,220,147.5,237.5,605,M,Open,Raw,SBD,,,,Yes
10,Ian Sanchez #1,NM,100,97.8,,25,217.5,125,257.5,600,M,Open,Raw,SBD,,,,Yes
11,Michael Arroyo,CA,100,96.2,,22,215,132.5,237.5,585,M,Open,Raw,SBD,,,,Yes
12,Zachary Underwood,OH,100,97.2,,29,190,117.5,242.5,550,M,Open,Raw,SBD,,,,Yes
13,Lance Carmichael,CA,100,98.9,,31,185,127.5,232.5,545,M,Open,Raw,SBD,,,,Yes
14,Edgar Ramirez,CA,100,94.6,,34,202.5,112.5,217.5,532.5,M,Open,Raw,SBD,,,,Yes
15,Ferdinand Luis,CA,100,97.4,,32,200,135,187.5,522.5,M,Open,Raw,SBD,,,,Yes
DQ,Antonio Squillante,CA,100,95.6,,32,220,127.5,,,M,Open,Raw,SBD,,,,Yes
DQ,Justin Smith #2,OH,100,99,,26,282.5,185,,,M,Open,Raw,SBD,,,,Yes
1,Kirk Crawford,SC,110,108.6,,30,282.5,195,282.5,760,M,Open,Raw,SBD,,,,Yes
2,Kaleb Tessema,MD,110,109,,24,250,180,270,700,M,Open,Raw,SBD,,,,Yes
3,Thomas Boni,NV,110,109.2,,27,230,165,287.5,682.5,M,Open,Raw,SBD,,,,Yes
4,Mychal Haynes,IN,110,101.1,,30,212.5,157.5,250,620,M,Open,Raw,SBD,,,,Yes
5,Ryan Brosmer,CO,110,106.8,,31,220,142.5,227.5,590,M,Open,Raw,SBD,,,,Yes
DQ,Florencio Bermudez Jr,CA,110,102,,28,227.5,,240,,M,Open,Raw,SBD,,,,Yes
DQ,Jacob Hendrix,IL,110,104.6,,29,217.5,,262.5,,M,Open,Raw,SBD,,,,Yes
1,Anthony Salas #1,Guam,125,122.6,,29,292.5,215,305,812.5,M,Open,Raw,SBD,,,,Yes
2,Dustin Jackson,NM,125,123.8,,27,287.5,195,317.5,800,M,Open,Raw,SBD,,,,Yes
3,Peter Salinas,CA,125,119.8,,26,272.5,185,282.5,740,M,Open,Raw,SBD,,,,Yes
4,Aaron Luther,TX,125,122.4,,32,267.5,187.5,282.5,737.5,M,Open,Raw,SBD,,,,Yes
5,Evan McDaniel,OR,125,121.8,,32,247.5,167.5,285,700,M,Open,Raw,SBD,,,,Yes
6,Aaron Volkman,CA,125,115.8,,29,220,162.5,280,662.5,M,Open,Raw,SBD,,,,Yes
7,Ben Gallaher,CA,125,120.2,,33,215,160,277.5,652.5,M,Open,Raw,SBD,,,,Yes
8,Josh Conroy,PA,125,122,,32,235,147.5,260,642.5,M,Open,Raw,SBD,,,,Yes
DQ,Danny Lima,CA,125,120.4,,32,,145,235,,M,Open,Raw,SBD,,,,Yes
1,Levi Henrie,UT,140,138.3,,27,312.5,227.5,355,895,M,Open,Raw,SBD,,,,Yes
2,Adam Rockwell,CA,140,139,,25,237.5,217.5,320,775,M,Open,Raw,SBD,,,,Yes
3,Roger Guillory,MT,140,132.6,,21,290,192.5,285,767.5,M,Open,Raw,SBD,,,,Yes
4,Jerel Pippins,TX,140,130.8,,31,287.5,185,270,742.5,M,Open,Raw,SBD,,,,Yes
5,Arthan Antonio,CA,140,132.2,,24,225,182.5,235,642.5,M,Open,Raw,SBD,,,,Yes
6,Cody Hanson #1,NM,140,135.2,,43,230,150,262.5,642.5,M,Open,Raw,SBD,,,,Yes
7,Brandon Rhodes,FL,140,127.2,,28,250,137.5,252.5,640,M,Open,Raw,SBD,,,,Yes
1,Andrew Rawling,TX,140+,140.6,,24,300,182.5,320,802.5,M,Open,Raw,SBD,,,,Yes
2,Brock Charette,ND,140+,179.6,,30,280,157.5,290,727.5,M,Open,Raw,SBD,,,,Yes
1,Mu Tsai Fang,AL,75,74,,35,185,140,245,570,M,Submasters 35-39,Raw,SBD,,,,Yes
2,Richard Damraur,UT,75,74.2,,35,182.5,125,215,522.5,M,Submasters 35-39,Raw,SBD,,,,Yes
1,Carlo Lomanto,OH,82.5,80,,37,190,110,227.5,527.5,M,Submasters 35-39,Raw,SBD,,,,Yes
1,Kirk Whittenberg,CA,90,88.8,,37,225,197.5,277.5,700,M,Submasters 35-39,Raw,SBD,,200,,Yes
2,Reggie Loyola,NV,90,90,,38,220,157.5,277.5,655,M,Submasters 35-39,Raw,SBD,,,,Yes
1,John Reidy,OH,110,107.4,,38,190,155,222.5,567.5,M,Submasters 35-39,Raw,SBD,,,,Yes
1,Adam Kerrigan,NV,140+,151.9,,38,230,160,275,665,M,Submasters 35-39,Raw,SBD,,,,Yes
1,Gordon Santee,CA,60,58.6,,72,75,67.5,137.5,280,M,Masters 70-74,Raw,SBD,80,73,140.5,Yes
DQ,Mark Lazo,CA,67.5,67,,40,,80,,,M,Masters 40-44,Raw,SBD,,,,Yes
1,Andy Friend,OR,67.5,62,,46,150,100,205,455,M,Masters 45-49,Raw,SBD,,,,Yes
1,Kevin Meskew,CA,67.5,66.2,,63,112.5,87.5,172.5,372.5,M,Masters 60-64,Raw,SBD,,,,Yes
1,Matthew Chapman #1,HI,75,74.2,,51,157.5,122.5,170,450,M,Masters 50-54,Raw,SBD,,,,Yes
1,Jim Gallagher #1,CA,75,73.2,,83,100,57.5,155,312.5,M,Masters 80+,Raw,SBD,,,,Yes
1,Jason Roberts #2,HI,82.5,82,,49,175,137.5,200,512.5,M,Masters 45-49,Raw,SBD,,,,Yes
2,John Batiste,IL,82.5,81.7,,47,182.5,112.5,192.5,487.5,M,Masters 45-49,Raw,SBD,,,,Yes
1,George Linder,OH,82.5,79.1,,51,145,97.5,195,437.5,M,Masters 50-54,Raw,SBD,,,,Yes
1,Tom Lujan,CA,82.5,81.7,,56,127.5,100,165,392.5,M,Masters 55-59,Raw,SBD,,,,Yes
1,In Choi,NV,90,89.9,,43,185,145,232.5,562.5,M,Masters 40-44,Raw,SBD,,,,Yes
1,David Nix,TX,90,89,,50,195,145,195,535,M,Masters 50-54,Raw,SBD,,,,Yes
1,Gary Martin,KY,90,87,,62,167.5,70,215,452.5,M,Masters 60-64,Raw,SBD,,,,Yes
1,Stan Mitchell,KS,100,97.3,,53,175,130,217.5,522.5,M,Masters 50-54,Raw,SBD,,,,Yes
DQ,Richard Schulze,NV,100,98.1,,53,,115,200,,M,Masters 50-54,Raw,SBD,,,,Yes
1,Don Modlin,IA,100,97.7,,55,210,122.5,215,547.5,M,Masters 55-59,Raw,SBD,,,,Yes
DQ,Donald Contaxis,CA,100,96.7,,61,,,,,M,Masters 60-64,Raw,SBD,,,,Yes
1,David Cartin,NV,110,106.5,,52,197.5,155,230,582.5,M,Masters 50-54,Raw,SBD,,,,Yes
1,Eric Campbell #1,CA,110,105.8,,55,170,137.5,187.5,495,M,Masters 55-59,Raw,SBD,,,,Yes
2,William Wenk,NC,110,106.5,,58,160,105,210,475,M,Masters 55-59,Raw,SBD,,,,Yes
1,Antony Arakkal,MI,125,122.8,,40,285,155,287.5,727.5,M,Masters 40-44,Raw,SBD,,,,Yes
2,Steve Pustay,OH,125,119.6,,42,232.5,130,232.5,595,M,Masters 40-44,Raw,SBD,,,,Yes
1,Greg McClarin,CO,125,115.6,,46,235,150,260,645,M,Masters 45-49,Raw,SBD,,,,Yes
2,Chris Allen,VA,125,117.8,,45,160,172.5,245,577.5,M,Masters 45-49,Raw,SBD,,,,Yes
1,Larry Shamblin,OR,125,124,,57,157.5,105,190,452.5,M,Masters 55-59,Raw,SBD,,,,Yes
1,Jim Lovekamp,IN,125,124.5,,60,237.5,132.5,245,615,M,Masters 60-64,Raw,SBD,,,250,Yes
2,Stephen Correa,TX,125,123.2,,63,167.5,125,200,492.5,M,Masters 60-64,Raw,SBD,,,,Yes
1,Cody Hanson #1,NM,140,135.2,,43,230,150,262.5,642.5,M,Masters 40-44,Raw,SBD,,,,Yes
1,James Hogue,IN,140+,158,,46,212.5,120,227.5,560,M,Masters 45-49,Raw,SBD,,,,Yes
1,Michael Hughes,CA,140+,140.8,,58,182.5,157.5,197.5,537.5,M,Masters 55-59,Raw,SBD,,162.5,,Yes
1,Kelly Rodriguez,CA,75,72.6,,22,182.5,72.5,182.5,437.5,F,Juniors 20-23,Wraps,SBD,,,,Yes
2,LeAnn Mounce,NV,75,73.6,,21,165,80,185,430,F,Juniors 20-23,Wraps,SBD,,,,Yes
1,Priscilla Perales,CA,52,51,,34,105,62.5,130,297.5,F,Open,Wraps,SBD,,,,Yes
DQ,Dawn Harvey,IN,52,50.5,,39,,55,120,,F,Open,Wraps,SBD,,,,Yes
1,Madi Pluss,CO,56,55.2,,26,130,57.5,150.5,338,F,Open,Wraps,SBD,,,158,Yes
1,Tera Hernandez,CA,60,60,,26,110,52.5,155,317.5,F,Open,Wraps,SBD,,,,Yes
2,Jennifer Pusey,AZ,60,58,,35,102.5,57.5,140,300,F,Open,Wraps,SBD,,,,Yes
DQ,Tiffini Mann,MA,60,58.2,,34,,,,,F,Open,Wraps,SBD,,,,Yes
1,Kristen Kennedy,AZ,67.5,64.4,,27,112.5,52.5,120,285,F,Open,Wraps,SBD,,,,Yes
1,Sarah Johnson #2,NC,75,73.6,,25,177.5,96,195,468.5,F,Open,Wraps,SBD,,,,Yes
2,Kelly Rodriguez,CA,75,72.6,,22,182.5,72.5,182.5,437.5,F,Open,Wraps,SBD,,,,Yes
3,Latonia Sumuel,TX,75,73.2,,38,162.5,85,185,432.5,F,Open,Wraps,SBD,,,,Yes
4,LeAnn Mounce,NV,75,73.6,,21,165,80,185,430,F,Open,Wraps,SBD,,,,Yes
5,Erika Roberge,UT,75,74,,29,152.5,62.5,195,410,F,Open,Wraps,SBD,,,,Yes
1,Leah Calimlim,CA,82.5,80,,37,162.5,92.5,155,410,F,Open,Wraps,SBD,,,,Yes
2,Brooke Combes,KS,82.5,79.6,,26,152.5,80,165,397.5,F,Open,Wraps,SBD,,,,Yes
1,Elizabeth Contreras,WA,90,88.1,,31,170,75,160,405,F,Open,Wraps,SBD,,,,Yes
DQ,Milena Schaefer,GA,90+,119.8,,28,,105,,,F,Open,Wraps,SBD,,,,Yes
DQ,Dawn Harvey,IN,52,50.5,,39,,55,120,,F,Submasters 35-39,Wraps,SBD,,,,Yes
1,Jennifer Pusey,AZ,60,58,,35,102.5,57.5,140,300,F,Submasters 35-39,Wraps,SBD,,,,Yes
1,Latonia Sumuel,TX,75,73.2,,38,162.5,85,185,432.5,F,Submasters 35-39,Wraps,SBD,,,,Yes
1,Leah Calimlim,CA,82.5,80,,37,162.5,92.5,155,410,F,Submasters 35-39,Wraps,SBD,,,,Yes
1,Abbey Moon,WA,56,54.8,,74,35,47.5,90,172.5,F,Masters 70-74,Wraps,SBD,,,92.5,Yes
1,Amy Perry,KS,75,71.8,,51,125,65,145,335,F,Masters 50-54,Wraps,SBD,,,,Yes
1,Felicia Johnson-Almy,FL,75,73.2,,60,85,65,120,270,F,Masters 60-64,Wraps,SBD,,,122.5,Yes
1,Dani Shamblin,OR,90,85.2,,42,147.5,77.5,175,400,F,Masters 40-44,Wraps,SBD,,,,Yes
1,Norman Black Jr,CA,100,98.4,,22,235,177.5,265,677.5,M,Juniors 20-23,Wraps,SBD,,,,Yes
1,Jonathan Gray,MS,110,108.6,,19,240,142.5,290,672.5,M,Juniors 18-19,Wraps,SBD,,,,Yes
2,Larrison Stevens,MT,110,105,,18,242.5,132.5,225,600,M,Juniors 18-19,Wraps,SBD,,,,Yes
1,Dylan Peck,TX,110,108.4,,23,285,152.5,250,687.5,M,Juniors 20-23,Wraps,SBD,,,,Yes
1,Brian Rangel,CA,125,119.8,,23,220,162.5,237.5,620,M,Juniors 20-23,Wraps,SBD,,,,Yes
DQ,Anthony Garcia,CA,125,114,,22,297.5,,295,,M,Juniors 20-23,Wraps,SBD,,,,Yes
1,Dillon Blue,CO,140,133.2,,15,230,127.5,205,562.5,M,Juniors 13-15,Wraps,SBD,,,,Yes
1,Santiago Vasquez IV,CA,140,135.6,,22,237.5,187.5,280,705,M,Juniors 20-23,Wraps,SBD,,,282.5,Yes
1,Christian Kearney,TX,67.5,64,,30,212.5,132.5,277.5,622.5,M,Open,Wraps,SBD,,,,Yes
2,Matthew Smith #1,AZ,67.5,66.3,,26,215,105,245,565,M,Open,Wraps,SBD,,,,Yes
1,Nathan Walton,GA,75,74.8,,43,272.5,170,307.5,750,M,Open,Wraps,SBD,,,,Yes
DQ,Michael Asare,NJ,75,75,,30,,135,250,,M,Open,Wraps,SBD,,,,Yes
1,Geoffrey Briles,CO,90,88.4,,26,242.5,152.5,250,645,M,Open,Wraps,SBD,,,,Yes
1,Drew Mitchell,KS,100,98.6,,24,240,160,212.5,612.5,M,Open,Wraps,SBD,,,,Yes
2,Eric Martin #2,AR,100,96,,27,220,135,237.5,592.5,M,Open,Wraps,SBD,,,,Yes
G,Clint McCord,AZ,100,96.4,,29,235,142.5,240,617.5,M,Open,Wraps,SBD,,,,Yes
1,Boris Terry,CA,110,108.6,,34,320,212.5,337.5,870,M,Open,Wraps,SBD,,,,Yes
2,Jermaine Jackson,CA,110,109,,35,297.5,192.5,285,775,M,Open,Wraps,SBD,,,,Yes
3,David Muckel,CO,110,109.2,,33,222.5,152.5,250,625,M,Open,Wraps,SBD,,,,Yes
4,Larrison Stevens,MT,110,105,,18,242.5,132.5,225,600,M,Open,Wraps,SBD,,,,Yes
DQ,Vincent Jackson,AR,110,108.9,,31,,,352.5,,M,Open,Wraps,SBD,,,,Yes
1,Rudy Ruiz #1,CA,125,121.8,,26,272.5,182.5,272.5,727.5,M,Open,Wraps,SBD,,,,Yes
2,Damian Solis,NC,125,124,,32,260,165,300,725,M,Open,Wraps,SBD,,,,Yes
3,Holgie Choi,CA,125,121.2,,39,265,175,265,705,M,Open,Wraps,SBD,,,,Yes
4,Víctor Valenzuela,OR,125,124.8,,28,267.5,157.5,250,675,M,Open,Wraps,SBD,,,,Yes
5,Brian Rangel,CA,125,119.8,,23,220,162.5,237.5,620,M,Open,Wraps,SBD,,,,Yes
DQ,Anthony Garcia,CA,125,114,,22,297.5,,295,,M,Open,Wraps,SBD,,,,Yes
1,Matt Slate,NV,140,132.6,,38,285,210,287.5,782.5,M,Open,Wraps,SBD,,,,Yes
1,Alberto Portillo,VA,140+,162.4,,26,307.5,182.5,320,810,M,Open,Wraps,SBD,,,,Yes
2,Ray Luna,CA,140+,146.8,,37,272.5,185,232.5,690,M,Open,Wraps,SBD,,,,Yes
1,Seth Baldwin,CO,67.5,67.5,,35,175,117.5,192.5,485,M,Submasters 35-39,Wraps,SBD,,,,Yes
1,Holgie Choi,CA,125,121.2,,39,265,175,265,705,M,Submasters 35-39,Wraps,SBD,,,,Yes
1,Matt Slate,NV,140,132.6,,38,285,210,287.5,782.5,M,Submasters 35-39,Wraps,SBD,,,,Yes
1,James Russell,WY,140+,159,,38,265,197.5,242.5,705,M,Submasters 35-39,Wraps,SBD,,,,Yes
2,Ray Luna,CA,140+,146.8,,37,272.5,185,232.5,690,M,Submasters 35-39,Wraps,SBD,,,,Yes
1,Nathan Walton,GA,75,74.8,,43,272.5,170,307.5,750,M,Masters 40-44,Wraps,SBD,,,,Yes
1,Gerald Tomooka,HI,82.5,81.6,,56,185,117.5,185,487.5,M,Masters 55-59,Wraps,SBD,,,190,Yes
1,Bob Kinsey,CA,90,84.7,,77,105,70.5,142.5,318,M,Masters 75-79,Wraps,SBD,,,,Yes
1,Dain Pankratz,CA,100,99,,41,137.5,190,265,592.5,M,Masters 40-44,Wraps,SBD,,,,Yes
1,Joe Dentice,NV,110,105,,60,190,75,227.5,492.5,M,Masters 60-64,Wraps,SBD,,,,Yes
1,Gary Board,PA,125,120.4,,49,230,147.5,250,627.5,M,Masters 45-49,Wraps,SBD,,,,Yes
DQ,Patrick Diggins,NV,140,129.6,,59,165,,,,M,Masters 55-59,Wraps,SBD,,,,Yes
1,Dwon Johnson,GA,140+,174.6,,42,320,167.5,285,772.5,M,Masters 40-44,Wraps,SBD,,,,Yes
1,Bobbi Walden,NC,60,59.2,,27,115,75,147.5,337.5,F,Open,Single-ply,SBD,,,,Yes
1,Deana Tollefson,AZ,75,74.7,,32,190.5,115,192.5,498,F,Open,Single-ply,SBD,,,,Yes
1,Joseph Hwang,GA,67.5,66.8,,30,230,135,240,605,M,Open,Single-ply,SBD,237.5,,245,Yes
1,Keith Kanemoto,CA,90,86.1,,60,272.5,195,237.5,705,M,Open,Single-ply,SBD,,,,Yes
1,James Grinstead,CA,100,99,,30,277.5,175,260,712.5,M,Open,Single-ply,SBD,,,,Yes
1,Joe Walden,KS,82.5,80.4,,62,182.5,105,197.5,485,M,Masters 60-64,Single-ply,SBD,,115,,Yes
1,Keith Kanemoto,CA,90,86.1,,60,272.5,195,237.5,705,M,Masters 60-64,Single-ply,SBD,,,,Yes
DD,Parry Markle,ID,110,101.6,,60,227.5,215,292.5,,M,Masters 60-64,Single-ply,SBD,,,,Yes
1,Betsy Spann,CA,67.5,67.3,,62,102.5,77.5,147.5,327.5,F,Open,Multi-ply,SBD,,,,Yes
1,Betsy Spann,CA,67.5,67.3,,62,102.5,77.5,147.5,327.5,F,Masters 60-64,Multi-ply,SBD,,,,Yes
1,Brooke Smith,TX,60,59.4,,22,,72.5,,72.5,F,Juniors 20-23,Raw,B,,75,,Yes
2,Emma Bernabe,CA,60,59.6,,23,,70,,70,F,Juniors 20-23,Raw,B,,,,Yes
1,Cindy Hoang-Tran,CA,75,73.7,,23,,80,,80,F,Juniors 20-23,Raw,B,,,,Yes
1,Ginger Burton,IA,52,51.6,,46,,85,,85,F,Open,Raw,B,,,,Yes
1,Caitlin Delmore,CA,56,55,,28,,70,,70,F,Open,Raw,B,,,,Yes
1,Leilana Tupua-Rodriguez,WA,60,59.4,,24,,82.5,,82.5,F,Open,Raw,B,,,,Yes
2,Emma Bernabe,CA,60,59.6,,23,,70,,70,F,Open,Raw,B,,,,Yes
3,Kimberly Young,CA,60,58.6,,41,,67.5,,67.5,F,Open,Raw,B,,,,Yes
1,Nicole Pompei,TX,67.5,66.4,,27,,95,,95,F,Open,Raw,B,,,,Yes
2,Sara Jones #1,CA,67.5,66.2,,51,,75.5,,75.5,F,Open,Raw,B,,,,Yes
1,Tiffany Savage,CA,75,74.6,,26,,112.5,,112.5,F,Open,Raw,B,,113,,Yes
2,Keandra McGarr,CO,75,71.2,,28,,80,,80,F,Open,Raw,B,,,,Yes
3,Kelly McCarthy,NC,75,73.6,,29,,80,,80,F,Open,Raw,B,,,,Yes
1,Jeanie Shellman,OR,82.5,80.9,,36,,105.5,,105.5,F,Open,Raw,B,,106,,Yes
2,Maggie Kuhn,OH,82.5,78.5,,57,,77.5,,77.5,F,Open,Raw,B,,,,Yes
3,Linda Arvey,PA,82.5,80.8,,68,,72.5,,72.5,F,Open,Raw,B,,,,Yes
1,Julia Tomascheski,UT,90,88.8,,27,,80,,80,F,Open,Raw,B,,,,Yes
1,Kimberly Einstein #1,NY,90+,130,,35,,112.5,,112.5,F,Open,Raw,B,,,,Yes
2,Jene Railsback,CA,90+,155.6,,28,,102.5,,102.5,F,Open,Raw,B,,,,Yes
3,Lynn Bassett,UT,90+,114.1,,53,,87.5,,87.5,F,Open,Raw,B,,,,Yes
1,Jeanie Shellman,OR,82.5,80.9,,36,,105.5,,105.5,F,Submasters 35-39,Raw,B,,106,,Yes
1,Kimberly Einstein #1,NY,90+,130,,35,,112.5,,112.5,F,Submasters 35-39,Raw,B,,,,Yes
1,Ginger Burton,IA,52,51.6,,46,,85,,85,F,Masters 45-49,Raw,B,,,,Yes
1,Angela Tronske,CA,52,49.8,,54,,40,,40,F,Masters 50-54,Raw,B,,,,Yes
1,Kimberly Young,CA,60,58.6,,41,,67.5,,67.5,F,Masters 40-44,Raw,B,,,,Yes
1,Shannon Paulson,CA,67.5,65,,48,,80,,80,F,Masters 45-49,Raw,B,,,,Yes
1,Sara Jones #1,CA,67.5,66.2,,51,,75.5,,75.5,F,Masters 50-54,Raw,B,,,,Yes
1,Maggie Kuhn,OH,82.5,78.5,,57,,77.5,,77.5,F,Masters 55-59,Raw,B,,,,Yes
1,Linda Arvey,PA,82.5,80.8,,68,,72.5,,72.5,F,Masters 65-69,Raw,B,,,,Yes
1,Deb Wade,IN,90+,99.6,,49,,102.5,,102.5,F,Masters 45-49,Raw,B,,,,Yes
1,Lynn Bassett,UT,90+,114.1,,53,,87.5,,87.5,F,Masters 50-54,Raw,B,,,,Yes
1,Dorothy Sosnicki,AZ,90+,104.8,,55,,82.5,,82.5,F,Masters 55-59,Raw,B,,,,Yes
1,Stephen Do,OR,67.5,66.2,,30,,125,,125,M,Open,Raw,B,,,,Yes
1,Jeffrey Willis,NY,75,73.4,,53,,132.5,,132.5,M,Open,Raw,B,,,,Yes
2,Anson Nguyen,CA,75,73.8,,26,,125,,125,M,Open,Raw,B,,,,Yes
1,Sassan Khatibloo,CA,82.5,80.9,,25,,152.5,,152.5,M,Open,Raw,B,,,,Yes
1,Randy Elbert,MD,90,89.8,,49,,155,,155,M,Open,Raw,B,,,,Yes
2,Chris Hardesty,CA,90,85.6,,31,,137.5,,137.5,M,Open,Raw,B,,,,Yes
3,Emad Albalas,CA,90,89,,25,,120,,120,M,Open,Raw,B,,,,Yes
1,William Schneider,PA,100,98.2,,34,,162.5,,162.5,M,Open,Raw,B,,,,Yes
2,Armand Leonelli,PA,100,98.8,,35,,155,,155,M,Open,Raw,B,,,,Yes
3,Ferdinand Luis,CA,100,97.4,,32,,135,,135,M,Open,Raw,B,,,,Yes
1,James Shannon,CA,110,109.2,,46,,172.5,,172.5,M,Open,Raw,B,,177.5,,Yes
1,Anthony Salas #1,Guam,125,122.6,,29,,215,,215,M,Open,Raw,B,,,,Yes
2,Gerren Short,VA,125,125,,43,,200,,200,M,Open,Raw,B,,,,Yes
3,Aaron Luther,TX,125,122.4,,32,,187.5,,187.5,M,Open,Raw,B,,,,Yes
1,Adam Rockwell,CA,140,139,,25,,217.5,,217.5,M,Open,Raw,B,,,,Yes
2,Matt Slate,NV,140,132.6,,38,,210,,210,M,Open,Raw,B,,,,Yes
3,Cody Hanson #1,NM,140,135.2,,43,,150,,150,M,Open,Raw,B,,,,Yes
1,Armand Leonelli,PA,100,98.8,,35,,155,,155,M,Submasters 35-39,Raw,B,,,,Yes
1,Matt Slate,NV,140,132.6,,38,,210,,210,M,Submasters 35-39,Raw,B,,,,Yes
1,Adam Kerrigan,NV,140+,151.9,,38,,160,,160,M,Submasters 35-39,Raw,B,,,,Yes
1,Jay Hadden,CA,56,55.6,,46,,102.5,,102.5,M,Masters 45-49,Raw,B,,,,Yes
1,Gordon Santee,CA,60,58.6,,72,,67.5,,67.5,M,Masters 70-74,Raw,B,,73,,Yes
1,Jeffrey Willis,NY,75,73.4,,53,,132.5,,132.5,M,Masters 50-54,Raw,B,,,,Yes
1,Jason Roberts #2,HI,82.5,82,,49,,137.5,,137.5,M,Masters 45-49,Raw,B,,,,Yes
1,Gerald Tomooka,HI,82.5,81.6,,56,,117.5,,117.5,M,Masters 55-59,Raw,B,,,,Yes
1,Gerald Smith #2,FL,82.5,80.4,,64,,125,,125,M,Masters 60-64,Raw,B,,127.5,,Yes
1,Randy Elbert,MD,90,89.8,,49,,155,,155,M,Masters 45-49,Raw,B,,,,Yes
1,David Nix,TX,90,89,,50,,145,,145,M,Masters 50-54,Raw,B,,,,Yes
1,Scott Gorman,OH,100,99.2,,53,,153,,153,M,Masters 50-54,Raw,B,,,,Yes
2,John Sowell,MS,100,97.4,,51,,142.5,,142.5,M,Masters 50-54,Raw,B,,,,Yes
1,William Nadzak,TX,100,99.5,,69,,155,,155,M,Masters 65-69,Raw,B,,,,Yes
1,James Shannon,CA,110,109.2,,46,,172.5,,172.5,M,Masters 45-49,Raw,B,,177.5,,Yes
2,David Rohlinger,OH,110,104,,49,,137.5,,137.5,M,Masters 45-49,Raw,B,,,,Yes
1,Paul McCarty,LA,110,107,,51,,197.5,,197.5,M,Masters 50-54,Raw,B,,,,Yes
2,Karl Davenport,CA,110,109.6,,54,,130,,130,M,Masters 50-54,Raw,B,,,,Yes
1,Gerren Short,VA,125,125,,43,,200,,200,M,Masters 40-44,Raw,B,,,,Yes
1,Chris Dodson,CA,125,123.4,,54,,162.5,,162.5,M,Masters 50-54,Raw,B,,,,Yes
1,Rick Geller,CO,125,120,,59,,196,,196,M,Masters 55-59,Raw,B,,,,Yes
1,Christopher Orndorff,NV,140,126.6,,43,,175,,175,M,Masters 40-44,Raw,B,,,,Yes
2,Cody Hanson #1,NM,140,135.2,,43,,150,,150,M,Masters 40-44,Raw,B,,,,Yes
1,Jermaine Thomas,SC,140,138.3,,45,,215,,215,M,Masters 45-49,Raw,B,,,,Yes
1,Christopher Summa,LA,140+,149.8,,49,,172.5,,172.5,M,Masters 45-49,Raw,B,,,,Yes
1,Jonathan Janbakhsh,CA,67.5,66.8,,30,,152.5,,152.5,M,Open,Single-ply,B,,,,Yes
1,Fernando Flores,CA,90,89.4,,29,,197.5,,197.5,M,Open,Single-ply,B,,,,Yes
1,James Grinstead,CA,100,99,,30,,175,,175,M,Open,Single-ply,B,,,,Yes
1,George Cano,CA,125,122.6,,50,,212.5,,212.5,M,Open,Single-ply,B,,,,Yes
2,Lord Elliott,CA,125,111.8,,43,,147.5,,147.5,M,Open,Single-ply,B,,,,Yes
1,Richard Byars,CO,100,94.8,,57,,191,,191,M,Masters 55-59,Single-ply,B,,,,Yes
DQ,Howard Blackmon,CO,110,104,,73,,,,,M,Masters 70-74,Single-ply,B,,,,Yes
1,Lord Elliott,CA,125,111.8,,43,,147.5,,147.5,M,Masters 40-44,Single-ply,B,,,,Yes
1,George Cano,CA,125,122.6,,50,,212.5,,212.5,M,Masters 50-54,Single-ply,B,,,,Yes
1,Rick Geller,CO,125,120,,59,,175,,175,M,Masters 55-59,Single-ply,B,,,,Yes
1,Betsy Spann,CA,67.5,67.3,,62,,77.5,,77.5,F,Open,Multi-ply,B,,,,Yes
1,Betsy Spann,CA,67.5,67.3,,62,,77.5,,77.5,F,Masters 60-64,Multi-ply,B,,,,Yes
1,Wayne Jandoc,CA,110,108.8,,61,,170,,170,M,Masters 60-64,Multi-ply,B,,,,Yes
1,Emma Bernabe,CA,60,59.6,,23,,,160,160,F,Juniors 20-23,Raw,D,,,,Yes
1,Cindy Hoang-Tran,CA,75,73.7,,23,,,168,168,F,Juniors 20-23,Raw,D,,,,Yes
1,Jennifer Walther-Hoffman,GA,52,49.6,,33,,,105,105,F,Open,Raw,D,,,,Yes
1,Simone Thomas,CA,56,53.9,,28,,,165,165,F,Open,Raw,D,,,,Yes
2,Caitlin Delmore,CA,56,55,,28,,,147.5,147.5,F,Open,Raw,D,,,,Yes
1,Denise Portillo,CA,60,59.2,,26,,,170,170,F,Open,Raw,D,,,,Yes
2,Emma Bernabe,CA,60,59.6,,23,,,160,160,F,Open,Raw,D,,,,Yes
3,Leilana Tupua-Rodriguez,WA,60,59.4,,24,,,147.5,147.5,F,Open,Raw,D,,,,Yes
1,Sara Jones #1,CA,67.5,66.2,,51,,,155,155,F,Open,Raw,D,,,,Yes
1,Kelsey Hirte,CA,75,74,,26,,,210,210,F,Open,Raw,D,,,,Yes
2,Tiffany Savage,CA,75,74.6,,26,,,197.5,197.5,F,Open,Raw,D,,,,Yes
3,Keandra McGarr,CO,75,71.2,,28,,,170,170,F,Open,Raw,D,,,,Yes
4,Chari Hensler,UT,75,71.8,,39,,,145,145,F,Open,Raw,D,,,,Yes
1,Jeanie Shellman,OR,82.5,80.9,,36,,,210,210,F,Open,Raw,D,,,,Yes
2,Linda Arvey,PA,82.5,80.8,,68,,,150,150,F,Open,Raw,D,,,155,Yes
1,Elizabeth Contreras,WA,90,88.1,,31,,,160,160,F,Open,Raw,D,,,,Yes
2,Julia Tomascheski,UT,90,88.8,,27,,,155,155,F,Open,Raw,D,,,,Yes
3,Lara Olson,UT,90,86.4,,33,,,150,150,F,Open,Raw,D,,,,Yes
1,Kimberly Einstein #1,NY,90+,130,,35,,,202.5,202.5,F,Open,Raw,D,,,,Yes
2,Jene Railsback,CA,90+,155.6,,28,,,187.5,187.5,F,Open,Raw,D,,,,Yes
3,Lynn Bassett,UT,90+,114.1,,53,,,142.5,142.5,F,Open,Raw,D,,,,Yes
1,Chari Hensler,UT,75,71.8,,39,,,145,145,F,Submasters 35-39,Raw,D,,,,Yes
1,Jeanie Shellman,OR,82.5,80.9,,36,,,210,210,F,Submasters 35-39,Raw,D,,,,Yes
1,Kimberly Einstein #1,NY,90+,130,,35,,,202.5,202.5,F,Submasters 35-39,Raw,D,,,,Yes
1,Shannon Paulson,CA,67.5,65,,48,,,137.5,137.5,F,Masters 45-49,Raw,D,,,,Yes
1,Sara Jones #1,CA,67.5,66.2,,51,,,155,155,F,Masters 50-54,Raw,D,,,,Yes
1,Debbie Nelson,WA,75,73.2,,53,,,137.5,137.5,F,Masters 50-54,Raw,D,,,,Yes
1,Linda Arvey,PA,82.5,80.8,,68,,,150,150,F,Masters 65-69,Raw,D,,,155,Yes
1,Lynn Bassett,UT,90+,114.1,,53,,,142.5,142.5,F,Masters 50-54,Raw,D,,,,Yes
1,Tanye Lacombe,TX,90+,117.2,,59,,,140,140,F,Masters 55-59,Raw,D,,,,Yes
1,Leon Lakhani,CA,110,106,,16,,,260,260,M,Juniors 16-17,Raw,D,,,,Yes
1,Brandon Ebersole,NV,110,110,,23,,,302.5,302.5,M,Juniors 20-23,Raw,D,,,,Yes
1,Michael Shin,CA,60,59.4,,31,,,175,175,M,Open,Raw,D,,,,Yes
DQ,Mark Lazo,CA,67.5,67,,40,,,,,M,Open,Raw,D,,,,Yes
1,Mu Tsai Fang,AL,75,74,,35,,,245,245,M,Open,Raw,D,,,,Yes
1,Alexander Phan,CA,82.5,82.4,,25,,,285,285,M,Open,Raw,D,,,,Yes
2,Sassan Khatibloo,CA,82.5,80.9,,25,,,100,100,M,Open,Raw,D,,,,Yes
1,Peter Nguyen #1,OR,90,86.5,,27,,,312.5,312.5,M,Open,Raw,D,,,,Yes
2,Corey Kelley,MD,90,89.6,,30,,,265,265,M,Open,Raw,D,,,,Yes
1,Cardell Oliver,GA,100,98.8,,40,,,317.5,317.5,M,Open,Raw,D,,,,Yes
2,Zachary Presto,PA,100,94,,25,,,260,260,M,Open,Raw,D,,,,Yes
3,Ferdinand Luis,CA,100,97.4,,32,,,187.5,187.5,M,Open,Raw,D,,,,Yes
1,Vincent Jackson,AR,110,108.9,,31,,,352.5,352.5,M,Open,Raw,D,,,,Yes
1,Aaron Luther,TX,125,122.4,,32,,,282.5,282.5,M,Open,Raw,D,,,,Yes
1,Cody Hanson #1,NM,140,135.2,,43,,,262.5,262.5,M,Open,Raw,D,,,,Yes
1,Clay Edgin,TX,140+,151.8,,38,,,277.5,277.5,M,Open,Raw,D,,,,Yes
1,Mu Tsai Fang,AL,75,74,,35,,,245,245,M,Submasters 35-39,Raw,D,,,,Yes
1,Clay Edgin,TX,140+,151.8,,38,,,277.5,277.5,M,Submasters 35-39,Raw,D,,,,Yes
2,Adam Kerrigan,NV,140+,151.9,,38,,,275,275,M,Submasters 35-39,Raw,D,,,,Yes
1,Gordon Santee,CA,60,58.6,,72,,,137.5,137.5,M,Masters 70-74,Raw,D,,,140.5,Yes
DQ,Mark Lazo,CA,67.5,67,,40,,,,,M,Masters 40-44,Raw,D,,,,Yes
1,Dean Kaneshiro,HI,67.5,67.2,,64,,,227.5,227.5,M,Masters 60-64,Raw,D,,,,Yes
1,Jim Gallagher #1,CA,75,73.2,,83,,,155,155,M,Masters 80+,Raw,D,,,,Yes
1,Jason Roberts #2,HI,82.5,82,,49,,,200,200,M,Masters 45-49,Raw,D,,,,Yes
1,Gerald Tomooka,HI,82.5,81.6,,56,,,185,185,M,Masters 55-59,Raw,D,,,190,Yes
1,Paul Hailey,OR,82.5,81.6,,82,,,135,135,M,Masters 80+,Raw,D,,,,Yes
1,David Nix,TX,90,89,,50,,,195,195,M,Masters 50-54,Raw,D,,,,Yes
1,Bob Kinsey,CA,90,84.7,,77,,,142.5,142.5,M,Masters 75-79,Raw,D,,,,Yes
1,Richard Schulze,NV,100,98.1,,53,,,200,200,M,Masters 50-54,Raw,D,,,,Yes
1,David Rohlinger,OH,110,104,,49,,,202.5,202.5,M,Masters 45-49,Raw,D,,,,Yes
1,Mark Almy,FL,110,109.2,,53,,,237.5,237.5,M,Masters 50-54,Raw,D,,,,Yes
2,Karl Davenport,CA,110,109.6,,54,,,165,165,M,Masters 50-54,Raw,D,,,,Yes
1,Steve Busch,CA,110,104.6,,66,,,205,205,M,Masters 65-69,Raw,D,,,210,Yes
1,Chris Dodson,CA,125,123.4,,54,,,230,230,M,Masters 50-54,Raw,D,,,,Yes
1,Larry Shamblin,OR,125,124,,57,,,190,190,M,Masters 55-59,Raw,D,,,,Yes
1,Jim Lovekamp,IN,125,124.5,,60,,,245,245,M,Masters 60-64,Raw,D,,,250,Yes
2,Stephen Correa,TX,125,123.2,,63,,,200,200,M,Masters 60-64,Raw,D,,,,Yes
1,David Jenkins,AZ,125,114.2,,68,,,175,175,M,Masters 65-69,Raw,D,,,,Yes
1,Cody Hanson #1,NM,140,135.2,,43,,,262.5,262.5,M,Masters 40-44,Raw,D,,,,Yes
1,Christopher Summa,LA,140+,149.8,,49,,,290,290,M,Masters 45-49,Raw,D,,,,Yes
1,Joseph Hwang,GA,67.5,66.8,,30,,,240,240,M,Open,Single-ply,D,,,245,Yes
1,James Grinstead,CA,100,99,,30,,,260,260,M,Open,Single-ply,D,,,,Yes
1,Lord Elliott,CA,125,111.8,,43,,,255,255,M,Open,Single-ply,D,,,,Yes
1,Lord Elliott,CA,125,111.8,,43,,,255,255,M,Masters 40-44,Single-ply,D,,,,Yes
1,Mike Adelmann,OR,125,115.2,,55,,,282.5,282.5,M,Masters 55-59,Single-ply,D,,,,Yes
1,Tony Rodenburg,CA,125,121,,62,,,197.5,197.5,M,Masters 60-64,Single-ply,D,,,,Yes
1,Betsy Spann,CA,67.5,67.3,,62,,,147.5,147.5,F,Open,Multi-ply,D,,,,Yes
1,Betsy Spann,CA,67.5,67.3,,62,,,147.5,147.5,F,Masters 60-64,Multi-ply,D,,,,Yes
