Division,WeightClassKg,Place,Name,Team,BodyweightKg,Best3SquatKg,Best3BenchKg,Best3DeadliftKg,TotalKg,Equipment,Event,Sex,BirthDate
Boys,51.71,1,Damien Perez,Hidalgo Early College,51.07,158.76,127.01,179.17,464.93,Unlimited,SBD,M,
Boys,51.71,2,Daniel Perez,Hidalgo Early College,50.35,163.29,122.47,172.37,458.13,Unlimited,SBD,M,
Boys,51.71,3,Christian Nas,Perryton,51.62,185.97,95.25,172.37,453.59,Unlimited,SBD,M,
Boys,51.71,4,Noah Stephens,Salado,51.71,181.44,86.18,174.63,442.25,Unlimited,SBD,M,
Boys,51.71,5,Nick Aranda,Geronimo Navarro,50.8,158.76,92.99,185.97,437.72,Unlimited,SBD,M,
Boys,51.71,6,Logan Lowrance,Sulphur Springs,51.26,154.22,115.67,165.56,435.45,Unlimited,SBD,M,
Boys,51.71,7,Arnold Lopez,Port Isabel,50.62,154.22,95.25,176.9,426.38,Unlimited,SBD,M,
Boys,51.71,8,Lucas McNeely,Monahans,50.89,154.22,108.86,161.03,424.11,Unlimited,SBD,M,
Boys,51.71,9,Cason Wilbanks,Decatur,51.44,170.1,97.52,151.95,419.57,Unlimited,SBD,M,
Boys,51.71,10,Charles Mack,Lampasas,51.62,161.03,104.33,154.22,419.57,Unlimited,SBD,M,
Boys,51.71,11,Alvaro Valdez,Hidalgo Early College,50.8,154.22,104.33,149.69,408.23,Unlimited,SBD,M,
Boys,51.71,12,Emiliano Garcia,Bishop,49.53,151.95,92.99,158.76,403.7,Unlimited,SBD,M,
Boys,51.71,13,Edgar Ramos,Perryton,50.8,158.76,97.52,147.42,403.7,Unlimited,SBD,M,
Boys,51.71,14,Brody Wyatt,Corpus Christi Calallen,50.89,147.42,92.99,163.29,403.7,Unlimited,SBD,M,
Boys,51.71,15,Mark Garcia,Pearsall,50.8,154.22,92.99,151.95,399.16,Unlimited,SBD,M,
Boys,51.71,16,Justin Tran,Sour Lake Hardin-Jefferson,50.98,151.95,92.99,147.42,392.36,Unlimited,SBD,M,
Boys,51.71,17,Joseph Garza,Wharton,51.71,140.61,90.72,149.69,381.02,Unlimited,SBD,M,
Boys,51.71,NS,Michael Arvizo,Brownsboro,,,,,,Unlimited,SBD,M,
Boys,51.71,NS,Jose Cuellar,Celina,,,,,,Unlimited,SBD,M,
Boys,51.71,DQ,Leonardo Ruiz,Hidalgo Early College,50.62,,,,,Unlimited,SBD,M,
Boys,51.71,DQ,Albert Camacho,Zapata,49.35,,,,,Unlimited,SBD,M,
Boys,55.79,1,Jonathan Becerril,Perryton,54.88,229.06,156.49,226.8,612.35,Unlimited,SBD,M,
Boys,55.79,2,Braulio Rodriguez,Nevada Community,55.34,226.8,142.88,190.51,560.19,Unlimited,SBD,M,
Boys,55.79,3,Andrew Gonzalez,Kingsville King,54.88,188.24,122.47,199.58,510.29,Unlimited,SBD,M,
Boys,55.79,4,Caleb De La Cerda,Corpus Christi Tuloso-Midway,55.79,190.51,131.54,183.7,505.76,Unlimited,SBD,M,
Boys,55.79,5,Shel Htoo,Port Lavaca Calhoun,55.07,179.17,120.2,192.78,492.15,Unlimited,SBD,M,
Boys,55.79,6,Geo Ochoa,Perryton,55.25,185.97,127.01,167.83,480.81,Unlimited,SBD,M,
Boys,55.79,7,Josh Lawrence,Dumas,55.34,188.24,106.59,181.44,476.27,Unlimited,SBD,M,
Boys,55.79,8,Caleb Johnson #10,Lumberton,54.34,185.97,108.86,174.63,469.47,Unlimited,SBD,M,
Boys,55.79,9,Ethan Packard,San Angelo Lake View,54.98,181.44,106.59,174.63,462.66,Unlimited,SBD,M,
Boys,55.79,10,Knox Wilson,Van Alstyne,54.98,183.7,104.33,165.56,453.59,Unlimited,SBD,M,
Boys,55.79,11,Dallas Anzaldua,El Campo,55.61,161.03,142.88,149.69,453.59,Unlimited,SBD,M,
Boys,55.79,12,Cody Krupala,La Grange,55.16,170.1,113.4,158.76,442.25,Unlimited,SBD,M,
Boys,55.79,13,Tanner Weaver,Orange Grove,54.79,174.63,106.59,158.76,439.98,Unlimited,SBD,M,
Boys,55.79,14,Ethan Ramsey,Brownsboro,55.07,161.03,102.06,176.9,439.98,Unlimited,SBD,M,
Boys,55.79,15,Talon Cavazos,Big Spring,55.34,145.15,99.79,188.24,433.18,Unlimited,SBD,M,
Boys,55.79,16,Kyle Robinson,Hillsboro,54.43,158.76,115.67,156.49,430.91,Unlimited,SBD,M,
Boys,55.79,17,Brayden Bradley,Bullard,54.98,176.9,92.99,161.03,430.91,Unlimited,SBD,M,
Boys,55.79,18,Evan Rodriguez,Geronimo Navarro,55.79,174.63,90.72,163.29,428.64,Unlimited,SBD,M,
Boys,55.79,19,Christian Sein,Marble Falls,54.88,158.76,95.25,170.1,424.11,Unlimited,SBD,M,
Boys,55.79,20,Josue Soto,Nevada Community,54.7,149.69,111.13,156.49,417.3,Unlimited,SBD,M,
Boys,55.79,DQ,Connor Rackley,Corpus Christi Calallen,55.07,,,,,Unlimited,SBD,M,
Boys,55.79,DQ,Vicente Azuara,Port Isabel,55.79,,,,,Unlimited,SBD,M,
Boys,59.87,1,Tristian Davila,Corpus Christi Tuloso-Midway,58.6,258.55,176.9,233.6,669.05,Unlimited,SBD,M,
Boys,59.87,2,Angel Flores,Perryton,59.15,249.48,156.49,226.8,632.76,Unlimited,SBD,M,
Boys,59.87,3,Sammy Ronje,Bishop,58.97,219.99,138.35,215.46,573.79,Unlimited,SBD,M,
Boys,59.87,4,Luis Fuentes,Hillsboro,58.79,213.19,111.13,208.65,532.97,Unlimited,SBD,M,
Boys,59.87,5,Tre Galvan,Bishop,59.69,210.92,111.13,206.38,528.44,Unlimited,SBD,M,
Boys,59.87,6,Nguyen Tran,Hillsboro,58.88,206.38,117.93,197.31,521.63,Unlimited,SBD,M,
Boys,59.87,7,Adan Lopez,Marble Falls,57.97,192.78,106.59,217.72,517.1,Unlimited,SBD,M,
Boys,59.87,8,Ashton Evans,Geronimo Navarro,57.42,195.04,124.74,192.78,512.56,Unlimited,SBD,M,
Boys,59.87,9,Cristian Phillips,Van Alstyne,58.51,197.31,120.2,181.44,498.95,Unlimited,SBD,M,
Boys,59.87,10,Conner Bakken,Farmersville,59.33,204.12,106.59,183.7,494.42,Unlimited,SBD,M,
Boys,59.87,11,Carlos Parra,Dumas,59.6,190.51,102.06,199.58,492.15,Unlimited,SBD,M,
Boys,59.87,12,Kaden Erskine,Burkburnett,58.51,188.24,99.79,181.44,469.47,Unlimited,SBD,M,
Boys,59.87,13,Cristobal Torres,Sulphur Springs,59.06,174.63,102.06,183.7,460.4,Unlimited,SBD,M,
Boys,59.87,14,Dalton Laxson,Huffman Hargrave,58.15,190.51,111.13,156.49,458.13,Unlimited,SBD,M,
Boys,59.87,15,Parker Bening,Springtown,59.6,170.1,117.93,165.56,453.59,Unlimited,SBD,M,
Boys,59.87,16,Robert Crawford,Brownsboro,57.97,165.56,90.72,181.44,437.72,Unlimited,SBD,M,
Boys,59.87,NS,Christopher Lowe,San Antonio Kennedy,,,,,,Unlimited,SBD,M,
Boys,59.87,DQ,Adrian Avalos,Snyder,57.42,206.38,136.08,,,Unlimited,SBD,M,
Boys,67.13,1,Jessiah Barr,Gonzales,67.09,260.82,167.83,260.82,689.46,Unlimited,SBD,M,
Boys,67.13,2,Pj Brown,Alice,66.22,269.89,176.9,240.4,687.19,Unlimited,SBD,M,
Boys,67.13,3,Gabriel Garza,Robstown,66.86,258.55,170.1,235.87,664.51,Unlimited,SBD,M,
Boys,67.13,4,Evan Rodgers,Celina,65.95,249.48,172.37,219.99,641.83,Unlimited,SBD,M,
Boys,67.13,5,Jada Andrews,Bay City,66.22,244.94,158.76,238.14,641.83,Unlimited,SBD,M,
Boys,67.13,6,Landen Longoria,Sinton,64.59,254.01,147.42,238.14,639.57,Unlimited,SBD,M,
Boys,67.13,7,Gabe Rangel,Geronimo Navarro,66.04,244.94,156.49,229.06,630.49,Unlimited,SBD,M,
Boys,67.13,8,Aaron Arredondo,Marble Falls,63.68,242.67,165.56,219.99,628.23,Unlimited,SBD,M,
Boys,67.13,9,Alejandro Flores,Snyder,63.68,244.94,147.42,217.72,610.08,Unlimited,SBD,M,
Boys,67.13,10,Gilbert Perez,Corpus Christi Tuloso-Midway,65.86,224.53,154.22,231.33,610.08,Unlimited,SBD,M,
Boys,67.13,11,Traey Alvarado,Rockport-Fulton,66.68,240.4,142.88,226.8,610.08,Unlimited,SBD,M,
Boys,67.13,12,Rafe McComack,Farmersville,63.78,226.8,165.56,215.46,607.81,Unlimited,SBD,M,
Boys,67.13,13,Chris Veloz,Zapata,65.86,229.06,147.42,229.06,605.55,Unlimited,SBD,M,
Boys,67.13,14,Roman Martinez,Pleasanton,66.32,226.8,142.88,224.53,594.21,Unlimited,SBD,M,
Boys,67.13,15,Tj Coker,Lumberton,66.41,213.19,165.56,215.46,594.21,Unlimited,SBD,M,
Boys,67.13,16,Chandler Tran,Snyder,66.22,226.8,136.08,226.8,589.67,Unlimited,SBD,M,
Boys,67.13,17,Roel Gonzalez,Alice,66.32,226.8,136.08,222.26,585.13,Unlimited,SBD,M,
Boys,67.13,18,Jaiden Gutierrez,Corpus Christi Tuloso-Midway,66.22,226.8,138.35,215.46,580.6,Unlimited,SBD,M,
Boys,67.13,19,Joseph Salazar,Zapata,66.22,201.85,117.93,244.94,564.72,Unlimited,SBD,M,
Boys,67.13,20,Korbin Benes,Geronimo Navarro,63.96,208.65,120.2,226.8,555.65,Unlimited,SBD,M,
Boys,67.13,21,Fabian Espino,Perryton,66.04,224.53,120.2,206.38,551.11,Unlimited,SBD,M,
Boys,67.13,22,Lukas Harbour,Lindale,66.04,208.65,149.69,190.51,548.85,Unlimited,SBD,M,
Boys,67.13,23,Garrett Maddox,China Spring,64.77,185.97,140.61,204.12,530.7,Unlimited,SBD,M,
Boys,67.13,NS,Zykeelan Hadnot,Jasper,,,,,,Unlimited,SBD,M,
Boys,67.13,DQ,Atavian Ector,Gilmer,66.32,260.82,117.93,,,Unlimited,SBD,M,
Boys,74.84,1,Josiah Lugo,Somerset,73.75,317.51,201.85,240.4,759.77,Unlimited,SBD,M,
Boys,74.84,2,Javier Martinez #15,Perryton,74.3,299.37,176.9,263.08,739.36,Unlimited,SBD,M,
Boys,74.84,3,Kingston Martinez,Pearsall,74.84,272.16,188.24,267.62,728.02,Unlimited,SBD,M,
Boys,74.84,4,Merq Saiz,Andrews,74.84,258.55,183.7,258.55,700.8,Unlimited,SBD,M,
Boys,74.84,5,Aidan Garcia,El Campo,74.03,258.55,183.7,249.48,691.73,Unlimited,SBD,M,
Boys,74.84,6,Joaquin Soliz,Corpus Christi Calallen,74.48,260.82,179.17,249.48,689.46,Unlimited,SBD,M,
Boys,74.84,7,Mathew Elson,Comal Canyon Lake,74.75,272.16,183.7,229.06,684.92,Unlimited,SBD,M,
Boys,74.84,8,Nik Garza,Alice,74.03,278.96,176.9,226.8,682.66,Unlimited,SBD,M,
Boys,74.84,9,Lj Hall,Gatesville,72.48,226.8,199.58,240.4,666.78,Unlimited,SBD,M,
Boys,74.84,10,Kaiden Welch,Vidor,73.48,254.01,167.83,235.87,657.71,Unlimited,SBD,M,
Boys,74.84,11,Kaden Deleon,Gonzales,74.12,249.48,190.51,217.72,657.71,Unlimited,SBD,M,
Boys,74.84,12,Andres Espinosa,Splendora,73.39,260.82,170.1,217.72,648.64,Unlimited,SBD,M,
Boys,74.84,13,Angel Guerrero,Port Lavaca Calhoun,73.94,244.94,138.35,260.82,644.1,Unlimited,SBD,M,
Boys,74.84,14,Ty Cox,Sour Lake Hardin-Jefferson,74.03,249.48,185.97,206.38,641.83,Unlimited,SBD,M,
Boys,74.84,15,Aiden Galvan,Sinton,72.57,258.55,158.76,222.26,639.57,Unlimited,SBD,M,
Boys,74.84,16,Ricardo Rodriguez,Corpus Christi Calallen,73.03,254.01,149.69,235.87,639.57,Unlimited,SBD,M,
Boys,74.84,17,Aaron Freyer,Aubrey,73.21,265.35,156.49,215.46,637.3,Unlimited,SBD,M,
Boys,74.84,18,Brady Rygaard,Burnet,73.89,235.87,165.56,233.6,635.03,Unlimited,SBD,M,
Boys,74.84,19,Oliver Garcia,Dumas,73.3,265.35,124.74,235.87,625.96,Unlimited,SBD,M,
Boys,74.84,20,AJ Vasquez,Floresville,71.21,240.4,163.29,219.99,623.69,Unlimited,SBD,M,
Boys,74.84,21,Aaron Westbrook,Lumberton,73.21,231.33,138.35,249.48,619.15,Unlimited,SBD,M,
Boys,74.84,22,Jaden Cantu,Corpus Christi Calallen,73.75,244.94,183.7,188.24,616.89,Unlimited,SBD,M,
Boys,74.84,23,Chris Loma,Decatur,73.66,233.6,158.76,222.26,614.62,Unlimited,SBD,M,
Boys,74.84,24,Noah Kiser,Corpus Christi Tuloso-Midway,73.94,238.14,151.95,224.53,614.62,Unlimited,SBD,M,
Boys,74.84,25,Zion Sanders,Bay City,73.21,238.14,142.88,231.33,612.35,Unlimited,SBD,M,
Boys,74.84,26,Daniel Castaneda,Athens,73.39,235.87,138.35,233.6,607.81,Unlimited,SBD,M,
Boys,74.84,27,Fernando Vega,Corpus Christi West Oso,73.21,215.46,183.7,206.38,605.55,Unlimited,SBD,M,
Boys,74.84,28,Braeden Packard,San Angelo Lake View,71.67,226.8,142.88,219.99,589.67,Unlimited,SBD,M,
Boys,74.84,29,Haidyn Jones,Krum,72.3,240.4,136.08,195.04,571.53,Unlimited,SBD,M,
Boys,74.84,30,Tucker McClanahan,Sanger,73.48,219.99,131.54,219.99,571.53,Unlimited,SBD,M,
Boys,74.84,DQ,Andy Rico,Port Lavaca Calhoun,71.49,235.87,158.76,,,Unlimited,SBD,M,
Boys,74.84,DQ,Martin Camargo,Henderson,74.12,213.19,111.13,,,Unlimited,SBD,M,
Boys,82.1,1,Lucian Medina,Corpus Christi Calallen,81.19,310.71,233.6,274.42,818.73,Unlimited,SBD,M,
Boys,82.1,2,Kai Janice,La Marque,80.56,310.71,210.92,265.35,786.98,Unlimited,SBD,M,
Boys,82.1,3,Ian Cortez,San Angelo Lake View,77.84,265.35,199.58,244.94,709.87,Unlimited,SBD,M,
Boys,82.1,4,Kaleb Tate,Henderson,79.74,267.62,172.37,258.55,698.53,Unlimited,SBD,M,
Boys,82.1,5,Matthew Rodriguez,Corpus Christi Tuloso-Midway,77.93,272.16,165.56,249.48,687.19,Unlimited,SBD,M,
Boys,82.1,6,Israel Reyes,Devine,80.47,272.16,174.63,240.4,687.19,Unlimited,SBD,M,
Boys,82.1,7,Frank Munguia,Corpus Christi Tuloso-Midway,80.92,278.96,183.7,224.53,687.19,Unlimited,SBD,M,
Boys,82.1,8,Trevor Dykes,Port Lavaca Calhoun,76.38,265.35,154.22,258.55,678.12,Unlimited,SBD,M,
Boys,82.1,9,Gilbert Rios,Robstown,79.11,265.35,183.7,229.06,678.12,Unlimited,SBD,M,
Boys,82.1,10,Aaron Barrera,Port Isabel,80.47,263.08,181.44,226.8,671.32,Unlimited,SBD,M,
Boys,82.1,11,Chayse Mrazek,Bishop,79.83,254.01,165.56,242.67,662.24,Unlimited,SBD,M,
Boys,82.1,12,Chase Hodges,Celina,80.38,249.48,179.17,233.6,662.24,Unlimited,SBD,M,
Boys,82.1,13,Hunter Keith,Lumberton,80.47,249.48,181.44,219.99,650.91,Unlimited,SBD,M,
Boys,82.1,14,Drayven Patton,Canyon Randall,81.56,285.76,142.88,219.99,648.64,Unlimited,SBD,M,
Boys,82.1,15,Jeremiah Orosco,Snyder,80.38,272.16,161.03,210.92,644.1,Unlimited,SBD,M,
Boys,82.1,16,Nick Schwarzlose,Geronimo Navarro,79.65,242.67,163.29,226.8,632.76,Unlimited,SBD,M,
Boys,82.1,17,Johnathan Donahue,Decatur,80.01,249.48,176.9,204.12,630.49,Unlimited,SBD,M,
Boys,82.1,18,Armando DeLeon,Alice,79.74,235.87,165.56,217.72,619.15,Unlimited,SBD,M,
Boys,82.1,19,Jake Pack,Stephenville,80.47,233.6,151.95,226.8,612.35,Unlimited,SBD,M,
Boys,82.1,20,Miles Miller,Lindale,81.19,242.67,158.76,210.92,612.35,Unlimited,SBD,M,
Boys,82.1,21,Easton Stapleton,Lumberton,82.01,226.8,138.35,247.21,612.35,Unlimited,SBD,M,
Boys,82.1,22,Devin Hill,Waco La Vega,81.47,224.53,156.49,229.06,610.08,Unlimited,SBD,M,
Boys,82.1,23,Andres Martinez,Sour Lake Hardin-Jefferson,76.66,215.46,154.22,233.6,603.28,Unlimited,SBD,M,
Boys,82.1,24,Blake White,Quinlan Ford,80.56,215.46,136.08,226.8,578.33,Unlimited,SBD,M,
Boys,82.1,25,Brandt Whitlow,Taylor,79.47,222.26,124.74,222.26,569.26,Unlimited,SBD,M,
Boys,82.1,NS,Michael Hill,Freeport Brazosport,,,,,,Unlimited,SBD,M,
Boys,82.1,DQ,Jason Zheng,Brownwood,81.19,238.14,,,,Unlimited,SBD,M,
Boys,82.1,DQ,Toby Davis,Aubrey,77.56,285.76,138.35,,,Unlimited,SBD,M,
Boys,89.81,1,Xavier Lopez,Marble Falls,83.19,322.05,165.56,322.05,809.66,Unlimited,SBD,M,
Boys,89.81,2,Ryne Espinoza,Beeville Jones,86.45,310.71,199.58,249.48,759.77,Unlimited,SBD,M,
Boys,89.81,3,Le Davis,Brownwood,89.09,317.51,188.24,238.14,743.89,Unlimited,SBD,M,
Boys,89.81,4,Dalton L'Esperance,Perryton,89.09,292.57,183.7,242.67,718.94,Unlimited,SBD,M,
Boys,89.81,5,Beaux Cox,Huffman Hargrave,83.01,272.16,172.37,254.01,698.53,Unlimited,SBD,M,
Boys,89.81,6,Hunter Gaines,Rockport-Fulton,84.19,283.5,176.9,231.33,691.73,Unlimited,SBD,M,
Boys,89.81,7,Christian Mack,Waxahachie Life,86.55,256.28,170.1,265.35,691.73,Unlimited,SBD,M,
Boys,89.81,8,Noah Escandon,Marble Falls,85.37,265.35,183.7,238.14,687.19,Unlimited,SBD,M,
Boys,89.81,9,Bernardo Bernabe,San Antonio Kennedy,88.36,272.16,165.56,244.94,682.66,Unlimited,SBD,M,
Boys,89.81,10,Dominic Garcia,Lago Vista,87.18,260.82,154.22,263.08,678.12,Unlimited,SBD,M,
Boys,89.81,11,Kade Alston,Rockport-Fulton,89.09,265.35,167.83,242.67,675.85,Unlimited,SBD,M,
Boys,89.81,12,Michael Guajardo,Corpus Christi Tuloso-Midway,88.18,265.35,170.1,238.14,673.58,Unlimited,SBD,M,
Boys,89.81,13,Jeremiah Jones,Waco La Vega,88.27,272.16,174.63,226.8,673.58,Unlimited,SBD,M,
Boys,89.81,14,Josue Garcia,Marble Falls,87.82,238.14,204.12,226.8,669.05,Unlimited,SBD,M,
Boys,89.81,15,Gavyn Goode,Lumberton,89.36,249.48,172.37,244.94,666.78,Unlimited,SBD,M,
Boys,89.81,16,Homero Tovar,Raymondville,89.81,269.89,142.88,254.01,666.78,Unlimited,SBD,M,
Boys,89.81,17,Chuy Vasquez,Uvalde,85.64,258.55,167.83,238.14,664.51,Unlimited,SBD,M,
Boys,89.81,18,Tyson Valenzuela,Andrews,87.54,244.94,172.37,247.21,664.51,Unlimited,SBD,M,
Boys,89.81,19,Cayden Royal,Bullard,88.81,278.96,170.1,215.46,664.51,Unlimited,SBD,M,
Boys,89.81,20,Matt Richardson,Geronimo Navarro,87.82,258.55,167.83,233.6,659.98,Unlimited,SBD,M,
Boys,89.81,21,Blaine Allen,Sulphur Springs,88.72,235.87,167.83,256.28,659.98,Unlimited,SBD,M,
Boys,89.81,22,Colbey Solis,Taylor,87.45,278.96,149.69,222.26,650.91,Unlimited,SBD,M,
Boys,89.81,23,Sean Quintanilla,Corpus Christi Tuloso-Midway,87.27,278.96,142.88,226.8,648.64,Unlimited,SBD,M,
Boys,89.81,24,Noah Baxter,Smithville,88.36,244.94,142.88,260.82,648.64,Unlimited,SBD,M,
Boys,89.81,25,Elvis Carrera,Ferris,88.45,249.48,170.1,226.8,646.37,Unlimited,SBD,M,
Boys,89.81,26,Luke Stacy,Stephenville,86.18,247.21,179.17,210.92,637.3,Unlimited,SBD,M,
Boys,89.81,27,Tristian Luna,Corpus Christi Calallen,86.45,251.74,147.42,238.14,637.3,Unlimited,SBD,M,
Boys,89.81,28,Reese Saunders,Aubrey,86.73,247.21,156.49,233.6,637.3,Unlimited,SBD,M,
Boys,89.81,29,Gabriel Bruno,La Feria,88.09,256.28,161.03,219.99,637.3,Unlimited,SBD,M,
Boys,89.81,30,Mack Berry,Geronimo Navarro,87.27,229.06,154.22,251.74,635.03,Unlimited,SBD,M,
Boys,89.81,31,Harrison Prater,Lindale,86,222.26,192.78,204.12,619.15,Unlimited,SBD,M,
Boys,89.81,DQ,Kanoa Kau,Burkburnett,87.54,244.94,,,,Unlimited,SBD,M,
Boys,89.81,DQ,Makeio McKenzie,Fort Worth Eastern Hills,88.9,,,,,Unlimited,SBD,M,
Boys,89.81,DQ,Andrew Martinez,Andrews,85.46,235.87,154.22,,,Unlimited,SBD,M,
Boys,89.81,DQ,Justin Stephens,Stephenville,85.82,222.26,151.95,,,Unlimited,SBD,M,
Boys,99.79,1,Riley Marlow,Vidor,93.35,317.51,213.19,281.23,811.93,Unlimited,SBD,M,
Boys,99.79,2,Jonathan Cerda,Raymondville,91.99,310.71,215.46,247.21,773.37,Unlimited,SBD,M,
Boys,99.79,3,Diego Capetillo,Farmersville,96.25,308.44,192.78,265.35,766.57,Unlimited,SBD,M,
Boys,99.79,4,Cory Richardson,Bellville,99.79,297.1,190.51,274.42,762.04,Unlimited,SBD,M,
Boys,99.79,5,Hunter Brewster,Needville,96.8,288.03,197.31,260.82,746.16,Unlimited,SBD,M,
Boys,99.79,6,Rodolfo Delgado,Perryton,93.08,290.3,215.46,238.14,743.89,Unlimited,SBD,M,
Boys,99.79,7,Daniel Arellano,Floresville,94.62,292.57,195.04,256.28,743.89,Unlimited,SBD,M,
Boys,99.79,8,Adrian Estrada,Rockport-Fulton,97.7,283.5,172.37,260.82,716.68,Unlimited,SBD,M,
Boys,99.79,9,Christian Torres,Raymondville,98.79,299.37,183.7,226.8,709.87,Unlimited,SBD,M,
Boys,99.79,10,Brodie Aylor,Bullard,94.17,281.23,188.24,238.14,707.6,Unlimited,SBD,M,
Boys,99.79,11,Anthony Rodriguez,Comal Davenport,98.16,256.28,181.44,254.01,691.73,Unlimited,SBD,M,
Boys,99.79,12,Keltyn Raymond,Glen Rose,99.16,260.82,181.44,249.48,691.73,Unlimited,SBD,M,
Boys,99.79,13,Ram Cantu,Alice,97.16,272.16,185.97,226.8,684.92,Unlimited,SBD,M,
Boys,99.79,14,Miguel Silva,Carrizo Springs,96.98,263.08,179.17,238.14,680.39,Unlimited,SBD,M,
Boys,99.79,15,Mynor Flores,Marble Falls,97.07,299.37,158.76,219.99,678.12,Unlimited,SBD,M,
Boys,99.79,16,Marco Hernandez,Needville,97.07,260.82,163.29,249.48,673.58,Unlimited,SBD,M,
Boys,99.79,17,Chris Borja,Smithville,97.7,249.48,183.7,238.14,671.32,Unlimited,SBD,M,
Boys,99.79,18,Hector Lozoya,Andrews,95.25,267.62,179.17,222.26,669.05,Unlimited,SBD,M,
Boys,99.79,19,Gunner Johnson,Lindale,97.79,242.67,204.12,222.26,669.05,Unlimited,SBD,M,
Boys,99.79,20,Nicolas Debo,El Campo,96.43,240.4,185.97,240.4,666.78,Unlimited,SBD,M,
Boys,99.79,21,Zavian Quiroga,Dumas,98.07,247.21,179.17,240.4,666.78,Unlimited,SBD,M,
Boys,99.79,22,Marc Calderon,Ferris,95.35,254.01,170.1,238.14,662.24,Unlimited,SBD,M,
Boys,99.79,23,Jesse Sanchez,Sweeny,97.89,260.82,158.76,238.14,657.71,Unlimited,SBD,M,
Boys,99.79,24,Talan Ferguson,Longview Spring Hill,96.98,258.55,201.85,190.51,650.91,Unlimited,SBD,M,
Boys,99.79,25,James Isaacson,Lubbock Trinity Christian Schools,98.16,256.28,179.17,215.46,650.91,Unlimited,SBD,M,
Boys,99.79,NS,Adrian Reza,Midland Greenwood,,,,,,Unlimited,SBD,M,
Boys,99.79,NS,Armondo Mendez,Celina,,,,,,Unlimited,SBD,M,
Boys,99.79,DQ,Carson Maddox,Wills Point,97.79,,,,,Unlimited,SBD,M,
Boys,99.79,DQ,Zeke Palestina,Port Isabel,98.52,,,,,Unlimited,SBD,M,
Boys,99.79,DQ,Taydrick Dawson,Paris,99.7,265.35,,,,Unlimited,SBD,M,
Boys,99.79,DQ,Sal Sanchez,Somerset,99.79,,,,,Unlimited,SBD,M,
Boys,99.79,DQ,Hayden Nichols,Springtown,96.16,,,,,Unlimited,SBD,M,
Boys,99.79,DQ,Cj Hubbard,Celina,96.43,251.74,183.7,,,Unlimited,SBD,M,
Boys,99.79,DQ,Richard Rubio,Corpus Christi Calallen,98.79,,,,,Unlimited,SBD,M,
Boys,99.79,DQ,Marcos Acosta,Corpus Christi Calallen,95.98,258.55,,,,Unlimited,SBD,M,
Boys,109.77,1,Randi Pedraza,Raymondville,105.32,365.14,226.8,294.84,886.77,Unlimited,SBD,M,
Boys,109.77,2,Cayetano Vidaurri,Beeville Jones,107.05,356.07,229.06,263.08,848.22,Unlimited,SBD,M,
Boys,109.77,3,Keegan Ireland,Dumas,108.32,349.27,219.99,278.96,848.22,Unlimited,SBD,M,
Boys,109.77,4,Wyatt Vinzant,Decatur,109.63,317.51,217.72,265.35,800.59,Unlimited,SBD,M,
Boys,109.77,5,Cole Miller,Brownwood,107.68,306.17,197.31,281.23,784.71,Unlimited,SBD,M,
Boys,109.77,6,Sebastian Aguilar,Pleasanton,108.32,285.76,183.7,272.16,741.62,Unlimited,SBD,M,
Boys,109.77,7,Fabian Saenz,Corpus Christi Calallen,106.5,317.51,183.7,235.87,737.09,Unlimited,SBD,M,
Boys,109.77,8,Caden Stockdale,Smithville,104.24,272.16,188.24,265.35,725.75,Unlimited,SBD,M,
Boys,109.77,9,Chance Risner,Navasota,107.23,288.03,190.51,247.21,725.75,Unlimited,SBD,M,
Boys,109.77,10,Carlos Cabrera,Port Isabel,109.5,297.1,213.19,206.38,716.68,Unlimited,SBD,M,
Boys,109.77,11,Jose Solorzano,Marble Falls,101.79,306.17,176.9,226.8,709.87,Unlimited,SBD,M,
Boys,109.77,12,Brandon Lopez,Rio Grande City Grulla,107.77,283.5,197.31,226.8,707.6,Unlimited,SBD,M,
Boys,109.77,13,Neo Thomas,Bullard,108.05,272.16,185.97,249.48,707.6,Unlimited,SBD,M,
Boys,109.77,14,Camdyn Phillips,El Campo,101.6,272.16,190.51,226.8,689.46,Unlimited,SBD,M,
Boys,109.77,15,Andrew Torres,Carrizo Springs,102.87,283.5,176.9,226.8,687.19,Unlimited,SBD,M,
Boys,109.77,16,Seth Barnes,Orange Grove,108.23,260.82,197.31,219.99,678.12,Unlimited,SBD,M,
Boys,109.77,17,Isaiah Padilla,Borger,108.77,267.62,195.04,208.65,671.32,Unlimited,SBD,M,
Boys,109.77,18,Isaiah Collins,Tyler Chapel Hill,108,240.4,176.9,235.87,653.17,Unlimited,SBD,M,
Boys,109.77,DQ,Mario Nava,Port Isabel,106.59,308.44,197.31,,,Unlimited,SBD,M,
Boys,109.77,DQ,Stephen Norman,El Campo,102.6,249.48,145.15,,,Unlimited,SBD,M,
Boys,109.77,DQ,Josh McAlister,Henderson,107.5,274.42,229.06,,,Unlimited,SBD,M,
Boys,124.74,1,Aiden Hinojosa,Corpus Christi Calallen,117.84,399.16,283.5,276.69,959.35,Unlimited,SBD,M,
Boys,124.74,2,Isaih Montoya,Andrews,122.2,335.66,233.6,254.01,823.27,Unlimited,SBD,M,
Boys,124.74,3,Jovanni Aguilar,Alvarado,123.92,331.12,208.65,235.87,775.64,Unlimited,SBD,M,
Boys,124.74,4,Arnulfo Puga,Beeville Jones,122.92,317.51,197.31,249.48,764.3,Unlimited,SBD,M,
Boys,124.74,5,Carlos Trevino,Robstown,121.56,303.91,210.92,247.21,762.04,Unlimited,SBD,M,
Boys,124.74,6,Landon Holub,Gonzales,123.01,322.05,210.92,224.53,757.5,Unlimited,SBD,M,
Boys,124.74,7,Alyric Brown,Sunnyvale,122.47,306.17,165.56,272.16,743.89,Unlimited,SBD,M,
Boys,124.74,8,Garrett Dalton,Midland Greenwood,124.56,335.66,197.31,210.92,743.89,Unlimited,SBD,M,
Boys,124.74,9,Jakob Pesina,Bay City,117.12,288.03,201.85,251.74,741.62,Unlimited,SBD,M,
Boys,124.74,10,Diego Valdez,Pleasanton,122.47,265.35,219.99,256.28,741.62,Unlimited,SBD,M,
Boys,124.74,11,Pablo Cerda,Tyler Chapel Hill,119.88,292.57,213.19,229.06,734.82,Unlimited,SBD,M,
Boys,124.74,12,Alfred Valdez,Wichita Falls Hirschi,121.56,317.51,149.69,260.82,728.02,Unlimited,SBD,M,
Boys,124.74,13,Raphael Foy,Jacksonville,121.83,272.16,172.37,278.96,723.48,Unlimited,SBD,M,
Boys,124.74,14,Jeremiah Smith,Paris,123.56,254.01,199.58,265.35,718.94,Unlimited,SBD,M,
Boys,124.74,15,Kaden Kemp,China Spring,120.38,249.48,244.94,222.26,716.68,Unlimited,SBD,M,
Boys,124.74,16,Tate Gustavus,Needville,121.38,283.5,183.7,242.67,709.87,Unlimited,SBD,M,
Boys,124.74,17,Manuel Hinojosa,Ingleside,120.93,288.03,183.7,235.87,707.6,Unlimited,SBD,M,
Boys,124.74,18,Andrew Murillo,Pleasanton,117.84,276.69,215.46,201.85,694,Unlimited,SBD,M,
Boys,124.74,19,Dyllan Drummond,Tyler Chapel Hill,122.06,244.94,204.12,219.99,669.05,Unlimited,SBD,M,
Boys,124.74,20,Kade Sundheim,Godley,118.52,244.94,183.7,233.6,662.24,Unlimited,SBD,M,
Boys,139.71,1,Eythan Thompson,Waco La Vega,138.98,328.85,242.67,285.76,857.29,Unlimited,SBD,M,
Boys,139.71,2,Benjamin Oyervides,Robstown,136.26,328.85,226.8,258.55,814.2,Unlimited,SBD,M,
Boys,139.71,3,Grayden Spencer,Lumberton,126.46,317.51,206.38,285.76,809.66,Unlimited,SBD,M,
Boys,139.71,4,Omar Borjon,Gonzales,132.72,317.51,242.67,240.4,800.59,Unlimited,SBD,M,
Boys,139.71,5,Evan Guardiola,Pleasanton,131.81,328.85,206.38,254.01,789.25,Unlimited,SBD,M,
Boys,139.71,6,Kevin Ramirez,Giddings,136.8,306.17,233.6,247.21,786.98,Unlimited,SBD,M,
Boys,139.71,7,Ernest Alderete,Taylor,131.54,324.32,226.8,226.8,777.91,Unlimited,SBD,M,
Boys,139.71,8,Nick Lejeune,Bridge City,129,317.51,190.51,263.08,771.11,Unlimited,SBD,M,
Boys,139.71,9,Exodus Acevedo,Floresville,132,317.51,185.97,267.62,771.11,Unlimited,SBD,M,
Boys,139.71,10,Carson Phelps,Orange Little Cypress-Mauriceville,135.62,294.84,213.19,249.48,757.5,Unlimited,SBD,M,
Boys,139.71,11,Cristobal Ortega,La Feria,137.26,310.71,195.04,249.48,755.23,Unlimited,SBD,M,
Boys,139.71,12,Bryan Sanchez,Quinlan Ford,135.81,308.44,204.12,238.14,750.7,Unlimited,SBD,M,
Boys,139.71,13,Joe Hernandez,Corpus Christi West Oso,133.45,272.16,222.26,226.8,721.21,Unlimited,SBD,M,
Boys,139.71,14,Joey Alvarez,Andrews,134.99,278.96,181.44,256.28,716.68,Unlimited,SBD,M,
Boys,139.71,15,Vic Blancas,Athens,132.99,306.17,185.97,206.38,698.53,Unlimited,SBD,M,
Boys,139.71,16,Mark Vasquez,Farmersville,127.64,258.55,172.37,229.06,659.98,Unlimited,SBD,M,
Boys,139.71,17,Damian Benavidez,Canyon West Plains,132.45,260.82,174.63,215.46,650.91,Unlimited,SBD,M,
Boys,139.71,DQ,Brock Johnson,Henderson,136.17,349.27,201.85,,,Unlimited,SBD,M,
Boys,139.71+,1,Javier Adams,Somerset,159.3,317.51,224.53,299.37,841.41,Unlimited,SBD,M,
Boys,139.71+,2,Miggy Saenz,Alice,143.79,337.93,217.72,267.62,823.27,Unlimited,SBD,M,
Boys,139.71+,3,Zach Bryant,Gatesville,145.6,324.32,226.8,263.08,814.2,Unlimited,SBD,M,
Boys,139.71+,4,Alonzo Tijerina,Kaufman,144.06,344.73,201.85,242.67,789.25,Unlimited,SBD,M,
Boys,139.71+,5,Abel Lopez,Sweetwater,179.53,288.03,240.4,238.14,766.57,Unlimited,SBD,M,
Boys,139.71+,6,Manny Segundo,Celina,148.05,306.17,192.78,254.01,752.96,Unlimited,SBD,M,
Boys,139.71+,7,John Bateman,Henderson,173.45,317.51,181.44,249.48,748.43,Unlimited,SBD,M,
Boys,139.71+,8,Artemio Herrera,Port Lavaca Calhoun,160.03,283.5,204.12,233.6,721.21,Unlimited,SBD,M,
Boys,139.71+,9,Jha'quavion Johnson,Waco La Vega,149.78,281.23,172.37,226.8,680.39,Unlimited,SBD,M,
Boys,139.71+,10,Jaycob Gonzales,West Columbia,139.89,249.48,161.03,197.31,607.81,Unlimited,SBD,M,
Boys,139.71+,DQ,Aric Long,Lake Worth,145.06,,,,,Unlimited,SBD,M,
Boys,139.71+,DQ,Elliott Adams,West Orange-Stark,157.67,294.84,149.69,,,Unlimited,SBD,M,
Boys,139.71+,DQ,Juan Alvarez,Perryton,148.6,306.17,,,,Unlimited,SBD,M,
