Division,WeightClassKg,Place,Name,Team,BodyweightKg,Best3SquatKg,Best3BenchKg,Best3DeadliftKg,TotalKg,Equipment,Event,Sex,BirthDate
Boys,51.71,1,Robert Garcia,Crystal City,51.26,115.67,77.11,145.15,337.93,Unlimited,SBD,M,
Boys,51.71,2,Marcos Sanchéz #2,San Antonio East Central,50.35,124.74,74.84,129.27,328.85,Unlimited,SBD,M,
Boys,51.71,3,Jaxon Anderson,Castroville Medina Valley,50.71,131.54,63.5,127.01,322.05,Unlimited,SBD,M,
Boys,51.71,4,Ricky Medina,Somerset,51.35,127.01,70.31,122.47,319.78,Unlimited,SBD,M,
Boys,51.71,5,Ryan Lopez,Comal Pieper,48.08,115.67,61.23,124.74,301.64,Unlimited,SBD,M,
Boys,51.71,6,Chase Jensen,Buda Johnson,45.63,95.25,65.77,86.18,247.21,Unlimited,SBD,M,
Boys,51.71,7,Jakob Mendoza,Del Rio,45.18,77.11,40.82,81.65,199.58,Unlimited,SBD,M,
Boys,55.79,1,Ethaniel Avila,San Antonio East Central,55.57,183.7,113.4,161.03,458.13,Unlimited,SBD,M,
Boys,55.79,2,Tadeo Talavera,Del Rio,54.52,161.03,104.33,147.42,412.77,Unlimited,SBD,M,
Boys,55.79,3,Joshua Ramirez,Somerset,55.25,158.76,74.84,165.56,399.16,Unlimited,SBD,M,
Boys,55.79,4,Jesse Cardenas,San Antonio East Central,54.79,142.88,74.84,133.81,351.53,Unlimited,SBD,M,
Boys,55.79,5,Gabe Cheatum,Universal City Randolph,55.79,113.4,72.57,147.42,333.39,Unlimited,SBD,M,
Boys,55.79,6,Jack Trevino,Comal Pieper,55.61,127.01,58.97,124.74,310.71,Unlimited,SBD,M,
Boys,55.79,7,Wayne Jones,Universal City Randolph,55.52,106.59,81.65,115.67,303.91,Unlimited,SBD,M,
Boys,55.79,8,Zachary Goodin,Bandera,55.07,115.67,52.16,111.13,278.96,Unlimited,SBD,M,
Boys,55.79,9,Lane Holcomb,Buda Johnson,52.8,83.91,49.9,90.72,224.53,Unlimited,SBD,M,
Boys,59.87,1,Adrian Zavala,Crystal City,59.42,195.04,102.06,188.24,485.34,Unlimited,SBD,M,
Boys,59.87,2,Sonny Imming,Somerset,59.15,158.76,113.4,165.56,437.72,Unlimited,SBD,M,
Boys,59.87,DQ,Elyjah Estrada-Nelson,Somerset Brooks Academy,59.69,122.47,,,,Unlimited,SBD,M,
Boys,59.87,DQ,Brody Vigil,Castroville Medina Valley,58.88,183.7,,,,Unlimited,SBD,M,
Boys,59.87,DQ,Clayton Barron,Castroville Medina Valley,59.87,161.03,,,,Unlimited,SBD,M,
Boys,67.13,1,Jayden Ramos,San Antonio East Central,67.13,215.46,158.76,176.9,551.11,Unlimited,SBD,M,
Boys,67.13,2,Blake Frye,Somerset,66.5,206.38,102.06,190.51,498.95,Unlimited,SBD,M,
Boys,67.13,3,Jacob Gonzalez,Buda Johnson,66.32,185.97,117.93,190.51,494.42,Unlimited,SBD,M,
Boys,67.13,4,Nathan Skeete,Universal City Randolph,65.23,185.97,122.47,183.7,492.15,Unlimited,SBD,M,
Boys,67.13,5,Gabriel Ramlogan,Castroville Medina Valley,65.86,195.04,102.06,179.17,476.27,Unlimited,SBD,M,
Boys,67.13,6,Michael Briggs,Comal Pieper,65.95,174.63,97.52,201.85,474,Unlimited,SBD,M,
Boys,67.13,7,Abraham Perez,San Antonio East Central,65.86,179.17,111.13,176.9,467.2,Unlimited,SBD,M,
Boys,67.13,8,Adrian Gutierrez,Crystal City,63.14,170.1,115.67,156.49,442.25,Unlimited,SBD,M,
Boys,67.13,9,Frankie Guzman,Del Rio,62.87,149.69,104.33,161.03,415.04,Unlimited,SBD,M,
Boys,67.13,10,Cayden Mahaney,Universal City Randolph,65.59,142.88,74.84,151.95,369.68,Unlimited,SBD,M,
Boys,67.13,11,Brayden Durand,Buda Johnson,64.32,138.35,92.99,133.81,365.14,Unlimited,SBD,M,
Boys,67.13,12,Jo Nathan Garcia,Floresville,60.06,136.08,90.72,133.81,360.61,Unlimited,SBD,M,
Boys,67.13,13,Sebastian Humphries,Buda Johnson,62.6,120.2,79.38,138.35,337.93,Unlimited,SBD,M,
Boys,67.13,DQ,Coleton Ledesma,Blanco,67.13,,,,,Unlimited,SBD,M,
Boys,67.13,DQ,Sonny Valladares,Crystal City,67.13,,,,,Unlimited,SBD,M,
Boys,67.13,DQ,Jason Mendoza,Crystal City,67.13,,,,,Unlimited,SBD,M,
Boys,74.84,1,Jayson Figueroa,San Antonio East Central,72.12,254.01,170.1,204.12,628.23,Unlimited,SBD,M,
Boys,74.84,2,Jorge Herrera,Del Rio,71.03,251.74,129.27,222.26,603.28,Unlimited,SBD,M,
Boys,74.84,3,AJ Vasquez,Floresville,72.57,213.19,136.08,210.92,560.19,Unlimited,SBD,M,
Boys,74.84,4,Marcus Vela,San Antonio East Central,73.57,195.04,129.27,208.65,532.97,Unlimited,SBD,M,
Boys,74.84,5,Tristan Coronado,Del Rio,72.76,206.38,111.13,208.65,526.17,Unlimited,SBD,M,
Boys,74.84,6,Aaron Sanchez,Crystal City,69.22,197.31,106.59,219.99,523.9,Unlimited,SBD,M,
Boys,74.84,7,Joseph Luna,Crystal City,74.84,217.72,115.67,188.24,521.63,Unlimited,SBD,M,
Boys,74.84,8,Scott Gantzler,Castroville Medina Valley,73.66,185.97,106.59,226.8,519.36,Unlimited,SBD,M,
Boys,74.84,9,Jett Hickson,Buda Johnson,67.68,192.78,124.74,199.58,517.1,Unlimited,SBD,M,
Boys,74.84,10,D Anthony Anderson,San Antonio East Central,73.03,208.65,117.93,165.56,492.15,Unlimited,SBD,M,
Boys,74.84,11,Colton Allerkamp,Comal Pieper,69.58,176.9,131.54,165.56,474,Unlimited,SBD,M,
Boys,74.84,12,Mark Vandevere,Universal City Randolph,69.94,174.63,102.06,195.04,471.74,Unlimited,SBD,M,
Boys,74.84,13,Ashton Robinson,Bandera,68.67,174.63,102.06,185.97,462.66,Unlimited,SBD,M,
Boys,74.84,14,Josh Martinez,Floresville,68.95,170.1,95.25,165.56,430.91,Unlimited,SBD,M,
Boys,74.84,15,Max Guzman,Castroville Medina Valley,73.48,161.03,97.52,167.83,426.38,Unlimited,SBD,M,
Boys,74.84,16,Benjamin Chapman,Comal Pieper,71.49,158.76,92.99,170.1,421.84,Unlimited,SBD,M,
Boys,74.84,17,Ryder Moorman,Blanco,70.49,163.29,106.59,149.69,419.57,Unlimited,SBD,M,
Boys,74.84,18,Norsworthy Carter,Comal Pieper,74.66,165.56,83.91,151.95,401.43,Unlimited,SBD,M,
Boys,74.84,19,Rex Beinhower,Universal City Randolph,69.94,122.47,86.18,133.81,342.46,Unlimited,SBD,M,
Boys,74.84,DQ,Jacob Tuma,Bandera,72.57,,,,,Unlimited,SBD,M,
Boys,74.84,DQ,Austin Vivier,San Antonio East Central,74.66,183.7,,,,Unlimited,SBD,M,
Boys,74.84,DQ,Tyler Barrett,Buda Johnson,69.49,145.15,,,,Unlimited,SBD,M,
Boys,74.84,DQ,Jalino Spina,Comal Pieper,73.94,,,,,Unlimited,SBD,M,
Boys,74.84,DQ,Jaiden Maldonado,Crystal City,71.94,,,,,Unlimited,SBD,M,
Boys,82.1,1,Josiah Lugo,Somerset,77.66,285.76,185.97,231.33,703.07,Unlimited,SBD,M,
Boys,82.1,2,Juan Ramirez,Castroville Medina Valley,80.56,249.48,124.74,249.48,623.69,Unlimited,SBD,M,
Boys,82.1,3,Luis Rodriguez,Del Rio,80.47,226.8,140.61,206.38,573.79,Unlimited,SBD,M,
Boys,82.1,4,Moses Fernandez,Del Rio,80.56,215.46,115.67,238.14,569.26,Unlimited,SBD,M,
Boys,82.1,5,Jayden Cardenas,San Antonio East Central,82.1,224.53,142.88,192.78,560.19,Unlimited,SBD,M,
Boys,82.1,6,Stylz Ogden,Buda Johnson,76.93,201.85,129.27,206.38,537.51,Unlimited,SBD,M,
Boys,82.1,7,Matthew Chavez,Bandera,75.39,197.31,131.54,199.58,528.44,Unlimited,SBD,M,
Boys,82.1,8,Jose Velsaquez,San Antonio East Central,75.11,183.7,133.81,167.83,485.34,Unlimited,SBD,M,
Boys,82.1,9,Daniel Bustamante,San Antonio East Central,81.74,163.29,127.01,195.04,485.34,Unlimited,SBD,M,
Boys,82.1,10,Nathan Gonzales,Floresville,76.57,142.88,92.99,174.63,410.5,Unlimited,SBD,M,
Boys,82.1,11,Jacen Martinez,Buda Johnson,78.56,161.03,79.38,170.1,410.5,Unlimited,SBD,M,
Boys,82.1,12,Trey Atchley,Blanco,75.48,154.22,90.72,147.42,392.36,Unlimited,SBD,M,
Boys,82.1,13,Ayden Turner,Universal City Randolph,78.83,129.27,72.57,172.37,374.21,Unlimited,SBD,M,
Boys,82.1,DQ,Logan Schwarzlose,Blanco,75.75,,,,,Unlimited,SBD,M,
Boys,89.81,1,Nathan Mendoza,Crystal City,88.63,256.28,142.88,240.4,639.57,Unlimited,SBD,M,
Boys,89.81,2,Domingo Sanchez,Del Rio,84.55,233.6,138.35,215.46,587.4,Unlimited,SBD,M,
Boys,89.81,3,Langston Strable,Universal City Randolph,89.18,201.85,165.56,215.46,582.87,Unlimited,SBD,M,
Boys,89.81,4,Christian Peralta,Floresville,89.45,204.12,111.13,183.7,498.95,Unlimited,SBD,M,
Boys,89.81,5,Robert Rosas,San Antonio East Central,89.09,195.04,88.45,199.58,483.08,Unlimited,SBD,M,
Boys,89.81,6,Carrillo Manuel,Castroville Medina Valley,84.82,156.49,83.91,183.7,424.11,Unlimited,SBD,M,
Boys,89.81,7,Marquis Gonzales,Floresville,82.28,154.22,95.25,154.22,403.7,Unlimited,SBD,M,
Boys,89.81,8,Ryan Bradstreet,Floresville,84.73,142.88,83.91,161.03,387.82,Unlimited,SBD,M,
Boys,89.81,9,Luis Garcia,Blanco,86.09,142.88,79.38,147.42,369.68,Unlimited,SBD,M,
Boys,89.81,DQ,Ethan Boyd,Bandera,85.28,,,,,Unlimited,SBD,M,
Boys,89.81,DQ,Eric Sanchez,Crystal City,89.81,,,,,Unlimited,SBD,M,
Boys,89.81,DQ,Benjamin Delgado,Somerset Brooks Academy,84.91,136.08,,,,Unlimited,SBD,M,
Boys,99.79,1,Nathan Villegas,Castroville Medina Valley,92.53,272.16,167.83,217.72,657.71,Unlimited,SBD,M,
Boys,99.79,2,Daniel Arellano,Floresville,95.98,242.67,170.1,242.67,655.44,Unlimited,SBD,M,
Boys,99.79,3,Caleb Rodriguez,Del Rio,98.61,258.55,167.83,219.99,646.37,Unlimited,SBD,M,
Boys,99.79,4,Donovan Hector,Blanco,96.07,215.46,142.88,201.85,560.19,Unlimited,SBD,M,
Boys,99.79,5,Jayden Fuentes,Somerset,96.62,204.12,136.08,204.12,544.31,Unlimited,SBD,M,
Boys,99.79,6,Brady Forman,Castroville Medina Valley,92.71,206.38,133.81,190.51,530.7,Unlimited,SBD,M,
Boys,99.79,7,Gideon Flores,Somerset Brooks Academy,90.99,204.12,113.4,204.12,521.63,Unlimited,SBD,M,
Boys,99.79,8,Omar Campos,Somerset,90.54,199.58,117.93,195.04,512.56,Unlimited,SBD,M,
Boys,99.79,9,Luis Perez,Crystal City,96.43,192.78,136.08,174.63,503.49,Unlimited,SBD,M,
Boys,99.79,10,Brenden Hinojosa,Comal Pieper,94.89,197.31,95.25,192.78,485.34,Unlimited,SBD,M,
Boys,99.79,11,Diego Chavez,Comal Pieper,92.71,181.44,115.67,183.7,480.81,Unlimited,SBD,M,
Boys,99.79,12,Tyson Toscano,San Antonio East Central,95.25,199.58,102.06,167.83,469.47,Unlimited,SBD,M,
Boys,99.79,13,Leal Trent,Floresville,91.26,190.51,97.52,174.63,462.66,Unlimited,SBD,M,
Boys,99.79,14,Trent Smith,Blanco,98.07,154.22,129.27,163.29,446.79,Unlimited,SBD,M,
Boys,99.79,15,Jessiah Wysk,Universal City Randolph,93.35,124.74,92.99,140.61,358.34,Unlimited,SBD,M,
Boys,99.79,DQ,Sebastian Avila,Comal Pieper,99.79,,,,,Unlimited,SBD,M,
Boys,99.79,DQ,Brandon Barnett,Castroville Medina Valley,98.43,272.16,122.47,,,Unlimited,SBD,M,
Boys,99.79,DQ,Gosey Seamus,Buda Johnson,99.34,,,,,Unlimited,SBD,M,
Boys,109.77,1,George Avalos,Del Rio,106.68,265.35,158.76,272.16,696.26,Unlimited,SBD,M,
Boys,109.77,2,Marcus Serda,San Antonio East Central,106.05,249.48,188.24,226.8,664.51,Unlimited,SBD,M,
Boys,109.77,3,Kaden Elrod,Blanco,104.05,256.28,165.56,204.12,625.96,Unlimited,SBD,M,
Boys,109.77,4,Hyrum McCarter,Comal Pieper,106.41,265.35,142.88,183.7,591.94,Unlimited,SBD,M,
Boys,109.77,5,Jd Spurlock,Somerset,109.13,229.06,149.69,183.7,562.45,Unlimited,SBD,M,
Boys,109.77,6,Evan Seale,Buda Johnson,105.41,185.97,183.7,181.44,551.11,Unlimited,SBD,M,
Boys,109.77,7,Xavier Fears,Castroville Medina Valley,103.96,188.24,151.95,199.58,539.77,Unlimited,SBD,M,
Boys,109.77,8,Felix Torrez,Comal Pieper,100.15,201.85,124.74,174.63,501.22,Unlimited,SBD,M,
Boys,109.77,9,Dominik Rayes,Somerset Brooks Academy,106.32,108.86,49.9,142.88,301.64,Unlimited,SBD,M,
Boys,124.74,1,Taulepeti Valai,Universal City Randolph,116.39,272.16,188.24,219.99,680.39,Unlimited,SBD,M,
Boys,124.74,2,Isaac Tello,Somerset Brooks Academy,119.11,238.14,120.2,206.38,564.72,Unlimited,SBD,M,
Boys,124.74,3,Abram Franz,Buda Johnson,121.56,206.38,156.49,199.58,562.45,Unlimited,SBD,M,
Boys,124.74,4,Wes Harris,Universal City Randolph,114.4,190.51,115.67,208.65,514.83,Unlimited,SBD,M,
Boys,124.74,5,Roger McCrobie,Bandera,119.93,226.8,124.74,158.76,510.29,Unlimited,SBD,M,
Boys,124.74,6,Omar Torres,Floresville,115.03,124.74,138.35,240.4,503.49,Unlimited,SBD,M,
Boys,124.74,7,Alejandro Sanchez,San Antonio East Central,120.66,183.7,127.01,181.44,492.15,Unlimited,SBD,M,
Boys,124.74,8,Caiden Sealy,Universal City Randolph,114.21,106.59,79.38,124.74,310.71,Unlimited,SBD,M,
Boys,139.71,1,Joaquinn Fuentes,Del Rio,126.28,278.96,149.69,247.21,675.85,Unlimited,SBD,M,
Boys,139.71,2,Exodus Acevedo,Floresville,136.53,247.21,165.56,249.48,662.24,Unlimited,SBD,M,
Boys,139.71,3,Ponce Alvarez,San Antonio East Central,132,224.53,149.69,226.8,601.01,Unlimited,SBD,M,
Boys,139.71,4,Tacori Cook,Somerset,135.44,226.8,165.56,206.38,598.74,Unlimited,SBD,M,
Boys,139.71,5,Max Bartay,San Antonio East Central,128.19,208.65,172.37,213.19,594.21,Unlimited,SBD,M,
Boys,139.71,DQ,Jonathan Carreon,Crystal City,131.09,,,,,Unlimited,SBD,M,
Boys,139.71+,1,Keegan Garcia,San Antonio East Central,140.52,324.32,161.03,303.91,789.25,Unlimited,SBD,M,
Boys,139.71+,2,Israel Moncada,Crystal City,144.7,335.66,210.92,231.33,777.91,Unlimited,SBD,M,
Boys,139.71+,3,Javier Adams,Somerset,156.49,240.4,197.31,272.16,709.87,Unlimited,SBD,M,
Boys,139.71+,4,Jakob Perez,Somerset,152.95,249.48,170.1,192.78,612.35,Unlimited,SBD,M,
Boys,139.71+,5,Joe Meza,Del Rio,140.52,215.46,151.95,206.38,573.79,Unlimited,SBD,M,
Boys,,NS,Sal Sanchez,Somerset,,,,,,Unlimited,SBD,M,
