Division,WeightClassKg,Place,Name,Team,BodyweightKg,Best3SquatKg,Best3BenchKg,Best3DeadliftKg,TotalKg,Equipment,Event,Sex
Boys,51.71,1,Gabriel Hancock,Bovina,51.53,156.49,92.99,154.22,403.7,Single-ply,SBD,M
Boys,51.71,2,Jonathon Luna,Tulia,50.35,142.88,88.45,142.88,374.21,Single-ply,SBD,M
Boys,55.79,3,Matt Cordova,Amarillo Highland Park,51.94,127.01,88.45,136.08,351.53,Single-ply,SBD,M
Boys,51.71,4,Viator Gomez,Mertzon Irion County,50.35,136.08,63.5,136.08,335.66,Single-ply,SBD,M
Boys,51.71,5,Triston Davis,Sundown,49.9,136.08,68.04,122.47,326.59,Single-ply,SBD,M
Boys,51.71,6,Arturo Rodriquez,Meadow,51.62,127.01,61.23,136.08,324.32,Single-ply,SBD,M
Boys,51.71,7,Dang Nguyen,Amarillo Highland Park,51.35,124.74,61.23,133.81,319.78,Single-ply,SBD,M
Boys,51.71,8,Ezekiel Sosa,Big Lake Reagan County,50.71,104.33,61.23,120.2,285.76,Single-ply,SBD,M
Boys,51.71,9,Hayden Bolongia,Post,51.71,97.52,61.23,117.93,276.69,Single-ply,SBD,M
Boys,51.71,10,Erik Gomez,Post,50.35,104.33,54.43,113.4,272.16,Single-ply,SBD,M
Boys,55.79,11,Britton Heath,Coahoma,51.89,104.33,52.16,108.86,265.35,Single-ply,SBD,M
Boys,51.71,DQ,Jarred Curtis,Post,48.35,,,,,Single-ply,SBD,M
Boys,55.79,1,Jordan Ruiz,Seagraves,55.43,199.58,120.2,219.99,539.77,Single-ply,SBD,M
Boys,59.87,2,Van Phan,Lamesa,56.02,165.56,90.72,167.83,424.11,Single-ply,SBD,M
Boys,55.79,3,Tomas Vega,Alpine,55.79,158.76,90.72,172.37,421.84,Single-ply,SBD,M
Boys,55.79,4,Colten Brown,Stinnett West Texas,53.61,140.61,70.31,165.56,376.48,Single-ply,SBD,M
Boys,59.87,5,Kevin Buitron,Sonora,56.02,131.54,77.11,158.76,367.41,Single-ply,SBD,M
Boys,55.79,6,Justin Tovar,Abernathy,54.43,145.15,83.91,136.08,365.14,Single-ply,SBD,M
Boys,55.79,7,Oscar Salgado,Alpine,53.52,117.93,77.11,142.88,337.93,Single-ply,SBD,M
Boys,55.79,8,Christian Alexander,Tuscola Jim Ned,55.43,131.54,72.57,131.54,335.66,Single-ply,SBD,M
Boys,55.79,9,Fernando Corpus,Amarillo Highland Park,54.61,124.74,65.77,124.74,315.25,Single-ply,SBD,M
Boys,59.87,1,Austin Martinez,Mertzon Irion County,59.42,183.7,106.59,183.7,474,Single-ply,SBD,M
Boys,59.87,2,Adam Martin,Sudan,58.69,183.7,90.72,185.97,460.4,Single-ply,SBD,M
Boys,59.87,3,Jaxon Sullivan,Clyde,58.97,176.9,102.06,167.83,446.79,Single-ply,SBD,M
Boys,59.87,4,Keele Valenzuela,Kermit,58.88,172.37,108.86,156.49,437.72,Single-ply,SBD,M
Boys,67.13,5,Eli Rodriguez,Seagraves,60.1,167.83,86.18,176.9,430.91,Single-ply,SBD,M
Boys,59.87,6,Derrick Siebman,Childress,59.6,158.76,86.18,172.37,417.3,Single-ply,SBD,M
Boys,59.87,7,Trenton Crenshaw,Coahoma,58.79,154.22,90.72,161.03,405.97,Single-ply,SBD,M
Boys,59.87,8,Mario Manquero,Garden City,59.51,161.03,88.45,142.88,392.36,Single-ply,SBD,M
Boys,59.87,9,Cole Hunt,Alpine,59.6,149.69,72.57,170.1,392.36,Single-ply,SBD,M
Boys,59.87,10,Cambry Gilbert,Post,57.33,142.88,72.57,154.22,369.68,Single-ply,SBD,M
Boys,59.87,DQ,Matt Anderson,Coleman,59.69,149.69,,,,Single-ply,SBD,M
Boys,67.13,1,Ryan Hurst,San Angelo Grape Creek,66.22,226.8,108.86,217.72,553.38,Single-ply,SBD,M
Boys,67.13,2,Michael Vargas #1,Ozona,64.86,217.72,111.13,190.51,519.36,Single-ply,SBD,M
Boys,67.13,3,Pablo Hinojosa,Lamesa,65.68,195.04,104.33,195.04,494.42,Single-ply,SBD,M
Boys,67.13,4,Corey Barker,Clarendon,65.68,192.78,113.4,185.97,492.15,Single-ply,SBD,M
Boys,67.13,5,Adrian Gonzales,Floydada,66.5,181.44,92.99,183.7,458.13,Single-ply,SBD,M
Boys,67.13,6,Rafael Urias,Meadow,67.13,172.37,97.52,176.9,446.79,Single-ply,SBD,M
Boys,67.13,7,John Jurado,Ozona,65.14,174.63,83.91,183.7,442.25,Single-ply,SBD,M
Boys,67.13,8,Gene Williams,Slaton,63.78,165.56,86.18,165.56,417.3,Single-ply,SBD,M
Boys,67.13,DQ,Dante Gomez,Clyde,65.95,,,,,Single-ply,SBD,M
Boys,74.84,DQ,Zach Perez,Ballinger,67.22,204.12,,,,Single-ply,SBD,M
Boys,67.13,DQ,Adan Ramirez,Friona,66.95,206.38,,,,Single-ply,SBD,M
Boys,67.13,DQ,DJ Brown,Post,62.69,,,,,Single-ply,SBD,M
Boys,74.84,1,Kneeland Donnelly,Hawley,71.94,249.48,124.74,242.67,616.89,Single-ply,SBD,M
Boys,74.84,2,Brandon Guerrero,Childress,73.39,231.33,104.33,240.4,576.06,Single-ply,SBD,M
Boys,74.84,3,Jose Rangel,Roscoe,74.48,213.19,122.47,192.78,528.44,Single-ply,SBD,M
Boys,74.84,4,Willie Collins,Ballinger,71.3,213.19,122.47,188.24,523.9,Single-ply,SBD,M
Boys,74.84,5,Marcus Ruff,Whiteface,72.21,192.78,104.33,226.8,523.9,Single-ply,SBD,M
Boys,74.84,6,Aaron Castillo,Rankin,74.66,183.7,131.54,199.58,514.83,Single-ply,SBD,M
Boys,74.84,7,Jd Lopez,Childress,72.85,199.58,124.74,183.7,508.02,Single-ply,SBD,M
Boys,74.84,8,Morgan Lytle,Christoval,72.57,197.31,97.52,204.12,498.95,Single-ply,SBD,M
Boys,74.84,9,Hank Levison,Mertzon Irion County,70.85,190.51,97.52,185.97,474,Single-ply,SBD,M
Boys,74.84,DQ,Isaac Stern,Post,72.3,163.29,97.52,,,Single-ply,SBD,M
Boys,74.84,DQ,Dakota Brewster,Clyde,73.84,,,,,Single-ply,SBD,M
Boys,74.84,DQ,Federico Carmona,Floydada,73.75,,,,,Single-ply,SBD,M
Boys,82.1,1,Clancy Manuel,Hawley,81.28,238.14,156.49,238.14,632.76,Single-ply,SBD,M
Boys,82.1,2,Devon Hoelscher,Ballinger,79.74,235.87,158.76,199.58,594.21,Single-ply,SBD,M
Boys,82.1,3,Jj Casarez,McCamey,81.37,219.99,124.74,201.85,546.58,Single-ply,SBD,M
Boys,82.1,4,Richard Ruschenberg,San Angelo Grape Creek,80.47,226.8,102.06,197.31,526.17,Single-ply,SBD,M
Boys,82.1,5,Caden Dean,Post,79.47,190.51,124.74,192.78,508.02,Single-ply,SBD,M
Boys,82.1,6,Alexis Mendoza,Sunray,80.01,190.51,97.52,213.19,501.22,Single-ply,SBD,M
Boys,82.1,7,Luis Torrez,Meadow,76.11,185.97,115.67,181.44,483.08,Single-ply,SBD,M
Boys,82.1,8,Michael Garcia #9,Friona,77.66,181.44,117.93,181.44,480.81,Single-ply,SBD,M
Boys,82.1,DQ,Aaron Chavarria,Floydada,80.2,258.55,,,,Single-ply,SBD,M
Boys,82.1,DQ,Peyton Rodriguez #1,Coahoma,81.92,,,,,Single-ply,SBD,M
Boys,82.1,DQ,Nathaniel Gill,Post,82.1,204.12,,,,Single-ply,SBD,M
Boys,82.1,DQ,Landon Jones,Roscoe,81.1,215.46,,,,Single-ply,SBD,M
Boys,89.81,1,Levi Irby,Hawley,88,272.16,102.06,233.6,607.81,Single-ply,SBD,M
Boys,89.81,2,Charlie Thomas #3,Coleman,89.63,226.8,133.81,240.4,601.01,Single-ply,SBD,M
Boys,89.81,3,Aric Ramzanali,Hawley,85.55,233.6,158.76,183.7,576.06,Single-ply,SBD,M
Boys,89.81,4,Austin Rain,Clyde,83.73,204.12,127.01,226.8,557.92,Single-ply,SBD,M
Boys,89.81,5,John Cuellar,Ballinger,88,222.26,127.01,208.65,557.92,Single-ply,SBD,M
Boys,89.81,6,Devin Elmore,Sundown,88.9,235.87,136.08,181.44,553.38,Single-ply,SBD,M
Boys,89.81,7,Joe Melendez,Coahoma,88.09,238.14,117.93,192.78,548.85,Single-ply,SBD,M
Boys,89.81,8,Angel Aguilera,Big Lake Reagan County,86.64,226.8,102.06,215.46,544.31,Single-ply,SBD,M
Boys,89.81,9,Shawn Walker,Garden City,89.45,190.51,127.01,190.51,508.02,Single-ply,SBD,M
Boys,89.81,DQ,Lane Pickett,Hawley,88.54,229.06,113.4,,,Single-ply,SBD,M
Boys,89.81,DQ,Marcos Rodarte,San Angelo Grape Creek,86.91,,,,,Single-ply,SBD,M
Boys,99.79,1,Auggie Woodruff,Ballinger,92.08,281.23,158.76,217.72,657.71,Single-ply,SBD,M
Boys,99.79,2,Shelton Zarate,Coleman,98.52,267.62,140.61,217.72,625.96,Single-ply,SBD,M
Boys,99.79,3,Octavius Ledbetter,Memphis,98.25,258.55,136.08,204.12,598.74,Single-ply,SBD,M
Boys,99.79,4,Jesse Garza #3,Colorado City Colorado,97.16,224.53,129.27,224.53,578.33,Single-ply,SBD,M
Boys,99.79,5,Haziel Damian,Ozona,96.34,244.94,106.59,224.53,576.06,Single-ply,SBD,M
Boys,99.79,6,Joe Haddad,Clyde,93.89,238.14,140.61,195.04,573.79,Single-ply,SBD,M
Boys,99.79,7,Eddie Sanchez,Lamesa,96.89,215.46,113.4,199.58,528.44,Single-ply,SBD,M
Boys,99.79,8,Matt Garcia,Mertzon Irion County,94.89,195.04,138.35,188.24,521.63,Single-ply,SBD,M
Boys,99.79,9,Blake Baldock,Hawley,90.36,199.58,102.06,192.78,494.42,Single-ply,SBD,M
Boys,99.79,DQ,Sheldon Libey,Cross Plains,92.53,233.6,,,,Single-ply,SBD,M
Boys,99.79,DQ,Jacob Lopez,Clyde,98.97,244.94,,,,Single-ply,SBD,M
Boys,99.79,DQ,Haddan Stokes,Coahoma,96.07,215.46,,,,Single-ply,SBD,M
Boys,109.77,1,Jordan Stokes,Coahoma,100.43,260.82,158.76,238.14,657.71,Single-ply,SBD,M
Boys,109.77,2,Oscar Valdez,Clyde,108.68,260.82,145.15,240.4,646.37,Single-ply,SBD,M
Boys,109.77,3,Jeremiah DeLeon,Tahoka,103.78,251.74,161.03,204.12,616.89,Single-ply,SBD,M
Boys,109.77,4,Caelan Decker,Tahoka,108.05,229.06,158.76,201.85,589.67,Single-ply,SBD,M
Boys,109.77,5,Preston Posuk,Cross Plains,103.87,217.72,113.4,226.8,557.92,Single-ply,SBD,M
Boys,109.77,6,Fred Hemphill,Coleman,104.24,226.8,131.54,192.78,551.11,Single-ply,SBD,M
Boys,109.77,7,Stephen Dominguez,Sonora,108.41,204.12,138.35,199.58,542.04,Single-ply,SBD,M
Boys,109.77,8,Addison Schreffler,Clyde,104.96,215.46,142.88,174.63,532.97,Single-ply,SBD,M
Boys,109.77,9,Mark Munoz,Childress,105.6,190.51,136.08,204.12,530.7,Single-ply,SBD,M
Boys,109.77,10,Elijah Cross,Sonora,100.52,195.04,108.86,195.04,498.95,Single-ply,SBD,M
Boys,109.77,DQ,Chris Thomas #5,Slaton,104.69,,,,,Single-ply,SBD,M
Boys,109.77,DQ,Tres Perez,Ozona,108.41,,,,,Single-ply,SBD,M
Boys,124.74,1,Riley Woodruff,Ballinger,115.21,317.51,154.22,265.35,737.09,Single-ply,SBD,M
Boys,124.74,2,Homero Ramirez,Floydada,117.03,256.28,183.7,249.48,689.46,Single-ply,SBD,M
Boys,124.74,3,Daniel Montez,Roby,119.48,256.28,174.63,215.46,646.37,Single-ply,SBD,M
Boys,124.74,4,Dustin Fontana,Coahoma,115.39,226.8,165.56,226.8,619.15,Single-ply,SBD,M
Boys,124.74,5,Kelton Bales,Eldorado,120.2,249.48,133.81,215.46,598.74,Single-ply,SBD,M
Boys,124.74,6,Jeff King,Cross Plains,119.39,254.01,136.08,199.58,589.67,Single-ply,SBD,M
Boys,124.74,7,Zak Walton,Coahoma,116.12,217.72,158.76,208.65,585.13,Single-ply,SBD,M
Boys,124.74,8,Conner Willis,Tuscola Jim Ned,123.38,226.8,136.08,215.46,578.33,Single-ply,SBD,M
Boys,124.74,9,Jobe Allen,Stinnett West Texas,124.1,226.8,136.08,204.12,566.99,Single-ply,SBD,M
Boys,124.74,DQ,Riley Brauneck,Roby,110.5,,,,,Single-ply,SBD,M
Boys,124.74,DQ,Celso Guerrero,Childress,121.29,272.16,167.83,,,Single-ply,SBD,M
Boys,124.74,DQ,Abayomi Salinas,Friona,116.12,233.6,,,,Single-ply,SBD,M
Boys,124.74+,1,Edgar Guerrero,Friona,135.44,328.85,170.1,283.5,782.45,Single-ply,SBD,M
Boys,124.74+,2,Matt Olivarez,Sudan,176.08,288.03,161.03,251.74,700.8,Single-ply,SBD,M
Boys,124.74+,3,Jimbo Bentley,Childress,128.91,226.8,170.1,244.94,641.83,Single-ply,SBD,M
Boys,124.74+,4,Cagen Chaney,Iraan,136.98,272.16,154.22,215.46,641.83,Single-ply,SBD,M
Boys,124.74+,5,Brandon Cox,Whiteface,136.08,272.16,115.67,247.21,635.03,Single-ply,SBD,M
Boys,124.74+,6,Kyle Weiss #1,Panhandle,137.44,256.28,154.22,219.99,630.49,Single-ply,SBD,M
Boys,124.74+,7,Austen McNelly,Clarendon,167.83,242.67,140.61,208.65,591.94,Single-ply,SBD,M
Boys,124.74+,8,Joseph Villarreal,Lubbock Roosevelt,136.98,231.33,124.74,219.99,576.06,Single-ply,SBD,M
Boys,124.74+,9,Riley Thompson,Sundown,131,226.8,136.08,210.92,573.79,Single-ply,SBD,M
Boys,124.74+,10,Damien Venegas,McCamey,139.25,208.65,142.88,204.12,555.65,Single-ply,SBD,M
Boys,124.74+,11,Caleb Wrinkle,Rankin,129.91,199.58,131.54,222.26,553.38,Single-ply,SBD,M
Boys,124.74+,DQ,Steven Manahan,McCamey,145.78,265.35,163.29,,,Single-ply,SBD,M
