Division,WeightClassKg,Place,Name,Team,BodyweightKg,Best3SquatKg,Best3BenchKg,Best3DeadliftKg,TotalKg,Equipment,Event,Sex
Boys,51.71,1,Bryce Hazelwood,Saratoga West Hardin,48.53,113.4,56.7,115.67,285.76,Single-ply,SBD,M
Boys,51.71,2,Christian DeBarge,Hull-Daisetta,47.9,97.52,52.16,115.67,265.35,Single-ply,SBD,M
Boys,51.71,3,Gunner Stanley,Deweyville,44.91,61.23,36.29,79.38,176.9,Single-ply,SBD,M
Boys,55.79,1,Gavin Robles,Kountze,54.88,133.81,81.65,149.69,365.14,Single-ply,SBD,M
Boys,55.79,2,John Burnett,Saratoga West Hardin,54.98,113.4,63.5,106.59,283.5,Single-ply,SBD,M
Boys,55.79,3,Trevor Creel,Saratoga West Hardin,54.88,99.79,65.77,104.33,269.89,Single-ply,SBD,M
Boys,55.79,4,Lane Totino,Deweyville,55.79,79.38,47.63,104.33,231.33,Single-ply,SBD,M
Boys,59.87,1,Robert Gobert,Hull-Daisetta,59.06,115.67,79.38,142.88,337.93,Single-ply,SBD,M
Boys,59.87,2,Ma'Cray Phillips,Saratoga West Hardin,59.78,115.67,65.77,133.81,315.25,Single-ply,SBD,M
Boys,59.87,3,Francisco Trujillo,Hardin,59.87,102.06,68.04,140.61,310.71,Single-ply,SBD,M
Boys,59.87,4,Chase Williams,Deweyville,58.97,108.86,65.77,124.74,299.37,Single-ply,SBD,M
Boys,59.87,5,Gavin Buxton,Deweyville,57.61,81.65,61.23,120.2,263.08,Single-ply,SBD,M
Boys,59.87,6,Romeo Romero,Deweyville,57.61,92.99,54.43,97.52,244.94,Single-ply,SBD,M
Boys,59.87,DQ,Luke Martin,High Island,59.87,,,,,Single-ply,SBD,M
Boys,67.13,1,Caleb Walters,Kountze,67.13,165.56,90.72,197.31,453.59,Single-ply,SBD,M
Boys,67.13,2,Darin Lavergne,Deweyville,66.68,161.03,90.72,165.56,417.3,Single-ply,SBD,M
Boys,67.13,3,Kaiden Stoma,Deweyville,66.22,158.76,95.25,161.03,415.04,Single-ply,SBD,M
Boys,67.13,4,Will Sims,Hardin,63.05,129.27,72.57,158.76,360.61,Single-ply,SBD,M
Boys,67.13,5,Noah Roth,Hardin,64.41,136.08,72.57,147.42,356.07,Single-ply,SBD,M
Boys,67.13,6,Mikey Strham,Saratoga West Hardin,65.32,115.67,61.23,147.42,324.32,Single-ply,SBD,M
Boys,67.13,7,Cody Farr,Saratoga West Hardin,64.41,111.13,63.5,138.35,312.98,Single-ply,SBD,M
Boys,67.13,DQ,Zevin Loftin,Saratoga West Hardin,65.32,,,,,Single-ply,SBD,M
Boys,67.13,DQ,Keevin Gordon,Deweyville,60.78,,,,,Single-ply,SBD,M
Boys,67.13,DQ,Rocky Ard,Colmesneil,60.78,,,,,Single-ply,SBD,M
Boys,67.13,DQ,Joe Mayeux,Deweyville,62.6,,,,,Single-ply,SBD,M
Boys,67.13,DQ,Shawn Taylor,Hull-Daisetta,64.95,,,,,Single-ply,SBD,M
Boys,67.13,DQ,Broady Simmons,Hull-Daisetta,64.32,,,,,Single-ply,SBD,M
Boys,74.84,1,Wyatt Jackson,Colmesneil,74.84,176.9,111.13,222.26,510.29,Single-ply,SBD,M
Boys,74.84,2,Keyshawn Adams,Kountze,73.03,181.44,120.2,197.31,498.95,Single-ply,SBD,M
Boys,74.84,3,Matthew Anderson #1,Saratoga West Hardin,67.81,188.24,108.86,167.83,464.93,Single-ply,SBD,M
Boys,74.84,4,Garrett Marquis,Hardin,73.94,156.49,86.18,170.1,412.77,Single-ply,SBD,M
Boys,74.84,5,Chaise Juarez,Saratoga West Hardin,70.13,115.67,92.99,138.35,347,Single-ply,SBD,M
Boys,74.84,6,Jacob Campbell,Kountze,73.48,102.06,74.84,158.76,335.66,Single-ply,SBD,M
Boys,74.84,7,Nick Sexton,Hull-Daisetta,74.84,92.99,65.77,129.27,288.03,Single-ply,SBD,M
Boys,74.84,DQ,Skylar Beane,Deweyville,72.12,,,,,Single-ply,SBD,M
Boys,74.84,DQ,Bryan Picou,Deweyville,69.4,,,,,Single-ply,SBD,M
Boys,82.1,1,Levi Perkins,Deweyville,81.65,165.56,97.52,185.97,449.06,Single-ply,SBD,M
Boys,82.1,2,Kaden Anderson,Kountze,77.56,170.1,95.25,154.22,419.57,Single-ply,SBD,M
Boys,82.1,3,Tyler Snead,Saratoga West Hardin,80.38,140.61,97.52,172.37,410.5,Single-ply,SBD,M
Boys,82.1,4,Kade Goodwin,Hardin,76.2,138.35,113.4,154.22,405.97,Single-ply,SBD,M
Boys,82.1,5,Diego Lopez,Hardin,76.66,142.88,81.65,161.03,385.55,Single-ply,SBD,M
Boys,82.1,DQ,Taten Guillory,Hull-Daisetta,81.01,,,,,Single-ply,SBD,M
Boys,82.1,DQ,Shayne Walters,Kountze,77.11,,,,,Single-ply,SBD,M
Boys,89.81,1,Preston Price,Saratoga West Hardin,87.54,170.1,81.65,174.63,426.38,Single-ply,SBD,M
Boys,89.81,2,Bailey Edmonson,Hull-Daisetta,89.81,127.01,68.04,136.08,331.12,Single-ply,SBD,M
Boys,89.81,DQ,Rodney Richerson,Deweyville,83.91,,,,,Single-ply,SBD,M
Boys,99.79,1,Daniel González,Hardin,96.16,158.76,79.38,145.15,383.29,Single-ply,SBD,M
Boys,99.79,DQ,Nathan Hughes,Deweyville,98.88,,,,,Single-ply,SBD,M
Boys,109.77,1,David Elliot,Hardin,100.7,167.83,92.99,183.7,444.52,Single-ply,SBD,M
Boys,109.77,2,Cade Peavey,Hardin,103.87,154.22,90.72,167.83,412.77,Single-ply,SBD,M
Boys,109.77,DQ,Taylor Graham,Hardin,104.78,,,,,Single-ply,SBD,M
Boys,109.77,DQ,Dakota Seth,Saratoga West Hardin,105.32,172.37,,,,Single-ply,SBD,M
Boys,124.74,1,Dakota Ford,Hull-Daisetta,113.81,238.14,136.08,219.99,594.21,Single-ply,SBD,M
Boys,124.74,2,Montreal Jones,Kountze,118.84,195.04,102.06,206.38,503.49,Single-ply,SBD,M
Boys,124.74,3,Austin Yocum,Hardin,121.56,158.76,92.99,158.76,410.5,Single-ply,SBD,M
Boys,124.74,4,Colten Williams,Saratoga West Hardin,112.49,219.99,102.06,170.1,492.15,Single-ply,SBD,M
Boys,124.74+,1,Collin Chesson,Saratoga West Hardin,125.65,272.16,192.78,251.74,716.68,Single-ply,SBD,M
Boys,124.74+,2,Wyatt Burgess,Hardin,145.15,272.16,136.08,208.65,616.89,Single-ply,SBD,M
Boys,124.74+,3,Jacob Hall,Hull-Daisetta,129.27,235.87,124.74,195.04,555.65,Single-ply,SBD,M
Boys,124.74+,4,Hunter Belesky,Saratoga West Hardin,164.2,235.87,129.27,188.24,553.38,Single-ply,SBD,M
Boys,124.74+,5,Caleb Atkins,Kountze,127.46,183.7,120.2,199.58,503.49,Single-ply,SBD,M
Boys,124.74+,6,Nathan Henson,Deweyville,132,190.51,115.67,192.78,498.95,Single-ply,SBD,M
