Division,WeightClassKg,Place,Name,Team,BodyweightKg,Best3SquatKg,Best3BenchKg,Best3DeadliftKg,TotalKg,Equipment,Event,Sex,BirthDate
Boys,51.71,1,Austin Cuthberson,Van Alstyne,50.98,183.7,97.52,149.69,430.91,Single-ply,SBD,M,
Boys,51.71,2,Ty Kirkbride,Denison,49.9,149.69,72.57,151.95,374.21,Single-ply,SBD,M,
Boys,51.71,3,Matthew Riddels,Whitesboro,51.35,111.13,58.97,104.33,274.42,Single-ply,SBD,M,
Boys,51.71,4,Jacob Aaron,Bells,51.62,92.99,49.9,117.93,260.82,Single-ply,SBD,M,
Boys,51.71,5,Adam Russell,Howe,42.18,54.43,27.22,61.23,142.88,Single-ply,SBD,M,
Boys,55.79,1,Peyton Knight,Melissa,54.88,172.37,106.59,170.1,449.06,Single-ply,SBD,M,
Boys,55.79,2,Warren Ruiz-Demaree,Anna,55.7,167.83,95.25,170.1,433.18,Single-ply,SBD,M,
Boys,55.79,3,Schon Nichols,Farmersville,55.43,158.76,88.45,174.63,421.84,Single-ply,SBD,M,
Boys,55.79,4,Alex Labrada,Whitesboro,52.25,136.08,77.11,145.15,358.34,Single-ply,SBD,M,
Boys,55.79,5,Conner Jacobs,Whitesboro,55.79,122.47,65.77,149.69,337.93,Single-ply,SBD,M,
Boys,55.79,6,Jack Lifsey,Tom Bean,52.62,145.15,58.97,122.47,326.59,Single-ply,SBD,M,
Boys,55.79,7,Justin Bague,Tom Bean,53.07,127.01,58.97,131.54,317.51,Single-ply,SBD,M,
Boys,55.79,8,Jacob Fogleman,Whitewright,55.52,95.25,65.77,106.59,267.62,Single-ply,SBD,M,
Boys,55.79,DQ,Jesse Koontz,Bonham,55.7,104.33,,,,Single-ply,SBD,M,
Boys,59.87,1,Ignacio Salas,Whitesboro,59.6,204.12,113.4,195.04,512.56,Single-ply,SBD,M,
Boys,59.87,2,Asher Contreras,Whitesboro,59.42,176.9,88.45,185.97,451.32,Single-ply,SBD,M,
Boys,59.87,3,Dj Fogleman,Whitewright,58.69,154.22,97.52,138.35,390.09,Single-ply,SBD,M,
Boys,59.87,4,Armando Carrillo,Bells,56.15,142.88,79.38,151.95,374.21,Single-ply,SBD,M,
Boys,59.87,5,Jimmy Rollins,Van Alstyne,59.87,142.88,72.57,158.76,374.21,Single-ply,SBD,M,
Boys,59.87,6,Myles Williams,Melissa,59.33,136.08,79.38,151.95,367.41,Single-ply,SBD,M,
Boys,59.87,7,Trevor Martin,Pilot Point,57.52,133.81,79.38,149.69,362.87,Single-ply,SBD,M,
Boys,59.87,8,Grant Gallop,Tom Bean,59.15,120.2,77.11,145.15,342.46,Single-ply,SBD,M,
Boys,59.87,9,Asher Reinhard,Howe,58.69,106.59,63.5,106.59,276.69,Single-ply,SBD,M,
Boys,67.13,1,Mike Acevedo,Anna,65.59,199.58,129.27,188.24,517.1,Single-ply,SBD,M,
Boys,67.13,2,Nick Rhinehart,Bonham,66.22,195.04,124.74,179.17,498.95,Single-ply,SBD,M,
Boys,67.13,3,Jacob Smith #14,Whitesboro,65.77,163.29,111.13,170.1,444.52,Single-ply,SBD,M,
Boys,67.13,4,Jeffrey Boyd,Melissa,65.59,163.29,102.06,170.1,435.45,Single-ply,SBD,M,
Boys,67.13,5,Jerry Cortez,Farmersville,60.42,181.44,95.25,154.22,430.91,Single-ply,SBD,M,
Boys,67.13,6,Kolten Pulliam,Blue Ridge,61.14,156.49,95.25,163.29,415.04,Single-ply,SBD,M,
Boys,67.13,7,Grady Waldrip,Bells,66.77,149.69,86.18,174.63,410.5,Single-ply,SBD,M,
Boys,67.13,8,Francisco Delgado,Pilot Point,66.68,138.35,90.72,170.1,399.16,Single-ply,SBD,M,
Boys,67.13,9,Ethan Beason,Blue Ridge,66.13,147.42,90.72,151.95,390.09,Single-ply,SBD,M,
Boys,67.13,10,Sam Wyatt,Van Alstyne,65.32,158.76,79.38,147.42,385.55,Single-ply,SBD,M,
Boys,67.13,11,Tre Brewer,Farmersville,65.05,142.88,83.91,145.15,371.95,Single-ply,SBD,M,
Boys,67.13,12,Gavin Majdan,Melissa,65.41,136.08,74.84,136.08,347,Single-ply,SBD,M,
Boys,67.13,13,Dylan Smith #12,Princeton,61.23,111.13,63.5,151.95,326.59,Single-ply,SBD,M,
Boys,67.13,14,Isaiah Rios,Princeton,63.96,120.2,83.91,106.59,310.71,Single-ply,SBD,M,
Boys,67.13,15,Aiden Jones,Tom Bean,67.04,102.06,61.23,102.06,265.35,Single-ply,SBD,M,
Boys,67.13,16,Dakota Tinker,Howe,60.33,86.18,56.7,113.4,256.28,Single-ply,SBD,M,
Boys,67.13,DQ,Evan Gepner,Melissa,65.41,,,,,Single-ply,SBD,M,
Boys,67.13,DQ,Jacob Tull,Farmersville,66.77,,,,,Single-ply,SBD,M,
Boys,74.84,1,Kam Cottle,Farmersville,74.3,217.72,102.06,215.46,535.24,Single-ply,SBD,M,
Boys,74.84,2,Keatyn Eitelman,Pottsboro,70.31,217.72,117.93,192.78,528.44,Single-ply,SBD,M,
Boys,74.84,3,Victor Martinez,Anna,73.48,204.12,115.67,208.65,528.44,Single-ply,SBD,M,
Boys,74.84,4,Eric Clark,Anna,73.94,185.97,102.06,208.65,496.68,Single-ply,SBD,M,
Boys,74.84,5,Brett Long,Van Alstyne,71.76,192.78,95.25,183.7,471.74,Single-ply,SBD,M,
Boys,74.84,6,Canyon Payne,Bells,74.57,181.44,86.18,181.44,449.06,Single-ply,SBD,M,
Boys,74.84,7,Waylon Vidler,Celeste,74.3,149.69,106.59,165.56,421.84,Single-ply,SBD,M,
Boys,74.84,8,Isaiah Henderson,Celeste,70.13,158.76,81.65,163.29,403.7,Single-ply,SBD,M,
Boys,74.84,9,Colby Jones,Whitewright,71.76,142.88,97.52,156.49,396.89,Single-ply,SBD,M,
Boys,74.84,10,Brennan Bates,Sherman,67.86,158.76,77.11,154.22,390.09,Single-ply,SBD,M,
Boys,74.84,11,Brandon Wheeler,Pilot Point,67.68,147.42,79.38,156.49,383.29,Single-ply,SBD,M,
Boys,74.84,12,Hagan York,Whitewright,74.75,147.42,81.65,154.22,383.29,Single-ply,SBD,M,
Boys,74.84,13,Mike Koch,Van Alstyne,70.4,151.95,81.65,145.15,378.75,Single-ply,SBD,M,
Boys,74.84,14,Gabe Gibson,Bells,70.49,122.47,86.18,149.69,358.34,Single-ply,SBD,M,
Boys,74.84,15,Sean Portman,Whitesboro,69.94,127.01,86.18,140.61,353.8,Single-ply,SBD,M,
Boys,74.84,16,Darren Riddle,Whitesboro,72.85,124.74,74.84,127.01,326.59,Single-ply,SBD,M,
Boys,74.84,17,Elijah Bloem,Van Alstyne,70.58,117.93,70.31,129.27,317.51,Single-ply,SBD,M,
Boys,74.84,18,Creighton Gattis,Pottsboro,70.67,97.52,54.43,108.86,260.82,Single-ply,SBD,M,
Boys,74.84,19,Chayden Carey,Pottsboro,72.03,88.45,54.43,102.06,244.94,Single-ply,SBD,M,
Boys,74.84,DQ,Maverick Bowen,Gainesville,70.49,179.17,113.4,,,Single-ply,SBD,M,
Boys,74.84,DQ,Corey Malouf,Princeton,68.58,124.74,,,,Single-ply,SBD,M,
Boys,82.1,1,Victor Martinez,Pilot Point,80.1,278.96,151.95,199.58,630.49,Single-ply,SBD,M,
Boys,82.1,2,Ethan Cortez,Farmersville,81.1,219.99,142.88,242.67,605.55,Single-ply,SBD,M,
Boys,82.1,3,Rhett Attaway,Farmersville,78.74,226.8,108.86,254.01,589.67,Single-ply,SBD,M,
Boys,82.1,4,Mason Ford,Gainesville,79.83,222.26,138.35,201.85,562.45,Single-ply,SBD,M,
Boys,82.1,5,Jayce Morgan,Gainesville,78.93,222.26,138.35,190.51,551.11,Single-ply,SBD,M,
Boys,82.1,6,Jake Taylor,Van Alstyne,81.74,204.12,127.01,217.72,548.85,Single-ply,SBD,M,
Boys,82.1,7,Josué Hernández,Anna,75.21,204.12,131.54,204.12,539.77,Single-ply,SBD,M,
Boys,82.1,8,Cole Moore,Bells,81.69,188.24,120.2,192.78,501.22,Single-ply,SBD,M,
Boys,82.1,9,Cogan Grabowski,Farmersville,81.92,174.63,111.13,165.56,451.32,Single-ply,SBD,M,
Boys,82.1,10,Braydon Bradley,Princeton,81.19,197.31,102.06,147.42,446.79,Single-ply,SBD,M,
Boys,82.1,11,Charles Burkes,Gainesville,75.66,147.42,74.84,183.7,405.97,Single-ply,SBD,M,
Boys,82.1,12,Brendon Muisyo,Anna,80.92,142.88,88.45,174.63,405.97,Single-ply,SBD,M,
Boys,82.1,13,Collin Burns,Whitesboro,77.93,151.95,86.18,151.95,390.09,Single-ply,SBD,M,
Boys,82.1,14,Andrew Burdette,Pottsboro,80.01,149.69,88.45,151.95,390.09,Single-ply,SBD,M,
Boys,82.1,15,Will Frey,Van Alstyne,76.66,149.69,86.18,136.08,371.95,Single-ply,SBD,M,
Boys,82.1,16,Angel Jimenez #1,Blue Ridge,80.01,138.35,61.23,142.88,342.46,Single-ply,SBD,M,
Boys,82.1,17,Hunter Alexander,Van Alstyne,79.11,113.4,54.43,111.13,278.96,Single-ply,SBD,M,
Boys,82.1,DQ,Artrai Mile-Edmond,Princeton,75.57,,,,,Single-ply,SBD,M,
Boys,82.1,DQ,Jesse Izquierdo,Melissa,76.79,,,,,Single-ply,SBD,M,
Boys,89.81,1,Yovanni Juarez,Gainesville,89.18,272.16,192.78,215.46,680.39,Single-ply,SBD,M,
Boys,89.81,2,Dwayne Wilson,Gainesville,82.64,263.08,142.88,219.99,625.96,Single-ply,SBD,M,
Boys,89.81,3,Drayden Lawson,Pilot Point,86.18,233.6,127.01,244.94,605.55,Single-ply,SBD,M,
Boys,89.81,4,Dax Ogden,Melissa,87.09,235.87,120.2,204.12,560.19,Single-ply,SBD,M,
Boys,89.81,5,Kaleb Graham,Tom Bean,84.73,204.12,124.74,215.46,544.31,Single-ply,SBD,M,
Boys,89.81,6,Raul Hernandez #6,Howe,87.36,217.72,124.74,199.58,542.04,Single-ply,SBD,M,
Boys,89.81,7,Jayvin Rodriguez,Melissa,88.81,217.72,142.88,172.37,532.97,Single-ply,SBD,M,
Boys,89.81,8,Brady Henslee,Celeste,84.19,199.58,117.93,181.44,498.95,Single-ply,SBD,M,
Boys,89.81,9,Leo Martinez,Tom Bean,87.27,183.7,90.72,192.78,467.2,Single-ply,SBD,M,
Boys,89.81,10,Kasey Sanders #1,Whitewright,89.18,181.44,117.93,161.03,460.4,Single-ply,SBD,M,
Boys,89.81,11,Eber Padilla,Farmersville,84.1,165.56,90.72,183.7,439.98,Single-ply,SBD,M,
Boys,89.81,12,Seth Fulencheck,Denison,84.91,145.15,104.33,183.7,433.18,Single-ply,SBD,M,
Boys,89.81,13,Lance Riley,Melissa,86,163.29,92.99,165.56,421.84,Single-ply,SBD,M,
Boys,89.81,14,Ryan Rodriguez,Blue Ridge,84.19,165.56,92.99,158.76,417.3,Single-ply,SBD,M,
Boys,89.81,15,Jaden Hedges,Whitesboro,85.64,154.22,102.06,161.03,417.3,Single-ply,SBD,M,
Boys,89.81,16,Marshall Knowlton,Whitesboro,88.36,158.76,99.79,145.15,403.7,Single-ply,SBD,M,
Boys,89.81,17,Josh Powell,Blue Ridge,83.73,142.88,92.99,151.95,387.82,Single-ply,SBD,M,
Boys,89.81,18,Isaah Ryan,Bonham,84.55,151.95,70.31,140.61,362.87,Single-ply,SBD,M,
Boys,89.81,19,Andrew Peippo,Pottsboro,87.72,129.27,74.84,136.08,340.19,Single-ply,SBD,M,
Boys,89.81,DQ,Micahel Terrill,Van Alstyne,83.37,151.95,74.84,,,Single-ply,SBD,M,
Boys,99.79,1,Markos Morales,Whitesboro,91.81,233.6,133.81,249.48,616.89,Single-ply,SBD,M,
Boys,99.79,2,Brandon Fangman,Pilot Point,98.34,233.6,161.03,192.78,587.4,Single-ply,SBD,M,
Boys,99.79,3,Caden Joyce,Anna,90.45,233.6,124.74,224.53,582.87,Single-ply,SBD,M,
Boys,99.79,4,Jose Perez #16,Anna,96.07,192.78,133.81,208.65,535.24,Single-ply,SBD,M,
Boys,99.79,5,Jacob Kennedy,Bonham,92.8,199.58,115.67,201.85,517.1,Single-ply,SBD,M,
Boys,99.79,6,Caleb Artrip,Anna,95.25,179.17,131.54,170.1,480.81,Single-ply,SBD,M,
Boys,99.79,7,Jeremiah Velten,Whitesboro,92.71,181.44,88.45,190.51,460.4,Single-ply,SBD,M,
Boys,99.79,8,Jax Gage,Whitewright,93.62,181.44,106.59,161.03,449.06,Single-ply,SBD,M,
Boys,99.79,9,Wyatt Langwell,Blue Ridge,91.08,170.1,102.06,158.76,430.91,Single-ply,SBD,M,
Boys,99.79,10,Jake Alonzo,Pottsboro,92.62,154.22,111.13,151.95,417.3,Single-ply,SBD,M,
Boys,99.79,11,Jacob Field,Anna,95.98,151.95,102.06,163.29,417.3,Single-ply,SBD,M,
Boys,99.79,12,Riordan Maloney,Van Alstyne,97.34,183.7,86.18,142.88,412.77,Single-ply,SBD,M,
Boys,99.79,13,Zane Sun,Van Alstyne,94.98,149.69,108.86,147.42,405.97,Single-ply,SBD,M,
Boys,99.79,14,Cooper Carroll,Van Alstyne,90.45,133.81,86.18,151.95,371.95,Single-ply,SBD,M,
Boys,99.79,15,Mario Armenta,Van Alstyne,99.16,142.88,86.18,136.08,365.14,Single-ply,SBD,M,
Boys,99.79,DQ,Jude Walters,Denison,96.16,,,,,Single-ply,SBD,M,
Boys,99.79,DQ,Jackson Adkins,Howe,99.16,192.78,124.74,172.37,,Single-ply,SBD,M,
Boys,109.77,1,Jacob Batson,Farmersville,109.68,306.17,161.03,276.69,743.89,Single-ply,SBD,M,
Boys,109.77,2,Drew Williams,Denison,109.23,265.35,183.7,226.8,675.85,Single-ply,SBD,M,
Boys,109.77,3,Brandon Woods,Whitewright,105.87,254.01,161.03,240.4,655.44,Single-ply,SBD,M,
Boys,109.77,4,Conner Lynch,Pilot Point,108.95,260.82,156.49,226.8,644.1,Single-ply,SBD,M,
Boys,109.77,5,Andrew Bailey,Princeton,105.41,231.33,151.95,249.48,632.76,Single-ply,SBD,M,
Boys,109.77,6,Jose Conejo,Denison,107.77,249.48,149.69,226.8,625.96,Single-ply,SBD,M,
Boys,109.77,7,Ben Beggs,Pilot Point,107.14,233.6,136.08,226.8,596.47,Single-ply,SBD,M,
Boys,109.77,8,Tito Chavez,Sherman,107.14,222.26,129.27,238.14,589.67,Single-ply,SBD,M,
Boys,109.77,9,Braedon Schneider,Gainesville,107.5,238.14,138.35,199.58,576.06,Single-ply,SBD,M,
Boys,109.77,10,Colby Crawley,Denison,101.42,197.31,138.35,197.31,532.97,Single-ply,SBD,M,
Boys,109.77,11,Luke Jackson,Howe,101.6,170.1,111.13,183.7,464.93,Single-ply,SBD,M,
Boys,109.77,12,Caden Cobb,Whitesboro,100.15,174.63,104.33,174.63,453.59,Single-ply,SBD,M,
Boys,109.77,13,Jack Porter,Bonham,102.69,176.9,92.99,165.56,435.45,Single-ply,SBD,M,
Boys,109.77,14,Conner Markham,Whitesboro,100.15,163.29,92.99,172.37,428.64,Single-ply,SBD,M,
Boys,124.74,1,Jesse Coffey #2,Gainesville,113.58,249.48,183.7,217.72,650.91,Single-ply,SBD,M,
Boys,124.74,2,Blake Peters,Bells,110.77,263.08,165.56,210.92,639.57,Single-ply,SBD,M,
Boys,124.74,3,Benny Relford,Denison,116.3,235.87,131.54,226.8,594.21,Single-ply,SBD,M,
Boys,124.74,4,William Fleming,Howe,124.01,226.8,115.67,197.31,539.77,Single-ply,SBD,M,
Boys,124.74,5,Dakota Herrington,Howe,119.48,217.72,124.74,188.24,530.7,Single-ply,SBD,M,
Boys,124.74,6,Julian Rodriguez,Princeton,115.3,185.97,117.93,170.1,474,Single-ply,SBD,M,
Boys,124.74,7,Kristifer Stitzer,Pilot Point,118.12,183.7,129.27,158.76,471.74,Single-ply,SBD,M,
Boys,124.74,8,Bradley Carruth,Bonham,110.13,172.37,86.18,163.29,421.84,Single-ply,SBD,M,
Boys,124.74,9,Bryce Byler,Pottsboro,112.76,147.42,86.18,147.42,381.02,Single-ply,SBD,M,
Boys,124.74,10,Morgan Rupert,Whitesboro,114.12,149.69,90.72,136.08,376.48,Single-ply,SBD,M,
Boys,124.74,11,Angel Ragoza,Tom Bean,124.47,131.54,83.91,136.08,351.53,Single-ply,SBD,M,
Boys,124.74,DQ,Anthony Scalise,Princeton,115.94,183.7,,,,Single-ply,SBD,M,
Boys,124.74,DQ,Jordan Lamondue,Sherman,116.3,165.56,,,,Single-ply,SBD,M,
Boys,124.74,DQ,Zander Gonzales,Melissa,123.83,226.8,120.2,,,Single-ply,SBD,M,
Boys,124.74+,1,Colton Mitchell,Denison,133.17,281.23,140.61,224.53,646.37,Single-ply,SBD,M,
Boys,124.74+,2,Tyler Smith #2,Sherman,133.72,256.28,122.47,265.35,644.1,Single-ply,SBD,M,
Boys,124.74+,3,Gabe Sandoval,Farmersville,138.98,244.94,142.88,249.48,637.3,Single-ply,SBD,M,
Boys,124.74+,4,Scotty Straw,Bells,167.1,244.94,158.76,226.8,630.49,Single-ply,SBD,M,
Boys,124.74+,5,Elijah McFarland,Bonham,193.59,222.26,161.03,226.8,610.08,Single-ply,SBD,M,
Boys,124.74+,6,David Johnson #16,Princeton,131.27,219.99,145.15,213.19,578.33,Single-ply,SBD,M,
Boys,124.74+,7,Brandon Ward #4,Melissa,128.55,260.82,115.67,195.04,571.53,Single-ply,SBD,M,
Boys,124.74+,8,Elijah Ellis,Farmersville,166.29,183.7,147.42,195.04,526.17,Single-ply,SBD,M,
Boys,124.74+,9,Marc Anthony Gonzales,Whitewright,128.46,197.31,113.4,185.97,496.68,Single-ply,SBD,M,
Boys,124.74+,10,Kenny Morris,Pottsboro,143.43,204.12,95.25,195.04,494.42,Single-ply,SBD,M,
Boys,124.74+,11,Wade Graves,Whitesboro,134.81,174.63,136.08,163.29,474,Single-ply,SBD,M,
Boys,124.74+,12,Carson Sarrett,Melissa,134.72,192.78,108.86,142.88,444.52,Single-ply,SBD,M,
Boys,124.74+,DQ,Gavin Emerson,Gainesville,137.44,,,,,Single-ply,SBD,M,
