Division,WeightClassKg,Place,Name,Team,BodyweightKg,Best3SquatKg,Best3BenchKg,Best3DeadliftKg,TotalKg,Equipment,Event,Sex
Boys,51.71,1,Rudy Sanchez,Somerset,48.72,108.86,61.23,129.27,299.37,Single-ply,SBD,M
Boys,51.71,2,Tucker Klein,Fredericksburg,51.71,97.52,68.04,108.86,274.42,Single-ply,SBD,M
Boys,51.71,DQ,Jacob Forrester,Center Point,51.71,,,,,Single-ply,SBD,M
Boys,55.79,1,Eli Luna,Somerset,54.79,131.54,72.57,131.54,335.66,Single-ply,SBD,M
Boys,55.79,2,Derek Saulcedo,Pflugerville Connally,52.53,102.06,58.97,136.08,297.1,Single-ply,SBD,M
Boys,55.79,3,Fabian Apaez,Somerset,54.79,92.99,65.77,99.79,258.55,Single-ply,SBD,M
Boys,55.79,4,Dorian Price,Killeen Ellison,55.61,90.72,49.9,99.79,240.4,Single-ply,SBD,M
Boys,55.79,5,Andrew Solis,Pflugerville Connally,54.88,68.04,45.36,95.25,208.65,Single-ply,SBD,M
Boys,59.87,1,Cameron Saucedo,Kyle Lehman,58.42,167.83,97.52,161.03,426.38,Single-ply,SBD,M
Boys,59.87,2,Julian Rico,Somerset,59.87,161.03,90.72,167.83,419.57,Single-ply,SBD,M
Boys,59.87,3,Hayden Johnson,Center Point,59.42,147.42,72.57,142.88,362.87,Single-ply,SBD,M
Boys,59.87,4,Xavier Elizondo,Pflugerville Connally,59.87,106.59,58.97,145.15,310.71,Single-ply,SBD,M
Boys,59.87,5,Thomas Morales,Center Point,59.06,113.4,65.77,129.27,308.44,Single-ply,SBD,M
Boys,59.87,6,Josh Muniga,Geronimo Navarro,59.42,124.74,68.04,113.4,306.17,Single-ply,SBD,M
Boys,67.13,1,Julian Mata,Kyle Lehman,66.77,181.44,108.86,181.44,471.74,Single-ply,SBD,M
Boys,67.13,2,Dominick Espinoza,Center Point,65.95,181.44,92.99,181.44,455.86,Single-ply,SBD,M
Boys,67.13,3,Ray Heiser,Kyle Lehman,64.41,158.76,102.06,176.9,437.72,Single-ply,SBD,M
Boys,67.13,4,George Sanchez,Luling,66.32,165.56,86.18,181.44,433.18,Single-ply,SBD,M
Boys,67.13,5,Hunter Hernandez #3,Somerset,65.95,165.56,86.18,174.63,426.38,Single-ply,SBD,M
Boys,67.13,6,Mark Bundage,Kyle Lehman,66.04,154.22,99.79,167.83,421.84,Single-ply,SBD,M
Boys,67.13,7,Chandler Brill,Kyle Lehman,65.86,138.35,102.06,151.95,392.36,Single-ply,SBD,M
Boys,67.13,8,Ethan Ozuna,Center Point,65.32,145.15,61.23,183.7,390.09,Single-ply,SBD,M
Boys,67.13,9,Jaime Ortega,Fredericksburg,63.96,142.88,90.72,151.95,385.55,Single-ply,SBD,M
Boys,67.13,10,Joseph Hidalgo,Somerset,64.95,142.88,95.25,142.88,381.02,Single-ply,SBD,M
Boys,67.13,11,Israel Garcia,Kyle Lehman,64.68,142.88,79.38,145.15,367.41,Single-ply,SBD,M
Boys,67.13,12,Danny Villanueva,Kyle Lehman,66.5,136.08,79.38,151.95,367.41,Single-ply,SBD,M
Boys,67.13,13,Antonio Garcia,Somerset,61.87,115.67,77.11,167.83,360.61,Single-ply,SBD,M
Boys,67.13,14,Nathan Franklin,Somerset,64.5,124.74,77.11,138.35,340.19,Single-ply,SBD,M
Boys,67.13,15,Brandon Aguilar,Somerset,63.87,122.47,72.57,142.88,337.93,Single-ply,SBD,M
Boys,67.13,16,Jonathon Martinez,Luling,64.68,113.4,74.84,115.67,303.91,Single-ply,SBD,M
Boys,67.13,DQ,Kaleb Green,Pflugerville Connally,67.13,,,,,Single-ply,SBD,M
Boys,67.13,DQ,Darius McGrew,Pflugerville Connally,67.13,,,,,Single-ply,SBD,M
Boys,67.13,DQ,Chris Velazquez,Geronimo Navarro,66.77,204.12,,,,Single-ply,SBD,M
Boys,74.84,1,Joseph Lopez #5,Kyle Lehman,74.66,204.12,127.01,226.8,557.92,Single-ply,SBD,M
Boys,74.84,2,Roy DeLeon,Somerset,71.94,179.17,120.2,210.92,510.29,Single-ply,SBD,M
Boys,74.84,3,William Reyna,Geronimo Navarro,73.03,188.24,111.13,206.38,505.76,Single-ply,SBD,M
Boys,74.84,4,Jared Cooper,Geronimo Navarro,71.67,192.78,108.86,199.58,501.22,Single-ply,SBD,M
Boys,74.84,5,Euler de Leon,Geronimo Navarro,73.48,176.9,102.06,192.78,471.74,Single-ply,SBD,M
Boys,74.84,6,Brock McKiver,Killeen Ellison,74.3,181.44,106.59,176.9,464.93,Single-ply,SBD,M
Boys,74.84,7,Kekoa Engelman,Kyle Lehman,74.12,156.49,111.13,183.7,451.32,Single-ply,SBD,M
Boys,74.84,8,Steven Crenshaw,Pflugerville Connally,69.04,154.22,104.33,188.24,446.79,Single-ply,SBD,M
Boys,74.84,9,Josh Handley,Fredericksburg,72.67,161.03,102.06,176.9,439.98,Single-ply,SBD,M
Boys,74.84,10,Alberto Salazar,Somerset,68.04,149.69,104.33,176.9,430.91,Single-ply,SBD,M
Boys,74.84,11,Andrew Rodriguez,Kyle Lehman,69.49,158.76,86.18,151.95,396.89,Single-ply,SBD,M
Boys,74.84,12,Jaden Moreno,Pflugerville Connally,70.85,147.42,92.99,147.42,387.82,Single-ply,SBD,M
Boys,74.84,13,Jose Herrera,Somerset,74.21,117.93,81.65,167.83,367.41,Single-ply,SBD,M
Boys,74.84,14,Andrew Crober,Luling,72.85,124.74,72.57,149.69,347,Single-ply,SBD,M
Boys,74.84,15,Jacob Nieto,Geronimo Navarro,70.31,115.67,74.84,131.54,322.05,Single-ply,SBD,M
Boys,74.84,16,Trenton Cabiness,Center Point,67.31,104.33,70.31,120.2,294.84,Single-ply,SBD,M
Boys,82.1,1,Anthony Estrada,Somerset,78.47,238.14,147.42,263.08,648.64,Single-ply,SBD,M
Boys,82.1,2,Dylan Delgado,Somerset,80.65,215.46,120.2,215.46,551.11,Single-ply,SBD,M
Boys,82.1,3,Luis Rodriguez #7,Geronimo Navarro,81.1,204.12,129.27,199.58,532.97,Single-ply,SBD,M
Boys,82.1,4,Nathan Bryson,Kyle Lehman,80.29,188.24,127.01,206.38,521.63,Single-ply,SBD,M
Boys,82.1,5,Tre Moreno,Kyle Lehman,82.01,206.38,113.4,199.58,519.36,Single-ply,SBD,M
Boys,82.1,6,Eduardo Ventura,Kyle Lehman,82.1,192.78,120.2,201.85,514.83,Single-ply,SBD,M
Boys,82.1,7,Robert Nicholas,Killeen Ellison,80.56,183.7,104.33,204.12,492.15,Single-ply,SBD,M
Boys,82.1,8,Eston Epton,Fredericksburg,79.65,158.76,113.4,181.44,453.59,Single-ply,SBD,M
Boys,82.1,9,Stone Sahd,Geronimo Navarro,79.56,165.56,106.59,165.56,437.72,Single-ply,SBD,M
Boys,82.1,10,Michael Gonzalez,Somerset,76.38,156.49,108.86,154.22,419.57,Single-ply,SBD,M
Boys,82.1,11,Simon Sotiropoulos,Somerset,77.93,154.22,83.91,172.37,410.5,Single-ply,SBD,M
Boys,82.1,12,Noah Escamilla,Somerset,79.29,142.88,79.38,142.88,365.14,Single-ply,SBD,M
Boys,82.1,13,Nicholas Escobedo,Somerset,75.57,117.93,97.52,136.08,351.53,Single-ply,SBD,M
Boys,82.1,14,David Reyna,Geronimo Navarro,75.21,124.74,68.04,124.74,317.51,Single-ply,SBD,M
Boys,82.1,DQ,Paulo Valadez,Center Point,77.93,181.44,95.25,,,Single-ply,SBD,M
Boys,89.81,1,Jared Leal,Geronimo Navarro,87.63,238.14,131.54,263.08,632.76,Single-ply,SBD,M
Boys,89.81,2,Tyler Law,Geronimo Navarro,82.74,195.04,115.67,213.19,523.9,Single-ply,SBD,M
Boys,89.81,3,Josh Ewald,Kyle Lehman,86.73,201.85,111.13,210.92,523.9,Single-ply,SBD,M
Boys,89.81,4,Seth Sanchez,Kyle Lehman,88.63,195.04,117.93,208.65,521.63,Single-ply,SBD,M
Boys,89.81,5,Trey Bishop,Pflugerville Connally,87.72,188.24,136.08,188.24,512.56,Single-ply,SBD,M
Boys,89.81,6,Kristofer Melgar,Killeen Ellison,89.09,181.44,99.79,195.04,476.27,Single-ply,SBD,M
Boys,89.81,7,Joey Hernandez,Somerset,87.72,111.13,99.79,183.7,394.63,Single-ply,SBD,M
Boys,89.81,DQ,Meme Moreno,Somerset,82.37,249.48,,,,Single-ply,SBD,M
Boys,89.81,DQ,Arnold Hererra,Somerset,82.55,201.85,,,,Single-ply,SBD,M
Boys,99.79,1,Abel Longoria,Kyle Lehman,99.52,274.42,165.56,240.4,680.39,Single-ply,SBD,M
Boys,99.79,2,Joseph Bueno,Somerset,93.62,226.8,124.74,226.8,578.33,Single-ply,SBD,M
Boys,99.79,3,Aubrey Kelly,Killeen Ellison,95.44,210.92,104.33,231.33,546.58,Single-ply,SBD,M
Boys,99.79,4,Ethan Chapa,Center Point,93.26,215.46,124.74,190.51,530.7,Single-ply,SBD,M
Boys,99.79,5,Manuel Garcia,Somerset,96.43,226.8,106.59,183.7,517.1,Single-ply,SBD,M
Boys,99.79,6,Geronimo Flores,Somerset,97.98,158.76,102.06,181.44,442.25,Single-ply,SBD,M
Boys,99.79,7,John McKee,Pflugerville Connally,94.08,147.42,81.65,165.56,394.63,Single-ply,SBD,M
Boys,99.79,8,Jarron Lewis,Pflugerville Connally,90.08,140.61,90.72,151.95,383.29,Single-ply,SBD,M
Boys,99.79,9,Brett Butler,Geronimo Navarro,92.8,136.08,92.99,147.42,376.48,Single-ply,SBD,M
Boys,99.79,10,Chris Rivera,Pflugerville Connally,91.35,129.27,79.38,147.42,356.07,Single-ply,SBD,M
Boys,99.79,DQ,Darren Pierson,Pflugerville Connally,99.79,,,,,Single-ply,SBD,M
Boys,109.77,1,Eddie Moreno,Somerset,109.54,294.84,188.24,265.35,748.43,Single-ply,SBD,M
Boys,109.77,2,Colton Barnett,Geronimo Navarro,103.69,226.8,136.08,238.14,601.01,Single-ply,SBD,M
Boys,109.77,3,Michael Brietzke,Luling,103.33,235.87,124.74,235.87,596.47,Single-ply,SBD,M
Boys,109.77,4,Antares Gillespie,Killeen Ellison,104.14,188.24,113.4,226.8,528.44,Single-ply,SBD,M
Boys,109.77,5,Azreael Valle,Luling,103.24,170.1,108.86,163.29,442.25,Single-ply,SBD,M
Boys,109.77,6,Aaron Martinez #3,Kyle Lehman,103.6,163.29,102.06,158.76,424.11,Single-ply,SBD,M
Boys,109.77,7,Adrion Jaime,Somerset,103.87,136.08,95.25,167.83,399.16,Single-ply,SBD,M
Boys,109.77,8,Matthew Potter,Somerset,102.33,124.74,83.91,165.56,374.21,Single-ply,SBD,M
Boys,109.77,9,Daniel Ramos,Somerset,102.78,145.15,86.18,142.88,374.21,Single-ply,SBD,M
Boys,109.77,10,Osmany Diaz,Pflugerville Connally,104.69,136.08,88.45,145.15,369.68,Single-ply,SBD,M
Boys,109.77,DQ,Cory Alcala,Pflugerville Connally,109.77,,,,,Single-ply,SBD,M
Boys,124.74,1,James Woods,Somerset,123.29,335.66,181.44,276.69,793.79,Single-ply,SBD,M
Boys,124.74,2,Ethan Garcia #2,Kyle Lehman,116.39,240.4,127.01,233.6,601.01,Single-ply,SBD,M
Boys,124.74,3,Lazaro Mendez,Pflugerville Connally,111.58,229.06,136.08,226.8,591.94,Single-ply,SBD,M
Boys,124.74,4,Dylan Hatfield,Geronimo Navarro,122.11,229.06,138.35,197.31,564.72,Single-ply,SBD,M
Boys,124.74,5,Johnathan Vargas,Pflugerville Connally,118.75,158.76,117.93,181.44,458.13,Single-ply,SBD,M
Boys,124.74,6,Zarek Roberts,Killeen Ellison,110.77,154.22,106.59,190.51,451.32,Single-ply,SBD,M
Boys,124.74,DQ,Michael Perez #2,Somerset,123.65,104.33,,,,Single-ply,SBD,M
Boys,124.74+,1,Keith Jackson II,Killeen Ellison,161.39,294.84,138.35,233.6,666.78,Single-ply,SBD,M
Boys,124.74+,2,Carlos Morales,Kyle Lehman,136.08,263.08,161.03,226.8,650.91,Single-ply,SBD,M
Boys,124.74+,3,Brian Prickett,Kyle Lehman,128.64,249.48,154.22,240.4,644.1,Single-ply,SBD,M
Boys,124.74+,4,Ty Roaches,Kyle Lehman,126.46,260.82,145.15,219.99,625.96,Single-ply,SBD,M
Boys,124.74+,5,Garrett Dietert,Geronimo Navarro,125.55,249.48,131.54,215.46,596.47,Single-ply,SBD,M
Boys,124.74+,6,Isaiah Reyna,Somerset,138.44,249.48,97.52,219.99,566.99,Single-ply,SBD,M
Boys,124.74+,7,Chapman Rowe,Killeen Ellison,136.53,181.44,83.91,192.78,458.13,Single-ply,SBD,M
Boys,124.74+,8,Jacob Leos,Luling,126.73,181.44,99.79,145.15,426.38,Single-ply,SBD,M
Boys,124.74+,9,William Taylor,Killeen Ellison,130.09,61.23,70.31,115.67,247.21,Single-ply,SBD,M
