Name,BirthDate,Sex,Country,State,Event,Division,WeightClassKg,Best3BenchKg,Bench4Kg,Best3DeadliftKg,Deadlift4Kg,TotalKg,Equipment,Place
Omar Alaqeeli,,M,Saudi Arabia,,D,Class 1,60,,,137.5,,137.5,Single-ply,1
Ben Kammueller,,M,USA,WI,D,Class 1,67.5,,,200,,200,Single-ply,1
Justin Gourley,,M,USA,IL,D,Class 1,67.5,,,200,,200,Single-ply,2
Eric Nahorniak,,M,USA,NV,D,Class 1,67.5,,,197.5,,197.5,Single-ply,3
Donnie Miskinis,,M,USA,OH,D,Class 1,67.5,,,172.5,,172.5,Single-ply,4
Erik Vorsatz,,M,USA,CA,D,Class 1,75,,,207.5,,207.5,Single-ply,1
Joseph LaMonica,,M,Canada,,D,Class 1,75,,,200,,200,Single-ply,2
Andrew Billing,,M,USA,IL,D,Class 1,82.5,,,252.5,,252.5,Single-ply,1
Dan Marxheimer,,M,USA,WA,D,Class 1,82.5,,,227.5,,227.5,Single-ply,2
Jon Cunningham,,M,USA,UT,D,Class 1,82.5,,,210,,210,Single-ply,3
Brendan Ridings,,M,USA,IL,D,Class 1,90,,,287.5,,287.5,Single-ply,1
Earl Solidum,,M,USA,HI,D,Class 1,90,,,273,,273,Single-ply,2
Nate Krohn,,M,USA,MN,D,Class 1,90,,,272.5,,272.5,Single-ply,3
Adrian Yerby,,M,USA,CA,D,Class 1,90,,,272.5,,272.5,Single-ply,4
Bobby Burns,,M,USA,IN,D,Class 1,90,,,255,,255,Single-ply,5
Landon Cross,,M,USA,IL,D,Class 1,90,,,255,,255,Single-ply,6
H. Adam Cotto,,M,USA,LA,D,Class 1,90,,,220,,220,Single-ply,7
Jeremy Drecksel,,M,USA,UT,D,Class 1,100,,,275,,275,Single-ply,1
Andy Whitaker,,M,USA,LA,D,Class 1,100,,,265,,265,Single-ply,2
Steven Petersen,,M,USA,TX,D,Class 1,100,,,260,,260,Single-ply,3
Colin Keohuloa,,M,USA,HI,D,Class 1,117.5,,,300,,300,Single-ply,1
Stephen Henry,,M,USA,CA,D,Class 1,117.5,,,257.5,,257.5,Single-ply,2
Phillip Arroyo,,M,USA,WA,D,Class 1,117.5,,,227.5,,227.5,Single-ply,3
Brian Rizzo,,M,USA,OR,D,Class 1,125,,,,,,Single-ply,DQ
Brad Cikana,,M,USA,CA,D,Class 1,125,,,262.5,,262.5,Single-ply,1
Brandon Bankston,,M,USA,LA,D,Class 1,125,,,255,,255,Single-ply,2
Timothy Palengat,,M,USA,CA,D,Class 1,140,,,287.5,,287.5,Single-ply,1
Robert Speno,,M,USA,CA,D,Class 1,140,,,285,,285,Single-ply,2
Eric Welch,,M,USA,NV,D,Class 1,140+,,,315,,315,Single-ply,1
Thomas Guiney,,M,USA,OK,D,Class 1,140+,,,300,,300,Single-ply,2
Leo Contreras,,M,USA,CA,D,Class 1,140+,,,187.5,,187.5,Single-ply,3
Vilmar Oliveira,,M,Brazil,,D,Disabled,82.5,,,200,,200,Single-ply,1
Nick Lenhart,,M,USA,UT,D,Juniors 20-25,60,,,220,,220,Single-ply,1
Neal Crago,,M,USA,IL,D,Juniors 20-25,60,,,207.5,,207.5,Single-ply,2
Ben Kammueller,,M,USA,WI,D,Juniors 20-25,67.5,,,200,,200,Single-ply,1
Marek Czaja-Guyott,,M,USA,WA,D,Juniors 20-25,67.5,,,165,,165,Single-ply,2
Laramie McMasters,,M,USA,IL,D,Juniors 20-25,75,,,255,,255,Single-ply,1
Kyle Dupont,,M,USA,WA,D,Juniors 20-25,75,,,137.5,,137.5,Single-ply,2
Steven Herrmann,,M,USA,MI,D,Juniors 20-25,82.5,,,280,,280,Single-ply,1
Galen Lyle,,M,USA,MN,D,Juniors 20-25,82.5,,,220,,220,Single-ply,2
Brendan Ridings,,M,USA,IL,D,Juniors 20-25,90,,,287.5,,287.5,Single-ply,1
Bobby Burns,,M,USA,IN,D,Juniors 20-25,90,,,255,,255,Single-ply,2
Landon Cross,,M,USA,IL,D,Juniors 20-25,90,,,255,,255,Single-ply,3
Royce Greenberg,,M,USA,IL,D,Juniors 20-25,90,,,250,,250,Single-ply,4
Slavic Samoylich,,M,USA,CO,D,Juniors 20-25,90,,,230,,230,Single-ply,5
H. Adam Cotto,,M,USA,LA,D,Juniors 20-25,90,,,220,,220,Single-ply,6
Jon Mokma,,M,USA,MI,D,Juniors 20-25,90,,,212.5,,212.5,Single-ply,7
Jason Perez,,M,USA,TX,D,Juniors 20-25,100,,,295,,295,Single-ply,1
Patrick Shippert,,M,USA,IL,D,Juniors 20-25,100,,,275,,275,Single-ply,2
Daniel Winslow,,M,USA,ID,D,Juniors 20-25,100,,,272.5,,272.5,Single-ply,3
Andy Whitaker,,M,USA,LA,D,Juniors 20-25,100,,,265,,265,Single-ply,4
Kyle Herzik,,M,USA,NV,D,Juniors 20-25,100,,,230,,230,Single-ply,5
Adam Contreras #1,,M,USA,CA,D,Juniors 20-25,100,,,187.5,,187.5,Single-ply,6
Andy Munsey,,M,USA,OR,D,Juniors 20-25,110,,,265,,265,Single-ply,1
Tommy Mendoza,,M,USA,CA,D,Juniors 20-25,110,,,245,,245,Single-ply,2
Ben Smith #10,,M,USA,ME,D,Juniors 20-25,110,,,210,,210,Single-ply,3
David Bergman,,M,USA,MA,D,Juniors 20-25,117.5,,,260,,260,Single-ply,1
Ronnie Castro,,M,USA,CA,D,Juniors 20-25,140,,,305,,305,Single-ply,1
Adam Fissori,,M,USA,CA,D,Juniors 20-25,140,,,205,,205,Single-ply,2
Tyler Roessler,,M,USA,UT,D,Juniors 20-25,140+,,,282.5,,282.5,Single-ply,1
Natalie Freed,,F,USA,PA,D,Juniors 20-25,48,,,137.5,,137.5,Single-ply,1
Katelyn Tobin,,F,USA,MN,D,Juniors 20-25,52,,,147.5,,147.5,Single-ply,1
Erin Lyman,,F,USA,WA,D,Juniors 20-25,67.5,,,147.5,,147.5,Single-ply,1
Jim Casemier,,M,USA,MI,D,Law-Fire 40-47,110,,,295,,295,Single-ply,1
Ismyanto Soekardi,,M,USA,CA,D,Law-Fire 40-47,110,,,287.5,,287.5,Single-ply,2
Dave Marchant,,M,USA,UT,D,Law-Fire 40-47,140+,,,267.5,,267.5,Single-ply,1
William Denniston,,M,USA,MI,D,Law-Fire 48-55,100,,,197.5,,197.5,Single-ply,1
Rauaroha Joy Heta,,F,New Zealand,,D,Law-Fire 40-47,90+,,,145,,145,Single-ply,1
Jason Dean,,M,USA,AL,D,Law-Fire Open,75,,,205,,205,Single-ply,1
Adrian Yerby,,M,USA,CA,D,Law-Fire Open,90,,,272.5,,272.5,Single-ply,1
Evandro Casa Grande,,M,Brazil,,D,Law-Fire Open,110,,,330.5,,330.5,Single-ply,1
Ismyanto Soekardi,,M,USA,CA,D,Law-Fire Open,110,,,287.5,,287.5,Single-ply,2
Devin Tallerico,,M,USA,CA,D,Law-Fire Open,110,,,252.5,,252.5,Single-ply,3
Ricardo Nort,,M,Brazil,,D,Law-Fire Open,140,,,322.5,,322.5,Single-ply,1
Marcus Austin,,M,USA,OK,D,Law-Fire Open,140,,,227.5,,227.5,Single-ply,2
Keoni Reich,,M,USA,HI,D,Law-Fire Open,140+,,,318.5,,318.5,Single-ply,1
Laurie Lamp,,F,USA,WA,D,Law-Fire Open,56,,,95,,95,Single-ply,1
David Rowland,,M,USA,IL,D,Law-Fire Submasters,82.5,,,177.5,,177.5,Single-ply,1
Evandro Casa Grande,,M,Brazil,,D,Law-Fire Submasters,110,,,330.5,,330.5,Single-ply,1
Devin Tallerico,,M,USA,CA,D,Law-Fire Submasters,110,,,252.5,,252.5,Single-ply,2
Ricardo Nort,,M,Brazil,,D,Law-Fire Submasters,140,,,322.5,,322.5,Single-ply,1
Marcus Austin,,M,USA,OK,D,Law-Fire Submasters,140,,,227.5,,227.5,Single-ply,2
Keoni Reich,,M,USA,HI,D,Law-Fire Submasters,140+,,,318.5,,318.5,Single-ply,1
Lee Itule,,F,USA,AZ,D,Law-Fire Submasters,67.5,,,130,,130,Single-ply,1
Dariel T. Unson,,M,USA,WA,D,Masters 40-46,75,,,217.5,,217.5,Single-ply,1
Dan Guches,,M,USA,OR,D,Masters 40-46,82.5,,,267.5,,267.5,Single-ply,1
Sakari Selkäinaho,,M,Finland,,D,Masters 40-46,82.5,,,255,,255,Single-ply,2
Brian Baertlein,,M,USA,OR,D,Masters 40-46,82.5,,,242.5,,242.5,Single-ply,3
Jon Cunningham,,M,USA,UT,D,Masters 40-46,82.5,,,210,,210,Single-ply,4
Rolando Espinoza,,M,USA,TX,D,Masters 40-46,82.5,,,207.5,,207.5,Single-ply,5
Mark Hatfield,,M,USA,CA,D,Masters 40-46,90,,,207.5,,207.5,Single-ply,1
Al Tortorelli,,M,USA,CA,D,Masters 40-46,100,,,285,,285,Single-ply,1
Steven Petersen,,M,USA,TX,D,Masters 40-46,100,,,260,,260,Single-ply,2
Harlan South,,M,USA,IL,D,Masters 40-46,100,,,252.5,,252.5,Single-ply,3
Donnie Hamblin,,M,USA,AZ,D,Masters 40-46,100,,,207.5,,207.5,Single-ply,4
Donald James Jr,,M,USA,OR,D,Masters 40-46,100,,,172.5,,172.5,Single-ply,5
Al Bianchi,,M,USA,MA,D,Masters 40-46,110,,,300,,300,Single-ply,1
Jim Casemier,,M,USA,MI,D,Masters 40-46,110,,,295,,295,Single-ply,2
Robert Exum,,M,USA,CA,D,Masters 40-46,110,,,275,,275,Single-ply,3
Terry Putman,,M,USA,OK,D,Masters 40-46,117.5,,,308,,308,Single-ply,1
Khalid Shadid,,M,USA,TX,D,Masters 40-46,125,,,305.5,,305.5,Single-ply,1
Russ Bennett,,M,USA,UT,D,Masters 40-46,125,,,295,,295,Single-ply,2
Mark Phillips,,M,USA,TN,D,Masters 40-46,140,,,275,,275,Single-ply,1
Eric Welch,,M,USA,NV,D,Masters 40-46,140+,,,315,,315,Single-ply,1
Thomas Guiney,,M,USA,OK,D,Masters 40-46,140+,,,300,,300,Single-ply,2
Dean Munsey,,M,USA,OR,D,Masters 40-46,140+,,,300,,300,Single-ply,3
John Hudson,,M,USA,TX,D,Masters 40-46,140+,,,297.5,,297.5,Single-ply,4
Dave Marchant,,M,USA,UT,D,Masters 40-46,140+,,,267.5,,267.5,Single-ply,5
Glenn Murphy,,M,USA,MD,D,Masters 47-53,56,,,132.5,,132.5,Single-ply,1
Dean Kaneshiro,,M,USA,HI,D,Masters 47-53,67.5,,,255,,255,Single-ply,1
Alfredo Evangelista,,M,USA,OR,D,Masters 47-53,67.5,,,202.5,,202.5,Single-ply,2
Richard Cirigliano,,M,USA,CA,D,Masters 47-53,75,,,272.5,,272.5,Single-ply,1
Fulton White,,M,USA,NV,D,Masters 47-53,75,,,232.5,,232.5,Single-ply,2
Tom Eiseman,,M,USA,NJ,D,Masters 47-53,82.5,,,330,,330,Single-ply,1
Mark Lo,,M,USA,HI,D,Masters 47-53,82.5,,,227.5,,227.5,Single-ply,2
David Brekke,,M,USA,CO,D,Masters 47-53,82.5,,,217.5,,217.5,Single-ply,3
Flavio Da Costa Baptista,,M,Brazil,,D,Masters 47-53,82.5,,,150,,150,Single-ply,4
Leamon Woodley,,M,USA,WA,D,Masters 47-53,90,,,305,,305,Single-ply,1
Sergey Dermelev,,M,Estonia,,D,Masters 47-53,90,,,280,,280,Single-ply,2
William Kevin Stirling,,M,Canada,,D,Masters 47-53,90,,,190,,190,Single-ply,3
Neil Schoenebeck,,M,USA,MI,D,Masters 47-53,100,,,297.5,,297.5,Single-ply,1
Duane Burlingame,,M,USA,IL,D,Masters 47-53,100,,,292.5,,292.5,Single-ply,2
Al Dawson,,M,USA,WA,D,Masters 47-53,110,,,302.5,,302.5,Single-ply,1
Gary Stevens,,M,USA,WY,D,Masters 47-53,110,,,245,,245,Single-ply,2
Steve Gaytan,,M,USA,CA,D,Masters 47-53,110,,,242.5,,242.5,Single-ply,3
Mark Patrick,,M,USA,GA,D,Masters 47-53,110,,,227.5,,227.5,Single-ply,4
Ron L'Huillier,,M,USA,MI,D,Masters 47-53,117.5,,,235,,235,Single-ply,1
Phillip Arroyo,,M,USA,WA,D,Masters 47-53,117.5,,,227.5,,227.5,Single-ply,2
Andy Medak,,M,USA,WA,D,Masters 47-53,140,,,295,,295,Single-ply,1
Joe Mickelson,,M,USA,WA,D,Masters 47-53,140,,,277.5,,277.5,Single-ply,2
Allen Heta,,M,New Zealand,,D,Masters 47-53,140,,,190,,190,Single-ply,3
Alan Valentin,,M,USA,HI,D,Masters 47-53,140+,,,252.5,,252.5,Single-ply,1
Gary Bobrovitz,,M,Canada,,D,Masters 54-60,60,,,150,,150,Single-ply,1
Gregory Kleyn,,M,USA,IL,D,Masters 54-60,75,,,245,,245,Single-ply,1
Alan Sheen,,M,USA,LA,D,Masters 54-60,75,,,182.5,,182.5,Single-ply,2
Gary Miller #2,,M,USA,NV,D,Masters 54-60,75,,,152.5,,152.5,Single-ply,3
Eric Ansberry,,M,USA,CA,D,Masters 54-60,82.5,,,205,,205,Single-ply,1
Jack Rankin,,M,USA,WA,D,Masters 54-60,82.5,,,202.5,,202.5,Single-ply,2
Terrence Wilder,,M,USA,TX,D,Masters 54-60,82.5,,,200,,200,Single-ply,3
Anders Wahlund,,M,Sweden,,D,Masters 54-60,90,,,260,,260,Single-ply,1
Mick Stevens,,M,USA,WA,D,Masters 54-60,90,,,242.5,,242.5,Single-ply,2
Rudy Kadlub,,M,USA,OR,D,Masters 54-60,90,,,230,,230,Single-ply,3
Mark Jamey Mauldin,,M,USA,TX,D,Masters 54-60,90,,,222.5,,222.5,Single-ply,4
Brian Kline,,M,USA,TX,D,Masters 54-60,90,,,207.5,,207.5,Single-ply,5
Peter Murphy #1,,M,USA,CA,D,Masters 54-60,100,,,237.5,,237.5,Single-ply,1
Randy Waldorf,,M,USA,MN,D,Masters 54-60,100,,,230,,230,Single-ply,2
Robert Wass,,M,USA,OR,D,Masters 54-60,100,,,217.5,,217.5,Single-ply,3
Ray Dela Cruz,,M,USA,HI,D,Masters 54-60,100,,,215,,215,Single-ply,4
Kenneth Kirk,,M,USA,CA,D,Masters 54-60,100,,,167.5,,167.5,Single-ply,5
Eddie Morgan #1,,M,USA,AR,D,Masters 54-60,117.5,,,295.5,,295.5,Single-ply,1
Dan Harkins,,M,USA,WA,D,Masters 54-60,117.5,,,190,,190,Single-ply,2
Tom Morgan,,M,USA,AR,D,Masters 54-60,125,,,240,,240,Single-ply,1
Leo Contreras,,M,USA,CA,D,Masters 54-60,140+,,,187.5,,187.5,Single-ply,1
Ted Feight,,M,USA,MI,D,Masters 61-67,67.5,,,165,,165,Single-ply,1
James Christian #1,,M,USA,TX,D,Masters 61-67,75,,,225,,225,Single-ply,1
Moses Timbal,,M,USA,HI,D,Masters 61-67,75,,,220,,220,Single-ply,2
Arlindo da Silva,,M,Brazil,,D,Masters 61-67,75,,,175,,175,Single-ply,3
Ron White #1,,M,USA,WA,D,Masters 61-67,75,,,137.5,,137.5,Single-ply,4
Robert Krowech,,M,USA,MN,D,Masters 61-67,82.5,,,265.5,,265.5,Single-ply,1
Ed Angstrom,,M,USA,IA,D,Masters 61-67,82.5,,,190,,190,Single-ply,2
Tom Haggenmiller,,M,USA,MN,D,Masters 61-67,90,,,207.5,,207.5,Single-ply,1
Vincent Breaux,,M,USA,LA,D,Masters 61-67,100,,,255,,255,Single-ply,2
Olício dos Santos Filho,,M,Brazil,,D,Masters 61-67,100,,,300,305,300,Single-ply,1
Bob Evans #3,,M,USA,CA,D,Masters 61-67,110,,,170,,170,Single-ply,1
Bud Davis,,M,USA,UT,D,Masters 61-67,117.5,,,295,,295,Single-ply,1
Richard Gidcumb,,M,USA,MI,D,Masters 68-74,67.5,,,157.5,,157.5,Single-ply,1
Leo Houkala,,M,Sweden,,D,Masters 68-74,75,,,230,,230,Single-ply,1
Don Andrade,,M,USA,CA,D,Masters 68-74,75,,,165,,165,Single-ply,2
Bill Tinkler,,M,USA,FL,D,Masters 68-74,75,,,160,,160,Single-ply,3
Rudy Lozano,,M,USA,CA,D,Masters 68-74,82.5,,,182.5,,182.5,Single-ply,1
Richard Perkins,,M,USA,LA,D,Masters 68-74,90,,,170,,170,Single-ply,1
Jim Huggins,,M,USA,WA,D,Masters 68-74,100,,,190,,190,Single-ply,1
Fred Peterson,,M,USA,MA,D,Masters 68-74,117.5,,,282.5,,282.5,Single-ply,1
Robert Cortes,,M,USA,CA,D,Masters 75-79,75,,,203,,203,Single-ply,1
Richard Waite,,M,USA,WA,D,Masters 75-79,90,,,150,,150,Single-ply,1
Russell Combest,,M,USA,OH,D,Masters 75-79,110,,,195,,195,Single-ply,1
Lou Corulli,,M,USA,WA,D,Masters 75-79,110,,,182.5,,182.5,Single-ply,2
Robert Fornachon,,M,USA,CA,D,Masters 80-84,67.5,,,82.5,,82.5,Single-ply,1
Arthur Whinston,,M,USA,OR,D,Masters 80-84,67.5,,,60,,60,Single-ply,2
Jim Schall,,M,USA,WA,D,Masters 80-84,75,,,137.5,,137.5,Single-ply,1
Bill Grubbs,,M,USA,HI,D,Masters 80-84,75,,,125,,125,Single-ply,2
Bladen McClelland,,M,USA,MI,D,Masters 85-89,82.5,,,125,,125,Single-ply,1
Alexandra Vallejo,,F,USA,CA,D,Masters 40-46,48,,,122.5,,122.5,Single-ply,1
Claudia Rivera,,F,USA,CA,D,Masters 40-46,52,,,122.5,,122.5,Single-ply,1
Alison Barnhill,,F,USA,CA,D,Masters 40-46,56,,,132.5,,132.5,Single-ply,1
Laurie Lamp,,F,USA,WA,D,Masters 40-46,56,,,95,,95,Single-ply,2
Lynda Christopher,,F,USA,AZ,D,Masters 40-46,56,,,80,,80,Single-ply,3
Betty Cable,,F,USA,IL,D,Masters 40-46,60,,,127.5,,127.5,Single-ply,1
Teresa Jacobs,,F,USA,WA,D,Masters 40-46,67.5,,,188,,188,Single-ply,1
Jeanne Watts,,F,USA,CA,D,Masters 40-46,67.5,,,175,,175,Single-ply,2
Sheri Klocke,,F,USA,OR,D,Masters 40-46,75,,,157.5,,157.5,Single-ply,1
Jennifer Taylor,,F,USA,OR,D,Masters 40-46,82.5,,,187.5,,187.5,Single-ply,1
Kelli Sandoval,,F,USA,OR,D,Masters 40-46,90,,,182.5,,182.5,Single-ply,1
Karen Campbell,,F,USA,ME,D,Masters 40-46,90,,,170,,170,Single-ply,2
Rauaroha Joy Heta,,F,New Zealand,,D,Masters 40-46,90+,,,145,,145,Single-ply,1
Karen Poyner,,F,USA,VA,D,Masters 47-53,48,,,122.5,,122.5,Single-ply,1
Maria Vermes,,F,USA,CA,D,Masters 47-53,48,,,120,,120,Single-ply,2
Suzanne Hedman,,F,USA,CA,D,Masters 47-53,52,,,137.5,,137.5,Single-ply,1
Jeanne Morris,,F,USA,WA,D,Masters 47-53,52,,,112.5,,112.5,Single-ply,2
Barbara Mc Guire,,F,USA,WA,D,Masters 47-53,56,,,85,,85,Single-ply,1
Cindy Weber,,F,USA,TN,D,Masters 47-53,82.5,,,187.5,,187.5,Single-ply,1
Pamela Michaels-Olson,,F,USA,WA,D,Masters 47-53,82.5,,,163.5,,163.5,Single-ply,2
Marilyn Lewis,,F,USA,WA,D,Masters 47-53,82.5,,,150,,150,Single-ply,3
Juanita Mangaoang,,F,USA,WA,D,Masters 47-53,90+,,,155,,155,Single-ply,1
Margie Huston,,F,USA,WA,D,Masters 47-53,90+,,,127.5,,127.5,Single-ply,2
Sue Vaterlaus,,F,USA,CA,D,Masters 47-53,90+,,,122.5,,122.5,Single-ply,3
Sherry Abblett,,F,USA,CA,D,Masters 54-60,44,,,95.5,,95.5,Single-ply,1
Ita Pantilat,,F,USA,WA,D,Masters 54-60,52,,,136.5,,136.5,Single-ply,1
Susan Bax,,F,USA,CA,D,Masters 54-60,67.5,,,89,,89,Single-ply,1
Victoria Evans,,F,USA,IN,D,Masters 54-60,75,,,85,,85,Single-ply,1
Delia Chilgren,,F,USA,CA,D,Masters 54-60,90,,,112.5,,112.5,Single-ply,1
Betty Lafferty,,F,USA,AL,D,Masters 61-67,52,,,92.5,97.5,92.5,Single-ply,1
Winifred Pristell,,F,USA,WA,D,Masters 68-74,82.5,,,110,115,110,Single-ply,1
Malvina Basso,,F,Brazil,,D,Masters 75-79,60,,,60,,60,Single-ply,1
Florence Combest,,F,USA,OH,D,Masters 75-79,67.5,,,82.5,,82.5,Single-ply,1
Melicent Whinston,,F,USA,OR,D,Masters 80-84,60,,,60,65,60,Single-ply,1
Tony Scheldrup,,M,USA,MN,D,Open,52,,,192.5,,192.5,Single-ply,1
Gary Bobrovitz,,M,Canada,,D,Open,60,,,150,,150,Single-ply,1
Omar Alaqeeli,,M,Saudi Arabia,,D,Open,60,,,137.5,,137.5,Single-ply,2
Nick Dunn #1,,M,USA,UT,D,Open,67.5,,,267.5,,267.5,Single-ply,1
Dean Kaneshiro,,M,USA,HI,D,Open,67.5,,,255,,255,Single-ply,2
Chris Balanga,,M,USA,CA,D,Open,67.5,,,220,,220,Single-ply,3
Ryan Snelling,,M,USA,MO,D,Open,75,,,282.5,,282.5,Single-ply,1
Pasi Sipiläinen,,M,Finland,,D,Open,75,,,272.5,,272.5,Single-ply,2
Richard Cirigliano,,M,USA,CA,D,Open,75,,,272.5,,272.5,Single-ply,3
Leo Houkala,,M,Sweden,,D,Open,75,,,230,,230,Single-ply,4
Ammon Stephens,,M,USA,UT,D,Open,75,,,192.5,,192.5,Single-ply,5
Tom Eiseman,,M,USA,NJ,D,Open,82.5,,,330,,330,Single-ply,1
David Jurgens,,M,USA,CA,D,Open,82.5,,,285,,285,Single-ply,2
Robert Krowech,,M,USA,MN,D,Open,82.5,,,265.5,,265.5,Single-ply,3
Sakari Selkäinaho,,M,Finland,,D,Open,82.5,,,255,,255,Single-ply,4
Aaron Pina,,M,USA,NM,D,Open,82.5,,,245,,245,Single-ply,5
Korry Kowarsch,,M,USA,MN,D,Open,82.5,,,237.5,,237.5,Single-ply,6
Jason Wright,,M,USA,VA,D,Open,82.5,,,235,,235,Single-ply,7
Nelson Diaz,,M,USA,OR,D,Open,82.5,,,225,,225,Single-ply,8
Chris Mangano,,M,USA,CA,D,Open,90,,,,,,Single-ply,DQ
Josh Decker,,M,USA,MI,D,Open,90,,,310,,310,Single-ply,1
Leamon Woodley,,M,USA,WA,D,Open,90,,,305,,305,Single-ply,2
Jared Wilsey,,M,USA,TN,D,Open,90,,,282.5,,282.5,Single-ply,3
Doug Tracy,,M,USA,NV,D,Open,90,,,265,,265,Single-ply,4
Anders Wahlund,,M,Sweden,,D,Open,90,,,260,,260,Single-ply,5
Tatu Avola,,M,Finland,,D,Open,100,,,325,,325,Single-ply,1
Niclas Friberg,,M,Sweden,,D,Open,100,,,295,,295,Single-ply,2
Duane Burlingame,,M,USA,IL,D,Open,100,,,292.5,,292.5,Single-ply,3
Ryan Brault,,M,USA,IL,D,Open,100,,,247.5,,247.5,Single-ply,4
Dan Simpson,,M,USA,CA,D,Open,100,,,205,,205,Single-ply,5
Al Bianchi,,M,USA,MA,D,Open,110,,,300,,300,Single-ply,1
Jeremy Zimmerman,,M,Canada,,D,Open,110,,,272.5,,272.5,Single-ply,2
Jani Toivo Kristian Ihalainen,,M,Finland,,D,Open,117.5,,,,,,Single-ply,DQ
Eric Krych,,M,USA,MN,D,Open,117.5,,,312.5,,312.5,Single-ply,1
Terry Putman,,M,USA,OK,D,Open,117.5,,,308,,308,Single-ply,2
Colin Keohuloa,,M,USA,HI,D,Open,117.5,,,300,,300,Single-ply,3
Bill Hislop,,M,USA,MI,D,Open,117.5,,,285,,285,Single-ply,4
Kegan Engelke,,M,USA,WA,D,Open,117.5,,,255,,255,Single-ply,5
Ryan Klein,,M,USA,NV,D,Open,125,,,363,,363,Single-ply,1
Jari Rosendahl,,M,Finland,,D,Open,125,,,335,,335,Single-ply,2
Jerry Pritchett,,M,USA,AZ,D,Open,125,,,327.5,,327.5,Single-ply,3
Khalid Shadid,,M,USA,TX,D,Open,125,,,305.5,,305.5,Single-ply,4
Brad Cikana,,M,USA,CA,D,Open,125,,,262.5,,262.5,Single-ply,5
Jussi Tuomainen,,M,Finland,,D,Open,140,,,360,,360,Single-ply,1
Dave Forstner,,M,USA,MI,D,Open,140,,,305,,305,Single-ply,2
Ronnie Castro,,M,USA,CA,D,Open,140,,,305,,305,Single-ply,3
Andy Medak,,M,USA,WA,D,Open,140,,,295,,295,Single-ply,4
Joe Mickelson,,M,USA,WA,D,Open,140,,,277.5,,277.5,Single-ply,5
Mark Phillips,,M,USA,TN,D,Open,140,,,275,,275,Single-ply,6
Odd Haugen,,M,Norway,,D,Open,140+,,,327.5,,327.5,Single-ply,1
David Edgell,,M,USA,UT,D,Open,140+,,,327.5,,327.5,Single-ply,2
Chris Grantano,,M,USA,CA,D,Open,140+,,,325,,325,Single-ply,3
John Hudson,,M,USA,TX,D,Open,140+,,,297.5,,297.5,Single-ply,4
Dave O'Neill,,M,USA,OR,D,Open,140+,,,257.5,,257.5,Single-ply,5
Karen Poyner,,F,USA,VA,D,Open,48,,,122.5,,122.5,Single-ply,1
Alexandra Vallejo,,F,USA,CA,D,Open,48,,,122.5,,122.5,Single-ply,2
Katelyn Tobin,,F,USA,MN,D,Open,52,,,147.5,,147.5,Single-ply,1
Ita Pantilat,,F,USA,WA,D,Open,52,,,136.5,,136.5,Single-ply,2
Mia Howard,,F,USA,HI,D,Open,52,,,107.5,,107.5,Single-ply,3
Betty Lafferty,,F,USA,AL,D,Open,52,,,97.5,,97.5,Single-ply,4
Alison Barnhill,,F,USA,CA,D,Open,56,,,132.5,,132.5,Single-ply,1
Rachele Unson,,F,USA,WA,D,Open,56,,,120,,120,Single-ply,2
Lynda Christopher,,F,USA,AZ,D,Open,56,,,80,,80,Single-ply,3
Mary Ann Hobbs,,F,USA,WA,D,Open,60,,,142.5,,142.5,Single-ply,1
Teresa Jacobs,,F,USA,WA,D,Open,67.5,,,188,,188,Single-ply,1
Jeanne Watts,,F,USA,CA,D,Open,67.5,,,175,,175,Single-ply,2
Christy Danielson,,F,USA,UT,D,Open,67.5,,,130,,130,Single-ply,3
Shawna Staines,,F,USA,CA,D,Open,67.5,,,127.5,,127.5,Single-ply,4
Teri Agenbroad,,F,USA,NV,D,Open,67.5,,,127.5,,127.5,Single-ply,5
Christina Robinson,,F,USA,CA,D,Open,75,,,145,,145,Single-ply,1
Cindy Weber,,F,USA,TN,D,Open,82.5,,,187.5,,187.5,Single-ply,1
Courtney Gathright,,F,USA,TX,D,Open,82.5,,,182.5,,182.5,Single-ply,2
Francesca Mangaoang-Brodine,,F,USA,WA,D,Open,90,,,180,,180,Single-ply,1
L. Janet Loveall,,F,USA,CA,D,Open,90,,,180,,180,Single-ply,2
Karen Campbell,,F,USA,ME,D,Open,90,,,170,,170,Single-ply,3
Dawn Richards,,F,USA,UT,D,Open,90+,,,200,,200,Single-ply,1
Shane Rocha,,M,USA,NV,D,Special Olympian,48,,,70,,70,Single-ply,1
Brady Tanner,,M,USA,KS,D,Special Olympian,110,,,232.5,235,232.5,Single-ply,1
Bobby Lord,,M,USA,TX,D,Special Olympian,117.5,,,272.5,,272.5,Single-ply,1
Jock Mayes,,M,USA,CA,D,Special Olympian,140+,,,150,,150,Single-ply,1
Monte Hokoana,,M,USA,HI,D,Submasters 33-39,75,,,262.5,,262.5,Single-ply,1
George Soto,,M,USA,CA,D,Submasters 33-39,82.5,,,247.5,,247.5,Single-ply,1
Nate Krohn,,M,USA,MN,D,Submasters 33-39,90,,,272.5,,272.5,Single-ply,1
Niclas Friberg,,M,Sweden,,D,Submasters 33-39,100,,,,,,Single-ply,DQ
Jeremy Drecksel,,M,USA,UT,D,Submasters 33-39,100,,,275,,275,Single-ply,1
Ed Barnes,,M,USA,CA,D,Submasters 33-39,100,,,275,,275,Single-ply,2
Brian Graupmann,,M,USA,MN,D,Submasters 33-39,100,,,205,,205,Single-ply,3
Bill Hislop,,M,USA,MI,D,Submasters 33-39,117.5,,,285,,285,Single-ply,1
Sean Erhardt,,M,USA,WA,D,Submasters 33-39,117.5,,,277.5,,277.5,Single-ply,2
Brandon Bankston,,M,USA,LA,D,Submasters 33-39,125,,,255,,255,Single-ply,1
Dave Forstner,,M,USA,MI,D,Submasters 33-39,140,,,305,,305,Single-ply,1
David Edgell,,M,USA,UT,D,Submasters 33-39,140+,,,327.5,,327.5,Single-ply,1
Chris Grantano,,M,USA,CA,D,Submasters 33-39,140+,,,325,,325,Single-ply,2
Rachele Unson,,F,USA,WA,D,Submasters 33-39,56,,,120,,120,Single-ply,1
Mary Ann Hobbs,,F,USA,WA,D,Submasters 33-39,60,,,142.5,,142.5,Single-ply,1
Teri Agenbroad,,F,USA,NV,D,Submasters 33-39,67.5,,,135,,135,Single-ply,1
Lee Itule,,F,USA,AZ,D,Submasters 33-39,67.5,,,130,,130,Single-ply,2
Ferleshare Starks,,F,USA,TX,D,Submasters 33-39,75,,,142.5,,142.5,Single-ply,1
Leilana McKindra,,F,USA,IN,D,Submasters 33-39,90+,,,167.5,,167.5,Single-ply,1
Cory Grizzle,,M,USA,OR,D,Teen 12-13,44,,,72.5,,72.5,Single-ply,1
Chace Akina,,M,USA,HI,D,Teen 12-13,48,,,115.5,,115.5,Single-ply,1
Dylan Sites,,M,USA,OR,D,Teen 12-13,52,,,120,,120,Single-ply,1
Amos Grizzle,,M,USA,OR,D,Teen 12-13,60,,,100,,100,Single-ply,1
Tariq Qadir,,M,USA,WA,D,Teen 12-13,75,,,111,,111,Single-ply,1
Cyr Mc Farland,,M,USA,AZ,D,Teen 12-13,75,,,87.5,,87.5,Single-ply,2
Dakota Lane,,M,USA,CO,D,Teen 14-15,44,,,92.5,,92.5,Single-ply,1
Sean Daru,,M,USA,CO,D,Teen 14-15,60,,,150,,150,Single-ply,1
Max Sandoval,,M,USA,OR,D,Teen 14-15,67.5,,,160,,160,Single-ply,1
Joey Everett,,M,USA,OR,D,Teen 14-15,67.5,,,135,,135,Single-ply,2
Austin Smith,,M,USA,OR,D,Teen 14-15,75,,,120,,120,Single-ply,1
Elliot Stratton,,M,USA,CA,D,Teen 14-15,82.5,,,170,,170,Single-ply,1
Shane De Pinto,,M,USA,CO,D,Teen 14-15,82.5,,,167.5,,167.5,Single-ply,2
Jeff Richardson,,M,USA,CO,D,Teen 14-15,82.5,,,140,,140,Single-ply,3
Billy Henry,,M,USA,WA,D,Teen 14-15,100,,,147.5,,147.5,Single-ply,1
Conor Mc Kenna,,M,USA,CO,D,Teen 14-15,100,,,142.5,,142.5,Single-ply,2
Colton Comito,,M,USA,CO,D,Teen 14-15,110,,,137.5,,137.5,Single-ply,1
K. C. Samoylich,,M,USA,CO,D,Teen 14-15,125,,,232.5,,232.5,Single-ply,1
Jacob Hendee,,M,USA,WA,D,Teen 16-17,48,,,90.5,,90.5,Single-ply,1
Josh Vermes,,M,USA,CA,D,Teen 16-17,60,,,120,,120,Single-ply,1
William Anthony Baxter,,M,USA,WA,D,Teen 16-17,67.5,,,200,,200,Single-ply,1
Travis Belen,,M,USA,WA,D,Teen 16-17,67.5,,,190,,190,Single-ply,3
Eduardo Lalo Pruneda,,M,USA,CO,D,Teen 16-17,67.5,,,198,200.5,198,Single-ply,2
Ryan Lund,,M,USA,UT,D,Teen 16-17,67.5,,,182.5,,182.5,Single-ply,4
Donnie Miskinis,,M,USA,OH,D,Teen 16-17,67.5,,,172.5,,172.5,Single-ply,5
Szandor Krajnik,,M,USA,CO,D,Teen 16-17,67.5,,,150,,150,Single-ply,6
Mike Carter,,M,USA,CO,D,Teen 16-17,67.5,,,150,,150,Single-ply,7
Jonathan Post,,M,USA,CO,D,Teen 16-17,75,,,228,,228,Single-ply,1
Matt Stern,,M,USA,LA,D,Teen 16-17,75,,,165,,165,Single-ply,2
Daniel Ortiz,,M,USA,CA,D,Teen 16-17,82.5,,,225,,225,Single-ply,1
Andrew Cross,,M,USA,CO,D,Teen 16-17,82.5,,,212.5,,212.5,Single-ply,2
Judd Sato III,,M,USA,HI,D,Teen 16-17,82.5,,,182.5,,182.5,Single-ply,3
Jake Garbush,,M,USA,WA,D,Teen 16-17,90,,,227.5,,227.5,Single-ply,1
John Thrailkill,,M,USA,CA,D,Teen 16-17,90,,,227.5,,227.5,Single-ply,2
Matthias Metzger,,M,USA,WA,D,Teen 16-17,90,,,197.5,,197.5,Single-ply,3
Matt Phipps,,M,USA,NV,D,Teen 16-17,90,,,185,,185,Single-ply,4
Roman Scimeca,,M,USA,HI,D,Teen 16-17,90,,,150,,150,Single-ply,5
Pavel Kokhanevich,,M,USA,CO,D,Teen 16-17,100,,,210.5,,210.5,Single-ply,1
Henry Yee Hoy,,M,USA,HI,D,Teen 16-17,110,,,240,,240,Single-ply,1
Adam Lindsey,,M,USA,NV,D,Teen 16-17,110,,,192.5,,192.5,Single-ply,2
Delfred Kalani Kaipo,,M,USA,HI,D,Teen 16-17,125,,,245,250,245,Single-ply,1
Tohora Harawira,,M,New Zealand,,D,Teen 16-17,140,,,170,175,170,Single-ply,1
Vince Scavuzzo,,M,USA,CO,D,Teen 18-19,67.5,,,203,,203,Single-ply,1
Mike Nguyen,,M,Vietnam,,D,Teen 18-19,67.5,,,202.5,,202.5,Single-ply,2
Justin Gourley,,M,USA,IL,D,Teen 18-19,67.5,,,200,,200,Single-ply,3
A. J. Mangum,,M,USA,TX,D,Teen 18-19,82.5,,,302.5,,302.5,Single-ply,1
Jason Wright,,M,USA,VA,D,Teen 18-19,82.5,,,235,,235,Single-ply,2
Nick Wilks,,M,USA,WA,D,Teen 18-19,82.5,,,122.5,,122.5,Single-ply,3
Trevor Herston,,M,USA,WA,D,Teen 18-19,90,,,245,,245,Single-ply,1
Sean Devlyn,,M,USA,CO,D,Teen 18-19,90,,,195,,195,Single-ply,2
Conner Rounds,,M,USA,WA,D,Teen 18-19,100,,,265,,265,Single-ply,1
Thomas Jimenez,,M,USA,CA,D,Teen 18-19,100,,,222.5,,222.5,Single-ply,2
Abel Dominguez III,,M,USA,TX,D,Teen 18-19,140,,,272.5,,272.5,Single-ply,1
Ali Miskinis,,F,USA,OH,D,Teen 12-13,52,,,79,,79,Single-ply,1
Donna Samoylich,,F,USA,CO,D,Teen 12-13,56,,,97.5,,97.5,Single-ply,1
Daria Dermeleva,,F,Estonia,,D,Teen 12-13,56,,,85,,85,Single-ply,2
Aroha Heta,,F,New Zealand,,D,Teen 12-13,75,,,110,,110,Single-ply,1
Jacqueline Wickens,,F,USA,NV,D,Teen 12-13,82.5,,,140,,140,Single-ply,1
Cheyenne Tavares,,F,USA,HI,D,Teen 14-15,44,,,85,91,85,Single-ply,1
Sarah Biddle,,F,USA,IN,D,Teen 14-15,67.5,,,115,,115,Single-ply,1
Sonja Grant,,F,USA,WA,D,Teen 14-15,75,,,130,,130,Single-ply,1
Rasha Husseini-Trujillo,,F,USA,CO,D,Teen 14-15,75,,,111.5,,111.5,Single-ply,2
Anna Cade,,F,USA,WA,D,Teen 16-17,52,,,127.5,,127.5,Single-ply,1
Amanda Harris,,F,USA,TX,D,Teen 16-17,56,,,125,127.5,125,Single-ply,1
Amanda Wass,,F,USA,OR,D,Teen 16-17,67.5,,,152.5,,152.5,Single-ply,1
Jennifer Otto,,F,USA,WA,D,Teen 16-17,82.5,,,140,,140,Single-ply,1
Jessica Hurley,,F,USA,HI,D,Teen 16-17,90,,,192.5,,192.5,Single-ply,1
Kayla Sua,,F,USA,WA,D,Teen 16-17,90,,,185.5,,185.5,Single-ply,2
Hannah Biddle,,F,USA,IN,D,Teen 16-17,90+,,,130,,130,Single-ply,1
Karina Phipps,,F,USA,NV,D,Teen 18-19,56,,,122.5,,122.5,Single-ply,1
Breanne Potrie,,F,USA,CA,D,Teen 18-19,75,,,138,140,138,Single-ply,1
Courtney Gathright,,F,USA,TX,D,Teen 18-19,82.5,,,182.5,,182.5,Single-ply,1
Nick Lenhart,,M,USA,UT,B,Class 1,60,145,,,,145,Single-ply,1
Omar Alaqeeli,,M,Saudi Arabia,,B,Class 1,60,52.5,,,,52.5,Single-ply,2
Eric Nahorniak,,M,USA,NV,B,Class 1,67.5,165,,,,165,Single-ply,1
Travis Belen,,M,USA,WA,B,Class 1,67.5,142.5,,,,142.5,Single-ply,2
Ben Kammueller,,M,USA,WI,B,Class 1,67.5,125,,,,125,Single-ply,3
Chris McGrail,,M,USA,UT,B,Class 1,75,,,,,,Single-ply,DQ
Jonas Anderbring,,M,Sweden,,B,Class 1,75,152.5,,,,152.5,Single-ply,1
Mark Laurel,,M,USA,CA,B,Class 1,75,147.5,,,,147.5,Single-ply,2
Jerry Huddleston,,M,USA,AL,B,Class 1,75,147.5,,,,147.5,Single-ply,3
Erik Vorsatz,,M,USA,CA,B,Class 1,75,125,,,,125,Single-ply,4
Andrew Billing,,M,USA,IL,B,Class 1,82.5,165,,,,165,Single-ply,1
David Bradshaw #2,,M,USA,CA,B,Class 1,90,,,,,,Single-ply,DQ
Earl Solidum,,M,USA,HI,B,Class 1,90,,,,,,Single-ply,DQ
Matthew Ogurek,,M,USA,MI,B,Class 1,90,206,,,,206,Single-ply,1
Richard Derengowski,,M,USA,IL,B,Class 1,90,205.5,,,,205.5,Single-ply,2
Ahmed Abukhater,,M,Palestine,,B,Class 1,90,205,,,,205,Single-ply,3
Robert Dawidowics,,M,Poland,,B,Class 1,90,190,,,,190,Single-ply,4
H. Adam Cotto,,M,USA,LA,B,Class 1,90,183,,,,183,Single-ply,5
Landon Cross,,M,USA,IL,B,Class 1,90,150,,,,150,Single-ply,6
Andy Whitaker,,M,USA,LA,B,Class 1,100,205,,,,205,Single-ply,1
Joaquin Perez,,M,USA,CA,B,Class 1,100,195,,,,195,Single-ply,2
Mike Armstrong,,M,USA,CA,B,Class 1,100,192.5,,,,192.5,Single-ply,3
Apolonio Jauregui,,M,USA,CA,B,Class 1,100,185,,,,185,Single-ply,4
Donnie Hamblin,,M,USA,AZ,B,Class 1,100,185,,,,185,Single-ply,5
Jarnail Singh Birring,,M,UK,,B,Class 1,100,175,,,,175,Single-ply,6
Leonard Pokora,,M,USA,MI,B,Class 1,110,207.5,,,,207.5,Single-ply,1
Joey Murphy,,M,USA,GA,B,Class 1,117.5,232.5,,,,232.5,Single-ply,1
Stephen Henry,,M,USA,CA,B,Class 1,117.5,229,,,,229,Single-ply,2
Gene Loss,,M,USA,OR,B,Class 1,117.5,212.5,,,,212.5,Single-ply,3
Dave Ewen,,M,USA,IN,B,Class 1,117.5,167.5,,,,167.5,Single-ply,4
Jonathon Kos,,M,USA,NV,B,Class 1,117.5,160,,,,160,Single-ply,5
Brian Vickers,,M,USA,TX,B,Class 1,125,205,,,,205,Single-ply,1
Robert Speno,,M,USA,CA,B,Class 1,140,237.5,,,,237.5,Single-ply,1
Steve Mata,,M,USA,TX,B,Class 1,140,227.5,,,,227.5,Single-ply,2
Jake Kaio,,M,USA,HI,B,Class 1,140,185,,,,185,Single-ply,3
Greg Guernsey,,M,USA,ME,B,Class 1,140+,227.5,,,,227.5,Single-ply,1
Leo Contreras,,M,USA,CA,B,Class 1,140+,185,,,,185,Single-ply,2
Jeremy Murrell,,M,USA,OK,B,Class 1,140+,182.5,,,,182.5,Single-ply,3
Keith Sayles,,M,USA,TX,B,Class 1,140+,142.5,,,,142.5,Single-ply,4
Steve Baker,,M,Canada,,B,Disabled,75,55,,,,55,Single-ply,1
Vilmar Oliveira,,M,Brazil,,B,Disabled,82.5,150,,,,150,Single-ply,1
Mike Bonifield,,M,USA,CA,B,Disabled,117.5,165,,,,165,Single-ply,1
Jason Imamura,,M,USA,HI,B,Elite Open,67.5,,,,,,Single-ply,DQ
Tommy Harrison,,M,USA,IL,B,Elite Open,125,375,,,,375,Single-ply,1
Mike Womack #1,,M,USA,CA,B,Elite Open,140,,,,,,Single-ply,DQ
Steve Wong,,M,USA,CA,B,Elite Open,140+,,,,,,Single-ply,DQ
Nick Lenhart,,M,USA,UT,B,Juniors 20-25,60,145,,,,145,Single-ply,1
Ben Kammueller,,M,USA,WI,B,Juniors 20-25,67.5,125,,,,125,Single-ply,1
Laramie McMasters,,M,USA,IL,B,Juniors 20-25,75,142.5,,,,142.5,Single-ply,1
Steven Herrmann,,M,USA,MI,B,Juniors 20-25,82.5,210,,,,210,Single-ply,1
Galen Lyle,,M,USA,MN,B,Juniors 20-25,82.5,165,,,,165,Single-ply,2
Slavic Samoylich,,M,USA,CO,B,Juniors 20-25,90,206.5,,,,206.5,Single-ply,1
Richard Derengowski,,M,USA,IL,B,Juniors 20-25,90,205.5,,,,205.5,Single-ply,2
H. Adam Cotto,,M,USA,LA,B,Juniors 20-25,90,183,,,,183,Single-ply,3
Royce Greenberg,,M,USA,IL,B,Juniors 20-25,90,165,,,,165,Single-ply,4
Landon Cross,,M,USA,IL,B,Juniors 20-25,90,150,,,,150,Single-ply,5
Rick Marrama,,M,USA,MA,B,Juniors 20-25,100,300,,,,300,Single-ply,1
Sean DeMarinis,,M,USA,CA,B,Juniors 20-25,100,261.5,,,,261.5,Single-ply,2
Brian Ferguson,,M,USA,CA,B,Juniors 20-25,100,207.5,,,,207.5,Single-ply,3
Andy Whitaker,,M,USA,LA,B,Juniors 20-25,100,205,,,,205,Single-ply,4
Jason Perez,,M,USA,TX,B,Juniors 20-25,100,192.5,,,,192.5,Single-ply,5
Kyle Herzik,,M,USA,NV,B,Juniors 20-25,100,175,,,,175,Single-ply,6
Adam Contreras #1,,M,USA,CA,B,Juniors 20-25,100,137.5,,,,137.5,Single-ply,7
Christopher Carson,,M,USA,OH,B,Juniors 20-25,110,277.5,,,,277.5,Single-ply,1
Greg Girard,,M,USA,MI,B,Juniors 20-25,110,187.5,,,,187.5,Single-ply,2
Andy Munsey,,M,USA,OR,B,Juniors 20-25,110,177.5,,,,177.5,Single-ply,3
Ben Smith #10,,M,USA,ME,B,Juniors 20-25,110,175,,,,175,Single-ply,4
Dave Ewen,,M,USA,IN,B,Juniors 20-25,117.5,,,,,,Single-ply,DQ
Armando Gonzalez,,M,USA,CA,B,Juniors 20-25,117.5,,,,,,Single-ply,DQ
Tom Emelander,,M,USA,TX,B,Juniors 20-25,117.5,250,,,,250,Single-ply,1
David Bergman,,M,USA,MA,B,Juniors 20-25,117.5,165,,,,165,Single-ply,2
Jonathon Kos,,M,USA,NV,B,Juniors 20-25,117.5,160,,,,160,Single-ply,3
Daniel Reeves,,M,USA,AZ,B,Juniors 20-25,125,255,,,,255,Single-ply,1
Tyler Roessler,,M,USA,UT,B,Juniors 20-25,140+,175,,,,175,Single-ply,1
Natalie Freed,,F,USA,PA,B,Juniors 20-25,48,77.5,85.5,,,77.5,Single-ply,1
Katelyn Tobin,,F,USA,MN,B,Juniors 20-25,52,65,,,,65,Single-ply,1
Erica Ansberry,,F,USA,CA,B,Juniors 20-25,60,85,,,,85,Single-ply,1
Erin Lyman,,F,USA,WA,B,Juniors 20-25,67.5,75,,,,75,Single-ply,1
Lauren Vaterlaus,,F,USA,CA,B,Juniors 20-25,90,85,,,,85,Single-ply,1
Frank Sua,,M,USA,WA,B,Law-Fire 40-47,140,230,,,,230,Single-ply,1
Dave Marchant,,M,USA,UT,B,Law-Fire 40-47,140+,295,,,,295,Single-ply,1
Mike Berteaux,,M,USA,CO,B,Law-Fire 48-55,90,197.5,,,,197.5,Single-ply,1
Jorge Guardado,,M,USA,OK,B,Law-Fire 48-55,90,115,,,,115,Single-ply,2
William Denniston,,M,USA,MI,B,Law-Fire 48-55,100,162.5,,,,162.5,Single-ply,1
Bruce Sabin,,M,USA,CA,B,Law-Fire 48-55,140,277.5,,,,277.5,Single-ply,1
Joe Parsons,,M,USA,OK,B,Law-Fire 56-63,90,185,197.5,,,185,Single-ply,1
Jerry Dye,,M,USA,CA,B,Law-Fire 56-63,90,145,,,,145,Single-ply,2
Larry Orlando,,M,USA,CA,B,Law-Fire 56-63,100,192.5,,,,192.5,Single-ply,1
Robert Lincoln,,M,USA,CA,B,Law-Fire 56-63,117.5,227.5,,,,227.5,Single-ply,1
Rauaroha Joy Heta,,F,New Zealand,,B,Law-Fire 40-47,90+,97.5,,,,97.5,Single-ply,1
Louise Jones #1,,F,USA,CA,B,Law-Fire 56-63,82.5,57.5,,,,57.5,Single-ply,1
George Baker,,M,USA,OK,B,Law-Fire Open,75,220,,,,220,Single-ply,1
Jason Dean,,M,USA,AL,B,Law-Fire Open,75,157.5,,,,157.5,Single-ply,2
Anton White,,M,USA,IL,B,Law-Fire Open,82.5,192.5,,,,192.5,Single-ply,1
Devin Tallerico,,M,USA,CA,B,Law-Fire Open,110,177.5,,,,177.5,Single-ply,1
Brian Vickers,,M,USA,TX,B,Law-Fire Open,125,205,,,,205,Single-ply,1
Ricardo Nort,,M,Brazil,,B,Law-Fire Open,140,272.5,,,,272.5,Single-ply,1
Marcus Austin,,M,USA,OK,B,Law-Fire Open,140,210,,,,210,Single-ply,2
Wayne Watts,,M,USA,GA,B,Law-Fire Open,140+,305.5,,,,305.5,Single-ply,1
Jeremy Murrell,,M,USA,OK,B,Law-Fire Open,140+,182.5,,,,182.5,Single-ply,2
Laurie Lamp,,F,USA,WA,B,Law-Fire Open,56,90,,,,90,Single-ply,1
Wayne Prose,,M,USA,IL,B,Law-Fire Submasters,100,235,,,,235,Single-ply,1
Frank Wakakuwa,,M,USA,HI,B,Law-Fire Submasters,110,,,,,,Single-ply,DQ
Cliff Wicks,,M,USA,NV,B,Law-Fire Submasters,110,220,,,,220,Single-ply,1
Devin Tallerico,,M,USA,CA,B,Law-Fire Submasters,110,177.5,,,,177.5,Single-ply,2
Ricardo Nort,,M,Brazil,,B,Law-Fire Submasters,140,272.5,,,,272.5,Single-ply,1
Marcus Austin,,M,USA,OK,B,Law-Fire Submasters,140,210,,,,210,Single-ply,2
Keoni Reich,,M,USA,HI,B,Law-Fire Submasters,140+,255,,,,255,Single-ply,1
Lee Itule,,F,USA,AZ,B,Law-Fire Submasters,67.5,85,,,,85,Single-ply,1
Charles Venturella,,M,USA,PA,B,Masters 40-46,67.5,193.5,,,,193.5,Single-ply,1
Kenny Lyons,,M,USA,ID,B,Masters 40-46,75,150,,,,150,Single-ply,1
Mark Laurel,,M,USA,CA,B,Masters 40-46,75,147.5,,,,147.5,Single-ply,2
Dariel T. Unson,,M,USA,WA,B,Masters 40-46,75,102.5,,,,102.5,Single-ply,3
Jon Cunningham,,M,USA,UT,B,Masters 40-46,82.5,229,,,,229,Single-ply,1
Keith Daniels,,M,USA,HI,B,Masters 40-46,82.5,228,,,,228,Single-ply,2
Andrew Somera,,M,USA,WA,B,Masters 40-46,82.5,215,,,,215,Single-ply,3
Sakari Selkäinaho,,M,Finland,,B,Masters 40-46,82.5,200,210,,,200,Single-ply,4
Brian Baertlein,,M,USA,OR,B,Masters 40-46,82.5,200,,,,200,Single-ply,5
Rolando Espinoza,,M,USA,TX,B,Masters 40-46,82.5,175,,,,175,Single-ply,6
David Bradshaw #2,,M,USA,CA,B,Masters 40-46,90,,,,,,Single-ply,DQ
Bob Levering,,M,USA,CA,B,Masters 40-46,90,,,,,,Single-ply,DQ
James Noblit,,M,USA,OR,B,Masters 40-46,90,,,,,,Single-ply,DQ
Jason Frickey,,M,USA,LA,B,Masters 40-46,90,211,,,,211,Single-ply,1
Mike Bazinet,,M,USA,ME,B,Masters 40-46,90,205,,,,205,Single-ply,2
Mark Hatfield,,M,USA,CA,B,Masters 40-46,90,200,,,,200,Single-ply,3
Steven Petersen,,M,USA,TX,B,Masters 40-46,100,,,,,,Single-ply,DQ
Kenneth Millrany,,M,USA,TN,B,Masters 40-46,100,275,285.5,,,275,Single-ply,1
Juha Pukkila,,M,Finland,,B,Masters 40-46,100,215,,,,215,Single-ply,2
Mike DeGennaro,,M,USA,CA,B,Masters 40-46,100,205,,,,205,Single-ply,3
Donnie Hamblin,,M,USA,AZ,B,Masters 40-46,100,185,,,,185,Single-ply,4
Oswaldo Jaime de Paz,,M,Guatemala,,B,Masters 40-46,100,180,,,,180,Single-ply,5
Som Tugnait,,M,India,,B,Masters 40-46,110,,,,,,Single-ply,DQ
Bruce Young,,M,USA,HI,B,Masters 40-46,110,280,,,,280,Single-ply,1
Bryon Brubaker,,M,USA,CA,B,Masters 40-46,110,280,,,,280,Single-ply,2
Jeff Alvari,,M,USA,UT,B,Masters 40-46,110,227.5,,,,227.5,Single-ply,3
George Phipps,,M,USA,NV,B,Masters 40-46,110,205,,,,205,Single-ply,4
Eddie Ross,,M,USA,TX,B,Masters 40-46,110,190,,,,190,Single-ply,5
Tim Dahlstrom,,M,USA,WA,B,Masters 40-46,110,177.5,,,,177.5,Single-ply,6
Scott Hoekstra,,M,USA,CA,B,Masters 40-46,117.5,282.5,,,,282.5,Single-ply,1
Rich Ludlam,,M,USA,CA,B,Masters 40-46,117.5,265,,,,265,Single-ply,2
Robert Lincoln,,M,USA,CA,B,Masters 40-46,125,320,,,,320,Single-ply,1
Eric Doublin,,M,USA,TX,B,Masters 40-46,125,282.5,,,,282.5,Single-ply,2
Gary Gulseth,,M,USA,WI,B,Masters 40-46,125,250,,,,250,Single-ply,3
Boyd Hurley,,M,USA,HI,B,Masters 40-46,125,235,,,,235,Single-ply,4
Khalid Shadid,,M,USA,TX,B,Masters 40-46,125,190,,,,190,Single-ply,5
Naresh Kumar,,M,India,,B,Masters 40-46,125,175,,,,175,Single-ply,6
Vic Aleaga,,M,USA,WA,B,Masters 40-46,140,287.5,,,,287.5,Single-ply,1
Steve Mata,,M,USA,TX,B,Masters 40-46,140,227.5,,,,227.5,Single-ply,2
Steve Wong,,M,USA,CA,B,Masters 40-46,140+,,,,,,Single-ply,DQ
Ken Overbey,,M,USA,AL,B,Masters 40-46,140+,320,,,,320,Single-ply,1
Dave Marchant,,M,USA,UT,B,Masters 40-46,140+,295,,,,295,Single-ply,2
Greg Guernsey,,M,USA,ME,B,Masters 40-46,140+,227.5,,,,227.5,Single-ply,3
Alfredo Evangelista,,M,USA,OR,B,Masters 47-53,67.5,,,,,,Single-ply,DQ
George Baker,,M,USA,OK,B,Masters 47-53,75,220,,,,220,Single-ply,1
Fulton White,,M,USA,NV,B,Masters 47-53,75,147.5,,,,147.5,Single-ply,2
Mark Lo,,M,USA,HI,B,Masters 47-53,82.5,172.5,,,,172.5,Single-ply,1
Paul Janoff,,M,USA,CA,B,Masters 47-53,82.5,170,,,,170,Single-ply,2
David Brekke,,M,USA,CO,B,Masters 47-53,82.5,137.5,,,,137.5,Single-ply,3
Flavio Da Costa Baptista,,M,Brazil,,B,Masters 47-53,82.5,100,,,,100,Single-ply,4
Mike Berteaux,,M,USA,CO,B,Masters 47-53,90,200,,,,200,Single-ply,1
Reid Solar,,M,USA,AZ,B,Masters 47-53,90,165,,,,165,Single-ply,2
William Kevin Stirling,,M,Canada,,B,Masters 47-53,90,162.5,,,,162.5,Single-ply,3
Terry Baldwin #2,,M,USA,MT,B,Masters 47-53,100,,,,,,Single-ply,DQ
Ed Macauley,,M,USA,OR,B,Masters 47-53,100,230,,,,230,Single-ply,1
Mike Frizzell,,M,USA,IL,B,Masters 47-53,100,227.5,,,,227.5,Single-ply,2
Mike Armstrong,,M,USA,CA,B,Masters 47-53,100,192.5,,,,192.5,Single-ply,3
Brian Welker,,M,USA,TX,B,Masters 47-53,100,170,,,,170,Single-ply,4
Michael Mc Hale,,M,USA,HI,B,Masters 47-53,100,167.5,,,,167.5,Single-ply,5
Mark Patrick,,M,USA,GA,B,Masters 47-53,110,239,,,,239,Single-ply,1
Gary Stevens,,M,USA,WY,B,Masters 47-53,110,165,,,,165,Single-ply,2
Forest Hofer,,M,USA,WA,B,Masters 47-53,117.5,,,,,,Single-ply,DQ
Mark Stanford,,M,USA,AZ,B,Masters 47-53,117.5,,,,,,Single-ply,DQ
Rick Duncan,,M,USA,TX,B,Masters 47-53,117.5,222.5,,,,222.5,Single-ply,1
Nelson Brewer,,M,USA,WA,B,Masters 47-53,117.5,207.5,,,,207.5,Single-ply,2
Phillip Arroyo,,M,USA,WA,B,Masters 47-53,117.5,205,,,,205,Single-ply,3
Ron L'Huillier,,M,USA,MI,B,Masters 47-53,117.5,205,,,,205,Single-ply,4
Chris Jacka,,M,USA,CA,B,Masters 47-53,125,247.5,,,,247.5,Single-ply,1
Roger Ryan,,M,USA,IL,B,Masters 47-53,140,290,,,,290,Single-ply,1
Dennis Schultz,,M,USA,CA,B,Masters 47-53,140,277.5,,,,277.5,Single-ply,2
Lyle Kamaka,,M,USA,HI,B,Masters 47-53,140,237.5,,,,237.5,Single-ply,3
Wayne Kaaloa,,M,USA,HI,B,Masters 47-53,140,217.5,,,,217.5,Single-ply,4
Joe Mickelson,,M,USA,WA,B,Masters 47-53,140,217.5,,,,217.5,Single-ply,5
Allen Heta,,M,New Zealand,,B,Masters 47-53,140,170,,,,170,Single-ply,6
James Mersberg,,M,USA,HI,B,Masters 47-53,140+,,,,,,Single-ply,DQ
Tom Manno,,M,USA,AZ,B,Masters 47-53,140+,310,,,,310,Single-ply,1
Gary Gertner,,M,USA,CO,B,Masters 47-53,140+,261,,,,261,Single-ply,2
Keith Sayles,,M,USA,TX,B,Masters 47-53,140+,142.5,,,,142.5,Single-ply,3
Gary Bobrovitz,,M,Canada,,B,Masters 54-60,60,130.5,132.5,,,130.5,Single-ply,1
Gary Miller #2,,M,USA,NV,B,Masters 54-60,75,160.5,162.5,,,160.5,Single-ply,1
Alan Sheen,,M,USA,LA,B,Masters 54-60,75,105,,,,105,Single-ply,2
Bob Hill,,M,USA,OR,B,Masters 54-60,82.5,,,,,,Single-ply,DQ
Perry Plush,,M,USA,WA,B,Masters 54-60,82.5,167.5,,,,167.5,Single-ply,1
Jaime Alvarez,,M,USA,CA,B,Masters 54-60,82.5,160,,,,160,Single-ply,2
Eric Ansberry,,M,USA,CA,B,Masters 54-60,82.5,155,,,,155,Single-ply,3
Ashok Sharma,,M,India,,B,Masters 54-60,82.5,120,,,,120,Single-ply,4
Brian Kline,,M,USA,TX,B,Masters 54-60,90,,,,,,Single-ply,DQ
Mark Jamey Mauldin,,M,USA,TX,B,Masters 54-60,90,162.5,,,,162.5,Single-ply,1
Rudy Kadlub,,M,USA,OR,B,Masters 54-60,90,152.5,,,,152.5,Single-ply,2
Ron Jones,,M,USA,AL,B,Masters 54-60,90,137.5,,,,137.5,Single-ply,3
Jorge Guardado,,M,USA,OK,B,Masters 54-60,90,115,,,,115,Single-ply,4
Dave Marba,,M,USA,CA,B,Masters 54-60,100,,,,,,Single-ply,DQ
Larry Orlando,,M,USA,CA,B,Masters 54-60,100,192.5,,,,192.5,Single-ply,1
Kenneth Kirk,,M,USA,CA,B,Masters 54-60,100,97.5,,,,97.5,Single-ply,2
Leonard Pokora,,M,USA,MI,B,Masters 54-60,110,202.5,,,,202.5,Single-ply,1
Serafim Rocha,,M,Brazil,,B,Masters 54-60,117.5,170,,,,170,Single-ply,1
Dan Harkins,,M,USA,WA,B,Masters 54-60,117.5,132.5,,,,132.5,Single-ply,2
Austin Webb,,M,USA,AR,B,Masters 54-60,125,,,,,,Single-ply,DQ
Colin Bonneau,,M,Canada,,B,Masters 54-60,125,238,242.5,,,238,Single-ply,1
Bruce Sabin,,M,USA,CA,B,Masters 54-60,140,277.5,,,,277.5,Single-ply,1
Jeff Fahrenbruch,,M,USA,AZ,B,Masters 54-60,140,242.5,,,,242.5,Single-ply,2
Dave van Brocklin,,M,USA,CA,B,Masters 54-60,140,190,,,,190,Single-ply,3
Doug Knapp,,M,USA,CA,B,Masters 54-60,140,185,,,,185,Single-ply,4
Peter Herdt,,M,USA,ID,B,Masters 54-60,140+,192.5,,,,192.5,Single-ply,1
Leo Contreras,,M,USA,CA,B,Masters 54-60,140+,185,,,,185,Single-ply,2
Ted Feight,,M,USA,MI,B,Masters 61-67,67.5,97.5,,,,97.5,Single-ply,1
Ron White #1,,M,USA,WA,B,Masters 61-67,75,122.5,,,,122.5,Single-ply,1
Arlindo da Silva,,M,Brazil,,B,Masters 61-67,75,100,,,,100,Single-ply,2
Michael Minietta,,M,USA,NV,B,Masters 61-67,82.5,150,,,,150,Single-ply,1
Ed Angstrom,,M,USA,IA,B,Masters 61-67,82.5,137.5,,,,137.5,Single-ply,2
George Hawkins,,M,USA,CA,B,Masters 61-67,82.5,122.5,,,,122.5,Single-ply,3
Gary Witzel,,M,USA,WA,B,Masters 61-67,82.5,112.5,,,,112.5,Single-ply,4
Joe Beteta,,M,USA,OR,B,Masters 61-67,90,,,,,,Single-ply,DQ
Jerry Dye,,M,USA,CA,B,Masters 61-67,90,152.5,,,,152.5,Single-ply,1
Tom Haggenmiller,,M,USA,MN,B,Masters 61-67,90,120,,,,120,Single-ply,2
Robert Nasser,,M,USA,CA,B,Masters 61-67,90,120,,,,120,Single-ply,3
Vincent Breaux,,M,USA,LA,B,Masters 61-67,100,202.5,,,,202.5,Single-ply,1
Olício dos Santos Filho,,M,Brazil,,B,Masters 61-67,100,160,,,,160,Single-ply,2
Robert Urrea,,M,USA,CA,B,Masters 61-67,100,145,,,,145,Single-ply,3
Daniel Smith III,,M,USA,CA,B,Masters 61-67,110,198,,,,198,Single-ply,1
Bob Evans #3,,M,USA,CA,B,Masters 61-67,110,198,,,,198,Single-ply,2
Howard Garris,,M,USA,CA,B,Masters 61-67,110,137.5,,,,137.5,Single-ply,3
Robert Lincoln,,M,USA,CA,B,Masters 61-67,117.5,250,,,,250,Single-ply,1
Ed Acey,,M,USA,UT,B,Masters 61-67,117.5,192.5,,,,192.5,Single-ply,2
Mike Bonifield,,M,USA,CA,B,Masters 61-67,117.5,165,,,,165,Single-ply,3
Robert O. Smith,,M,Canada,,B,Masters 61-67,140,245,250,,,245,Single-ply,1
Donald James,,M,USA,OR,B,Masters 61-67,140+,210,,,,210,Single-ply,1
Bill Tinkler,,M,USA,FL,B,Masters 68-74,75,105,,,,105,Single-ply,1
Ron Goodman,,M,USA,CA,B,Masters 68-74,75,100,,,,100,Single-ply,2
Rudy Lozano,,M,USA,CA,B,Masters 68-74,82.5,,,,,,Single-ply,DQ
Charles Vause,,M,USA,HI,B,Masters 68-74,82.5,97.5,,,,97.5,Single-ply,1
David Boyes,,M,USA,LA,B,Masters 68-74,82.5,65,,,,65,Single-ply,2
William Prince,,M,USA,NV,B,Masters 68-74,90,128,,,,128,Single-ply,1
Nick Di Liddo,,M,USA,CA,B,Masters 68-74,90,115,,,,115,Single-ply,2
Richard Perkins,,M,USA,LA,B,Masters 68-74,90,90,,,,90,Single-ply,3
Harold Smith,,M,USA,MT,B,Masters 68-74,100,167.5,,,,167.5,Single-ply,1
Bob Bassman,,M,USA,TX,B,Masters 68-74,100,167.5,,,,167.5,Single-ply,2
John Herbein,,M,USA,PA,B,Masters 68-74,100,125,,,,125,Single-ply,3
John Ketchersid,,M,USA,CA,B,Masters 68-74,100,107.5,,,,107.5,Single-ply,4
Bob Kehl,,M,USA,CA,B,Masters 68-74,125,195,203,,,195,Single-ply,1
Robert Cortes,,M,USA,CA,B,Masters 75-79,75,110,,,,110,Single-ply,1
Nixon Munly,,M,USA,OR,B,Masters 75-79,82.5,77.5,,,,77.5,Single-ply,1
Richard Waite,,M,USA,WA,B,Masters 75-79,90,82.5,,,,82.5,Single-ply,1
Russell Combest,,M,USA,OH,B,Masters 75-79,110,130,,,,130,Single-ply,1
Robert Fornachon,,M,USA,CA,B,Masters 80-84,67.5,80,83,,,80,Single-ply,1
Arthur Whinston,,M,USA,OR,B,Masters 80-84,67.5,42.5,,,,42.5,Single-ply,2
Jim Schall,,M,USA,WA,B,Masters 80-84,75,67.5,,,,67.5,Single-ply,1
Eugene L Miranda,,M,USA,CA,B,Masters 80-84,100,107.5,,,,107.5,Single-ply,1
Bladen McClelland,,M,USA,MI,B,Masters 85-89,82.5,85,91,,,85,Single-ply,1
Donald Dreyer,,M,USA,LA,B,Masters 85-89,82.5,71.5,,,,71.5,Single-ply,2
Christine Moorman,,F,USA,WA,B,Masters 40-46,44,70,,,,70,Single-ply,1
Alexandra Vallejo,,F,USA,CA,B,Masters 40-46,48,70,,,,70,Single-ply,1
Claudia Rivera,,F,USA,CA,B,Masters 40-46,52,75,,,,75,Single-ply,1
Laurie Lamp,,F,USA,WA,B,Masters 40-46,56,90,,,,90,Single-ply,1
Alison Barnhill,,F,USA,CA,B,Masters 40-46,56,72.5,,,,72.5,Single-ply,2
Lynda Christopher,,F,USA,AZ,B,Masters 40-46,56,57.5,,,,57.5,Single-ply,3
Betty Cable,,F,USA,IL,B,Masters 40-46,60,72.5,,,,72.5,Single-ply,1
Diana Sutton,,F,USA,OR,B,Masters 40-46,60,47.5,,,,47.5,Single-ply,2
Brenda Nolen,,F,USA,CA,B,Masters 40-46,67.5,112.5,,,,112.5,Single-ply,1
Teresa Jacobs,,F,USA,WA,B,Masters 40-46,67.5,100,,,,100,Single-ply,2
Jeanne Watts,,F,USA,CA,B,Masters 40-46,67.5,97.5,,,,97.5,Single-ply,3
Linda Bradshaw,,F,USA,CA,B,Masters 40-46,67.5,55,,,,55,Single-ply,4
Sheri Klocke,,F,USA,OR,B,Masters 40-46,75,,,,,,Single-ply,DQ
Karen Campbell,,F,USA,ME,B,Masters 40-46,90,172.5,181.5,,,172.5,Single-ply,1
Kelli Sandoval,,F,USA,OR,B,Masters 40-46,90,115,,,,115,Single-ply,2
Rauaroha Joy Heta,,F,New Zealand,,B,Masters 40-46,90+,97.5,,,,97.5,Single-ply,1
Karen Poyner,,F,USA,VA,B,Masters 47-53,48,57.5,,,,57.5,Single-ply,1
Maria Vermes,,F,USA,CA,B,Masters 47-53,48,37.5,,,,37.5,Single-ply,2
Suzanne Hedman,,F,USA,CA,B,Masters 47-53,52,90.5,,,,90.5,Single-ply,1
Karon Denniston,,F,USA,MI,B,Masters 47-53,56,47.5,,,,47.5,Single-ply,1
Barbara Mc Guire,,F,USA,WA,B,Masters 47-53,56,47.5,,,,47.5,Single-ply,2
Peach Presley,,F,USA,CA,B,Masters 47-53,67.5,70,,,,70,Single-ply,1
Nancy Carpenter,,F,Canada,,B,Masters 47-53,75,89,90,,,89,Single-ply,1
Cindy Weber,,F,USA,TN,B,Masters 47-53,82.5,110,,,,110,Single-ply,1
Pamela Michaels-Olson,,F,USA,WA,B,Masters 47-53,82.5,100,,,,100,Single-ply,2
Marilyn Lewis,,F,USA,WA,B,Masters 47-53,82.5,82.5,,,,82.5,Single-ply,3
Cheryl Erickson,,F,USA,WA,B,Masters 47-53,90,82.5,,,,82.5,Single-ply,1
Sue Vaterlaus,,F,USA,CA,B,Masters 47-53,90+,115.5,,,,115.5,Single-ply,1
Margie Huston,,F,USA,WA,B,Masters 47-53,90+,100,,,,100,Single-ply,2
Juanita Mangaoang,,F,USA,WA,B,Masters 47-53,90+,92.5,,,,92.5,Single-ply,3
Sherry Abblett,,F,USA,CA,B,Masters 54-60,44,39,,,,39,Single-ply,1
Ita Pantilat,,F,USA,WA,B,Masters 54-60,52,100,102.5,,,100,Single-ply,1
Susan Bax,,F,USA,CA,B,Masters 54-60,67.5,45,,,,45,Single-ply,1
Delia Chilgren,,F,USA,CA,B,Masters 54-60,90,55,,,,55,Single-ply,1
Betty Lafferty,,F,USA,AL,B,Masters 61-67,52,70,,,,70,Single-ply,1
Mary-Ellen Buchanan,,F,USA,WA,B,Masters 61-67,52,52.5,,,,52.5,Single-ply,2
Mary Miller,,F,USA,IN,B,Masters 61-67,60,50,,,,50,Single-ply,1
Pat Robey,,F,USA,WA,B,Masters 61-67,82.5,100,112.5,,,100,Single-ply,1
Louise Jones #1,,F,USA,CA,B,Masters 61-67,82.5,57.5,,,,57.5,Single-ply,2
Yoka Zwetsloot,,F,USA,CA,B,Masters 68-74,56,45,46,,,45,Single-ply,1
Winifred Pristell,,F,USA,WA,B,Masters 68-74,82.5,75,77.5,,,75,Single-ply,1
Malvina Basso,,F,Brazil,,B,Masters 75-79,60,35,,,,35,Single-ply,1
Florence Combest,,F,USA,OH,B,Masters 75-79,67.5,35,,,,35,Single-ply,1
Melicent Whinston,,F,USA,OR,B,Masters 80-84,60,30,31,,,30,Single-ply,1
Tony Scheldrup,,M,USA,MN,B,Open,52,120,125.5,,,120,Single-ply,1
Gary Bobrovitz,,M,Canada,,B,Open,60,130.5,132.5,,,130.5,Single-ply,1
Omar Alaqeeli,,M,Saudi Arabia,,B,Open,60,50,,,,50,Single-ply,2
Alfredo Evangelista,,M,USA,OR,B,Open,67.5,,,,,,Single-ply,DQ
Kevin Harmon,,M,USA,MS,B,Open,67.5,,,,,,Single-ply,DQ
Charles Venturella,,M,USA,PA,B,Open,67.5,193.5,,,,193.5,Single-ply,1
Adolfo Davila,,M,USA,CA,B,Open,75,220,,,,220,Single-ply,1
David R Smith,,M,USA,TX,B,Open,75,203,,,,203,Single-ply,2
Pasi Sipiläinen,,M,Finland,,B,Open,75,185,,,,185,Single-ply,3
Nelson Diaz,,M,USA,OR,B,Open,82.5,,,,,,Single-ply,DQ
Bob Hill,,M,USA,OR,B,Open,82.5,,,,,,Single-ply,DQ
Don Linerud,,M,USA,ID,B,Open,82.5,241.5,,,,241.5,Single-ply,1
Chris Neal,,M,USA,MS,B,Open,82.5,230,,,,230,Single-ply,2
Korry Kowarsch,,M,USA,MN,B,Open,82.5,215,,,,215,Single-ply,3
Kim Päivöke,,M,Finland,,B,Open,82.5,215,,,,215,Single-ply,4
Sakari Selkäinaho,,M,Finland,,B,Open,82.5,200,210,,,200,Single-ply,5
Anton White,,M,USA,IL,B,Open,82.5,197.5,,,,197.5,Single-ply,6
Ben Brizendine,,M,USA,OR,B,Open,90,,,,,,Single-ply,DQ
Doug Tracy,,M,USA,NV,B,Open,90,,,,,,Single-ply,DQ
Coby Washburn,,M,USA,TX,B,Open,90,,,,,,Single-ply,DQ
Josh Decker,,M,USA,MI,B,Open,90,235,,,,235,Single-ply,1
Jason Carson,,M,USA,IL,B,Open,90,227.5,,,,227.5,Single-ply,2
Christopher Gillam,,M,USA,AZ,B,Open,90,227.5,,,,227.5,Single-ply,3
David Militana,,M,USA,TN,B,Open,90,217.5,,,,217.5,Single-ply,4
Jason Frickey,,M,USA,LA,B,Open,90,211,,,,211,Single-ply,5
Ahmed Abukhater,,M,Palestine,,B,Open,90,205,,,,205,Single-ply,6
Mike Bazinet,,M,USA,ME,B,Open,90,205,,,,205,Single-ply,7
Tatu Avola,,M,Finland,,B,Open,100,,,,,,Single-ply,DQ
Rick Marrama,,M,USA,MA,B,Open,100,300,,,,300,Single-ply,1
Michael Green,,M,USA,FL,B,Open,100,300,,,,300,Single-ply,2
Kenneth Millrany,,M,USA,TN,B,Open,100,275,285.5,,,275,Single-ply,3
Chad Bertelmann,,M,USA,HI,B,Open,100,265,,,,265,Single-ply,4
Steve Peña #1,,M,USA,CA,B,Open,100,245,,,,245,Single-ply,5
Will Beavers,,M,USA,CA,B,Open,100,220,,,,220,Single-ply,6
Juha Pukkila,,M,Finland,,B,Open,100,215,,,,215,Single-ply,7
Joaquin Perez,,M,USA,CA,B,Open,100,195,,,,195,Single-ply,8
Ryan Brault,,M,USA,IL,B,Open,100,187.5,,,,187.5,Single-ply,9
Oswaldo Jaime de Paz,,M,Guatemala,,B,Open,100,180,,,,180,Single-ply,10
James Hunter,,M,USA,CA,B,Open,110,320.5,,,,320.5,Single-ply,1
Bruce Young,,M,USA,HI,B,Open,110,280,,,,280,Single-ply,2
Jeremy Zimmerman,,M,Canada,,B,Open,110,250,,,,250,Single-ply,3
Todd Norman,,M,USA,OH,B,Open,110,227.5,,,,227.5,Single-ply,4
Tim Dahlstrom,,M,USA,WA,B,Open,110,177.5,,,,177.5,Single-ply,5
Mike Desrosiers,,M,USA,AZ,B,Open,117.5,,,,,,Single-ply,DQ
Kegan Engelke,,M,USA,WA,B,Open,117.5,,,,,,Single-ply,DQ
Forest Hofer,,M,USA,WA,B,Open,117.5,,,,,,Single-ply,DQ
Scott Hoekstra,,M,USA,CA,B,Open,117.5,282.5,,,,282.5,Single-ply,1
Jani Toivo Kristian Ihalainen,,M,Finland,,B,Open,117.5,275,,,,275,Single-ply,2
Patrick Parnell,,M,USA,TX,B,Open,117.5,272.5,,,,272.5,Single-ply,3
Troy Chun,,M,USA,OR,B,Open,117.5,260,,,,260,Single-ply,4
Vili Rinkinen,,M,Finland,,B,Open,117.5,250,,,,250,Single-ply,5
Bill Hislop,,M,USA,MI,B,Open,117.5,245,,,,245,Single-ply,6
Jerry Pritchett,,M,USA,AZ,B,Open,125,,,,,,Single-ply,DQ
John Stewart,,M,USA,TX,B,Open,125,,,,,,Single-ply,DQ
Jari Rosendahl,,M,Finland,,B,Open,125,277.5,,,,277.5,Single-ply,1
Brad Cikana,,M,USA,CA,B,Open,125,255,,,,255,Single-ply,2
Brandon Bankston,,M,USA,LA,B,Open,125,255,,,,255,Single-ply,3
Jussi Tuomainen,,M,Finland,,B,Open,140,365,,,,365,Single-ply,1
Dave Forstner,,M,USA,MI,B,Open,140,320,,,,320,Single-ply,2
Frederick Alexander,,M,USA,TX,B,Open,140,255,,,,255,Single-ply,3
Robert O. Smith,,M,Canada,,B,Open,140,245,250,,,245,Single-ply,4
Lyle Kamaka,,M,USA,HI,B,Open,140,237.5,,,,237.5,Single-ply,5
Joe Mickelson,,M,USA,WA,B,Open,140,217.5,,,,217.5,Single-ply,6
Roy Lamont,,M,USA,CA,B,Open,140+,,,,,,Single-ply,DQ
James Mersberg,,M,USA,HI,B,Open,140+,,,,,,Single-ply,DQ
Robert Vick,,M,USA,IL,B,Open,140+,,,,,,Single-ply,DQ
Tiny Meeker,,M,USA,TX,B,Open,140+,408.5,,,,408.5,Single-ply,1
James Crawford III,,M,USA,WA,B,Open,140+,332.5,,,,332.5,Single-ply,2
Tom Manno,,M,USA,AZ,B,Open,140+,325,,,,325,Single-ply,3
Ken Overbey,,M,USA,AL,B,Open,140+,320,,,,320,Single-ply,4
Scott Wesley Jordan,,M,USA,AZ,B,Open,140+,320,,,,320,Single-ply,5
Dave O'Neill,,M,USA,OR,B,Open,140+,277.5,,,,277.5,Single-ply,6
Christine Moorman,,F,USA,WA,B,Open,44,70,,,,70,Single-ply,1
Alexandra Vallejo,,F,USA,CA,B,Open,48,70,,,,70,Single-ply,1
Maria Davenport,,F,USA,ID,B,Open,48,67.5,,,,67.5,Single-ply,2
Karen Poyner,,F,USA,VA,B,Open,48,57.5,,,,57.5,Single-ply,3
Ita Pantilat,,F,USA,WA,B,Open,52,100,102.5,,,100,Single-ply,1
Betty Lafferty,,F,USA,AL,B,Open,52,70,,,,70,Single-ply,2
Katelyn Tobin,,F,USA,MN,B,Open,52,65,,,,65,Single-ply,3
Sarah Moorman,,F,USA,WA,B,Open,52,65,,,,65,Single-ply,4
Mia Howard,,F,USA,HI,B,Open,52,60,,,,60,Single-ply,5
Rachele Unson,,F,USA,WA,B,Open,56,87.5,,,,87.5,Single-ply,1
Alison Barnhill,,F,USA,CA,B,Open,56,72.5,,,,72.5,Single-ply,2
Lynda Christopher,,F,USA,AZ,B,Open,56,57.5,,,,57.5,Single-ply,3
Mary Ann Hobbs,,F,USA,WA,B,Open,60,87.5,,,,87.5,Single-ply,1
Erica Ansberry,,F,USA,CA,B,Open,60,85,,,,85,Single-ply,2
Dawn Burdette,,F,USA,CA,B,Open,60,82.5,,,,82.5,Single-ply,3
Virpi Pukkila,,F,Finland,,B,Open,67.5,125,,,,125,Single-ply,1
Jeanne Watts,,F,USA,CA,B,Open,67.5,97.5,,,,97.5,Single-ply,2
Shawna Staines,,F,USA,CA,B,Open,67.5,72.5,,,,72.5,Single-ply,3
Courtney Gathright,,F,USA,TX,B,Open,82.5,137.5,,,,137.5,Single-ply,1
Cindy Weber,,F,USA,TN,B,Open,82.5,110,,,,110,Single-ply,2
Pat Robey,,F,USA,WA,B,Open,82.5,100,112.5,,,100,Single-ply,3
Karen Campbell,,F,USA,ME,B,Open,90,165,172.5,,,165,Single-ply,1
L. Janet Loveall,,F,USA,CA,B,Open,90,117.5,,,,117.5,Single-ply,2
Mona Oba,,F,USA,HI,B,Open,90,100,,,,100,Single-ply,3
Francesca Mangaoang-Brodine,,F,USA,WA,B,Open,90,82.5,,,,82.5,Single-ply,4
Dawn Richards,,F,USA,UT,B,Open,90+,142.5,,,,142.5,Single-ply,1
Shane Rocha,,M,USA,NV,B,Special Olympian,48,37.5,,,,37.5,Single-ply,1
Zachary Mickaels,,M,USA,TX,B,Special Olympian,67.5,50,,,,50,Single-ply,1
Phillip Turner,,M,USA,TX,B,Special Olympian,75,82.5,,,,82.5,Single-ply,1
Brady Tanner,,M,USA,KS,B,Special Olympian,110,182.5,,,,182.5,Single-ply,1
Joshua Ross,,M,USA,TX,B,Special Olympian,110,100,,,,100,Single-ply,2
Bobby Lord,,M,USA,TX,B,Special Olympian,117.5,130,,,,130,Single-ply,1
Jock Mayes,,M,USA,CA,B,Special Olympian,140+,107.5,,,,107.5,Single-ply,1
Angela Vecchio,,F,USA,TX,B,Special Olympian,82.5,37.5,,,,37.5,Single-ply,1
Ata Edralin,,M,USA,HI,B,Submasters 33-39,67.5,157.5,,,,157.5,Single-ply,1
Chris Balanga,,M,USA,CA,B,Submasters 33-39,67.5,137.5,,,,137.5,Single-ply,2
David R Smith,,M,USA,TX,B,Submasters 33-39,75,187.5,,,,187.5,Single-ply,1
Monte Hokoana,,M,USA,HI,B,Submasters 33-39,75,175,,,,175,Single-ply,2
Chris Neal,,M,USA,MS,B,Submasters 33-39,82.5,230,,,,230,Single-ply,1
Kim Päivöke,,M,Finland,,B,Submasters 33-39,82.5,215,,,,215,Single-ply,2
George Soto,,M,USA,CA,B,Submasters 33-39,82.5,140,,,,140,Single-ply,3
Ben Brizendine,,M,USA,OR,B,Submasters 33-39,90,,,,,,Single-ply,DQ
Ronnie Wright,,M,USA,GA,B,Submasters 33-39,90,,,,,,Single-ply,DQ
Jason Carson,,M,USA,IL,B,Submasters 33-39,90,227.5,,,,227.5,Single-ply,1
Matthew Ogurek,,M,USA,MI,B,Submasters 33-39,90,205.5,,,,205.5,Single-ply,2
Robert Dawidowics,,M,Poland,,B,Submasters 33-39,90,190,,,,190,Single-ply,3
Michael Green,,M,USA,FL,B,Submasters 33-39,100,,,,,,Single-ply,DQ
Steve Peña #1,,M,USA,CA,B,Submasters 33-39,100,245,,,,245,Single-ply,1
Ed Barnes,,M,USA,CA,B,Submasters 33-39,100,242.5,,,,242.5,Single-ply,2
John DeLuca,,M,USA,CA,B,Submasters 33-39,100,235,,,,235,Single-ply,3
Jeremy Drecksel,,M,USA,UT,B,Submasters 33-39,100,190,,,,190,Single-ply,4
Apolonio Jauregui,,M,USA,CA,B,Submasters 33-39,100,185,,,,185,Single-ply,5
Dan Tubridy,,M,USA,CA,B,Submasters 33-39,110,,,,,,Single-ply,DQ
Frank Wakakuwa,,M,USA,HI,B,Submasters 33-39,110,272.5,,,,272.5,Single-ply,1
Rodric Thomas,,M,USA,GA,B,Submasters 33-39,110,230,,,,230,Single-ply,2
Tajinder Singh,,M,India,,B,Submasters 33-39,110,190,,,,190,Single-ply,3
Mike Desrosiers,,M,USA,AZ,B,Submasters 33-39,117.5,,,,,,Single-ply,DQ
Troy Chun,,M,USA,OR,B,Submasters 33-39,117.5,260,,,,260,Single-ply,1
Bill Hislop,,M,USA,MI,B,Submasters 33-39,117.5,245,,,,245,Single-ply,2
Paul Mercado,,M,USA,IL,B,Submasters 33-39,117.5,202.5,,,,202.5,Single-ply,3
Sean Erhardt,,M,USA,WA,B,Submasters 33-39,117.5,202.5,,,,202.5,Single-ply,4
Sam Aumavae,,M,USA,OR,B,Submasters 33-39,125,275,,,,275,Single-ply,1
Swede Selstrom,,M,USA,WA,B,Submasters 33-39,125,263,,,,263,Single-ply,2
Brandon Bankston,,M,USA,LA,B,Submasters 33-39,125,255,,,,255,Single-ply,3
Jake Kaio,,M,USA,HI,B,Submasters 33-39,140,,,,,,Single-ply,DQ
Dave Forstner,,M,USA,MI,B,Submasters 33-39,140,320,,,,320,Single-ply,1
Robert Vick,,M,USA,IL,B,Submasters 33-39,140+,,,,,,Single-ply,DQ
Tiny Meeker,,M,USA,TX,B,Submasters 33-39,140+,408.5,,,,408.5,Single-ply,1
Scott Wesley Jordan,,M,USA,AZ,B,Submasters 33-39,140+,320,,,,320,Single-ply,2
Roy Lamont,,M,USA,CA,B,Submasters 33-39,140+,275,,,,275,Single-ply,3
Rachele Unson,,F,USA,WA,B,Submasters 33-39,56,87.5,,,,87.5,Single-ply,1
Mary Ann Hobbs,,F,USA,WA,B,Submasters 33-39,60,87.5,,,,87.5,Single-ply,1
Mondae Nunes,,F,USA,CA,B,Submasters 33-39,60,72.5,,,,72.5,Single-ply,2
Virpi Pukkila,,F,Finland,,B,Submasters 33-39,67.5,125,,,,125,Single-ply,1
Lee Itule,,F,USA,AZ,B,Submasters 33-39,67.5,85,,,,85,Single-ply,2
Ferleshare Starks,,F,USA,TX,B,Submasters 33-39,75,62.5,,,,62.5,Single-ply,1
Nancy Mueller,,F,USA,WA,B,Submasters 33-39,90+,107.5,,,,107.5,Single-ply,1
Cory Grizzle,,M,USA,OR,B,Teen 12-13,44,32.5,,,,32.5,Single-ply,1
Chace Akina,,M,USA,HI,B,Teen 12-13,48,57.5,,,,57.5,Single-ply,1
Dylan Sites,,M,USA,OR,B,Teen 12-13,52,65,,,,65,Single-ply,1
Amos Grizzle,,M,USA,OR,B,Teen 12-13,60,62.5,,,,62.5,Single-ply,1
Tariq Qadir,,M,USA,WA,B,Teen 12-13,75,67.5,,,,67.5,Single-ply,1
Cyr Mc Farland,,M,USA,AZ,B,Teen 12-13,75,42.5,,,,42.5,Single-ply,2
Dakota Lane,,M,USA,CO,B,Teen 14-15,44,47.5,,,,47.5,Single-ply,1
Sean Daru,,M,USA,CO,B,Teen 14-15,60,82.5,,,,82.5,Single-ply,1
Jimmy Ditty,,M,USA,OR,B,Teen 14-15,67.5,77.5,,,,77.5,Single-ply,1
Blake Ross,,M,USA,TX,B,Teen 14-15,75,95,,,,95,Single-ply,1
Shane De Pinto,,M,USA,CO,B,Teen 14-15,82.5,105,,,,105,Single-ply,1
Elliot Stratton,,M,USA,CA,B,Teen 14-15,82.5,92.5,,,,92.5,Single-ply,2
Jeff Richardson,,M,USA,CO,B,Teen 14-15,82.5,70,,,,70,Single-ply,3
Conor Mc Kenna,,M,USA,CO,B,Teen 14-15,100,107.5,,,,107.5,Single-ply,1
Billy Henry,,M,USA,WA,B,Teen 14-15,100,82.5,,,,82.5,Single-ply,2
Colton Comito,,M,USA,CO,B,Teen 14-15,110,82.5,,,,82.5,Single-ply,1
K. C. Samoylich,,M,USA,CO,B,Teen 14-15,125,160,,,,160,Single-ply,1
Brandon Tovey,,M,USA,OR,B,Teen 16-17,56,82.5,,,,82.5,Single-ply,1
Travis Belen,,M,USA,WA,B,Teen 16-17,67.5,150,,,,150,Single-ply,1
Eduardo Lalo Pruneda,,M,USA,CO,B,Teen 16-17,67.5,102.5,,,,102.5,Single-ply,2
Donnie Miskinis,,M,USA,OH,B,Teen 16-17,67.5,102.5,,,,102.5,Single-ply,3
Mike Carter,,M,USA,CO,B,Teen 16-17,67.5,92.5,,,,92.5,Single-ply,4
Szandor Krajnik,,M,USA,CO,B,Teen 16-17,67.5,85,,,,85,Single-ply,5
Jonathan Post,,M,USA,CO,B,Teen 16-17,75,125,,,,125,Single-ply,1
Matt Stern,,M,USA,LA,B,Teen 16-17,75,92.5,,,,92.5,Single-ply,2
Judd Sato III,,M,USA,HI,B,Teen 16-17,82.5,150,,,,150,Single-ply,1
Andrew Cross,,M,USA,CO,B,Teen 16-17,82.5,135,,,,135,Single-ply,2
Daniel Ortiz,,M,USA,CA,B,Teen 16-17,82.5,105,,,,105,Single-ply,3
Jake Garbush,,M,USA,WA,B,Teen 16-17,90,142.5,,,,142.5,Single-ply,1
John Thrailkill,,M,USA,CA,B,Teen 16-17,90,132.5,,,,132.5,Single-ply,2
Roman Scimeca,,M,USA,HI,B,Teen 16-17,90,115,,,,115,Single-ply,3
Wayne Palomaki,,M,USA,WA,B,Teen 16-17,90,102.5,,,,102.5,Single-ply,4
Amritpal Saran,,M,USA,CA,B,Teen 16-17,100,177.5,,,,177.5,Single-ply,1
Kekoa Biroan,,M,USA,HI,B,Teen 16-17,100,152.5,,,,152.5,Single-ply,2
Adam Lindsey,,M,USA,NV,B,Teen 16-17,110,167.5,,,,167.5,Single-ply,1
Caleb O' Donald,,M,USA,ME,B,Teen 16-17,110,155,,,,155,Single-ply,2
Henry Yee Hoy,,M,USA,HI,B,Teen 16-17,110,140,,,,140,Single-ply,3
Delfred Kalani Kaipo,,M,USA,HI,B,Teen 16-17,125,132.5,,,,132.5,Single-ply,1
Tohora Harawira,,M,New Zealand,,B,Teen 16-17,140,130,,,,130,Single-ply,1
Mike Nguyen,,M,Vietnam,,B,Teen 18-19,67.5,125,,,,125,Single-ply,1
Vince Scavuzzo,,M,USA,CO,B,Teen 18-19,67.5,110,,,,110,Single-ply,2
A. J. Mangum,,M,USA,TX,B,Teen 18-19,82.5,127.5,,,,127.5,Single-ply,1
Nick Wilks,,M,USA,WA,B,Teen 18-19,82.5,55,,,,55,Single-ply,2
Matthew Short,,M,USA,CA,B,Teen 18-19,90,,,,,,Single-ply,DQ
Matthew Ommen,,M,USA,AZ,B,Teen 18-19,90,187.5,,,,187.5,Single-ply,1
Dillon Gilbertson,,M,USA,OR,B,Teen 18-19,90,142.5,,,,142.5,Single-ply,2
Sean Devlyn,,M,USA,CO,B,Teen 18-19,90,132.5,,,,132.5,Single-ply,3
Thomas Jimenez,,M,USA,CA,B,Teen 18-19,100,162.5,,,,162.5,Single-ply,1
Abel Dominguez III,,M,USA,TX,B,Teen 18-19,140,210,,,,210,Single-ply,1
Ali Miskinis,,F,USA,OH,B,Teen 12-13,52,40,,,,40,Single-ply,1
Donna Samoylich,,F,USA,CO,B,Teen 12-13,56,45.5,,,,45.5,Single-ply,1
Aroha Heta,,F,New Zealand,,B,Teen 12-13,75,70,75,,,70,Single-ply,1
Geri Cunningham,,F,USA,UT,B,Teen 14-15,44,53,55,,,53,Single-ply,1
Cheyenne Tavares,,F,USA,HI,B,Teen 14-15,44,40,,,,40,Single-ply,2
Veera Selkainaho,,F,Finland,,B,Teen 14-15,52,37.5,,,,37.5,Single-ply,1
Lacee Sanchez,,F,USA,OK,B,Teen 14-15,56,72.5,,,,72.5,Single-ply,1
Sarah Biddle,,F,USA,IN,B,Teen 14-15,67.5,70,,,,70,Single-ply,1
Sonja Grant,,F,USA,WA,B,Teen 14-15,75,67.5,,,,67.5,Single-ply,1
Rasha Husseini-Trujillo,,F,USA,CO,B,Teen 14-15,75,50,,,,50,Single-ply,2
Ambyr Reyes,,F,USA,UT,B,Teen 16-17,52,75,,,,75,Single-ply,1
Sarah Moorman,,F,USA,WA,B,Teen 16-17,52,65,,,,65,Single-ply,2
Anna Cade,,F,USA,WA,B,Teen 16-17,52,55,,,,55,Single-ply,3
Amanda Harris,,F,USA,TX,B,Teen 16-17,56,77.5,,,,77.5,Single-ply,1
Jennifer Otto,,F,USA,WA,B,Teen 16-17,82.5,85,,,,85,Single-ply,1
Kayla Sua,,F,USA,WA,B,Teen 16-17,90,92.5,97.5,,,92.5,Single-ply,1
Hannah Biddle,,F,USA,IN,B,Teen 16-17,90+,65,,,,65,Single-ply,1
Nikki Williams,,F,USA,GA,B,Teen 18-19,48,80,,,,80,Single-ply,1
Cassie Embry,,F,USA,UT,B,Teen 18-19,52,65,,,,65,Single-ply,1
Karina Phipps,,F,USA,NV,B,Teen 18-19,56,75.5,,,,75.5,Single-ply,1
Courtney Gathright,,F,USA,TX,B,Teen 18-19,82.5,157.5,,,,157.5,Single-ply,1
