Place,Name,State,WeightClassKg,BodyweightKg,Age,Best3SquatKg,Best3BenchKg,Best3DeadliftKg,TotalKg,Sex,Division,Equipment,Squat4Kg,Deadlift4Kg,Event
1,Ana Gaona,TX,56,55.70,23,92.50,35.00,100.00,227.50,F,Juniors 20-23,Raw,,,SBD
DQ,Samantha Hernandez,TX,60,58.40,23,-95.00,,,,F,Juniors 20-23,Raw,,,SBD
1,Alexandra Peek,TX,67.5,64.30,21,92.50,52.50,125.00,270.00,F,Juniors 20-23,Raw,,,SBD
2,Kenya Kelly,OK,67.5,67.30,20,95.00,47.50,127.50,270.00,F,Juniors 20-23,Raw,,,SBD
3,Allyson Cobb,TX,67.5,66.00,23,92.50,47.50,122.50,262.50,F,Juniors 20-23,Raw,,,SBD
1,Brianna Harris,OK,75,74.60,23,152.50,80.00,165.00,397.50,F,Juniors 20-23,Raw,,,SBD
1,Whitley Coe,OK,52,52.00,24,102.50,57.50,115.00,275.00,F,Open,Raw,,,SBD
DQ,Courtney Eastman,OR,52,51.50,25,77.50,-35.00,,,F,Open,Raw,,,SBD
1,Nadeela Akhtar,TX,56,54.00,34,62.50,35.00,102.50,200.00,F,Open,Raw,,,SBD
1,Van Nguyen,TX,60,60.00,28,120.00,45.00,120.00,285.00,F,Open,Raw,,,SBD
2,Lollie Trimino,TX,60,59.90,21,85.00,50.00,97.50,232.50,F,Open,Raw,,,SBD
3,Holly Noll,CA,60,59.00,29,47.50,52.50,110.00,210.00,F,Open,Raw,,,SBD
1,Darla King,OK,67.5,67.40,40,122.50,80.00,135.00,337.50,F,Open,Raw,,,SBD
2,Sally Andersen,PA,67.5,66.50,32,112.50,70.00,140.00,322.50,F,Open,Raw,,,SBD
3,Krista Kharazi-Goljahi,TX,67.5,66.00,29,102.50,52.50,145.00,300.00,F,Open,Raw,,,SBD
4,Anna D'Alessio,TX,67.5,66.30,24,97.50,65.00,112.50,275.00,F,Open,Raw,,,SBD
5,Allyson Cobb,TX,67.5,66.00,23,92.50,47.50,122.50,262.50,F,Open,Raw,,,SBD
1,Brianna Harris,OK,75,74.60,23,152.50,80.00,165.00,397.50,F,Open,Raw,,,SBD
2,Victoria Powell,OK,75,71.10,28,92.50,47.50,122.50,262.50,F,Open,Raw,,,SBD
1,Amy Davis,LA,82.5,81.40,32,137.50,77.50,137.50,352.50,F,Open,Raw,,,SBD
2,Melissa Lopez,TX,82.5,77.10,28,135.00,72.50,140.00,347.50,F,Open,Raw,,,SBD
1,Kaelene Colobella,UT,90,87.00,39,120.00,72.50,145.00,337.50,F,Open,Raw,,,SBD
1,Esther Odamah,TX,90+,97.50,24,187.50,80.50,162.50,430.50,F,Open,Raw,,,SBD
2,Rebecca Foster,TX,90+,101.60,37,142.50,85.00,185.00,412.50,F,Open,Raw,,,SBD
1,Crystal Moulton,UT,60,59.40,35,110.00,65.00,130.00,305.00,F,Submasters 35-39,Raw,,,SBD
1,Rachel Stein,OR,82.5,78.00,35,130.00,52.50,167.50,350.00,F,Submasters 35-39,Raw,,,SBD
1,Kaelene Colobella,UT,90,87.00,39,120.00,72.50,145.00,337.50,F,Submasters 35-39,Raw,,,SBD
1,Rebecca Foster,TX,90+,101.60,37,142.50,85.00,185.00,412.50,F,Submasters 35-39,Raw,,,SBD
1,Darla King,TX,67.5,67.40,40,122.50,80.00,135.00,337.50,F,Masters 40-44,Raw,,,SBD
1,Tyra Humphries,TX,90+,118.80,40,95.00,57.50,110.00,262.50,F,Masters 40-44,Raw,,,SBD
1,Keisha Gray,TX,90+,96.00,45,115.00,60.00,122.50,297.50,F,Masters 45-49,Raw,,,SBD
1,Abraham Ramirez #2,TX,75,74.25,17,190.00,140.00,220.00,550.00,M,Juniors 16-17,Raw,,,SBD
1,Alec Pack,TX,82.5,79.85,23,220.00,170.00,255.00,645.00,M,Juniors 20-23,Raw,,,SBD
2,Jacbo Fowler,TX,82.5,82.20,20,215.00,132.50,227.50,575.00,M,Juniors 20-23,Raw,,,SBD
DQ,Zackery Bickford,WA,82.5,79.80,20,182.50,115.00,-230.00,,M,Juniors 20-23,Raw,,,SBD
DQ,Reyhan Eusufzai,TX,82.5,79.25,20,172.50,-120.00,,,M,Juniors 20-23,Raw,,,SBD
1,Zac Bledsoe,OK,90,88.25,18,215.00,122.50,250.00,587.50,M,Juniors 18-19,Raw,,,SBD
2,Adam Floyd,TX,90,89.15,19,150.00,152.50,220.00,522.50,M,Juniors 18-19,Raw,,,SBD
1,Mark Zamora,TX,100,98.60,23,237.50,165.00,280.00,682.50,M,Juniors 20-23,Raw,240.0,,SBD
1,James Martinez #2,TX,110,107.75,21,220.00,145.00,265.00,630.00,M,Juniors 20-23,Raw,,,SBD
1,Brennan Eggers,TX,125,122.55,16,250.00,150.00,235.00,635.00,M,Juniors 16-17,Raw,,,SBD
1,Javier Rosales,TX,125,113.40,23,305.00,160.00,260.00,725.00,M,Juniors 20-23,Raw,,,SBD
1,Cadet Bryant,TX,67.5,62.65,41,162.50,110.00,200.00,472.50,M,Open,Raw,,,SBD
2,Jake Minnis,OK,67.5,67.45,24,187.50,102.50,182.50,472.50,M,Open,Raw,,,SBD
3,Jeremy Foley,TX,67.5,67.20,34,142.50,100.00,185.00,427.50,M,Open,Raw,,,SBD
1,Austin Pilling,TX,75,73.90,25,192.50,157.50,232.50,582.50,M,Open,Raw,,,SBD
2,Justin Kimmel,OK,75,74.20,25,182.50,150.00,242.50,575.00,M,Open,Raw,,,SBD
3,Jason Yu,TX,75,73.50,30,182.50,115.00,217.50,515.00,M,Open,Raw,,,SBD
4,Josh Padilla,TX,75,74.95,27,125.00,75.00,165.00,365.00,M,Open,Raw,,,SBD
1,Alec Pack,TX,82.5,79.85,21,220.00,170.00,255.00,645.00,M,Open,Raw,,,SBD
2,Aaron Jackson,TX,82.5,81.15,31,205.00,122.50,220.00,547.50,M,Open,Raw,,,SBD
3,Jack Hitz,KS,82.5,81.50,24,187.50,145.00,210.00,542.50,M,Open,Raw,,,SBD
4,Tanner Martin,TX,82.5,81.05,26,180.00,120.00,237.50,537.50,M,Open,Raw,,,SBD
5,Daniel Parker #3,TX,82.5,81.70,32,165.00,135.00,230.00,530.00,M,Open,Raw,,,SBD
6,Ty Burge,TX,82.5,82.50,26,187.50,110.00,215.00,512.50,M,Open,Raw,,,SBD
7,Daniel Albaugh,TX,75,73.50,32,160.00,115.00,200.00,475.00,M,Open,Raw,,,SBD
8,Patrick Loper,TX,82.5,79.60,25,155.00,97.50,190.00,442.50,M,Open,Raw,,,SBD
DQ,Corbin Perkins,OK,82.5,81.75,27,-190.00,,,,M,Open,Raw,,,SBD
DQ,Matthew Warner,TX,82.5,81.55,27,207.50,137.50,-207.50,,M,Open,Raw,,,SBD
DQ,Sam Bauck,TX,82.5,81.90,29,-225.00,,,,M,Open,Raw,,,SBD
1,Blaine Terry,TX,90,89.50,27,200.00,160.00,275.00,635.00,M,Open,Raw,,,SBD
2,Robert Mouton,TX,90,88.50,35,235.00,142.50,235.00,612.50,M,Open,Raw,,,SBD
3,Rusty Coffman,TX,90,89.60,25,215.00,142.50,255.00,612.50,M,Open,Raw,,,SBD
4,Gary Rodriguez,TX,90,89.95,23,200.00,155.00,227.50,582.50,M,Open,Raw,,,SBD
5,Paul Salomone,NY,90,87.25,33,182.50,167.50,227.50,577.50,M,Open,Raw,,,SBD
6,Nick Tervino,TX,90,88.90,30,170.00,137.50,222.50,530.00,M,Open,Raw,,,SBD
7,Charles Duke,TX,90,85.05,27,135.00,107.50,227.50,470.00,M,Open,Raw,,,SBD
DQ,Antoine Bonner,KS,90,89.30,28,245.00,-145.00,,,M,Open,Raw,,,SBD
DQ,Stephen Opskar,KS,90,89.15,22,180.00,142.50,-185.00,,M,Open,Raw,,,SBD
1,Eric Hixson,TX,100,99.40,31,250.00,190.00,272.50,712.50,M,Open,Raw,,,SBD
2,Jerry Stanley,OK,100,99.00,28,232.50,140.00,247.50,620.00,M,Open,Raw,,,SBD
3,Justin Morgan,TX,100,96.45,33,200.00,127.50,220.00,547.50,M,Open,Raw,,,SBD
4,Jason Morris,OR,100,96.95,31,190.00,102.50,227.50,520.00,M,Open,Raw,,,SBD
5,Jared Conrad,TX,100,95.50,25,185.00,135.00,190.00,510.00,M,Open,Raw,,,SBD
DQ,Cody Ward,TX,100,99.90,27,-205.00,,,,M,Open,Raw,,,SBD
1,Shae Jones,TX,110,110.00,36,327.50,230.00,310.00,867.50,M,Open,Raw,,,SBD
2,Ruben Rosales,OR,110,107.80,24,280.00,192.50,247.50,720.00,M,Open,Raw,,,SBD
3,Shea Fehrenbach,OK,110,109.30,24,212.50,167.50,260.00,640.00,M,Open,Raw,,,SBD
4,Justin Kirk,LA,110,109.35,25,230.00,160.00,250.00,640.00,M,Open,Raw,,,SBD
5,Lawrence Garnett,TX,110,106.55,28,215.00,160.00,255.00,630.00,M,Open,Raw,,,SBD
6,Russell Yazbeck,TX,110,104.35,31,220.00,142.50,242.50,605.00,M,Open,Raw,,,SBD
DQ,Rocky Molina II,TX,110,107.95,29,252.50,-152.50,,,M,Open,Raw,,,SBD
1,Javier Rosales,TX,125,113.40,23,305.00,160.00,260.00,725.00,M,Open,Raw,,,SBD
2,Jake Burghardt,OK,125,124.75,27,250.00,165.00,295.00,710.00,M,Open,Raw,,,SBD
3,Justin Davis,LA,125,114.65,30,227.50,160.00,235.00,622.50,M,Open,Raw,,,SBD
4,Ndem Nkem,CA,125,121.90,31,170.00,142.50,250.00,562.50,M,Open,Raw,,,SBD
DQ,Daniel Hawkins,TX,140,138.00,28,320.00,-205.00,,,M,Open,Raw,,,SBD
1,Jamie Wang,TX,140+,145.00,33,245.00,155.00,265.00,665.00,M,Open,Raw,,,SBD
DQ,Mark Hartley,TX,140+,195.00,26,-275.00,,,,M,Open,Raw,,,SBD
1,Cadet Bryant,TX,67.5,62.65,41,162.50,110.00,200.00,472.50,M,Masters 40-44,Raw,,,SBD
1,Robert Mouton,TX,90,88.50,35,235.00,142.50,235.00,612.50,M,Submasters 35-39,Raw,,,SBD
1,Robert Turk,TX,100,94.80,39,165.00,140.00,210.00,515.00,M,Submasters 35-39,Raw,,,SBD
1,Shae Jones,TX,110,110.00,36,327.50,230.00,310.00,867.50,M,Submasters 35-39,Raw,,,SBD
1,Charles King,TX,75,73.15,52,135.00,127.50,160.00,422.50,M,Masters 50-54,Raw,,,SBD
1,Tony Mancini,TX,90,89.60,44,165.00,160.00,227.50,552.50,M,Masters 40-44,Raw,,,SBD
2,Chris Runhaar,TX,90,88.85,42,137.50,110.00,175.00,422.50,M,Masters 40-44,Raw,,,SBD
1,Jim Bono,TX,100,99.00,41,247.50,147.50,290.00,685.00,M,Masters 40-44,Raw,,,SBD
1,Chelsea Futterman,TX,60,59.10,28,90.00,60.00,140.00,290.00,F,Open,Wraps,,,SBD
2,Rebecca Lough,TX,60,59.90,30,100.00,50.00,117.50,267.50,F,Open,Wraps,,,SBD
1,Damon Walkup,OK,60,57.60,15,115.00,75.00,160.00,350.00,M,Juniors 13-15,Raw,,165.0,SBD
1,Ryan Hammons,TX,82.5,78.65,22,212.50,160.00,220.00,592.50,M,Juniors 20-23,Wraps,,,SBD
1,Ryan Marcado,TX,100,97.90,21,227.50,137.50,255.00,620.00,M,Juniors 20-23,Wraps,,,SBD
1,Micheal Langston,OK,110,105.45,22,165.00,102.50,237.50,505.00,M,Juniors 20-23,Wraps,,,SBD
1,Adam Stephens,TX,140+,168.20,23,235.00,155.00,277.50,667.50,M,Juniors 20-23,Wraps,,,SBD
2,Slade Murrell,OK,140+,159.20,20,265.00,140.00,227.50,632.50,M,Juniors 20-23,Wraps,,,SBD
1,Joshua Farrell,TX,82.5,82.15,29,222.50,155.00,237.50,615.00,M,Open,Wraps,,,SBD
DQ,Jacob Henderson,SC,90,87.85,26,-180.00,,,,M,Open,Wraps,,,SBD
1,Gonzalo Herrera,TX,125,121.50,24,242.50,147.50,235.00,625.00,M,Open,Wraps,,,SBD
1,Edward McKinnis,TX,140,135.15,26,332.50,222.50,355.00,910.00,M,Open,Wraps,,,SBD
1,David Polisky,SC,100,98.30,36,180.00,125.00,240.00,545.00,M,Submasters 35-39,Wraps,,,SBD
DQ,Hal Carlson,TX,140,128.80,39,-295.00,,,,M,Submasters 35-39,Wraps,,,SBD
1,Mike Padilla,TX,90,88.70,46,235.50,145.00,255.00,635.50,M,Masters 45-49,Wraps,,,SBD
1,Tina Collins #1,TX,82.5,77.20,46,115.00,62.50,127.50,305.00,F,Masters 45-49,Single-ply,,,SBD
1,David Muster,TX,100,99.30,21,342.50,215.00,282.50,840.00,M,Open,Single-ply,,,SBD
1,Samantha Hernandez,TX,60,58.40,23,,62.50,,62.50,F,Juniors 20-23,Raw,,,B
1,Michelle McCarthy,TX,67.5,60.30,22,,85.00,,85.00,F,Juniors 20-23,Raw,,,B
1,Kris Landato,TX,67.5,66.10,46,,62.50,,62.50,F,Open,Raw,,,B
1,Kris Landato,TX,67.5,66.10,46,,62.50,,62.50,F,Masters 45-49,Raw,,,B
1,Josh Nooner,OK,90,86.75,23,,155.00,,155.00,M,Juniors 20-23,Raw,,,B
DQ,Jeffery Winkler,TX,67.5,67.50,30,,-130.00,,,M,Open,Raw,,,B
1,Eddie Webber,TX,75,70.50,34,,165.00,,165.00,M,Open,Raw,,,B
1,Josh Nooner,OK,90,86.75,23,,155.00,,155.00,M,Open,Raw,,,B
1,Kaiser Young,TX,100,99.65,43,,215.50,,215.50,M,Open,Raw,,,B
1,Mike Wolf,AZ,110,109.05,34,,142.50,,142.50,M,Open,Raw,,,B
1,Tim Metcalf,TX,82.5,77.70,54,,110.00,,110.00,M,Masters 50-54,Raw,,,B
1,Elliot Selle,TX,90,89.70,40,,150.00,,150.00,M,Masters 40-44,Raw,,,B
1,Kaiser Young,TX,100,99.65,43,,215.50,,215.50,M,Masters 40-44,Raw,,,B
1,Sean Smajstria,TX,100,98.35,47,,165.00,,165.00,M,Masters 45-49,Raw,,,B
DQ,Greg Powell,TX,110,108.30,49,,-375.00,,,M,Open,Single-ply,,,B
1,Jordon Lawler,TX,110,107.40,34,,237.50,,237.50,M,Open,Multi-ply,,,B
1,Courtney Eastman,TX,52,51.50,25,,,115.00,115.00,F,Open,Raw,,,D
1,Krista Kharazi-Goljahi,TX,67.5,66.00,26,,,145.00,145.00,F,Open,Raw,,,D
2,Kris Landato,TX,67.5,66.10,46,,,142.50,142.50,F,Open,Raw,,,D
3,Roselyn Wilson,TX,67.5,66.80,33,,,120.00,120.00,F,Open,Raw,,,D
1,Kris Landato,TX,67.5,66.10,46,,,142.50,142.50,F,Masters 45-49,Raw,,,D
1,Mark Zamora,TX,100,98.60,23,,,280.00,280.00,M,Juniors 20-23,Raw,,,D
1,Josh Padilla,TX,75,74.95,27,,,165.00,165.00,M,Open,Raw,,,D
1,Antoine Bonner,KS,90,89.30,28,,,262.50,262.50,M,Open,Raw,,,D
1,Tim Metcalf,TX,82.5,77.70,54,,,150.00,150.00,M,Masters 50-54,Raw,,,D
1,Mike Padilla,TX,90,88.70,46,,,255.00,255.00,M,Masters 45-49,Raw,,,D
1,Scott Shelter,TX,90,87.65,39,,,175.00,175.00,M,Submasters 35-39,Single-ply,,,D
