Division,WeightClassKg,Place,Name,Team,BodyweightKg,Best3SquatKg,Best3BenchKg,Best3DeadliftKg,TotalKg,Equipment,Event,Sex
Boys,51.71,1,Diego Gonzalez,Mercedes,51.66,86.18,65.77,102.06,254.01,Single-ply,SBD,M
Boys,51.71,2,Jackson Littles,Edinburg Idea College Prep,51.62,70.31,47.63,79.38,197.31,Single-ply,SBD,M
Boys,51.71,DQ,Anthony Ramirez,Edinburg North,50.58,,,,,Single-ply,SBD,M
Boys,55.79,1,Tyler Salazar,Donna,52.53,136.08,83.91,145.15,365.14,Single-ply,SBD,M
Boys,55.79,2,Marco Pina,Donna North,55.61,142.88,77.11,145.15,365.14,Single-ply,SBD,M
Boys,55.79,3,Josue Morin,PSJA North,54.43,95.25,79.38,127.01,301.64,Single-ply,SBD,M
Boys,55.79,DQ,Ivan Perez,Edinburg Idea College Prep,54.07,90.72,,,,Single-ply,SBD,M
Boys,59.87,1,Mike Gonzales,Weslaco East,59.87,158.76,95.25,185.97,439.98,Single-ply,SBD,M
Boys,59.87,2,Abraham Zermeno,Donna North,59.51,156.49,102.06,176.9,435.45,Single-ply,SBD,M
Boys,59.87,3,Alexis Gonzalez #3,PSJA North,59.87,158.76,97.52,174.63,430.91,Single-ply,SBD,M
Boys,59.87,4,Angel Flores #2,Mercedes,57.56,147.42,95.25,156.49,399.16,Single-ply,SBD,M
Boys,59.87,5,Denilson Guevara,PSJA North,59.56,113.4,74.84,138.35,326.59,Single-ply,SBD,M
Boys,59.87,6,Cruz Balandrano,Edinburg,58.24,102.06,65.77,122.47,290.3,Single-ply,SBD,M
Boys,59.87,DQ,Vicente Hernandez,Pharr Valley View,59.65,,,,,Single-ply,SBD,M
Boys,67.13,1,Juan Tamez,Weslaco East,64.14,183.7,104.33,204.12,492.15,Single-ply,SBD,M
Boys,67.13,2,Robert Alaniz,Weslaco East,66.41,188.24,111.13,183.7,483.08,Single-ply,SBD,M
Boys,67.13,3,Joshua de Leon,Edinburg Quest College Prep,64.73,165.56,88.45,165.56,419.57,Single-ply,SBD,M
Boys,67.13,4,Miguel Tovar,Donna North,60.55,156.49,86.18,170.1,412.77,Single-ply,SBD,M
Boys,67.13,5,Alejandro Sanchez,Edinburg,65.23,145.15,92.99,161.03,399.16,Single-ply,SBD,M
Boys,67.13,6,Jacob Jimenez,Edinburg Quest College Prep,65.86,149.69,68.04,158.76,376.48,Single-ply,SBD,M
Boys,67.13,7,Marco Martínez,Donna North,63.46,106.59,72.57,136.08,315.25,Single-ply,SBD,M
Boys,67.13,8,Rogelio Gonzalez,Edinburg Idea College Prep,60.87,113.4,61.23,120.2,294.84,Single-ply,SBD,M
Boys,67.13,DQ,Anthony De Leon,Edinburg Quest College Prep,65.73,,,,,Single-ply,SBD,M
Boys,67.13,DQ,Angel Sandoval,Donna North,66.5,,,,,Single-ply,SBD,M
Boys,67.13,DQ,Nicholas Pena,Donna North,65.59,,,,,Single-ply,SBD,M
Boys,67.13,DQ,Justin Berner,Edinburg North,67.09,115.67,86.18,,,Single-ply,SBD,M
Boys,74.84,1,Marcus Caceres,Weslaco East,74.12,183.7,142.88,204.12,530.7,Single-ply,SBD,M
Boys,74.84,2,Jorge Cavazos,Mercedes,69.58,192.78,124.74,192.78,510.29,Single-ply,SBD,M
Boys,74.84,3,George Almanza,Edinburg Economedes,74.16,199.58,97.52,183.7,480.81,Single-ply,SBD,M
Boys,74.84,4,Eric Hinojosa,Mercedes,74.71,181.44,111.13,188.24,480.81,Single-ply,SBD,M
Boys,74.84,5,Shehryar Khursheed,Edinburg Quest College Prep,70.26,151.95,108.86,210.92,471.74,Single-ply,SBD,M
Boys,74.84,6,Dominic Ramos,Rio Hondo,70.08,165.56,113.4,183.7,462.66,Single-ply,SBD,M
Boys,74.84,7,Andrew Lozano,Edinburg Quest College Prep,74.84,129.27,88.45,170.1,387.82,Single-ply,SBD,M
Boys,74.84,DQ,Michael Lopez,Edinburg,71.8,,,,,Single-ply,SBD,M
Boys,74.84,DQ,Israel Estrada,PSJA North,74.62,,,,,Single-ply,SBD,M
Boys,74.84,DQ,David Belland,Edinburg Idea College Prep,71.08,117.93,,,,Single-ply,SBD,M
Boys,82.1,1,Roy Pedraza,Weslaco East,81.19,226.8,149.69,256.28,632.76,Single-ply,SBD,M
Boys,82.1,2,Robert Garza,Donna,79.7,226.8,138.35,224.53,589.67,Single-ply,SBD,M
Boys,82.1,3,Luis Aguirre,Weslaco East,80.01,190.51,136.08,238.14,564.72,Single-ply,SBD,M
Boys,82.1,4,Michael Escamilla,Edinburg,81.78,188.24,131.54,217.72,537.51,Single-ply,SBD,M
Boys,82.1,5,Andrew Leija,PSJA North,80.78,172.37,115.67,204.12,492.15,Single-ply,SBD,M
Boys,82.1,6,Adalberto Segura,Edinburg,79.65,181.44,111.13,197.31,489.88,Single-ply,SBD,M
Boys,82.1,7,Felipe Elizondo,Edinburg,81.42,172.37,124.74,176.9,474,Single-ply,SBD,M
Boys,82.1,8,Matt Castillo,Donna,80.06,183.7,111.13,170.1,464.93,Single-ply,SBD,M
Boys,82.1,9,Alex Cuevas #3,Edinburg Economedes,81.33,181.44,92.99,183.7,458.13,Single-ply,SBD,M
Boys,82.1,10,James Champion,Edinburg,75.8,158.76,108.86,147.42,415.04,Single-ply,SBD,M
Boys,82.1,11,Angel Mendez #1,Edinburg,76.57,136.08,97.52,172.37,405.97,Single-ply,SBD,M
Boys,82.1,12,Izaiah Valdez,Edinburg North,78.65,124.74,111.13,136.08,371.95,Single-ply,SBD,M
Boys,82.1,13,Brandon Flores #3,Edinburg North,79.47,106.59,90.72,165.56,362.87,Single-ply,SBD,M
Boys,82.1,DQ,Rene Alejo,Edinburg North,77.56,120.2,,,,Single-ply,SBD,M
Boys,82.1,DQ,Julian Rodriguez,Edinburg Idea College Prep,78.61,79.38,,,,Single-ply,SBD,M
Boys,89.81,1,Daniel Yanez,Donna,88.18,242.67,145.15,226.8,614.62,Single-ply,SBD,M
Boys,89.81,2,Angel Rodríguez #5,Rio Hondo,86.32,226.8,124.74,201.85,553.38,Single-ply,SBD,M
Boys,89.81,3,Ernesto Preciado,Pharr Valley View,86.95,213.19,124.74,199.58,537.51,Single-ply,SBD,M
Boys,89.81,4,Gaston Castellanos,Rio Hondo,82.33,210.92,120.2,197.31,528.44,Single-ply,SBD,M
Boys,89.81,5,Roger Adame,Mercedes,87.45,195.04,122.47,208.65,526.17,Single-ply,SBD,M
Boys,89.81,6,Bryan Smith #4,Mercedes,86.68,181.44,129.27,210.92,521.63,Single-ply,SBD,M
Boys,89.81,7,Darren Earhart,Edinburg Economedes,87.14,181.44,122.47,183.7,487.61,Single-ply,SBD,M
Boys,89.81,8,David Garza,PSJA North,88.22,183.7,108.86,192.78,485.34,Single-ply,SBD,M
Boys,89.81,9,Eddie Garza,Donna,84.82,176.9,102.06,183.7,462.66,Single-ply,SBD,M
Boys,89.81,10,Uriel Aguilera,Pharr Valley View,89.31,158.76,81.65,161.03,401.43,Single-ply,SBD,M
Boys,89.81,11,Raul Aguilera #1,Edinburg North,88.72,136.08,95.25,167.83,399.16,Single-ply,SBD,M
Boys,89.81,12,Aaron Vela,Edinburg Quest College Prep,84.46,142.88,79.38,158.76,381.02,Single-ply,SBD,M
Boys,89.81,13,Brandon Vega,Edinburg North,87.82,133.81,86.18,151.95,371.95,Single-ply,SBD,M
Boys,89.81,14,Dionicio Garza,Edinburg,83.1,124.74,86.18,158.76,369.68,Single-ply,SBD,M
Boys,89.81,DQ,Adrian Ortiz,Edinburg North,86.82,151.95,,,,Single-ply,SBD,M
Boys,99.79,1,Israel Alfaro,Weslaco East,98.88,272.16,183.7,247.21,703.07,Single-ply,SBD,M
Boys,99.79,2,David Decanini #2,Weslaco East,92.99,219.99,142.88,204.12,566.99,Single-ply,SBD,M
Boys,99.79,3,Ramiro Aguirre,Weslaco East,98.43,204.12,158.76,192.78,555.65,Single-ply,SBD,M
Boys,99.79,4,Edson Calderon,Donna,93.89,229.06,138.35,185.97,553.38,Single-ply,SBD,M
Boys,99.79,5,Michael Gutierrez,Mercedes,98.7,215.46,124.74,195.04,535.24,Single-ply,SBD,M
Boys,99.79,6,Juan Delgado,Rio Hondo,99.79,199.58,138.35,195.04,532.97,Single-ply,SBD,M
Boys,99.79,7,Lupe Garcia,Rio Hondo,98.84,170.1,92.99,215.46,478.54,Single-ply,SBD,M
Boys,99.79,8,Gerry Briones,PSJA North,97.11,176.9,124.74,174.63,476.27,Single-ply,SBD,M
Boys,99.79,9,Miguel Perales,Donna North,99.56,192.78,117.93,165.56,476.27,Single-ply,SBD,M
Boys,99.79,10,Elijah Adame,Edinburg,94.85,154.22,104.33,154.22,412.77,Single-ply,SBD,M
Boys,99.79,DQ,Jacob Gutierrez,Mercedes,99.16,192.78,115.67,,,Single-ply,SBD,M
Boys,99.79,DQ,Carlos Aguirre,Edinburg North,91.99,129.27,,,,Single-ply,SBD,M
Boys,99.79,DQ,Sergio Pena,Edinburg Quest College Prep,99.79,122.47,,,,Single-ply,SBD,M
Boys,109.77,1,Juan Martinez,Donna North,106.5,278.96,151.95,265.35,696.26,Single-ply,SBD,M
Boys,109.77,2,Jonathan Grimaldo,Donna,107.68,290.3,149.69,254.01,694,Single-ply,SBD,M
Boys,109.77,3,Diego Lopez,PSJA North,109.72,249.48,140.61,238.14,628.23,Single-ply,SBD,M
Boys,109.77,4,Mark Cisneros,Donna,106.87,263.08,140.61,217.72,621.42,Single-ply,SBD,M
Boys,109.77,5,Andy Zuniga,PSJA North,108.5,226.8,133.81,208.65,569.26,Single-ply,SBD,M
Boys,109.77,6,Israel Cerda,Donna North,105.05,199.58,106.59,192.78,498.95,Single-ply,SBD,M
Boys,109.77,7,Ty Rhyner,Rio Hondo,100.88,183.7,115.67,165.56,464.93,Single-ply,SBD,M
Boys,109.77,8,Eloy Lopez,Edinburg North,107.18,142.88,97.52,183.7,424.11,Single-ply,SBD,M
Boys,109.77,DQ,Pat Esquivel,Edinburg Economedes,101.29,208.65,124.74,,,Single-ply,SBD,M
Boys,109.77,DQ,Bryan Cardenas,Donna,109.54,190.51,,,,Single-ply,SBD,M
Boys,124.74,1,Johnathan Banda,Weslaco East,122.47,276.69,165.56,265.35,707.6,Single-ply,SBD,M
Boys,124.74,2,JJ Vallejo,Donna,119.93,249.48,136.08,226.8,612.35,Single-ply,SBD,M
Boys,124.74,3,Virgil Munoz,Los Fresnos,120.7,258.55,163.29,183.7,605.55,Single-ply,SBD,M
Boys,124.74,4,Marcos Garza,Edinburg Economedes,115.53,226.8,136.08,210.92,573.79,Single-ply,SBD,M
Boys,124.74,5,Jamie Longoria,Los Fresnos,123.15,258.55,108.86,204.12,571.53,Single-ply,SBD,M
Boys,124.74,6,JD Torres,Donna,117.34,235.87,142.88,183.7,562.45,Single-ply,SBD,M
Boys,124.74,7,Dustin Valdez,Mercedes,119.61,213.19,117.93,181.44,512.56,Single-ply,SBD,M
Boys,124.74,8,Jose Carrillo,Edinburg,124.28,188.24,145.15,145.15,478.54,Single-ply,SBD,M
Boys,124.74,9,Jake Rhyner,Rio Hondo,120.66,151.95,92.99,147.42,392.36,Single-ply,SBD,M
Boys,124.74,10,Antonio Aguilar,Edinburg Economedes,119.43,104.33,92.99,158.76,356.07,Single-ply,SBD,M
Boys,124.74,DQ,Mario Ortiz,Edinburg North,110.22,181.44,122.47,,,Single-ply,SBD,M
Boys,124.74,DQ,Fabian Castillo,Edinburg Economedes,117.44,226.8,,,,Single-ply,SBD,M
Boys,124.74+,1,Eli Olivo,Donna North,136.67,294.84,183.7,235.87,714.41,Single-ply,SBD,M
Boys,124.74+,2,Danny Melendez,Mercedes,131.63,274.42,145.15,192.78,612.35,Single-ply,SBD,M
Boys,124.74+,3,Andres Garcia,Weslaco East,136.08,229.06,163.29,213.19,605.55,Single-ply,SBD,M
Boys,124.74+,4,Isaac Olvera,Donna North,139.21,190.51,113.4,181.44,485.34,Single-ply,SBD,M
