Name,BirthDate,Sex,Equipment,Division,BodyweightKg,WeightClassKg,State,Squat1Kg,Squat2Kg,Squat3Kg,Squat4Kg,Best3SquatKg,Bench1Kg,Bench2Kg,Bench3Kg,Bench4Kg,Best3BenchKg,Deadlift1Kg,Deadlift2Kg,Deadlift3Kg,Deadlift4Kg,Best3DeadliftKg,TotalKg,Event,Place
Victoria Toconas,,F,Raw,Y5-12,42.1,44,,40,45,55,,55,20,-22.5,-22.5,,20,55,-65,-65,,55,130,SBD,1
Magali Franco,,F,Raw,T15-19,48.9,52,,-85,85,90,,90,57.5,-60,-60,,57.5,132.5,-140,140,,140,287.5,SBD,1
Luciana Jozami,,F,Raw,Jun,52,52,,-105,110,115,,115,42.5,47.5,-50,,47.5,120,130,-140,,130,292.5,SBD,1
Sofía Caminos,,F,Raw,Jun,51.9,52,,102.5,107.5,112.5,,112.5,47.5,-50,-50,,47.5,105,107.5,110,,110,270,SBD,1
Yamila Abigail Ramis,,F,Raw,T15-19,55.7,56,,110,120,-127.5,,120,60,62.5,-65,,62.5,145,155,-160,,155,337.5,SBD,1
Sofia Pereyra,,F,Raw,T15-19,55.1,56,,-97.5,97.5,105,,105,60.5,65,-70,,65,102.5,110,117.5,,117.5,287.5,SBD,1
Abigail Ruiz Coronel,,F,Raw,T15-19,55.2,56,,-80,80,-87.5,,80,35,37.5,-40,,37.5,100,110,-117.5,,110,227.5,SBD,1
Ludmila Mendoza,,F,Raw,Jun,55,56,,112.5,-122.5,-122.5,,112.5,72.5,-77.5,-77.5,,72.5,125,137.5,140,,140,325,SBD,1
Leila Iturrizaga,,F,Raw,T15-19,57.4,60,,90,100,-110,,100,50,55,-60,,55,105,115.5,117.5,,117.5,272.5,SBD,1
Martina Barzotti,,F,Raw,T15-19,57.4,60,,85,,,,85,40,-42.5,-42.5,,40,100,110,115.5,,115.5,240.5,SBD,1
Ludmila Fabre,,F,Raw,Jun,59.5,60,,102.5,107.5,112.5,,112.5,50,55,-57.5,,55,107.5,115,120,,120,287.5,SBD,1
Agustina Candame,,F,Raw,Jun,58.5,60,,100,-107.5,-110,,100,52.5,57.5,60.5,,60.5,110,120,130,,130,290.5,SBD,1
Camila Bronn,,F,Raw,Jun,59.2,60,,92.5,97.5,100,,100,42.5,-45,45,,45,117.5,122.5,125,,125,270,SBD,1
Yamila Sueldo,,F,Raw,Jun,59.7,60,,-115,-115,-115,,-115,52.5,57.5,60,,60,135,140,-145,,140,,SBD,DQ
Florencia Bello,,F,Raw,T15-19,60.9,67.5,,110,120,130,,130,67.5,75,-80,,75,125,140,150,,150,355,SBD,1
Ana Angélica Moshkov,,F,Raw,T15-19,64.8,67.5,,90,105,112.5,,112.5,55,62.5,-65,,62.5,110,120,-127.5,,120,295,SBD,1
Paula Florencia Torres,,F,Raw,Jun,65.7,67.5,,132.5,-137.5,137.5,138,137.5,65,67.5,-70,,67.5,147.5,150,,,150,355,SBD,1
Rocío Gutierrez,,F,Raw,Jun,64,67.5,,130,135,-140,,135,50,52.5,-57.5,,52.5,132.5,142.5,-152.5,,142.5,330,SBD,1
Magaly Urzainqui,,F,Raw,Jun,62.9,67.5,,95,100,-107.5,,100,45,50,-52.5,,50,105,110,112.5,,112.5,262.5,SBD,1
Melody Ayelén Morales,,F,Raw,T15-19,74.9,75,,120,127.5,-130,,127.5,55,57.5,-62.5,,57.5,140,152.5,160,,160,345,SBD,1
Nahiara Jazmín Arden,,F,Raw,T15-19,73.4,75,,100,110,117.5,125,117.5,75,-80,80,,80,100,110,-120,,110,307.5,SBD,1
Maria Paz Blois,,F,Raw,Jun,74.6,75,,145,-152.5,-152.5,,145,-82.5,85,-87.5,,85,140,-150,150,,150,380,SBD,1
Abril Gonzalez,,F,Raw,Jun,70.3,75,,110,120,130,,130,65,-67.5,-70,,65,140,147.5,-150,,147.5,342.5,SBD,1
Lourdes Micaela Gómez,,F,Raw,T15-19,81.7,82.5,,90,-97.5,-97.5,,90,50,60,-62.5,,60,110,-117.5,-120,,110,260,SBD,1
Aylén Favale,,F,Raw,T15-19,80.5,82.5,,-112.5,-112.5,-112.5,,-112.5,-52.5,55,-60,,55,115,125,-132.5,,125,,SBD,DQ
Aimara Daros,,F,Raw,Jun,80.5,82.5,,-130,130,-140,,130,-67.5,67.5,-75,,67.5,180,-190,-190,,180,377.5,SBD,1
Aliyah Ugarte Vazquez,,F,Raw,Jun,82.1,82.5,,135,140,145,,145,65,70,-75,,70,125,135,-145,,135,350,SBD,1
Carolina Moraga,,F,Raw,Jun,82.2,82.5,,110,-125,-130,,110,-50,50,-52.5,,50,115,125,-132.5,,125,285,SBD,1
Camila Rico Nuñez,,F,Raw,T15-19,116.1,110+,,125,135,-140,,135,52.5,-57.5,-60,,52.5,135,-145,-160,,135,322.5,SBD,1
Maria Ramos,,F,Raw,Op,47.9,48,,135,145,155,,155,80,85,90,,90,170,180,190,,190,435,SBD,1
Ana González Hauscarriaga,,F,Raw,Op,50.8,52,,120,130,135,,135,-60,60,-65,,60,120,132.5,-142.5,,132.5,327.5,SBD,1
Agustina Reale,,F,Raw,Op,50.4,52,,105,115,120,,120,47.5,52.5,-55,,52.5,127.5,137.5,-145,,137.5,310,SBD,1
Melinda Willson,,F,Raw,Op,50.6,52,,90,-97.5,-100,,90,42.5,45,-47.5,,45,110,117.5,120,,120,255,SBD,1
Ayelen Agustina Noguera,,F,Raw,Op,54.9,56,,162.5,-172.5,-172.5,,162.5,70,75,80,,80,162.5,172.5,180,,180,422.5,SBD,1
Sonia Sarapura,,F,Raw,Op,54.7,56,,100,110,120,,120,65,70,75,,75,145,155,-165,,155,350,SBD,1
Julieta Rendano,,F,Raw,Op,55.4,56,,100,110,115,,115,60,65,-67.5,,65,140,150,155,,155,335,SBD,1
Celeste Estrada,,F,Raw,Op,53.5,56,,105,-112.5,112.5,,112.5,50,55,-60,,55,122.5,137.5,150,,150,317.5,SBD,1
Jazmin Selser,,F,Raw,Op,54.9,56,,105,-115,115,,115,55,-60,-60,,55,122.5,127.5,137.5,,137.5,307.5,SBD,1
Jenifer Carolina Coronel,,F,Raw,Op,55.2,56,,110,-115,-115,,110,45,50,-55,,50,125,135,142.5,,142.5,302.5,SBD,1
Valeria Noemí Alegre,,F,Raw,Op,55.9,56,,95,-105,105,,105,47.5,-52.5,-52.5,,47.5,137.5,150,-157.5,,150,302.5,SBD,1
Victoria Libré,,F,Raw,Op,55.3,56,,100,107.5,-112.5,,107.5,50,55,-57.5,,55,110,120,127.5,,127.5,290,SBD,1
Ailén Aisha Flores,,F,Raw,Op,54.4,56,,95,-100,-107.5,,95,50,-52.5,52.5,,52.5,112.5,120,127.5,,127.5,275,SBD,1
Ayelén Solis,,F,Raw,Op,53.4,56,,85,92.5,100,,100,45,-50,-50,,45,110,120,-135,,120,265,SBD,1
Camila Muerza,,F,Raw,Op,54.3,56,,95,102.5,110,,110,50,55,-60,,55,87.5,97.5,-105,,97.5,262.5,SBD,1
Candela Olivetto,,F,Raw,Op,53.6,56,,72.5,77.5,-80,,77.5,47.5,-52.5,-52.5,,47.5,112.5,120,-125,,120,245,SBD,1
Magali Villalba,,F,Raw,Op,54.8,56,,-90,90,-100,,90,40,-45,45,,45,-95,95,100,,100,235,SBD,1
Luciana Mutto,,F,Raw,Op,55.8,56,,-80,-85,-85,,-80,-40,40,-42.5,,40,95,105,-110,,105,,SBD,DQ
Solana Chasampi,,F,Raw,Op,58.2,60,,137.5,147.5,152.5,,152.5,75,77.5,-80,,77.5,195,207.5,-212.5,,207.5,437.5,SBD,1
Elizabeth Muñoz Valdés,,F,Raw,Op,59.9,60,,125,132.5,140,,140,-70,75,-80,,75,162.5,175,-182.5,,175,390,SBD,1
Magali Melania Santi,,F,Raw,Op,59.3,60,,130,140,150,,150,67.5,70,-72.5,,70,145,157.5,167.5,,167.5,387.5,SBD,1
Rocio Tapia,,F,Raw,Op,57.1,60,,132.5,142.5,150,,150,70,80,-82.5,,80,140,155,-165,,155,385,SBD,1
Belén Verón,,F,Raw,Op,57.2,60,,-140,-140,140,,140,77.5,-85,85,,85,152.5,-162.5,-162.5,,152.5,377.5,SBD,1
Julieta Acevedo,,F,Raw,Op,59.9,60,,135,140,-145,,140,60,-67.5,-67.5,,60,155,160,167.5,,167.5,367.5,SBD,1
Veronica Contardo,,F,Raw,Op,59,60,,122.5,132.5,-140,,132.5,62.5,-67.5,67.5,,67.5,125,135,-140,,135,335,SBD,1
Georgina Campopiano,,F,Raw,Op,59.5,60,,105,-107.5,-107.5,,105,57.5,-60,-60,,57.5,145,147.5,-150,,147.5,310,SBD,1
Anyel Brizuela,,F,Raw,Op,59.4,60,,105,-115,-120,,105,50,-52.5,-52.5,,50,110,120,130,,130,285,SBD,1
Romina Velazquez,,F,Raw,Op,59.2,60,,107.5,115,-122.5,,115,47.5,50,-52.5,,50,107.5,112.5,115,,115,280,SBD,1
Martina Álvarez,,F,Raw,Op,59.9,60,,-110,112.5,117.5,,117.5,40,45,-47.5,,45,105,-110,-110,,105,267.5,SBD,1
Daiana Martinez,,F,Raw,Op,56.4,60,,85,-95,-95,,85,40,-45,-45,,40,90,100,110,,110,235,SBD,1
Daniela Dominguez,,F,Raw,Op,56.9,60,,-115,-115,-115,,-115,55,-57.5,-60,,55,-155,,,,-155,,SBD,DQ
Shirley Alegría,,F,Raw,Op,58.8,60,,-105,-105,-105,,-105,40,45,-50,,45,100,112.5,120,,120,,SBD,DQ
Estela Peña,,F,Raw,Op,67.4,67.5,,170,180,-190,,180,90,-92.5,,,90,175,185,-196,,185,455,SBD,1
Belén Opazo,,F,Raw,Op,65.6,67.5,,145,157.5,-165,,157.5,92.5,97.5,100,,100,150,165,175,,175,432.5,SBD,1
Mayra Daniela Álvarez,,F,Raw,Op,64.7,67.5,,140,155,160,,160,70,-80,80,,80,150,165,-170,,165,405,SBD,1
Vanesa Barbero,,F,Raw,Op,66.7,67.5,,137.5,145,150,,150,77.5,82.5,-85,,82.5,147.5,155,162.5,,162.5,395,SBD,1
Lilen Areco,,F,Raw,Op,63.4,67.5,,130,137.5,-145,,137.5,67.5,72.5,75,,75,147.5,157.5,165,,165,377.5,SBD,1
Vanesa Servín,,F,Raw,Op,67.3,67.5,,117.5,127.5,-135,,127.5,60,65,70,,70,140,152.5,160,,160,357.5,SBD,1
Desiree Thill,,F,Raw,Op,66.1,67.5,,110,115,125,,125,55,60,-62.5,,60,135,145,155,,155,340,SBD,1
María Chirinos,,F,Raw,Op,65.8,67.5,,125,135,-140,,135,50,-55,-55,,50,135,145,-155,,145,330,SBD,1
Lucía Chomiak,,F,Raw,Op,62.6,67.5,,120,130,-140,,130,55,-60,-60,,55,125,135,-140,,135,320,SBD,1
Valeria Daiana Crespo,,F,Raw,Op,67.2,67.5,,115,120,-125,,120,62.5,67.5,-70,,67.5,120,130,-140,,130,317.5,SBD,1
Sabrina Ailen De Toffol,,F,Raw,Op,65.5,67.5,,110,122.5,130,,130,50,-55,-55,,50,120,125,-130,,125,305,SBD,1
Daiana Bogado,,F,Raw,Op,61.4,67.5,,100,-107.5,110,,110,42.5,45,-47.5,,45,120,130,135,,135,290,SBD,1
Virginia Gimenez,,F,Raw,Op,66.4,67.5,,105,112.5,-115,,112.5,-55,55,-60,,55,105,-115,-115,,105,272.5,SBD,1
Mayra Mediabilla,,F,Raw,Op,65.9,67.5,,95,105,-110,,105,45,50,-52.5,,50,105,115,-122.5,,115,270,SBD,1
Mara Fernández,,F,Raw,Op,65.7,67.5,,90,-100,100,,100,52.5,-57.5,57.5,,57.5,110,-115,-115,,110,267.5,SBD,1
Aldana Sol Violante,,F,Raw,Op,72.7,75,,145,152.5,160,,160,60,67.5,-70,,67.5,160,172.5,182.5,,182.5,410,SBD,1
Michelle Sofía Correa,,F,Raw,Op,71,75,,152.5,160,165,,165,65,70,-72.5,,70,160,173,-180,,173,408,SBD,1
Daiana Gonzalez,,F,Raw,Op,73.7,75,,112.5,120,122.5,,122.5,62.5,65,-67.5,,65,140,150,157.5,,157.5,345,SBD,1
Denise Chapot,,F,Raw,Op,71.6,75,,-110,115,120,,120,60,67.5,70,,70,140,150,-160,,150,340,SBD,1
Milena Sanchez,,F,Raw,Op,73.3,75,,112.5,122.5,130,,130,60,67.5,70,,70,127.5,140,-152.5,,140,340,SBD,1
Milagros Rossi,,F,Raw,Op,74.9,75,,115,-120,120,,120,50,55,-57.5,,55,130,135,140,,140,315,SBD,1
Elibet Acuña,,F,Raw,Op,70,75,,-100,-100,100,,100,50,55,-62.5,,55,125,135,145,,145,300,SBD,1
Talia Denice Santander,,F,Raw,Op,73.1,75,,90,95,-100,,95,50,55,-57.5,,55,135,140,-145,,140,290,SBD,1
Aldana Barrionuevo,,F,Raw,Op,74.1,75,,110,-115,-117.5,,110,45,-50,,,45,127.5,135,-142.5,,135,290,SBD,1
Paula Candela Firpo,,F,Raw,Op,76.7,82.5,,170,180,190,,190,80,,-87.5,,80,190,200,210,,210,480,SBD,1
Barbara Florencia Ocampo,,F,Raw,Op,77.1,82.5,,155,167.5,172.5,,172.5,77.5,-82.5,82.5,,82.5,165,175,185,,185,440,SBD,1
Rocio Escobar,,F,Raw,Op,80.9,82.5,,125,135,142.5,,142.5,72.5,-77.5,77.5,,77.5,165,-175,-175,,165,385,SBD,1
Taiel González Bernadinelli,,F,Raw,Op,82.1,82.5,,100,105,-110,,105,-65,65,,,65,130,140,-145,,140,310,SBD,1
Milagros Kapitonchik,,F,Raw,Op,88.9,90,,117.5,-125,127.5,,127.5,55,60,-67.5,,60,137.5,147,-155,,147,334.5,SBD,1
Sofía Victoria Albanese,,F,Raw,Op,89.9,90,,130,140,-150,,140,-50,-55,-55,,-50,130,140,-150,,140,,SBD,DQ
Daniela Torrez,,F,Raw,Op,96.3,100,,177.5,190,-197.5,,190,82.5,85,-90,,85,185,200,-207.5,,200,475,SBD,1
Daniela Argañaraz,,F,Raw,Op,90.15,100,,170,182.5,-190,,182.5,70,75,-80,,75,180,190,-200.5,,190,447.5,SBD,1
Natali Belen Aranda,,F,Raw,Op,91.2,100,,130,-140,-140,,130,55,65,-75,,65,140,150,160,,160,355,SBD,1
Melani Biurrón,,F,Raw,Op,99.9,100,,110,115,122.5,,122.5,55,60,65,,65,120,135,-145,,135,322.5,SBD,1
Guadalupe Juiz,,F,Raw,Op,97.9,100,,110,-115,-120,,110,55,-62.5,-62.5,,55,125,135,142.5,,142.5,307.5,SBD,1
Jesica Natalia Iribarren,,F,Raw,Op,109.1,110,,195,202.5,,,202.5,90,-95,-95,,90,162.5,172.5,182.5,,182.5,475,SBD,1
Gimena Analía Marilef,,F,Raw,Op,102.6,110,,-150,150,-160,,150,65,-70,-70,,65,160,-165,-165,,160,375,SBD,1
Denisse Eliana Cain,,F,Raw,Op,133.5,110+,,165,-175,175,,175,77.5,82.5,85,,85,145,155,160,,160,420,SBD,1
Andrea Soledad Navarro,,F,Raw,M1,53.6,56,,-97.5,105,-110,,105,55,60,-65,,60,125,135,145,150,145,310,SBD,1
Roció de Las Nieves Hernández,,F,Raw,M1,55,56,,90,-100,-100,,90,50,52.5,-55,,52.5,120,130,-140,,130,272.5,SBD,1
Sonia Sarapura,,F,Raw,M2,54.7,56,,100,110,120,,120,65,70,75,,75,145,155,-165,,155,350,SBD,1
Ana María Soledad Cardenas,,F,Raw,M3,54.7,56,,80,92.5,-100,,92.5,55,-60,60,,60,95,107.5,120,,120,272.5,SBD,1
Maria Emilia Gil Baleirón,,F,Raw,M1,59.3,60,,87.5,95,100,,100,62.5,65,67.5,,67.5,127.5,135,137.5,,137.5,305,SBD,1
Cecilia Maidana,,F,Raw,M2,59.7,60,,100,105,112.5,,112.5,57.5,62.5,67.5,,67.5,120,125,132.5,,132.5,312.5,SBD,1
Romina Mendiola,,F,Raw,M1,64.8,67.5,,105,112.5,-118,,112.5,42.5,47.5,50,,50,140,150,-155,,150,312.5,SBD,1
Giselle Barros,,F,Raw,M1,63.7,67.5,,100,110,-120,,110,47.5,52.5,57.5,,57.5,110,125,135,,135,302.5,SBD,1
Daniela Rosana Areco,,F,Raw,M1,72.2,75,,120,130,137.5,,137.5,62.5,67.5,-72.5,,67.5,125,135,140,,140,345,SBD,1
Amparo Ranea,,F,Raw,M1,72.4,75,,95,-105,105,,105,-72.5,75,-80,,75,125,,,,125,305,SBD,1
María José García,,F,Raw,M2,72.3,75,,80,90,100,,100,50,-55,-55,,50,125,132.5,136,,136,286,SBD,1
Lilian Solange Fernandez,,F,Raw,M2,76.1,82.5,,110,125,130,132.5,130,60,-65,65,,65,125,135,-140,,135,330,SBD,1
Adriana Stacchiotti,,F,Raw,M4,78.6,82.5,,90,-100,-100,,90,42.5,47.5,-50,,47.5,110,120,-123,,120,257.5,SBD,1
Maria Eugenia Cisterna,,F,Wraps,Op,104.9,110,,190,-200,-205,,190,75,80,-82.5,,80,200,-215,-215,,200,470,SBD,1
Maria Eugenia Cisterna,,F,Wraps,M2,104.9,110,,190,-200,-205,,190,75,80,-82.5,,80,200,-215,-215,,200,470,SBD,1
Victorio Sterrantino,,M,Raw,T15-19,55.2,56,,120,-125,-125,,120,70,72.5,75,,75,150,-160,160,,160,355,SBD,1
Elias Tabares,,M,Raw,Jun,52.6,56,,100,110,115,,115,70,80,-87.5,,80,120,135,-145,,135,330,SBD,1
Amir Alejandro Aguilera Becerra,,M,Raw,Y5-12,59.7,60,,35,45,-60,,45,27.5,30,-32.5,,30,65,-75,-75,,65,140,SBD,1
Maico Samaniego,,M,Raw,T15-19,58.9,60,,-150,150,155,,155,77.5,-82.5,85,,85,187.5,197.5,-202.5,,197.5,437.5,SBD,1
Gonzalo Mira,,M,Raw,Jun,59.9,60,,-145,-155,155,,155,85,90,-95,,90,165,180,190,,190,435,SBD,1
Cristian Vega,,M,Raw,Jun,58.2,60,,-130,130,140,,140,77.5,82.5,-87.5,,82.5,160,170,-180,,170,392.5,SBD,1
Maximo Nauwelaerts,,M,Raw,T15-19,66.5,67.5,,140,150,160,,160,97.5,102.5,110,,110,180,190,-200,,190,460,SBD,1
Juan Pablo Romero,,M,Raw,T15-19,66.1,67.5,,135,150,-160,,150,85,-95,-95,,85,190,-200,-205,,190,425,SBD,1
Valentin Flores,,M,Raw,T15-19,64.1,67.5,,-150,-150,160,,160,90,-105,-105,,90,155,170,-180,,170,420,SBD,1
Joaquin Marcuzzi,,M,Raw,T15-19,63.3,67.5,,120,130,-140,,130,-57.5,60,65,,65,165,175,182.5,,182.5,377.5,SBD,1
Thiago Keber,,M,Raw,T15-19,65,67.5,,125,-135,135,,135,72.5,75,-80,,75,145,155,-165,,155,365,SBD,1
Joaquin Oroño,,M,Raw,T15-19,61.2,67.5,,-120,120,-125,,120,75,-80,80,,80,160,-170,-170,,160,360,SBD,1
Ramiro Barros,,M,Raw,Jun,67.1,67.5,,180,200,205,,205,132.5,140,147.5,,147.5,245,260,-275,,260,612.5,SBD,1
Nicolás Varas,,M,Raw,Jun,66.9,67.5,,200,-210,-210,,200,-110,-115,115,,115,220,240,250,,250,565,SBD,1
Braian Diaz,,M,Raw,Jun,62.4,67.5,,100,110,-120,,110,60,65,-67.5,,65,145,155,160,,160,335,SBD,1
Valentino Monasterio,,M,Raw,T15-19,73.6,75,,180,195,205,,205,110,115,122.5,,122.5,207.5,220,226.5,,226.5,554,SBD,1
Tomas Garbini,,M,Raw,T15-19,73.8,75,,187.5,-195,195,,195,122.5,127.5,-130,,127.5,215,225.5,-235,,225.5,548,SBD,1
Rodrigo Julián Brizuela Polito,,M,Raw,T15-19,72.7,75,,175,187.5,-197.5,,187.5,110,122.5,-130,,122.5,200,220,230,,230,540,SBD,1
Simón Graziano,,M,Raw,T15-19,71.4,75,,175,182.5,190,,190,90,97.5,102.5,,102.5,200,212.5,-220,,212.5,505,SBD,1
Martín Sanchez,,M,Raw,T15-19,72.1,75,,145,160,165,,165,-100,102.5,110,,110,202.5,215,226,,226,501,SBD,1
Nicolas Grosso,,M,Raw,T15-19,74.3,75,,162.5,-175,182.5,,182.5,100,-107.5,-107.5,,100,190,200,207.5,,207.5,490,SBD,1
Ignacio Gibson,,M,Raw,T15-19,73.1,75,,142.5,150,-155,,150,95,100,102.5,,102.5,172.5,182.5,-190,,182.5,435,SBD,1
Benjamin Perez,,M,Raw,T15-19,69.6,75,,140,-150,152.5,,152.5,90,,102.5,,102.5,155,165,-170,,165,420,SBD,1
Joaquin Pierroni,,M,Raw,T15-19,74.1,75,,150,-162.5,-162.5,,150,70,80,-82.5,,80,170,185,190,,190,420,SBD,1
Alex Benitez,,M,Raw,T15-19,74.7,75,,160,167.5,-175,,167.5,-70,70,-77.5,,70,160,167.5,175,,175,412.5,SBD,1
Martin Cacciabue,,M,Raw,T15-19,73,75,,120,130,140,,140,75,80,85,,85,160,180,-185,,180,405,SBD,1
Franco Argañaras,,M,Raw,Jun,74.1,75,,197.5,212.5,220,,220,132.5,140,147.5,,147.5,-260,275,282.5,,282.5,650,SBD,1
Nicolas Carbia,,M,Raw,Jun,73.6,75,,210,220,225,,225,90,-95,100,,100,200,215,,,215,540,SBD,1
Lautaro Risso,,M,Raw,Jun,74.7,75,,195,205,-210,,205,107.5,115,-120,,115,200,215,-235,,215,535,SBD,1
Luciano Parra,,M,Raw,Jun,73.5,75,,165,175,190,,190,107.5,110,-117.5,,110,200,210,-222.5,,210,510,SBD,1
Tomas Mastrangelo,,M,Raw,Jun,74.9,75,,152.5,162.5,-172.5,,162.5,97.5,105,-112.5,,105,190,202.5,-210,,202.5,470,SBD,1
Lautaro Galvan,,M,Raw,Jun,70.5,75,,130,145,-152.5,,145,92.5,100,,,100,200,-212.5,-212.5,,200,445,SBD,1
Martin Alonso,,M,Raw,Jun,70.1,75,,140,145,-150,,145,-80,80,-85,,80,200,-210,-210,,200,425,SBD,1
Nahuel Macchi Kalejman,,M,Raw,Jun,74.9,75,,125,132.5,137.5,,137.5,-77.5,-77.5,-82.5,,-77.5,145,165,-170,,165,,SBD,DQ
Luciano Hugo Carbia,,M,Raw,T15-19,80.7,82.5,,205,-215,-215,,205,120,127.5,-135,,127.5,235,245,-255,,245,577.5,SBD,1
Franco Curi,,M,Raw,T15-19,81.6,82.5,,-185,185,210,,210,112.5,122.5,127.5,,127.5,222.5,240,-255,,240,577.5,SBD,1
Ezequiel Diaz Ainscough,,M,Raw,T15-19,78.3,82.5,,-200,200,220,,220,105,110,115,,115,230,240,-257.5,,240,575,SBD,1
Santiago Mariñas,,M,Raw,T15-19,81.1,82.5,,175,182.5,-190,,182.5,100,112.5,-117.5,,112.5,180,195,205,,205,500,SBD,1
Ignacio Molina,,M,Raw,T15-19,78,82.5,,165,175,185,,185,97.5,102.5,-107.5,,102.5,170,180,187.5,,187.5,475,SBD,1
Tiago Sandro,,M,Raw,T15-19,80.3,82.5,,160,-162.5,162.5,,162.5,97.5,105,-110,,105,185,200,-207.5,,200,467.5,SBD,1
Lucas Castro,,M,Raw,T15-19,79.3,82.5,,-167.5,167.5,-177.5,,167.5,80,85,-90,,85,180,192.5,-202.5,,192.5,445,SBD,1
Diego Olivera,,M,Raw,T15-19,81,82.5,,160,-170,-170,,160,87.5,-95,-95,,87.5,172.5,185,192.5,,192.5,440,SBD,1
Ramiro Aráoz,,M,Raw,T15-19,81.3,82.5,,140,150,-160,,150,-80,80,-90,,80,160,170,-180,,170,400,SBD,1
Osvaldo Gaston Blanco,,M,Raw,Jun,81.6,82.5,,200,210,215.5,,215.5,115,120,125,,125,230,-245,-245,,230,570.5,SBD,1
Gonzalo Derbunovich,,M,Raw,Jun,79.6,82.5,,180,190,200,,200,-112.5,117.5,125,,125,225,242.5,-255,,242.5,567.5,SBD,1
Pablo Federico Jara Samaniego,2000-12-31,M,Raw,Jun,80.7,82.5,,160,172.5,185,,185,115,122.5,-130,,122.5,-200,200,-217.5,,200,507.5,SBD,1
Mateo Omar Zajaczkowski Ampuero,,M,Raw,Jun,80,82.5,,172.5,180,-190,,180,105,110,-115,,110,187.5,200,215,,215,505,SBD,1
Diego Nicolas Schimpf,,M,Raw,Jun,80.8,82.5,,155,162.5,165,,165,120,-127.5,-127.5,,120,-190,195,205,,205,490,SBD,1
Rodrigo Gutierrez,,M,Raw,Jun,77.7,82.5,,155,170,185,,185,90,-97.5,-100,,90,180,-205,-205,,180,455,SBD,1
Gian Luca Dalceggio,,M,Raw,Jun,76.6,82.5,,150,160,-165,,160,85,87.5,-90,,87.5,200,-210,,,200,447.5,SBD,1
Ivan Cuadra,,M,Raw,Jun,75.8,82.5,,107.5,-115,115,,115,82.5,85,-90,,85,175,180,185,,185,385,SBD,1
Gonzalo Maciel,,M,Raw,Jun,80.8,82.5,,-200,-205,-205,,-200,-100,-100,-100,,-100,-100,-100,-100,,-100,,SBD,DQ
Lucas Gonzalez,,M,Raw,T15-19,87.2,90,,240.5,-247.5,-247.5,,240.5,-132.5,132.5,-140,,132.5,290,300,-305,,300,673,SBD,1
Thiago Menga,,M,Raw,T15-19,89.8,90,,185,195,-202.5,,195,100,105,-110,,105,200,212.5,-222.5,,212.5,512.5,SBD,1
Jeremias Gallardo,,M,Raw,T15-19,88.1,90,,155,170,-180,,170,90,-100,100,,100,210,-215,,,210,480,SBD,1
Esteban Dominguez,,M,Raw,T15-19,87.4,90,,157.5,165,172.5,,172.5,80,90,92.5,,92.5,160,175,185,,185,450,SBD,1
Braian Devia,,M,Raw,T15-19,85.9,90,,125,132.5,137.5,,137.5,65,75,77.5,,77.5,160,175,190,,190,405,SBD,1
Gianfranco Slepetis,,M,Raw,Jun,89.8,90,,-260,260,-270,,260,155,-170,-170,,155,-290,-295,295,,295,710,SBD,1
Gonzalo Suárez,,M,Raw,Jun,89.9,90,,255,267.5,-275,,267.5,142.5,152.5,-157.5,,152.5,260,280,-292.5,,280,700,SBD,1
Joaquín Romero,,M,Raw,Jun,89.8,90,,200,210,217.5,,217.5,105,112.5,-115,,112.5,220,235,250,,250,580,SBD,1
Damian Andrés,,M,Raw,Jun,89.4,90,,-187.5,187.5,-207.5,,187.5,92.5,100,-102.5,,100,205,215,232.5,,232.5,520,SBD,1
Ulises Sosa,,M,Raw,Jun,86.3,90,,200,-210,-210,,200,107.5,-110,-110,,107.5,200,210,-220,,210,517.5,SBD,1
Santiago Baldiviezo,,M,Raw,Jun,87.1,90,,167.5,177.5,185,,185,-100,105,-107.5,,105,205,217.5,-222.5,,217.5,507.5,SBD,1
Joaquín Lago,,M,Raw,T15-19,98.9,100,,220.5,230.5,-235,,230.5,120,-130,-130,,120,-215,215,-225,,215,565.5,SBD,1
Martin Britos,,M,Raw,T15-19,95.3,100,,-165,-165,165,,165,90,100,-110,,100,180,-192.5,192.5,,192.5,457.5,SBD,1
Ignacio Benitez Ferro,,M,Raw,Jun,97,100,,240,-255,260,,260,150,-160,-170,,150,300,315.5,-332.5,,315.5,725.5,SBD,1
Agustin Franco,,M,Raw,Jun,93.2,100,,200,-220,220,,220,100,-110,110,,110,220,240,-270,,240,570,SBD,1
Santiago Negrete,,M,Raw,Jun,97.1,100,,180,185,-190,,185,120,125,-127.5,,125,252.5,-262.5,-262.5,,252.5,562.5,SBD,1
Franco Emanuel Vallejos,,M,Raw,Jun,95,100,,180,185,-195,,185,100,105,-110,,105,210,222.5,230,,230,520,SBD,1
Daniel Dominguez,,M,Raw,Jun,97.2,100,,180,-190,190,,190,110,115,120,,120,170,-185,-185,,170,480,SBD,1
Cristopher Aguis,,M,Raw,Jun,107.7,110,,200,215,217.5,,217.5,135,140,145,,145,230,240,252.5,,252.5,615,SBD,1
Agustin Mauro Sotelo,,M,Raw,Jun,109.3,110,,212.5,227.5,240,,240,112.5,120,127.5,,127.5,227.5,242.5,-255,,242.5,610,SBD,1
Santiago Lisitras,,M,Raw,Jun,102.8,110,,180,-195,202.5,,202.5,-110,110,120,,120,-210,-210,210,,210,532.5,SBD,1
Gonzalo Bucari,,M,Raw,Jun,123.3,125,,217.5,-227.5,230,,230,132.5,140,-150,,140,215,230,240,,240,610,SBD,1
Lucas Charette,,M,Raw,Op,54.6,56,,-120,120,-140,,120,75,80,85,,85,170,180,-185,,180,385,SBD,1
Ivan Eloy Corsi,,M,Raw,Op,59.4,60,,110,117.5,120,,120,65,70,75,,75,-142.5,142.5,147.5,,147.5,342.5,SBD,1
Ramiro Barros,,M,Raw,Op,67.1,67.5,,180,200,205,,205,132.5,140,147.5,,147.5,245,260,-275,,260,612.5,SBD,1
Ivan Agüero,,M,Raw,Op,66.5,67.5,,172.5,182.5,190,,190,115,125,-132.5,,125,220,235,-245,,235,550,SBD,1
Salvador Zeoliti,,M,Raw,Op,67.1,67.5,,200,210,-212.5,,210,110,115,-117.5,,115,-210,210,220,,220,545,SBD,1
Manuel Beltrán,,M,Raw,Op,67.3,67.5,,170,180,185,,185,120,130,132.5,,132.5,185,200,207.5,,207.5,525,SBD,1
Federico Herrera,,M,Raw,Op,66.2,67.5,,160,-170,-170,,160,120,125,-127.5,,125,195,210,-212.5,,210,495,SBD,1
Federico Ortiz,,M,Raw,Op,64.5,67.5,,180,-190,-190,,180,100,-110,-110,,100,200,210,-215,,210,490,SBD,1
Gabriel Llaituqueo,,M,Raw,Op,65.4,67.5,,135,150,160,,160,85,-92.5,92.5,,92.5,155,170,-185,,170,422.5,SBD,1
Jairo Elias Abalos,,M,Raw,Op,67.2,67.5,,180,192.5,202.5,,202.5,110,120,-125,,120,235,250,-255,,250,572.5,SBD,1
Franco Argañaras,,M,Raw,Op,74.1,75,,197.5,212.5,220,,220,132.5,140,147.5,,147.5,-260,275,282.5,,282.5,650,SBD,1
Jorge Nader,,M,Raw,Op,73.7,75,,205,217.5,227.5,,227.5,115,120,-122.5,,120,227.5,247.5,262.5,,262.5,610,SBD,1
Enzo Manuel Escobar,,M,Raw,Op,73.1,75,,210,217.5,222.5,,222.5,112.5,117.5,-122.5,,117.5,245,-255,262.5,,262.5,602.5,SBD,1
Luis Arias,,M,Raw,Op,74.7,75,,192.5,205,210,,210,130,142.5,150,,150,230,242.5,250,,250,610,SBD,1
Augusto Rodriguez,,M,Raw,Op,74,75,,210,215,-220.5,,215,132.5,137.5,142.5,,142.5,230,242.5,-250,,242.5,600,SBD,1
Alexis Zeine,,M,Raw,Op,74,75,,-195,195,205,,205,-140,140,-150,,140,220,240,-260,,240,585,SBD,1
Lucas Risso,,M,Raw,Op,74.8,75,,195,205,-210,,205,-120,127.5,-130,,127.5,240,250,-252.5,,250,582.5,SBD,1
Juan Pablo Otegui,,M,Raw,Op,74.8,75,,200,215,223,,223,105,115,122.5,,122.5,207.5,220,230,,230,575.5,SBD,1
Gabriel Hermosilla,,M,Raw,Op,74.9,75,,-180,180,-195,,180,105,110,-120,,110,260,-270,-270,,260,550,SBD,1
Julian Castro,,M,Raw,Op,73.7,75,,172.5,180,187.5,,187.5,97.5,102.5,-107.5,,102.5,205,215,220,,220,510,SBD,1
Tomas Isturiz,,M,Raw,Op,73.9,75,,160,170,180,,180,110,117.5,120,,120,180,195,205,,205,505,SBD,1
Agustín Benavidez,,M,Raw,Op,74.2,75,,155,-170,170,,170,-110,115,-122.5,,115,195,210,220,,220,505,SBD,1
Isaías Alfredo Fran,,M,Raw,Op,72.6,75,,140,-142.5,145,,145,100,-102.5,-102.5,,100,170,175,185,,185,430,SBD,1
Manuel Acebedo,,M,Raw,Op,71.4,75,,125,135,-145,,135,75,-80,-85,,75,165,175,,,175,385,SBD,1
Daniel Wille,,M,Raw,Op,71.2,75,,105,115,120,,120,77.5,82.5,90,,90,107.5,140,150,,150,360,SBD,1
Dante López Raggi,,M,Raw,Op,73,75,,90,-100,105,,105,65,67.5,70,,70,105,115,125,,125,300,SBD,1
Ignacio Tomás Arévalo,,M,Raw,Op,82.2,82.5,,220,-227.5,227.5,,227.5,160,170,-176,,170,255,267.5,-275,,267.5,665,SBD,1
Gabriel Delgado,,M,Raw,Op,80.5,82.5,,205,215,217.5,,217.5,155,160,162.5,,162.5,240,255,265,,265,645,SBD,1
Jonathan Nahuel Ortiz,,M,Raw,Op,82.2,82.5,,200,210,-215,,210,125,130,-132.5,,130,290,-307.5,-307.5,,290,630,SBD,1
Matías Premici,,M,Raw,Op,80.6,82.5,,210,220,232.5,,232.5,130,140,-142.5,,140,240,255,-275,,255,627.5,SBD,1
Farid Resco,,M,Raw,Op,80.7,82.5,,195,210,217.5,,217.5,122.5,130,135,,135,245,255,265,,265,617.5,SBD,1
Javier Freddy Canessa Mautong,,M,Raw,Op,80.8,82.5,,195,205,-215,,205,140,150,155,,155,220,235,245,,245,605,SBD,1
Renato Balbuena,,M,Raw,Op,81.1,82.5,,180,195,205,,205,127.5,137.5,-142.5,,137.5,225,240,-250,,240,582.5,SBD,1
Javier Bueno,,M,Raw,Op,80.5,82.5,,192.5,202.5,212.5,,212.5,112.5,120,125,,125,217.5,230,242.5,,242.5,580,SBD,1
Alexis Leonel Caseres,,M,Raw,Op,80.7,82.5,,215,-225,-225,,215,125,130,-135,,130,215,225,-230,,225,570,SBD,1
Mauro Sanchez Araujo,,M,Raw,Op,78.9,82.5,,200,210,-215,,210,-100,100,-107.5,,100,215,230,240,,240,550,SBD,1
Eduardo Molinas,,M,Raw,Op,80.8,82.5,,190,200,207.5,,207.5,105,115,-120,,115,210,225,-235,,225,547.5,SBD,1
Mauro Ariel Bentron,,M,Raw,Op,81.3,82.5,,190,200,-210,,200,95,105,-107.5,,105,235,-245,-250,,235,540,SBD,1
Nicolas Calle,,M,Raw,Op,80.9,82.5,,180,192.5,200,,200,-105,110,120,,120,180,200,210,,210,530,SBD,1
Emanuel Murias,,M,Raw,Op,80.5,82.5,,160,175,180,,180,-105,110,-115,,110,205,215,225,,225,515,SBD,1
Emiliano Nahuel Conberse,,M,Raw,Op,79.6,82.5,,165,175,190,,190,97.5,102.5,-107.5,,102.5,210,220,-230,,220,512.5,SBD,1
Juan Ignacio Quero,,M,Raw,Op,80.4,82.5,,160,172.5,177.5,,177.5,105,112.5,120,,120,200,210,215,,215,512.5,SBD,1
Luciano Mangiarotti,,M,Raw,Op,81.3,82.5,,172.5,180,-182.5,,180,112.5,117.5,-122.5,,117.5,200,210,215,,215,512.5,SBD,1
Santiago Zárate,,M,Raw,Op,81.8,82.5,,150,-155,155,,155,107.5,110,-112.5,,110,205,-215,-220,,205,470,SBD,1
Killian Ruan Andrade,,M,Raw,Op,80.2,82.5,,150,-157.5,162.5,,162.5,82.5,-87.5,92.5,,92.5,170,182.5,192.5,,192.5,447.5,SBD,1
Joel Santiago López Meza,,M,Raw,Op,78.8,82.5,,-150,-150,150,,150,105,-112.5,-112.5,,105,160,,,,160,415,SBD,1
Juan Manuel Costello,,M,Raw,Op,80.2,82.5,,180,-190,-190,,180,-117.5,122.5,-127.5,,122.5,-225,-225,,,-225,,SBD,DQ
SOZ Duplicado,,M,Raw,Op,81.1,82.5,,-150,-150,-150,,-150,-100,,,,-100,-100,,,,-100,,SBD,DQ
Agustín Caracotche,,M,Raw,Op,87.6,90,,255,262.5,268,,268,-160,162.5,170,,170,300,312.5,-332.5,,312.5,750.5,SBD,1
Facundo Tevez,,M,Raw,Op,87.2,90,,242.5,257.5,265,,265,-137.5,137.5,145,,145,317.5,-330,,,317.5,727.5,SBD,1
Erik Mateyka,,M,Raw,Op,86.1,90,,255,-265,265,,265,160,167.5,-170,,167.5,280,-300,-300,,280,712.5,SBD,1
Gianfranco Slepetis,,M,Raw,Op,89.8,90,,-260,260,-270,,260,155,-170,-170,,155,-290,-295,295,,295,710,SBD,1
Luis Alberto Castillo,,M,Raw,Op,89,90,,240,252.5,-260,,252.5,145,155,160,,160,275,290,-305,,290,702.5,SBD,1
Gonzalo Suárez,,M,Raw,Op,89.9,90,,255,267.5,-275,,267.5,142.5,152.5,-157.5,,152.5,260,280,-292.5,,280,700,SBD,1
Maximiliano Barrionuevo,,M,Raw,Op,89.7,90,,210,225,235,,235,137.5,145,150,,150,240,255,270,,270,655,SBD,1
Emanuel Cascallar,,M,Raw,Op,88.4,90,,235,240,-245,,240,140,147.5,-152.5,,147.5,240,250,-255,,250,637.5,SBD,1
Joaquín Fiori,,M,Raw,Op,89.8,90,,225,240,245,,245,117.5,122.5,-127.5,,122.5,215,-227.5,-235,,215,582.5,SBD,1
Martín Nion,,M,Raw,Op,89.9,90,,-210,210,215,,215,115,120,125,,125,225,235,-255,,235,575,SBD,1
Agustin Alesso,,M,Raw,Op,89.8,90,,195,205,-210,,205,125,127.5,-130,,127.5,210,220,230,,230,562.5,SBD,1
Marcos Infantino,,M,Raw,Op,86.3,90,,175,185,200,,200,115,122.5,-130,,122.5,220,235,-250,,235,557.5,SBD,1
Gerónimo Nuñez,,M,Raw,Op,89.4,90,,185,205,-220,,205,115,125,132.5,,132.5,190,205,-215,,205,542.5,SBD,1
Joaquín Miguel Imas,,M,Raw,Op,89.7,90,,180,-190,-190,,180,122.5,127.5,-132.5,,127.5,220,232.5,-240,,232.5,540,SBD,1
Lucas Torrejón,,M,Raw,Op,88.1,90,,160,170,180,,180,97.5,105,112.5,,112.5,200,212.5,-220,,212.5,505,SBD,1
Pablo Matías Alonso Massutti,,M,Raw,Op,88.4,90,,110,120,-125,,120,70,-80,-80,,70,155,-167.5,-167.5,,155,345,SBD,1
Gustavo Garay,,M,Raw,Op,85.3,90,,-150,-150,,,-150,-100,,,,-100,-100,,,,-100,,SBD,DQ
Alejo Philipp,,M,Raw,Op,99.3,100,,260,267.5,-272.5,,267.5,177.5,182.5,185,,185,275,285,290,,290,742.5,SBD,1
Ignacio Benitez Ferro,,M,Raw,Op,97,100,,240,-255,260,,260,150,-160,-170,,150,300,315.5,-332.5,,315.5,725.5,SBD,1
Gino Burone,1999-11-08,M,Raw,Op,99.4,100,,247.5,-267.5,270,,270,155,165,170,,170,265,280,282.5,,282.5,722.5,SBD,1
Alessandro Cuccaro,,M,Raw,Op,98.6,100,,250,-265,265,,265,152.5,-160,160,,160,285,295,-315.5,,295,720,SBD,1
José María Acevedo,,M,Raw,Op,97.7,100,,225,237.5,-245,,237.5,-162.5,162.5,172.5,180,172.5,260,285,-302.5,,285,695,SBD,1
Nicolas Pretto,,M,Raw,Op,98.6,100,,235,245,-252.5,,245,125,130,140,,140,250,270,-285,,270,655,SBD,1
Federico Ramirez,,M,Raw,Op,96.2,100,,-230,230,232.5,,232.5,-140,-140,145,,145,265,-275,275,,275,652.5,SBD,1
Jonatan Bentos,,M,Raw,Op,91.1,100,,-235,235,250,,250,142.5,147.5,-152.5,,147.5,245,-255,-260,,245,642.5,SBD,1
Pedro Damian Navarro,,M,Raw,Op,90.6,100,,220,-230,230,,230,150,160,170,,170,230,240,-252.5,,240,640,SBD,1
Franco Ignacio Gonzalez,,M,Raw,Op,94.8,100,,200,220,230,,230,125,130,-140,,130,255,265,280,,280,640,SBD,1
Lucas Rizzuto,,M,Raw,Op,97.6,100,,225,235,-242.5,,235,140,145,-150,,145,240,250,-265,,250,630,SBD,1
Jose Manuel Eugues,,M,Raw,Op,99.1,100,,280,295,-300,,295,150,157.5,,,157.5,150,,,,150,602.5,SBD,1
Mario Aquino,,M,Raw,Op,95.2,100,,180,190,200,,200,125,130,-135,,130,240,-255,-255,,240,570,SBD,1
Mauro Miño,,M,Raw,Op,96.3,100,,200,-210,210,,210,120,125,-127.5,,125,210,220,230,,230,565,SBD,1
Leonel Solis,,M,Raw,Op,98.4,100,,175,187.5,192.5,,192.5,-130,130,-132.5,,130,220,230,-240,,230,552.5,SBD,1
Nicolás Peralta,,M,Raw,Op,97.1,100,,180,200,-215,,200,100,115,120,,120,200,215,-235,,215,535,SBD,1
Martín Andrés Ávila,,M,Raw,Op,98.2,100,,195,-200,-200,,195,102.5,107.5,110,,110,215,225,-235,,225,530,SBD,1
Alan Gaston Sanabria,,M,Raw,Op,98.7,100,,155,165,170,,170,120,130,-140,,130,200,215,225,,225,525,SBD,1
Guido Gola,,M,Raw,Op,98.1,100,,255,270,-280,,270,185,192.5,195.5,,195.5,-270,,,,-270,,SBD,DQ
Fabrizio Fantozzi,,M,Raw,Op,109.8,110,,240,255,265,,265,160,167.5,-170,,167.5,295.5,310,325,,325,757.5,SBD,1
Axel Khalil Román,,M,Raw,Op,109.4,110,,255,270,280,,280,155,165,-170,,165,285,300,310,,310,755,SBD,1
Juan Ignacio Santarosa,,M,Raw,Op,108.1,110,,250,262.5,-270,,262.5,185,190,192.5,,192.5,285,297.5,-302.5,,297.5,752.5,SBD,1
Victor Kubyshka,,M,Raw,Op,104.9,110,,250,260,-270,,260,197.5,207.5,210,,210,270,280,-290,,280,750,SBD,1
Federico Pedrozo,,M,Raw,Op,108.5,110,,265,277.5,282.5,,282.5,170,175,180,,180,270,280,-292.5,,280,742.5,SBD,1
Christian Ezequiel Acuña,,M,Raw,Op,106.5,110,,240,255,265,,265,160,170,180,,180,250,260,-270,,260,705,SBD,1
Pedro Rodriguez,,M,Raw,Op,108.2,110,,230,240,-250,,240,147.5,152.5,157.5,,157.5,275,-285,-285,,275,672.5,SBD,1
Francisco Falco,,M,Raw,Op,107.7,110,,257.5,-265,-265,,257.5,-135,135,-142.5,,135,237.5,245,255,,255,647.5,SBD,1
Federico Escobar,,M,Raw,Op,107.3,110,,180,,,,180,140,150,-155,,150,250,265,-282.5,,265,595,SBD,1
Leonardo Salvador,,M,Raw,Op,107.5,110,,-190,190,200,,200,115,-120,-120,,115,240,255,-270,,255,570,SBD,1
Hector Daniel Varea,,M,Raw,Op,109.2,110,,165,175,-185,,175,97.5,110,-115,,110,190,205,-215,,205,490,SBD,1
Ricardo Joaquín Lugones,,M,Raw,Op,120.2,125,,255,-265,265,,265,180,-190,190,,190,270,-285,-285,,270,725,SBD,1
Leonel Marin,,M,Raw,Op,123.1,125,,205,220,230,,230,125,135,-142.5,,135,230,245,-260,,245,610,SBD,1
Maximiliano De La Fuente,,M,Raw,Op,116.9,125,,150,160,165,,165,75,82.5,-90,,82.5,185,-192.5,200,,200,447.5,SBD,1
Flavio Emanuel Viotti,,M,Raw,Op,137.1,140,,285,-300,-300,,285,177.5,-185,-185,,177.5,310,325,335,,335,797.5,SBD,1
Javier Isasmendi,,M,Raw,M1,63.1,67.5,,120,130,-140,,130,67.5,-72.5,72.5,,72.5,125,135,145,,145,347.5,SBD,1
Juan Agustín Pallero,,M,Raw,M1,73,75,,100,107.5,115,,115,70,80,-90,,80,140,150,-162.5,,150,345,SBD,1
Diego Escudero,,M,Raw,M1,79.2,82.5,,180,190,-200,,190,102.5,107.5,-112.5,,107.5,190,202.5,210,,210,507.5,SBD,1
Matías Landivar,,M,Raw,M2,79.3,82.5,,150,160,170,,170,100,107.5,-112.5,,107.5,185,200,-212.5,,200,477.5,SBD,1
Carlos Luis Moyano Latorre,,M,Raw,M2,82.5,82.5,,-150,157.5,165,,165,117.5,122.5,-127.5,,122.5,190,-205,-205,,190,477.5,SBD,1
Claudio Alfonso Gomez,,M,Raw,M4,81.5,82.5,,137.5,145,150,,150,97.5,-102.5,-102.5,,97.5,180,-195,195,,195,442.5,SBD,1
Gabriel Islas,,M,Raw,M2,87.3,90,,167.5,175,182.5,,182.5,95,-102.5,-102.5,,95,185,195,202.5,,202.5,480,SBD,1
Walter Rivas,,M,Raw,M2,88,90,,-100,-100,-100,,-100,-100,,,,-100,-100,,,,-100,,SBD,DQ
Rodrigo Sanchez,,M,Raw,M3,89.6,90,,195,205,215,,215,150,-160,160,,160,225,235,-245,,235,610,SBD,1
Juan Gabriel Parga,,M,Raw,M3,86.1,90,,165,175,185,,185,100,110,115,,115,190,200,210,,210,510,SBD,1
José María Acevedo,,M,Raw,M1,97.7,100,,225,237.5,-245,,237.5,-162.5,162.5,172.5,180,172.5,260,285,-302.5,,285,695,SBD,1
Hector Kloster,,M,Raw,M2,91,100,,140,155,165,,165,95,107.5,112.5,,112.5,175,195,-202.5,,195,472.5,SBD,1
Rubén Opazo,,M,Raw,M5,97.7,100,,150,160,170,,170,107.5,115,-120,,115,185,197.5,210,,210,495,SBD,1
Emilio Mansilla,,M,Raw,M1,109.7,110,,-240,240,250,,250,150,-160,-160,,150,275,290,300,,300,700,SBD,1
Hector Daniel Varea,,M,Raw,M1,109.2,110,,165,175,-185,,175,97.5,110,-115,,110,190,205,-215,,205,490,SBD,1
Andrés Roberto Godoy,,M,Raw,M2,115,125,,245,257.5,267.5,,267.5,132.5,140,145,,145,250,265,-280,,265,677.5,SBD,1
Catalina Tenguerian,,F,Wraps,T15-19,46.8,48,,-60,-60,-60,,-60,37.5,-42.5,42.5,,42.5,75,82.5,-90,,82.5,,SBD,DQ
Camila Narvaez,,F,Wraps,Jun,47.9,48,,110,-115,115,,115,45,50,-55,,50,115,-117.5,-117.5,,115,280,SBD,1
Sofía Zurita,,F,Wraps,T15-19,49.9,52,,-105,105,-112.5,,105,42.5,-47.5,47.5,,47.5,115,122.5,-125,,122.5,275,SBD,1
Morena Coronel,,F,Wraps,T15-19,48.9,52,,-95,95,-112.5,,95,37.5,42.5,-47.5,,42.5,120,130,-140,,130,267.5,SBD,1
Brisa Bernales,,F,Wraps,Jun,48.9,52,,-67.5,67.5,-80,,67.5,37.5,40,-42.5,,40,90,97.5,105,,105,212.5,SBD,1
Martina Garcia,,F,Wraps,T15-19,54.4,56,,80,97.5,100,,100,40,45,-47.5,,45,115,122.5,130,,130,275,SBD,1
Malena Garzón,,F,Wraps,Jun,55,56,,120,-127.5,127.5,,127.5,60,62.5,65.5,,65.5,115,122.5,130,,130,323,SBD,1
Valentina Marchesoti,,F,Wraps,Jun,54.6,56,,107.5,112.5,117.5,,117.5,-47.5,50,52.5,,52.5,115,122.5,-127.5,,122.5,292.5,SBD,1
Joscelyn Natalie Rojas,,F,Wraps,Jun,55.8,56,,80,85,-87.5,,85,-37.5,-37.5,37.5,,37.5,90,97.5,105,,105,227.5,SBD,1
Valentina Russo,,F,Wraps,Jun,59.8,60,,127.5,-140,140,,140,55,-60,-60,,55,115,125,130,,130,325,SBD,1
Brisa Aguirrre,,F,Wraps,T15-19,63.9,67.5,,85,-90,-90,,85,35,37.5,40,,40,100,-105,105,,105,230,SBD,1
Ximena Maidana,,F,Wraps,T15-19,71.5,75,,170,180,190,,190,70,75,80,,80,160,170,175,,175,445,SBD,1
Morena Luncio,,F,Wraps,Jun,74,75,,135,140,145,,145,-55,57.5,-60,,57.5,-140,145,152.5,,152.5,355,SBD,1
Luciana Vanesa Spinelli,,F,Wraps,Jun,74.5,75,,-110,115,-130,,115,65,72.5,75,,75,120,132.5,140,,140,330,SBD,1
Martina Scaglia Magñi,,F,Wraps,Jun,80.5,82.5,,117.5,132.5,-140.5,,132.5,40,45,-47.5,,45,105,117.5,127.5,,127.5,305,SBD,1
Celina Valeria Ponce,,F,Wraps,Jun,80.5,82.5,,135,145,-155,,145,-70,-72.5,-72.5,,-70,127.5,135,140,,140,,SBD,DQ
Laila Benítez,,F,Wraps,Op,48,48,,80,90,95,,95,40,45,50,,50,90,100,105,,105,250,SBD,1
Natalia Rocío Rojas,,F,Wraps,Op,45.4,48,,80,87.5,-90,,87.5,40,-45,-45,,40,100,110,-120,,110,237.5,SBD,1
Carolina González De León,,F,Wraps,Op,51.9,52,,-162.5,162.5,180,,180,72.5,75,77.5,,77.5,145,155,160,,160,417.5,SBD,1
Luciana Holman,,F,Wraps,Op,55.6,56,,140,145,-150,,145,70,75,77.5,,77.5,142.5,147.5,150,,150,372.5,SBD,1
Solange Alejandra Viñas,,F,Wraps,Op,55.4,56,,130,137.5,145,,145,62.5,67.5,70,,70,140,147.5,-157.5,,147.5,362.5,SBD,1
Patricia Clivio,,F,Wraps,Op,55.5,56,,-122.5,135,140,,140,62.5,70,72.5,,72.5,140,147.5,-157.5,,147.5,360,SBD,1
Belén Baeza,,F,Wraps,Op,54.6,56,,135,-150,-150,,135,57.5,-62.5,62.5,,62.5,130,140,-145,,140,337.5,SBD,1
Sofía Rodríguez,,F,Wraps,Op,54.9,56,,125,135,-140,,135,67.5,-72.5,-72.5,,67.5,120,-130,-130,,120,322.5,SBD,1
Nahir Bejarano,,F,Wraps,Op,56,56,,-110,110,115,,115,50,-55,-55,,50,110,115,-120,,115,280,SBD,1
Evelyn Coceres,,F,Wraps,Op,58.2,60,,120,130,-132.5,,130,60,-62.5,62.5,,62.5,140,150,-155,,150,342.5,SBD,1
Silvina Ruiz,,F,Wraps,Op,60.5,67.5,,-205,212.5,-217.5,,212.5,-117.5,117.5,-122.5,,117.5,182.5,190,-195,,190,520,SBD,1
Adriana Arce,,F,Wraps,Op,65.9,67.5,,167.5,-177.5,185,,185,-85,85,90,,90,155,165,175,,175,450,SBD,1
Ana Castro,,F,Wraps,Op,66.5,67.5,,170,185,-192.5,,185,87.5,95,-100,,95,145,160,170,,170,450,SBD,1
Vanesa Ayala,,F,Wraps,Op,66.3,67.5,,175,-187.5,187.5,,187.5,75,-80,-80,,75,145,157.5,165,,165,427.5,SBD,1
Camila Beneitez,,F,Wraps,Op,64.3,67.5,,147.5,155,160,,160,70,-72.5,72.5,,72.5,165,172.5,175,,175,407.5,SBD,1
Amanda Becerra,,F,Wraps,Op,66.2,67.5,,130,140,147.5,,147.5,80,85,90,,90,135,150,157.5,,157.5,395,SBD,1
Gabriela Valeria Andino,,F,Wraps,Op,64,67.5,,140,150,157.5,,157.5,62.5,70,-72.5,,70,,155,-165,,155,382.5,SBD,1
Lucia Presentado,,F,Wraps,Op,62.6,67.5,,-130,130,140,,140,82.5,85,-87.5,,85,130,135,-140,,135,360,SBD,1
Mariela Camaño,,F,Wraps,Op,65.5,67.5,,-115,115,127.5,,127.5,60,-65,-65,,60,130,145,-150,,145,332.5,SBD,1
Gisela Gonzalez,,F,Wraps,Op,65.4,67.5,,-115,115,-122.5,,115,52.5,-57.5,-62.5,,52.5,-125,125,132.5,,132.5,300,SBD,1
Ailin Anahí Salas,,F,Wraps,Op,66.9,67.5,,90,105,-110,,105,25,32.5,-37.5,,32.5,100,110,-115,,110,247.5,SBD,1
Natalia Soledad Uranga,,F,Wraps,Op,72.6,75,,200,-210,-210,,200,90,95,-100,,95,190,200,-205,,200,495,SBD,1
Analia Peralta,,F,Wraps,Op,72,75,,117.5,-122.5,122.5,,122.5,50,-55,-55,,50,140,145,150,,150,322.5,SBD,1
Sabrina D'Angelo,,F,Wraps,Op,73,75,,130,140,-145,,140,50,55,-60,,55,120,130,-140,,130,325,SBD,1
Noelia Rolón,,F,Wraps,Op,68.7,75,,-160,160,-165,,160,-85,-85,-85,,-85,-180,-180,,,-180,,SBD,DQ
Aixa Tebaldi,,F,Wraps,Op,78.5,82.5,,220,232.5,240,,240,90,97.5,102.5,,102.5,210,220,-225,,220,562.5,SBD,1
Ornella Toledo,,F,Wraps,Op,79.4,82.5,,207.5,222.5,-230,,222.5,80,-85,85,,85,180,190,-192.5,,190,497.5,SBD,1
Nadin Albarracín,,F,Wraps,Op,78,82.5,,102.5,117.5,-120,,117.5,62.5,-65,-65,,62.5,135,140,-142.5,,140,320,SBD,1
Mónica Emilce Rodriguez,,F,Wraps,Op,75.3,82.5,,115,-125,-125,,115,42.5,-45,-45,,42.5,127.5,132.5,140,,140,297.5,SBD,1
Elvira Cristina Godoy,,F,Wraps,Op,76.4,82.5,,-122.5,-122.5,122.5,,122.5,-47.5,-47.5,-47.5,,-47.5,-110,-110,-110,,-110,,SBD,DQ
Veronica Hugo,,F,Wraps,Op,114.5,110+,,182.5,195,205,,205,80,-95,100,,100,100,180,195,,195,500,SBD,1
Carina Villanueva,,F,Wraps,M1,50.6,52,,-125,125,140,,140,55,60,65,,65,132.5,-142.5,145,,145,350,SBD,1
Patricia Clivio,,F,Wraps,M1,55.5,56,,-122.5,135,140,,140,62.5,70,72.5,,72.5,140,147.5,-157.5,,147.5,360,SBD,1
Ana María Del Carmen Maine,,F,Wraps,M1,60,60,,65,75,85,,85,50,-55,-55,,50,110,120,-130,,120,255,SBD,1
Antonella Vázquez,,F,Wraps,M2,56.8,60,,-155,-175.5,-175.5,,-155,50,55,60,,60,140,145,147.5,,147.5,,SBD,DQ
Ines Zeballos,,F,Wraps,M3,58.7,60,,100,-120,120,,120,50,60,-65,,60,100,120,130,,130,310,SBD,1
Marisa del Carmen Gomez,,F,Wraps,M2,69.1,75,,72.5,77.5,82.5,,82.5,37.5,40,45,,45,95,105,115,,115,242.5,SBD,1
Cecilia Gilabert,,F,Wraps,M3,71.1,75,,-110,110,125,,125,50,55,60,,60,130,140,147.5,,147.5,332.5,SBD,1
Verónica Durán,,F,Wraps,M2,88.2,90,,155,160,-165,,160,55,65,72.5,,72.5,155,162.5,170,,170,402.5,SBD,1
Mateo Darién Toconas,,M,Wraps,Y5-12,54.1,56,,-50,50,75,,75,30,35,-40,,35,65,75,-77.5,,75,185,SBD,1
Fernando Gadea Ruppel,,M,Wraps,T15-19,54.4,56,,-153.5,153.5,162.5,,162.5,77.5,82.5,-85,,82.5,185,192.5,200,,200,445,SBD,1
Lorenzo Blundo,,M,Wraps,T15-19,58.9,60,,170,180,185,,185,82.5,87.5,92.5,,92.5,182.5,192.5,200,,200,477.5,SBD,1
Francisco Berardi,,M,Wraps,T15-19,58.6,60,,-140,145,-152.5,,145,65,70,-75,,70,-185,-192.5,-192.5,,-185,,SBD,DQ
Lucas Andrade Mikitinskis,,M,Wraps,Jun,65.6,67.5,,150,155,-160,,155,100,105,107.5,,107.5,190,200,-205,,200,462.5,SBD,1
Tomás Gabriel D'Atri,,M,Wraps,Jun,66.4,67.5,,150,162.5,-170,,162.5,85,-95,100,,100,162.5,172.5,182.5,,182.5,445,SBD,1
Tomas Alias,,M,Wraps,T15-19,74.7,75,,185,-200,-210,,185,110,-120,-125,,110,-210,-210,210,,210,505,SBD,1
Thiago D'Alessandro,,M,Wraps,T15-19,71.2,75,,160,-165,165,,165,75,-80,85,,85,180,185,190,,190,440,SBD,1
Enzo Ivan Acevedo,,M,Wraps,Jun,74.8,75,,-240,247.5,260,,260,125,132.5,-140,,132.5,225,240,-250,,240,632.5,SBD,1
Ramiro Agustín Maggiolo,,M,Wraps,Jun,73,75,,195,210,217.5,,217.5,110,-117.5,117.5,,117.5,205,222.5,-230,,222.5,557.5,SBD,1
Nehuen Troncoso,,M,Wraps,Jun,72.0,75,,-195,-195,195,,195,115,-122.5,122.5,,122.5,195,205,215,,215,532.5,SBD,1
Dylan Agustin Ceballo,,M,Wraps,Jun,74.8,75,,-165,165,,,165,82.5,90,,,90,170,180,-185,,180,435,SBD,1
Daniel Gatica,,M,Wraps,T15-19,82.4,82.5,,210,217.5,225,,225,110,120,-127.5,,120,180,-210,-210,,180,525,SBD,1
Jonan Freijeiro,,M,Wraps,T15-19,81.5,82.5,,130,140,-155,,140,-105,110,-115,,110,-160,175,-200,,175,425,SBD,1
Franco Matias Ramirez,,M,Wraps,T15-19,77.3,82.5,,140,-150,150,,150,65,-75,-75,,65,140,150,-160,,150,365,SBD,1
Luca Fabrizio Lantella,,M,Wraps,Jun,79.9,82.5,,-290,300,310,,310,140,145.5,150,,150,210,-217.5,220,,220,680,SBD,1
Thiago Franza,,M,Wraps,Jun,81.5,82.5,,175,-185,190,,190,102.5,107.5,-112.5,,107.5,175,-185,185,,185,482.5,SBD,1
Maximiliano Carbia,,M,Wraps,T15-19,85.7,90,,200,210,,,210,110,120,-122.5,,120,-210,210,-220,,210,540,SBD,1
Dario Ismael Aquino,,M,Wraps,T15-19,89.8,90,,135,145,165,,165,60,65,-72.5,,65,175,190,-205,,190,420,SBD,1
Ciro Torrez,,M,Wraps,T15-19,86,90,,147.5,-152.5,-152.5,,147.5,70,77.5,80,,80,160,165,170,,170,397.5,SBD,1
Lautaro Ghuerci,,M,Wraps,Jun,88.1,90,,185,190,195,,195,102.5,105,-110,,105,205,212.5,215,,215,515,SBD,1
Leandro Nicolas Mecina,,M,Wraps,T15-19,99.5,100,,190,200,220,,220,120,125,130,,130,235,247.5,-252.5,,247.5,597.5,SBD,1
Alan Lopez Acosta,,M,Wraps,T15-19,99.2,100,,220,235,-245,,235,-117.5,117.5,122.5,,122.5,205,215,225,,225,582.5,SBD,1
Gabriel Agüero,,M,Wraps,T15-19,96.4,100,,210,-220,-220,,210,90,-95,-100,,90,180,192.5,-200,,192.5,492.5,SBD,1
Fabrizio Vartuli,,M,Wraps,Jun,95.4,100,,262.5,280.5,290,,290,-137.5,137.5,-142.5,,137.5,280,-300,300,,300,727.5,SBD,1
Martin Casanova,,M,Wraps,Jun,99.5,100,,250,-260,-260,,250,130,-135,135,,135,250,260,-265,,260,645,SBD,1
Nicolas Aicardi,,M,Wraps,Jun,96,100,,210,220,227.5,,227.5,130,135,140,,140,225,232.5,-242.5,,232.5,600,SBD,1
Julio Uziel Basscuñan,,M,Wraps,Jun,98,100,,-217.5,227.5,-235,,227.5,-140,-140,-140,,-140,240,-260,,,240,,SBD,DQ
Julian Avalos,,M,Wraps,T15-19,103.3,110,,207.5,215,-220,,215,-115,115,120,,120,200,210,-217.5,,210,545,SBD,1
Lautaro Agustin Gallo,,M,Wraps,T15-19,107,110,,160,170,-185,,170,95,105,-115,,105,-205,-205,210,,210,485,SBD,1
Damian Palazzo,,M,Wraps,Jun,108,110,,270,-285,-285,,270,130,137.5,142.5,,142.5,240,255,270,,270,682.5,SBD,1
Lautaro Perez,,M,Wraps,Jun,107.1,110,,225,230,-232.5,,230,115,122.5,-127.5,,122.5,240,250,255,,255,607.5,SBD,1
Angel Maidana,,M,Wraps,T15-19,113.7,125,,175,-180,180,,180,115,122.5,-125,,122.5,195,205,210,,210,512.5,SBD,1
Lautaro Benitez,,M,Wraps,T15-19,124.9,125,,180,195,-202.5,,195,100,107.5,-112.5,,107.5,175,-197.5,-197.5,,175,477.5,SBD,1
Francisco Fontanini,,M,Wraps,Jun,120.1,125,,230,240,-260,,240,115,122.5,127.5,,127.5,220,230,240,,240,607.5,SBD,1
Fernando Gadea Ruppel,,M,Wraps,Op,54.4,56,,-153.5,153.5,162.5,,162.5,77.5,82.5,-85,,82.5,185,192.5,200,,200,445,SBD,1
Bruno Dalonze,,M,Wraps,Op,64.6,67.5,,222.5,232.5,-240,,232.5,117.5,122.5,127.5,,127.5,230,237.5,242.5,,242.5,602.5,SBD,1
Leandro Filippini,,M,Wraps,Op,66.5,67.5,,180,195,-202.5,,195,110,122.5,-127.5,,122.5,170,185,200,,200,517.5,SBD,1
Williams Montero de la Cruz,,M,Wraps,Op,64,67.5,,160,172.5,-185,,172.5,105,110,115,,115,190,205,-210,,205,492.5,SBD,1
Roberto Ivan Poblete Romera,,M,Wraps,Op,67.2,67.5,,127.5,135,142.5,,142.5,67.5,75,-80,,75,160,-170,-172.5,,160,377.5,SBD,1
Tomás Otero,,M,Wraps,Op,72,75,,-245,245,260,,260,150,155,158,,158,240,247.5,-252.5,,247.5,665.5,SBD,1
Matías González,,M,Wraps,Op,73.7,75,,-252.5,-252.5,252.5,,252.5,130,137.5,-142.5,,137.5,242.5,257.5,265,,265,655,SBD,1
Pablo Gomez,,M,Wraps,Op,74.4,75,,-260,262.5,275,,275,122.5,-130,130,,130,235,250,-262.5,,250,655,SBD,1
Luciano Escolano,,M,Wraps,Op,73.2,75,,250,260,-265,,260,135,140,-145,,140,250,-262.5,-275,,250,650,SBD,1
Joel Zalazar,,M,Wraps,Op,72.9,75,,195,-205,205,,205,105,-110,110,,110,200,210,220,,220,535,SBD,1
Guillermo Rossi,,M,Wraps,Op,74.7,75,,185,195,-205,,195,115,122.5,125,,125,180,-190,190,,190,510,SBD,1
Gabriel Cortes,,M,Wraps,Op,73.4,75,,225,-230,,,225,-110,110,,,110,-260,-260,-260,,-260,,SBD,DQ
Leandro Ezequiel Albornoz,,M,Wraps,Op,79.6,82.5,,-285,285,-290,,285,-152.5,152.5,157.5,,157.5,-255,-265,265,,265,707.5,SBD,1
Valentin Falduti,,M,Wraps,Op,79.4,82.5,,227.5,242.5,250,,250,140,150,155,,155,205,220,227.5,,227.5,632.5,SBD,1
Ivan Gonzalez,,M,Wraps,Op,80.8,82.5,,-200,200,210,,210,105,110,-115,,110,220,230,240,,240,560,SBD,1
Ángel Héctor Capparelli Almada,,M,Wraps,Op,79.7,82.5,,200,-215,-215,,200,105,-110,110,,110,200,220,230,,230,540,SBD,1
Nehuen Sandoval,,M,Wraps,Op,77.7,82.5,,200,220,-240,,220,-110,117.5,-127.5,,117.5,180,200,-215,,200,537.5,SBD,1
Federico Pettinato,,M,Wraps,Op,82.4,82.5,,185,200,-210,,200,95,-102.5,-105,,95,215,227.5,-237.5,,227.5,522.5,SBD,1
Lucas Matias Albornoz,,M,Wraps,Op,79.7,82.5,,-175,175,-200,,175,100,105,112.5,,112.5,190,-205,205,,205,492.5,SBD,1
Facundo Nahuel Bruno,,M,Wraps,Op,89.9,90,,290.5,-310,310,320,310,140,150,155,,155,260,285,295,,295,760,SBD,1
Jonatan Chiappa,,M,Wraps,Op,88.7,90,,252.5,265,272.5,,272.5,167.5,175.5,-180,,175.5,280,-297.5,305,,305,753,SBD,1
Pablo Baggio,,M,Wraps,Op,89.5,90,,250,265,275,,275,160,167.5,175,,175,255,-260,,,255,705,SBD,1
German Alberto López,,M,Wraps,Op,89.7,90,,-250,260,275,,275,140,150,-157.5,,150,250,265,-270,,265,690,SBD,1
Martín Zerar,,M,Wraps,Op,88.4,90,,230,245,260,,260,120,130,132.5,,132.5,255,272.5,-280,,272.5,665,SBD,1
Federico Galassi,,M,Wraps,Op,88.7,90,,225,235,240,,240,120,-125,-125,,120,265,280,-290,,280,640,SBD,1
Juan Orsingher,,M,Wraps,Op,89.1,90,,200,215,225,,225,137.5,142.5,,,142.5,-270,270,-290,,270,637.5,SBD,1
Lucas Reynoso,,M,Wraps,Op,89.5,90,,215,230,240,,240,125,135,140,,140,225,240,-250,,240,620,SBD,1
Lucas Ortiz Nardinelli,,M,Wraps,Op,88.4,90,,-215,215,-227.5,,215,-140,-145,145,,145,220,237.5,240,,240,600,SBD,1
Mathias Rago,,M,Wraps,Op,87.2,90,,-210,210,225,,225,105,110,-120,,110,215,222.5,230,,230,565,SBD,1
Gabriel Brizuela,,M,Wraps,Op,87.1,90,,-190,190,210,,210,105,112.5,117.5,,117.5,210,235,-260,,235,562.5,SBD,1
Ayrton Aguilar,,M,Wraps,Op,88.7,90,,150,-155,155,,155,95,100,-105,,100,180,190,-200,,190,445,SBD,1
Brian Rabko,,M,Wraps,Op,91.2,100,,265,280,-292.5,,280,180,192.5,200,203,200,265,285,-292.5,,285,765,SBD,1
Cristian Artero,,M,Wraps,Op,98.1,100,,255,270,-280,,270,135,145,150,,150,280,292.5,295,,295,715,SBD,1
Daniel Enrique Garcia,,M,Wraps,Op,99.9,100,,255,-270,270,,270,150,160,162.5,,162.5,270,-280,282.5,,282.5,715,SBD,1
Ariel Sebastian D'Aloi,,M,Wraps,Op,98.1,100,,200,230,245,,245,125,135,145,,145,240,270,290,,290,680,SBD,1
Jeremías Olmedo,,M,Wraps,Op,95.9,100,,247.5,255,-260,,255,140,-147.5,147.5,,147.5,255,-260,260,,260,662.5,SBD,1
Lucas Ariel Gonzalez,,M,Wraps,Op,94.4,100,,235,245,260,,260,130,135,140,,140,235,-242.5,-242.5,,235,635,SBD,1
Gonzalo Taraborrelli,,M,Wraps,Op,92.5,100,,240,247.5,-255,,247.5,120,-125,-125,,120,250,257.5,,,257.5,625,SBD,1
Pablo Terlecki,,M,Wraps,Op,98.3,100,,-215,215,-222.5,,215,110,117.5,122.5,,122.5,225,237.5,250,,250,587.5,SBD,1
Ezequiel del Rio,,M,Wraps,Op,93.5,100,,190,200,215,,215,125,132.5,140,,140,210,-230,-230,,210,565,SBD,1
Leandro Gabriel Báez,,M,Wraps,Op,97.6,100,,-320,-320,-320,,-320,180,-187.5,-187.5,,180,260,-265,-265,,260,,SBD,DQ
Alexis Dalessandro,,M,Wraps,Op,109.2,110,,285,295,-300,,295,167.5,172.5,-175,,172.5,310,-320,320,,320,787.5,SBD,1
Alan Michel Beltrán,,M,Wraps,Op,107.1,110,,220,232.5,-240,,232.5,142.5,-147.5,-147.5,,142.5,235,250,-260,,250,625,SBD,1
Gustavo Gonzalez,,M,Wraps,Op,101.4,110,,220,230,240,,240,122.5,130,-135,,130,220,230,240,,240,610,SBD,1
Gustavo Aguirre,,M,Wraps,Op,109.3,110,,195,200,210,,210,115,120,-125,,120,-240,240,260,,260,590,SBD,1
Federico Rodriguez,,M,Wraps,Op,104.4,110,,200,210,-215,,210,95,-100,-100,,95,205,-212.5,-212.5,,205,510,SBD,1
Andrés Hugo,,M,Wraps,Op,112.4,125,,320.5,332.5,342.5,,342.5,160,170,-180,,170,280,-300,305,,305,817.5,SBD,1
Emmanuel Jesus Alvarez,,M,Wraps,Op,113.3,125,,-190,-195,210,,210,110,115,120,,120,190,210,-225,,210,540,SBD,1
Maximiliano Poblete,,M,Wraps,Op,131.1,140,,300,-317.5,-317.5,,300,160,170,175,,175,280,292.5,300,,300,775,SBD,1
Lucas Bentos,,M,Wraps,Op,139.1,140,,270,290,-300.5,,290,180,183,-187.5,,183,-295,295,-310,,295,768,SBD,1
Emanuel Mansilla,,M,Wraps,Op,132.4,140,,,280,300,311,300,150,160,165,,165,-250,250,-265,,250,715,SBD,1
Ezequiel Navarro,,M,Wraps,Op,154.1,140+,,260,280,-300,,280,145,-152.5,-152.5,,145,-240,240,-255,,240,665,SBD,1
Roberto Ivan Poblete Romera,,M,Wraps,M1,67.2,67.5,,127.5,135,142.5,,142.5,67.5,75,-80,,75,160,-170,-172.5,,160,377.5,SBD,1
Carlos Alberto Baez,,M,Wraps,M5,72.8,75,,-120,120,-140,,120,100,-105,-107.5,,100,130,146,-160,,146,366,SBD,1
Ángel Daniel Fernandez,,M,Wraps,M2,80.1,82.5,,-155,155,-165,,155,85,90,-97.5,,90,160,180,190,,190,435,SBD,1
Luis Antonio Bagnoli,,M,Wraps,M3,81.3,82.5,,170,-172.5,185,,185,85,95,-102.5,,95,155,165,-172.5,,165,445,SBD,1
José Luis Martinez,,M,Wraps,M1,87.8,90,,245,255,265,,265,155,165,-170,,165,240,250,260,,260,690,SBD,1
Marcos Toconas,,M,Wraps,M1,87.4,90,,225,240,255,,255,130,-145,145,,145,225,240,250,,250,650,SBD,1
Alejandro José Luis Osorio,,M,Wraps,M1,89.7,90,,210,225,235,,235,150,160,166,170,166,220,230,240,,240,641,SBD,1
Nicolás Enrique Echazarreta Scafidi,,M,Wraps,M1,88.3,90,,220,227.5,235,,235,125,130,135,,135,235,242.5,250,260.5,250,620,SBD,1
Hernan Concilio,,M,Wraps,M1,88.8,90,,220,-225,230,,230,125,130,-135,,130,-225,230,-240,,230,590,SBD,1
Fernando Daniel Alcantara,,M,Wraps,M2,86.7,90,,220,235,240,,240,165,-175,-175,,165,225,240,-250,,240,645,SBD,1
Chien-Hwa Chen,,M,Wraps,M2,89.4,90,,180,190,205,,205,125,130,135,,135,190,200,-225,,200,540,SBD,1
Walter Rivas,,M,Wraps,M2,88,90,,-170,-170,-170,,-170,100,-110,-110,,100,-100,,,,-100,,SBD,DQ
Andrés Hugo,,M,Wraps,M1,112.4,125,,320.5,332.5,342.5,,342.5,160,170,-180,,170,280,-300,305,,305,817.5,SBD,1
Emmanuel Jesus Alvarez,,M,Wraps,M1,113.3,125,,-190,-195,210,,210,110,115,120,,120,190,210,-225,,210,540,SBD,1
Lucas Bentos,,M,Wraps,M1,139.1,140,,270,290,-300.5,,290,180,183,-187.5,,183,-295,295,-310,,295,768,SBD,1
Christian Martinez,,M,Wraps,M3,145.6,140+,,240,260,-285,,260,160,170,180,,180,270,290,-310,,290,730,SBD,1
Nahiara Jazmín Arden,,F,Raw,T15-19,73.4,75,,,,,,,75,-80,80,,80,,,,,,80,B,1
Ana Cuello Heinz,,F,Raw,Op,59.2,60,,,,,,,50,55,-60,,55,,,,,,55,B,1
Paula Ximena Garcia,,F,Raw,Op,66.8,67.5,,,,,,,70,75,-80,,75,,,,,,75,B,1
Florencia Picchi,,F,Raw,Op,66.5,67.5,,,,,,,67.5,-72.5,-72.5,,67.5,,,,,,67.5,B,1
Paula Vanesa Mardones Jiminez,,F,Raw,M2,70.7,75,,,,,,,85,90,92.5,93,92.5,,,,,,92.5,B,1
Ramiro Arimay,,M,Raw,T15-19,74.9,75,,,,,,,140,150,-155,,150,,,,,,150,B,1
Joaquín Pantoja,,M,Raw,Jun,78.3,82.5,,,,,,,-130,130,-135,,130,,,,,,130,B,1
Pablo Spagnuolo,,M,Raw,Op,74.5,75,,,,,,,142.5,152.5,-157.5,,152.5,,,,,,152.5,B,1
Joaquin Urpi,,M,Raw,Op,73,75,,,,,,,145,150,-155,,150,,,,,,150,B,1
Ricardo Jaramillo,,M,Raw,Op,80.1,82.5,,,,,,,155,-165,-167.5,,155,,,,,,155,B,1
Mario Emanuel García,,M,Raw,Op,81.7,82.5,,,,,,,-145,145,-157.5,,145,,,,,,145,B,1
Maxi Kittler,,M,Raw,Op,88.7,90,,,,,,,160,185.5,190,195.5,190,,,,,,190,B,1
Franco Perez,,M,Raw,Op,92.6,100,,,,,,,145,155,160,,160,,,,,,160,B,1
Pablo Morón,,M,Raw,M3,72,75,,,,,,,105,110,112.5,,112.5,,,,,,112.5,B,1
Nestor Gonzalez,,M,Raw,M3,82.1,82.5,,,,,,,105,117.5,-122.5,,117.5,,,,,,117.5,B,1
Alejandro José Luis Osorio,,M,Raw,M1,89.7,90,,,,,,,150,160,166,170,166,,,,,,166,B,1
Rodrigo Sanchez,,M,Raw,M3,89.6,90,,,,,,,150,-160,160,,160,,,,,,160,B,1
Jose Rioja,,M,Raw,M1,96,100,,,,,,,100,110,115,,115,,,,,,115,B,1
Sebastian Maldonado,,M,Raw,M2,108.1,110,,,,,,,170,180,-185,,180,,,,,,180,B,1
Juan Manuel Martel,,M,Raw,M4,122.1,125,,,,,,,-100,102.5,-115,,102.5,,,,,,102.5,B,1
Ignacio Paz,,M,Raw,M2,98.5,100,,,,,,,180,-190,190,,190,,,,,,190,B,1
Ana Cuello Heinz,,F,Raw,Op,59.2,60,,,,,,,50,55,-60,,55,,,,,,55,B,1
Maria Ramos,,F,Raw,Op,47.9,48,,,,,,,,,,,,170,180,190,,190,190,D,1
Sonia Sarapura,,F,Raw,Op,54.7,56,,,,,,,,,,,,145,155,-165,,155,155,D,1
Solana Chasampi,,F,Raw,Op,58.2,60,,,,,,,,,,,,195,207.5,-212.5,,207.5,207.5,D,1
Ana Cuello Heinz,,F,Raw,Op,59.2,60,,,,,,,,,,,,90,100,-110,,100,100,D,1
Mayra Daniela Álvarez,,F,Raw,Op,64.7,67.5,,,,,,,,,,,,150,165,-170,,165,165,D,1
Leticia Bertotto,,F,Raw,Op,93.1,100,,,,,,,,,,,,220,232.5,242.5,,242.5,242.5,D,1
Maria Eugenia Cisterna,,F,Raw,Op,104.9,110,,,,,,,,,,,,200,-215,-215,,200,200,D,1
Sonia Sarapura,,F,Raw,M2,54.7,56,,,,,,,,,,,,145,155,-165,,155,155,D,1
Leticia Bertotto,,F,Raw,M3,93.1,100,,,,,,,,,,,,220,232.5,242.5,,242.5,242.5,D,1
Maria Eugenia Cisterna,,F,Raw,M2,104.9,110,,,,,,,,,,,,200,-215,-215,,200,200,D,1
Agustin Figueroa,,M,Raw,Jun,59,60,,,,,,,,,,,,170,177.5,182.5,,182.5,182.5,D,1
Franco Argañaras,,M,Raw,Jun,74.1,75,,,,,,,,,,,,-260,275,282.5,,282.5,282.5,D,1
Thiago Delfino,,M,Raw,Jun,85.9,90,,,,,,,,,,,,255,270,282.5,,282.5,282.5,D,1
Matías Santa Ana,,M,Raw,Op,58.6,60,,,,,,,,,,,,200,205,210,,210,210,D,1
Franco Argañaras,,M,Raw,Op,74.1,75,,,,,,,,,,,,-260,275,282.5,,282.5,282.5,D,1
Fernando Torres,,M,Raw,Op,73.1,75,,,,,,,,,,,,195,-210,-215,,195,195,D,1
Facundo Tevez,,M,Raw,Op,87.2,90,,,,,,,,,,,,317.5,-330,,,317.5,317.5,D,1
Franco Perez,,M,Raw,Op,92.6,100,,,,,,,,,,,,260,-270,-275.5,,260,260,D,1
Leandro Pardo,,M,Raw,Op,101.6,110,,,,,,,,,,,,230,242.5,-252.5,,242.5,242.5,D,1
Nicolas Alejandro Quilodran,,M,Raw,M3,87.6,90,,,,,,,,,,,,225,240,-245,,240,240,D,1
Victor Narvaez,,M,Raw,M1,97.4,100,,,,,,,,,,,,200,210,-220,,210,210,D,1
Jose Rioja,,M,Raw,M1,96,100,,,,,,,,,,,,160,170,175,,175,175,D,1
Emilio Mansilla,,M,Raw,M1,109.7,110,,,,,,,,,,,,275,290,300,,300,300,D,1
Nestor Frank Ramirez,,M,Raw,M3,100.6,110,,,,,,,,,,,,220,230,240,,240,240,D,1
Juan Manuel Martel,,M,Raw,M4,122.1,125,,,,,,,,,,,,150,170,-195,,170,170,D,1
Alejandro Roberto Lamperti,,M,Raw,M3,87.7,90,,,,,,,,,,,,220,230,235,240.5,235,235,D,1
