Division,WeightClassKg,Place,Name,Team,BodyweightKg,Best3SquatKg,Best3BenchKg,Best3DeadliftKg,TotalKg,Equipment,Event,Sex
Girls,44.23,1,Stefani Bermudez,Denison,43.82,83.91,49.9,97.52,231.33,Single-ply,SBD,F
Girls,44.23,2,Alexa Morones,Wills Point,43.82,88.45,36.29,90.72,215.46,Single-ply,SBD,F
Girls,44.23,3,Crystal Padron,Quinlan Ford,43.27,92.99,38.56,72.57,204.12,Single-ply,SBD,F
Girls,44.23,4,Yese Stricklin,Leonard,40.64,74.84,45.36,81.65,201.85,Single-ply,SBD,F
Girls,44.23,5,Madison Vaughn,Leonard,43.64,79.38,38.56,83.91,201.85,Single-ply,SBD,F
Girls,44.23,6,Mara Leonard,Paris North Lamar,40.73,72.57,40.82,77.11,190.51,Single-ply,SBD,F
Girls,44.23,7,Sydney Martinez,Commerce,43.54,74.84,31.75,79.38,185.97,Single-ply,SBD,F
Girls,44.23,8,Allison Strain,Leonard,42.46,68.04,34.02,81.65,183.7,Single-ply,SBD,F
Girls,44.23,9,Brittin Morales,Cooper,42.37,47.63,34.02,65.77,147.42,Single-ply,SBD,F
Girls,44.23,10,Shelby Stickley,Wolfe City,39.1,45.36,22.68,54.43,122.47,Single-ply,SBD,F
Girls,44.23,DQ,Katie Miller #3,Caddo Mills,44.18,74.84,24.95,,,Single-ply,SBD,F
Girls,47.85,1,Rylee Jo Krotky,Cumby,45.81,106.59,54.43,97.52,258.55,Single-ply,SBD,F
Girls,47.85,2,Elizabeth Preston,Pattonville Prairiland,46.81,97.52,52.16,104.33,254.01,Single-ply,SBD,F
Girls,47.85,3,Skyler McJohnston,Cumby,46.63,88.45,38.56,108.86,235.87,Single-ply,SBD,F
Girls,47.85,4,Ashley Colucci,Denison,45.27,90.72,43.09,97.52,231.33,Single-ply,SBD,F
Girls,47.85,5,Kimberlie Lumsden,Wills Point,47.17,90.72,34.02,102.06,226.8,Single-ply,SBD,F
Girls,47.85,6,Candice Dyer,Lindale,46.54,92.99,38.56,86.18,217.72,Single-ply,SBD,F
Girls,47.85,7,Jaden Buchanan #1,Commerce,47.63,83.91,36.29,83.91,204.12,Single-ply,SBD,F
Girls,51.94,1,Korina Wallace,Leonard,51.62,102.06,63.5,115.67,281.23,Single-ply,SBD,F
Girls,51.94,2,Asia Medlin,Denison,50.08,97.52,68.04,102.06,267.62,Single-ply,SBD,F
Girls,51.94,3,Jacky Duran,Farmersville,51.17,115.67,54.43,95.25,265.35,Single-ply,SBD,F
Girls,51.94,4,Brooklyn Marcee,Quitman,51.44,97.52,49.9,104.33,251.74,Single-ply,SBD,F
Girls,51.94,5,Kaylee King,Wills Point,51.17,86.18,45.36,108.86,240.4,Single-ply,SBD,F
Girls,51.94,6,Megan Jameson,Pattonville Prairiland,49.26,88.45,52.16,97.52,238.14,Single-ply,SBD,F
Girls,51.94,7,Elena Garza,Leonard,51.62,88.45,49.9,92.99,231.33,Single-ply,SBD,F
Girls,51.94,8,Ivie Allmon,Paris North Lamar,51.8,81.65,54.43,90.72,226.8,Single-ply,SBD,F
Girls,51.94,9,Allie Charles,Honey Grove,49.71,83.91,29.48,102.06,215.46,Single-ply,SBD,F
Girls,51.94,10,Talia Pettis,Denison,48.44,79.38,38.56,79.38,197.31,Single-ply,SBD,F
Girls,51.94,11,Abigail Colvert,Wolfe City,50.53,74.84,34.02,70.31,179.17,Single-ply,SBD,F
Girls,56.02,1,Desiree Fendley,Paris North Lamar,54.98,122.47,61.23,127.01,310.71,Single-ply,SBD,F
Girls,56.02,2,Kamry Oliver,Paris North Lamar,55.79,127.01,61.23,122.47,310.71,Single-ply,SBD,F
Girls,56.02,3,Jessica Vargas,Farmersville,55.43,115.67,58.97,115.67,290.3,Single-ply,SBD,F
Girls,56.02,4,Emaly Sneed,Pattonville Prairiland,55.43,106.59,58.97,117.93,283.5,Single-ply,SBD,F
Girls,56.02,5,Sofia Munoz,Quinlan Boles,55.16,117.93,45.36,115.67,278.96,Single-ply,SBD,F
Girls,56.02,6,Zoie Hurst,Paris North Lamar,54.79,113.4,56.7,104.33,274.42,Single-ply,SBD,F
Girls,56.02,7,Kaley Hudson,Paris North Lamar,53.71,90.72,52.16,115.67,258.55,Single-ply,SBD,F
Girls,56.02,8,Brittany Chavez,Lindale,52.71,99.79,40.82,113.4,254.01,Single-ply,SBD,F
Girls,56.02,9,Addyson Lamb,Sulphur Springs,55.07,95.25,43.09,113.4,251.74,Single-ply,SBD,F
Girls,56.02,10,Kaitlyn Rymer,Commerce,54.48,108.86,45.36,92.99,247.21,Single-ply,SBD,F
Girls,56.02,11,Charli Butler,Cumby,55.34,102.06,52.16,83.91,238.14,Single-ply,SBD,F
Girls,56.02,12,Madison Kirby,Commerce,55.79,81.65,34.02,83.91,199.58,Single-ply,SBD,F
Girls,56.02,13,Tomi Anderson,Farmersville,52.62,74.84,38.56,74.84,188.24,Single-ply,SBD,F
Girls,56.02,14,Jenna Buchannan,Commerce,55.34,72.57,31.75,83.91,188.24,Single-ply,SBD,F
Girls,60.1,1,Brooklyn Matthews,Commerce,58.29,127.01,54.43,131.54,312.98,Single-ply,SBD,F
Girls,60.1,2,Kelbi Dykes,Leonard,58.97,104.33,63.5,138.35,306.17,Single-ply,SBD,F
Girls,60.1,3,Nakita Harris,Leonard,59.87,111.13,61.23,124.74,297.1,Single-ply,SBD,F
Girls,60.1,4,Carly Talley,Cumby,59.51,108.86,61.23,113.4,283.5,Single-ply,SBD,F
Girls,60.1,5,Constance Smith,Cumby,59.51,117.93,52.16,106.59,276.69,Single-ply,SBD,F
Girls,60.1,6,Alexis Morgan,Commerce,58.06,111.13,49.9,111.13,272.16,Single-ply,SBD,F
Girls,60.1,7,Mya Wilson,Commerce,56.7,102.06,45.36,120.2,267.62,Single-ply,SBD,F
Girls,60.1,8,Trichelle Meador,Quinlan Ford,59.78,106.59,52.16,106.59,265.35,Single-ply,SBD,F
Girls,60.1,9,Chelynn Palmer,Lindale,58.24,106.59,40.82,106.59,254.01,Single-ply,SBD,F
Girls,60.1,10,Melissa Martinez,Quinlan Ford,57.42,104.33,45.36,102.06,251.74,Single-ply,SBD,F
Girls,60.1,11,Addison Cunningham,Denison,58.33,97.52,52.16,95.25,244.94,Single-ply,SBD,F
Girls,60.1,12,Emily Ratliff,Farmersville,58.24,83.91,49.9,90.72,224.53,Single-ply,SBD,F
Girls,60.1,13,Julia Simpkins,Quitman,59.33,72.57,45.36,90.72,208.65,Single-ply,SBD,F
Girls,60.1,14,Melia Carrera,Quinlan Ford,58.24,74.84,38.56,74.84,188.24,Single-ply,SBD,F
Girls,60.1,15,Madysen Addington,Farmersville,57.7,58.97,43.09,68.04,170.1,Single-ply,SBD,F
Girls,60.1,DQ,Raven Smith,Denison,58.29,,,,,Single-ply,SBD,F
Girls,67.36,1,Lexi Yandell,Denison,67.31,122.47,81.65,122.47,326.59,Single-ply,SBD,F
Girls,67.36,2,Ta'kiya Riddick,Denison,65.86,117.93,70.31,127.01,315.25,Single-ply,SBD,F
Girls,67.36,3,Arleen Depich,Commerce,67.13,142.88,47.63,124.74,315.25,Single-ply,SBD,F
Girls,67.36,4,Bailey Hughes #1,Quitman,64.14,124.74,54.43,122.47,301.64,Single-ply,SBD,F
Girls,67.36,5,Lexi Smith,Paris North Lamar,65.23,115.67,61.23,120.2,297.1,Single-ply,SBD,F
Girls,67.36,6,Hannah Titlow,Paris North Lamar,66.77,115.67,58.97,122.47,297.1,Single-ply,SBD,F
Girls,67.36,7,Brenley Sadler,Leonard,65.41,111.13,52.16,129.27,292.57,Single-ply,SBD,F
Girls,67.36,8,Skylar Akins,Denison,64.77,124.74,58.97,97.52,281.23,Single-ply,SBD,F
Girls,67.36,9,Lauren Hicks,Quinlan Boles,60.96,113.4,49.9,115.67,278.96,Single-ply,SBD,F
Girls,67.36,10,Emily Jones,Mineola,65.5,106.59,52.16,115.67,274.42,Single-ply,SBD,F
Girls,67.36,11,Jasmine Mitchell,Lindale,65.86,122.47,47.63,102.06,272.16,Single-ply,SBD,F
Girls,67.36,12,Kimberly Kane,Farmersville,64.32,113.4,47.63,104.33,265.35,Single-ply,SBD,F
Girls,67.36,13,Savannah Breding,Quitman,66.77,108.86,45.36,108.86,263.08,Single-ply,SBD,F
Girls,67.36,14,Ashtin Stutsman,Paris North Lamar,66.04,86.18,68.04,90.72,244.94,Single-ply,SBD,F
Girls,67.36,15,Riley Kindle,Lindale,63.32,108.86,45.36,88.45,242.67,Single-ply,SBD,F
Girls,67.36,16,Bailee DeWolfe,Lindale,64.23,102.06,43.09,95.25,240.4,Single-ply,SBD,F
Girls,67.36,17,Cheyenne Willis,Wills Point,62.69,90.72,43.09,97.52,231.33,Single-ply,SBD,F
Girls,67.36,18,Jennifer Esch,Pattonville Prairiland,60.78,88.45,49.9,90.72,229.06,Single-ply,SBD,F
Girls,67.36,19,Kendall Anderson,Wolfe City,66.68,97.52,52.16,77.11,226.8,Single-ply,SBD,F
Girls,67.36,20,Maura O'Dea,Honey Grove,62.6,92.99,34.02,92.99,219.99,Single-ply,SBD,F
Girls,67.36,21,Karen Uribe,Honey Grove,61.96,86.18,27.22,90.72,204.12,Single-ply,SBD,F
Girls,67.36,22,Jakayla Miller,Pittsburg,65.77,68.04,36.29,90.72,195.04,Single-ply,SBD,F
Girls,67.36,DQ,Kimber Scott,Paris North Lamar,66.13,113.4,,,,Single-ply,SBD,F
Girls,67.36,DQ,Za'Tayvia Hayes,Honey Grove,65.5,97.52,52.16,,,Single-ply,SBD,F
Girls,67.36,DQ,Linsey Dolan,Denison,65.68,,,,,Single-ply,SBD,F
Girls,75.07,1,Savannah Petty,Lindale,70.94,154.22,56.7,147.42,358.34,Single-ply,SBD,F
Girls,75.07,2,Amy Nava,Caddo Mills,71.67,154.22,63.5,140.61,358.34,Single-ply,SBD,F
Girls,75.07,3,Ashleigh Butler,Leonard,70.94,131.54,81.65,136.08,349.27,Single-ply,SBD,F
Girls,75.07,4,Lacie Brown,Mineola,74.57,133.81,56.7,133.81,324.32,Single-ply,SBD,F
Girls,75.07,5,Gatha Davis,Quitman,73.39,122.47,56.7,133.81,312.98,Single-ply,SBD,F
Girls,75.07,6,Sable Erdmier,Sulphur Springs,75.02,113.4,45.36,147.42,306.17,Single-ply,SBD,F
Girls,75.07,7,Dua Aziz,Denison,75.02,106.59,49.9,111.13,267.62,Single-ply,SBD,F
Girls,75.07,8,Audrey Turk,Paris North Lamar,71.58,104.33,54.43,106.59,265.35,Single-ply,SBD,F
Girls,75.07,9,Emilee DeWolfe,Lindale,72.12,106.59,43.09,104.33,254.01,Single-ply,SBD,F
Girls,75.07,10,Aleigh Farnham,Quitman,70.03,88.45,45.36,104.33,238.14,Single-ply,SBD,F
Girls,75.07,11,Ayssa Creed,Quitman,72.48,97.52,40.82,92.99,231.33,Single-ply,SBD,F
Girls,75.07,12,Emily Hernadez,Sulphur Springs,69.76,90.72,38.56,95.25,224.53,Single-ply,SBD,F
Girls,75.07,13,Alexandra Armour,Pittsburg,71.49,58.97,45.36,77.11,181.44,Single-ply,SBD,F
Girls,82.33,1,Hannah Lindsey,Caddo Mills,81.74,158.76,70.31,145.15,374.21,Single-ply,SBD,F
Girls,82.33,2,Katherine Palstring,Wolfe City,78.11,136.08,70.31,122.47,328.85,Single-ply,SBD,F
Girls,82.33,3,Brianna Paredes #1,Lindale,79.2,136.08,54.43,138.35,328.85,Single-ply,SBD,F
Girls,82.33,4,Elajah Fugitt,Commerce,77.11,138.35,45.36,124.74,308.44,Single-ply,SBD,F
Girls,82.33,5,Alyssa Fugitt,Commerce,77.56,124.74,47.63,127.01,299.37,Single-ply,SBD,F
Girls,82.33,6,Yuritza Hernandez,Quinlan Ford,75.57,113.4,58.97,124.74,297.1,Single-ply,SBD,F
Girls,82.33,7,Jaci Coley,Quitman,79.47,115.67,54.43,117.93,288.03,Single-ply,SBD,F
Girls,82.33,8,Cherish Ashcraft,Pittsburg,76.84,81.65,43.09,111.13,235.87,Single-ply,SBD,F
Girls,82.33,DQ,Keagan Maroney,Cooper,76.93,104.33,,,,Single-ply,SBD,F
Girls,90.04,1,Maddison Yruegas,Caddo Mills,89.9,142.88,68.04,136.08,347,Single-ply,SBD,F
Girls,90.04,2,Brandy Rangel,Wills Point,86.64,108.86,61.23,115.67,285.76,Single-ply,SBD,F
Girls,90.04,3,Natalie Sandoval,Farmersville,87,108.86,56.7,120.2,285.76,Single-ply,SBD,F
Girls,90.04,4,Harley McLarry,Cumby,87,120.2,49.9,102.06,272.16,Single-ply,SBD,F
Girls,100.02,1,Aaliyah Mathis,Denison,98.43,172.37,92.99,172.37,437.72,Single-ply,SBD,F
Girls,100.02,2,Carla Ledezma,Denison,97.07,181.44,92.99,151.95,426.38,Single-ply,SBD,F
Girls,100.02,3,Emma Doyal,Paris North Lamar,97.79,183.7,88.45,136.08,408.23,Single-ply,SBD,F
Girls,100.02,4,Jacie Doyle,Leonard,95.89,163.29,88.45,151.95,403.7,Single-ply,SBD,F
Girls,100.02,5,Shelby Compton,Quitman,97.07,142.88,70.31,145.15,358.34,Single-ply,SBD,F
Girls,100.02,6,Angela Hernández,Quinlan Ford,94.17,142.88,61.23,120.2,324.32,Single-ply,SBD,F
Girls,100.02,7,Zaniya Mumphrey,Lindale,93.44,131.54,54.43,120.2,306.17,Single-ply,SBD,F
Girls,100.02,DQ,Audrey Gooding,Pattonville Prairiland,91.44,63.5,,,,Single-ply,SBD,F
Girls,100.02,DQ,Celina Cervantes,Paris North Lamar,91.08,142.88,,,,Single-ply,SBD,F
Girls,117.71,1,Avery Crossland,Leonard,110.59,170.1,86.18,151.95,408.23,Single-ply,SBD,F
Girls,117.71,2,Kirstin Millard,Lindale,106.78,145.15,58.97,131.54,335.66,Single-ply,SBD,F
Girls,117.71,3,Kylie Fisher,Cooper,106.14,83.91,54.43,106.59,244.94,Single-ply,SBD,F
Girls,117.71+,1,Kayle Chapman,Leonard,118.57,172.37,99.79,147.42,419.57,Single-ply,SBD,F
Girls,117.71+,2,Gracie Smith,Farmersville,121.11,108.86,63.5,129.27,301.64,Single-ply,SBD,F
Girls,117.71+,3,Latasha Frazier,Pittsburg,124.01,74.84,56.7,104.33,235.87,Single-ply,SBD,F
Girls,117.71+,4,Samantha Cepeda,Pittsburg,132.72,65.77,47.63,90.72,204.12,Single-ply,SBD,F
Girls,117.71+,DQ,Soleil Landreth,Honey Grove,126.37,111.13,,,,Single-ply,SBD,F
